Unnamed: 0,drama_type,speaker,sex,job,job_category,social_class,text,progress,short_name,numTokens,numLexTokens,avgLexVal,lexRatio
3,comedy,Mey-Katt,F,,,,"
          
Mey-Katt:

          
Ja; loß dich nit v'rwitsche. — Ha- hahahahaha!

        
",1,riff-dr-hasestrickler,14,1,2.089389947278822,0.07142857142857142
4,comedy,Schakob Schlicher,M,city_councillor,government_executive_officials,lower_middle_class,"
          
Schakob:

          
Zem Dejhanker noch emol ning, laach doch nit eso stiermaaßi

        
",1,riff-dr-hasestrickler,13,2,1.907591301421416,0.15384615384615385
5,comedy,Mey-Katt,F,,,,"
          
Mey-Katt :

          
(spöttisch)

          
Dü hesch e-n Angscht!

        
",1,riff-dr-hasestrickler,10,1,0.0,0.1
6,comedy,Schakob Schlicher,M,city_councillor,government_executive_officials,lower_middle_class,"
          
Schakob:

          
War het e-n Angscht?!

        
",2,riff-dr-hasestrickler,8,1,0.0,0.125
8,comedy,Schakob Schlicher,M,city_councillor,government_executive_officials,lower_middle_class,"
          
Schakob:

          
Wenn Alles erüskaamt — — — dies gabt m‘r e scheeni Gschieht — — — e häilichee — m‘r kamte uf Anze! — 
(schreit)
 Alli mitnöönd kamte m‘r uf Anze!

        
",2,riff-dr-hasestrickler,36,3,3.3465125547507366,0.08333333333333333
9,comedy,Mey-Katt,F,,,,"
          
Mey-Katt:

          
Zem Dejhanker noch emol, briell doch nit eso stiermaaßi.

        
",3,riff-dr-hasestrickler,13,2,1.907591301421416,0.15384615384615385
10,comedy,Schakob Schlicher,M,city_councillor,government_executive_officials,lower_middle_class,"
          
Schakob:

          
Aha, war het jetzt Angscht?

        
",3,riff-dr-hasestrickler,9,1,0.0,0.1111111111111111
11,comedy,Mey-Katt,F,,,,"
          
Mey-Katt:

          
Ich uf kene Fall!

        
",3,riff-dr-hasestrickler,7,2,1.2549422080315262,0.2857142857142857
12,comedy,Schakob Schlicher,M,city_councillor,government_executive_officials,lower_middle_class,"
          
Schakob :

          
(spöttisch)

          
Nee, dü nit, aw‘r din schlaacht Gewisse!

          

        
",4,riff-dr-hasestrickler,15,2,1.1251975959012546,0.13333333333333333
13,comedy,Mey-Katt,F,,,,"
          
Mey-Katt :

          
(affektiert)

          
„Gewisse“! — Pah, ‘s „selaacht Gewisse!“ — Min Gewisse wurd eso pro- per sin wie Dins! V'rstange, däuwi Gäusch?!

        
",4,riff-dr-hasestrickler,36,3,6.751185575407528,0.08333333333333333
14,comedy,Schakob Schlicher,M,city_councillor,government_executive_officials,lower_middle_class,"
          
Schakob:

          
Maach din däub Mül jetz emol zü — un dert driewe d’Kiehedhüer! Miteß dann d‘r Läum im göönze Hüs erumziche?!

        
",4,riff-dr-hasestrickler,26,2,0.7120753532107651,0.07692307692307693
15,comedy,Mey-Katt,F,,,,"
          
Mey-Katt:

          
Loß‘s doch läume!

        
",5,riff-dr-hasestrickler,7,1,0.0,0.14285714285714285
16,comedy,Schakob Schlicher,M,city_councillor,government_executive_officials,lower_middle_class,"
          
Schakob:

          
Bis drüsse-n-uf d‘r Strooß riecht m'r ‘s, was in d'r Pfann broodelt. 
(schmettert die Tür rechts zu)
. Däuwer Käib!

        
",5,riff-dr-hasestrickler,29,2,3.2798004198950252,0.06896551724137931
17,comedy,Mey-Katt,F,,,,"
          
Mey-Katt :

          
(erbost)

          
Kannsch ken größerer La- wesdäuj meh mache, Gäuekelhirn, iewerzwarchs?!

        
",5,riff-dr-hasestrickler,19,1,0.0,0.05263157894736842
18,comedy,Chrischtoph Feldmann,M,rural_policeman,government_executive_officials,lower_middle_class,"
          
Christoph :

          
(übermäßig laut)

          
Exküseh!

        
",6,riff-dr-hasestrickler,8,1,3.985913509907423,0.125
21,comedy,Chrischtoph Feldmann,M,rural_policeman,government_executive_officials,lower_middle_class,"
          
Chrischtoph :

          
(lachend)

          
Na, kehje numme nit um vor Sehracke! — Was höön'r dann vorewe mit- nöönd ze büschbere g‘het?

        
",7,riff-dr-hasestrickler,26,2,0.0,0.07692307692307693
23,comedy,Chrischtoph Feldmann,M,rural_policeman,government_executive_officials,lower_middle_class,"
          
Chrischtoph :

          
(lachend)

          
Nee jo nit! Un d’Pianne warre äu nit khaab zügedeckt, dann de ööndere Waaj daat m'r ‘s nit bis drowe-n-im Owerdorf rieche, daß d‘r Schliehers-Juckel Hoosepfaffer —

        
",7,riff-dr-hasestrickler,38,1,0.0,0.02631578947368421
24,comedy,Schakob Schlicher,M,city_councillor,government_executive_officials,lower_middle_class,"
          
Schakob:

          
Bscht, witt stille sin!

        
",8,riff-dr-hasestrickler,8,1,0.0,0.125
28,comedy,Chrischtoph Feldmann,M,rural_policeman,government_executive_officials,lower_middle_class,"
          
Christoph:

          
Nee, nee, d‘r Chrischtoph iewertriebt nit, aw‘r ihr zwäi däuwi Käiwe triewe's e weng ze starik! — Wie kann m‘r aw‘r äu uf d'Noocht so ebs iewermaache?! — So ebs isch doch uffali, zem Dej- hanker nochemol! — ‘s kläinscht King i mDorf bab- belt jo devum, daß in‘s Selicher-Juckels meh Hoose- pfaffer .. ..

        
",9,riff-dr-hasestrickler,72,3,0.8366281386876842,0.041666666666666664
32,comedy,Chrischtoph Feldmann,M,rural_policeman,government_executive_officials,lower_middle_class,"
          
Chrischtoph:

          
Ja, dies häißt's! Un daß die Hoose, wie sich emol in ünsere Bann v‘rirre, alli biem Schlicher-Juckel üssem Pelz schlupfe daate. 
(Wirft den Sack auf den Tisch)
 Ja, ‘s iseh emol eso.

        
",10,riff-dr-hasestrickler,44,2,4.178779894557644,0.045454545454545456
33,comedy,Schakob Schlicher,M,city_councillor,government_executive_officials,lower_middle_class,"
          
Schakob:

          
(ängstlich)

          
Ja mäinsch, daß‘s schun sowyt beköönt war . ..?

        
",11,riff-dr-hasestrickler,17,2,3.5346596721146617,0.11764705882352941
34,comedy,Chrischtoph Feldmann,M,rural_policeman,government_executive_officials,lower_middle_class,"
          
Chrischtoph :

          
(lachend)

          
Was sell dann beköönt sin? — Nix isch beköönt, goor nix! — Aw'r vor- sichtiger selle-n-‘r sin, ihr zwäi däuwi Käiwe, vor- sichtiger! — ‘s war‘ mir doch wajer äu nit äinerläi, wann ... na, dü v‘rstehsch mich jo.

        
",11,riff-dr-hasestrickler,57,1,0.0,0.017543859649122806
37,comedy,Schakob Schlicher,M,city_councillor,government_executive_officials,lower_middle_class,"
          
Schakob :

          
(lachend)

          
Aha! — 
(schaut in den Sack)
 — Säu, wo.hesch dann denne . . . wo hesch dann dies... dies Kinjele . .. ,,g‘funge“?

        
",12,riff-dr-hasestrickler,38,1,0.0,0.02631578947368421
38,comedy,Chrischtoph Feldmann,M,rural_policeman,government_executive_officials,lower_middle_class,"
          
Chrischtoph :

          
(schaut sich vorsichtig um)

          
Im Burjermäisehter sim Rabstück!

        
",12,riff-dr-hasestrickler,13,1,2.2566357977784914,0.07692307692307693
39,comedy,Schakob Schlicher,M,city_councillor,government_executive_officials,lower_middle_class,"
          
Schakob :

          
(stößt überrascht einen pfeifenden Ton  au)

          
Was säisch dü mir?

        
",13,riff-dr-hasestrickler,15,1,0.0,0.06666666666666667
40,comedy,Chrischtoph Feldmann,M,rural_policeman,government_executive_officials,lower_middle_class,"
          
Chrischtoph:

          
Bscht ... stille . . . brüel doch nit eso, däuwer am Eck.

          

        
",13,riff-dr-hasestrickler,17,2,0.0,0.11764705882352941
41,comedy,Schakob Schlicher,M,city_councillor,government_executive_officials,lower_middle_class,"
          
Schakob :

          
(gemäBigter)

          
Un dü träuesch ‘ne eso frej do haare?

        
",13,riff-dr-hasestrickler,14,1,2.670574816442672,0.07142857142857142
42,comedy,Chrischtoph Feldmann,M,rural_policeman,government_executive_officials,lower_middle_class,"
          
Chrischtoph:

          
Frej? — Ar stackt jo im Sack.

        
",14,riff-dr-hasestrickler,11,1,2.670574816442672,0.09090909090909091
43,comedy,Schakob Schlicher,M,city_councillor,government_executive_officials,lower_middle_class,"
          
Schakob:

          
Ja un d‘Luzarn, wie in de Hange ge- träueje hesch?

        
",14,riff-dr-hasestrickler,16,2,1.044694973639411,0.125
47,comedy,Schakob Schlicher,M,city_councillor,government_executive_officials,lower_middle_class,"
          
Schakob:

          
War sott dann jetzt noch kumme, so spoot in d'r Noocht?

        
",15,riff-dr-hasestrickler,15,2,2.1585705837019105,0.13333333333333333
48,comedy,Chrischtoph Feldmann,M,rural_policeman,government_executive_officials,lower_middle_class,"
          
Chrischtoph:

          
M‘r kann nie nix säueje. Wäisch, zyter daß dies anonym Sehriewes uf ‘s Güwarlema gange-n-isch, daß in ünserem Bann in äiner Wuch meh Hoose gstrickelt daate ware, aß daß m‘r im Noochbersbann bie d'r Triebjagd zammeschieße könnt, zyterhaare mueß m'r sich uf alles gfaßt maache.

        
",16,riff-dr-hasestrickler,55,3,3.3465125547507366,0.05454545454545454
50,comedy,Chrischtoph Feldmann,M,rural_policeman,government_executive_officials,lower_middle_class,"
          
Chrischtoph:

          
Dar wurd schun noch ze finge sin! — Aw‘r dar het no nix ze Jaache! — Prozeßwarbal kriejt‘r gemaacht vun mir, waje ‘me jede Drackel druf un driewer, eene um de ööndere.

        
",16,riff-dr-hasestrickler,39,1,0.0,0.02564102564102564
51,comedy,Schakob Schlicher,M,city_councillor,government_executive_officials,lower_middle_class,"
          
Schakob:

          
Jaja, no numme harzhaft druf ge- bangelt fer deß daß‘r oonstandigi Lyt v'rdaachtige will!

        
",17,riff-dr-hasestrickler,19,1,0.0,0.05263157894736842
52,comedy,Chrischtoph Feldmann,M,rural_policeman,government_executive_officials,lower_middle_class,"
          
Chrischtoph:

          
Numme ken Angscht! — Ich hab nit umesunscht dene Knopf an dr Kapp! 
(Weist auf die Kokarde.)

        
",17,riff-dr-hasestrickler,24,2,0.0,0.08333333333333333
54,comedy,Schakob Schlicher,M,city_councillor,government_executive_officials,lower_middle_class,"
          
Schakob:

          
Mir isch‘s raacht.

        
",18,riff-dr-hasestrickler,7,1,0.0,0.14285714285714285
56,comedy,Schakob Schlicher,M,city_councillor,government_executive_officials,lower_middle_class,"
          
Schakob:

          
Hesch denn schun wied die Dhür offe stehn loon? 
(schmettert sie zu.)

        
",18,riff-dr-hasestrickler,18,2,1.4113531533445975,0.1111111111111111
60,comedy,Mey-Katt,F,,,,"
          
Mey-Katt :

          
(lachend)

          
Aha — e „Kinjele“, 
(Es klopft.)

        
",20,riff-dr-hasestrickler,17,1,0.0,0.058823529411764705
61,comedy,Schakob Schlicher,M,city_councillor,government_executive_officials,lower_middle_class,"
          
Schakob :

          
(erschrocken)

          
Nüs mit!

        
",20,riff-dr-hasestrickler,8,1,0.0,0.125
63,comedy,Schakob Schlicher,M,city_councillor,government_executive_officials,lower_middle_class,"
          
Schakob:

          
Räj dich! 
(Mey-Katt eilt hastig mit dem Sack rechts ab. Es klopft)

        
",21,riff-dr-hasestrickler,18,1,4.175500940321301,0.05555555555555555
66,comedy,Schakob Schlicher,M,city_councillor,government_executive_officials,lower_middle_class,"
          
Schakob:

          
Äij jo dann, äi jo dann. — Numme staat. 
(öffnet die Mitteltür)
 Na, war kummt dann noch so spoot? — Als ering war ering will!

        
",22,riff-dr-hasestrickler,35,1,2.259650693101935,0.02857142857142857
67,comedy,Daniel Schwing,M,policeman,government_executive_officials,lower_middle_class,"
          
Daniel:

          
Güete-n-Gwe.

        
",22,riff-dr-hasestrickler,6,1,3.0327542881026766,0.16666666666666666
68,comedy,Schakob Schlicher,M,city_councillor,government_executive_officials,lower_middle_class,"
          
Schakob:

          
Löij d'r Daniels! — So spoot noch? — Na die Fräid, die Fräid! — Do will ich doch hurti d'r Mey-Katt rüefe. — Namme doeh Platz, ihre Harre, setze-n-Uch. 
(eilt hastig rechts ab.)

          
        
		
",22,riff-dr-hasestrickler,48,5,4.967118746508196,0.10416666666666667
70,comedy,Daniel Schwing,M,policeman,government_executive_officials,lower_middle_class,"
          
Daniel :

          
(blinzelt mit den Augen)

          
Was maachseh dü do? Chris htoph: Bscht . . . stille . . . dienstlich.

        
",23,riff-dr-hasestrickler,26,1,0.0,0.038461538461538464
78,comedy,Daniel Schwing,M,policeman,government_executive_officials,lower_middle_class,"
          
Daniel :

          
(lauernd)

          
Ja?

        
",26,riff-dr-hasestrickler,7,1,2.089389947278822,0.14285714285714285
79,comedy,Chrischtoph Feldmann,M,rural_policeman,government_executive_officials,lower_middle_class,"
          
Chrischtoph:

          
Aw'r jo nit! — M'r bhäupt‘s zwar i mDorf, m‘r bhäupt's, ja.. . aw‘r gsahne hett‘ne noch niemeds d‘rbie. — Ich bin schun ze alle Zytte, bie Däuej un bie Noocht haare gange, hab alli Eck un Winkel üsspioniert, hab aw'r noch nie ebs finge könne, noch nie! — Uff Ehrewort: noch nie! — Un wäisch, ich hab doch warli e poor güeti Äueje im Kopf.

        
",26,riff-dr-hasestrickler,85,6,0.7665457272236459,0.07058823529411765
80,comedy,Daniel Schwing,M,policeman,government_executive_officials,lower_middle_class,"
          
Daniel:

          
Un ich e gueti Noos im Gsicht. — Hesch dann imstöönd jo danne Hoosepfaffer noch nit g‘schmeckt dert drinne? 
(weist mit dem Daumen nach der Küche.)
 Chrischtoph 
(heuchelnd)
 : Hoosepfaf fer? Daniel 
(mißtrauisch)
 : allons, allons, allons, riech doch emol!

        
",26,riff-dr-hasestrickler,56,3,0.0,0.05357142857142857
81,comedy,Chrischtoph Feldmann,M,rural_policeman,government_executive_officials,lower_middle_class,"
          
Chrischtoph :

          
(riechend)

          
Dies isch Hoosepfaffer?

        
",27,riff-dr-hasestrickler,9,1,2.9096032496376227,0.1111111111111111
82,comedy,Daniel Schwing,M,policeman,government_executive_officials,lower_middle_class,"
          
Daniel :

          
(triumphierend)

          
Aw‘r göönz sicher isch dies Hoosepfaffer.

        
",27,riff-dr-hasestrickler,12,2,2.1680485651668295,0.16666666666666666
83,comedy,Chrischtoph Feldmann,M,rural_policeman,government_executive_officials,lower_middle_class,"
          
Chrischtoph:

          
Do sott am And doch... ?! ‘s isch aw‘r schier nit ze gläuwe.

        
",27,riff-dr-hasestrickler,18,1,0.0,0.05555555555555555
84,comedy,Daniel Schwing,M,policeman,government_executive_officials,lower_middle_class,"
          
Daniel :

          
(spöttisch)

          
Nadierli, so e respaktier- licher Mann, wie d‘r Juckel äiner isch, salbschtv‘r- ee, 7 ur 
 standli, e so e Mann genießt Respakt un Onsahn, un so äim isch bees biezekume mäinsch dü gall?

        
",28,riff-dr-hasestrickler,47,4,0.0,0.0851063829787234
85,comedy,Chrischtoph Feldmann,M,rural_policeman,government_executive_officials,lower_middle_class,"
          
Chrischtoph:

          
Zall will ich jo juscht nit bhäupte, b‘hüet selle m‘r sin, aw‘r ich mäin numme: ‘s isch ewe nit ze gläuwe, daß so e Mann so e niedder- traachdigi Hoosestricklerej betriewe daat. 
(Es klopft.)

        
",28,riff-dr-hasestrickler,45,4,1.4167718210626243,0.08888888888888889
88,comedy,Michel Schaller,M,mayor,government_executive_officials,lower_middle_class,"
          
Michel :

          
(dureh die Mitte)

          
Güete-n-n-Owe bie- nöönd!

        
",29,riff-dr-hasestrickler,14,1,3.0327542881026766,0.07142857142857142
89,comedy,Chrischtoph Feldmann,M,rural_policeman,government_executive_officials,lower_middle_class,"
          
Chrischtoph und Daniel :

          
(salutierend)

          
Güete-n- Owe Herr Maire!

        
",29,riff-dr-hasestrickler,13,1,1.8758362346820336,0.07692307692307693
92,comedy,Daniel Schwing,M,policeman,government_executive_officials,lower_middle_class,"
          
Daniel :

          
M'r sin uf d‘r Suech!

        
",30,riff-dr-hasestrickler,8,2,1.2549422080315262,0.25
93,comedy,Michel Schaller,M,mayor,government_executive_officials,lower_middle_class,"
          
Michel:

          
Was sueche-n-'r dann?

        
",31,riff-dr-hasestrickler,8,1,0.0,0.125
97,comedy,Daniel Schwing,M,policeman,government_executive_officials,lower_middle_class,"
          
Daniel:

          
Soupçon hôôn m'r sehun lang, Herr Maire, numme noch ken Bewies! — Aw'r, v'rloon Uch druf, Harr Maire, hiet noch wurd‘r iewer- füehrt. 
(salutiert.)

        
",32,riff-dr-hasestrickler,37,3,0.6252787448940113,0.08108108108108109
98,comedy,Michel Schaller,M,mayor,government_executive_officials,lower_middle_class,"
          
Michel :

          
(schaut vorsichtig um sich)

          
Do hatte m‘r also andli emol danne v‘rdammte Hoosestrickler.

        
",32,riff-dr-hasestrickler,18,3,0.7522119325928305,0.16666666666666666
102,comedy,Michel Schaller,M,mayor,government_executive_officials,lower_middle_class,"
          
Michel:

          
Ah jaso. — Hm. — Ja do. — Hm. Un jetzt?

        
",34,riff-dr-hasestrickler,18,1,2.089389947278822,0.05555555555555555
103,comedy,Daniel Schwing,M,policeman,government_executive_officials,lower_middle_class,"
          
Daniel :

          
(salutierend)

          
M‘r mueß halt d‘Auje offe b‘halte.

        
",34,riff-dr-hasestrickler,13,2,0.0,0.15384615384615385
104,comedy,Chrischtoph Feldmann,M,rural_policeman,government_executive_officials,lower_middle_class,"
          
Chrischtoph :

          
(salutierend)

          
Ja, dies mueß m'r.

        
",34,riff-dr-hasestrickler,11,1,2.089389947278822,0.09090909090909091
105,comedy,Daniel Schwing,M,policeman,government_executive_officials,lower_middle_class,"
          
Daniel :

          
(salutierend)

          
D‘r Juckel isch awer sin ar isch bees ze fasse.

        
",35,riff-dr-hasestrickler,16,2,1.4519960511550496,0.125
106,comedy,Chrischtoph Feldmann,M,rural_policeman,government_executive_officials,lower_middle_class,"
          
Chrischtoph :

          
(übermäßig laut)

          
Jaja, alles, was raacht isch! Dies isch wohr, Harr Maire: ar isch bees ze fasse!

        
",35,riff-dr-hasestrickler,27,5,1.3779811224435043,0.18518518518518517
107,comedy,Michel Schaller,M,mayor,government_executive_officials,lower_middle_class,"
          
Michel :

          
(höhnisch)

          
Ar isch bees ze fasse? — Ar isch bees ze fasse? — Wann ‘ne d'r Bangert nit fasse kann, wann ‘ne d‘r Bolizejdiener nit fasse kann, d'no faBt ‘ne . . . 
(wirft sich in Position)
 . . d'r Burjermäischter.

        
",35,riff-dr-hasestrickler,53,6,7.743978939493598,0.11320754716981132
110,comedy,Michel Schaller,M,mayor,government_executive_officials,lower_middle_class,"
          
Michel :

          
(geschmeichelt)

          
Jaaa, öjerem Burjermäischter maacht noch kener e Ü fer e X vor, noch kener. — Wann m‘r äu grood ken höecheri Schuele bsucht höön, wann ‘s äu üswarts häißt, daß ünseri Gemäin de däubschte Burjermäischter üssem ganze Landel hatt, wann ich bis jetzt äu noch nit bie ‘ne ‘re Stierprämiierung e Pries gholt hab . .. Chrischtoph und Daniel 
(salutieren.)

        
",36,riff-dr-hasestrickler,74,5,0.519529765081148,0.06756756756756757
111,comedy,Michel Schaller,M,mayor,government_executive_officials,lower_middle_class,"
          
Michel:

          
... ze kann doch uf wyt un bräit äu nit äiner vun mine iewergschejde Kollege dane Kuntrakt ufwyse, wie ich, öijer Burjermäischter, uffwyse kann. Chrischtoph und Daniels 
(salutieren.)

        
",37,riff-dr-hasestrickler,37,2,1.2549422080315262,0.05405405405405406
112,comedy,Michel Schaller,M,mayor,government_executive_officials,lower_middle_class,"
          
Michel:

          
Mir kann noch kener wachsle, vun alle dane Simpel, un wann se v'rknelle vor Wuet un vor Mißv’rgunscht, un wannse d’Zahn zam- mebisse, daß m‘r mäint as ware irjeds Kisselstäin v‘rmahle! . .. As sell emol äiner ufftraate, aw‘r äu numme äiner, wie die Schrift uffwyse kann, wie ich, öijer Burjermäischter, uffwyst, e Schrift, wie schwarz ulf wyß, begläuwigt un gstampelt, im gröschte Simpel kloor un dytli ze v‘rstehn gitt, daß er ee ze er in chter, miner Kopf, d‘r Kopf vun öijerem Burjerm kummt nooch mim Doot ze Stüdjezwacke an d’Universität un vun dort üs in d‘Anatomie in de Spiritüs!.

          

		
",37,riff-dr-hasestrickler,126,10,1.2648668282321602,0.07936507936507936
114,comedy,Michel Schaller,M,mayor,government_executive_officials,lower_middle_class,"
          
Michel:

          
Aha? — Nit daß ihr trumbiere an mir! — As selle emol alli Burjemä ischter üssem göönze Landel zassestehn, in äin Räih, äiner satt nawe de-n-ööndere, un d‘rnoo sell emol da r d‘Hönd in d‘Höeh lipfe, wie mit Stolz säueje kann: miner Schaddel kummt in de Spiritüs!

        
",38,riff-dr-hasestrickler,62,4,0.0,0.06451612903225806
115,comedy,Chrischtoph Feldmann,M,rural_policeman,government_executive_officials,lower_middle_class,"
          
Chrischtoph und Daniel:

          
(salutieren)

          
Alle Re- spakt, Herr Burjrmäischter!

        
",38,riff-dr-hasestrickler,15,1,1.8758362346820336,0.06666666666666667
116,comedy,Michel Schaller,M,mayor,government_executive_officials,lower_middle_class,"
          
Michel :

          
(gerührt)

          
Ja, ich wäiß ihr respaktiere mich, mini göönz Gemäin respaktiert mich, — na, un was öönderi Simpel drüsse erum vun mir babble, dies maacht mir nit kalt un nit warm! — Hünd wie balle welle, loßt m'r balle! — So lang wie se balle, könne se nit bisse! — Gann m‘r d‘’Hand, ihr Manner. 
(geschieht)
 — So isch‘s raacht! Mir sin äinig un’mir v‘rstehn ainer de-n-ööndre .. un vun üns kannt äiner de-n-ööndere!

        
",38,riff-dr-hasestrickler,101,11,0.6305724629181874,0.10891089108910891
117,comedy,Daniel Schwing,M,policeman,government_executive_officials,lower_middle_class,"
          
Daniel:

          
Jaja, Herr Maire, mir sin äinig, un mir v‘rstehn enöönd, nit wohr? — 
(schüttelt ihm kräftig die Hand.)

        
",39,riff-dr-hasestrickler,28,3,0.6252787448940113,0.10714285714285714
118,comedy,Michel Schaller,M,mayor,government_executive_officials,lower_middle_class,"
          
Michel:

          
Zall will ich mäine — Zall will ich mäine!

        
",39,riff-dr-hasestrickler,12,4,5.229495309117871,0.3333333333333333
119,comedy,Chrischtoph Feldmann,M,rural_policeman,government_executive_officials,lower_middle_class,"
          
Chrischtoph:

          
Un wir kann e enöönd, nit wohr, Harr Maire? 
(schüttelt ihm kräftig die Hand)
.

        
",39,riff-dr-hasestrickler,22,2,0.0,0.09090909090909091
120,comedy,Michel Schaller,M,mayor,government_executive_officials,lower_middle_class,"
          
Michel :

          
(freudestrahlend)

          
Zall will ich mäine, — zall will ich mäine! — Numme allewiel de Kopf hoch, solang aß'r noch nit im Spiritüs isch! 
(Gepolter hinter der Szene.)
 Alle lauschen gespannt nach der Türe rechts. 
(Kurze Pause.)
 Do isch ebs umkehjt! 
(blinzelt mit den Augen)
: As hetsich ebs erzäijt, Harr Maire!

        
",40,riff-dr-hasestrickler,71,8,2.6147476545589354,0.11267605633802817
121,comedy,Michel Schaller,M,mayor,government_executive_officials,lower_middle_class,"
          
Michel:

          
s‘ kummt m‘r bööl v‘rdaachti vor, im hôchschte Grood v‘rdaachti! — Säe emol, Chrischtoph, wo stackt dann äu d‘r Schakob, daß m‘r ‘ne mit kem Aüj ze sahne kriejt?

        
",40,riff-dr-hasestrickler,37,2,0.0,0.05405405405405406
122,comedy,Chrischtoph Feldmann,M,rural_policeman,government_executive_officials,lower_middle_class,"
          
Chrischtoph :

          
(salutierend)

          
Ar wurd drüsse in d‘r Kiche sin, Herr Maire.

        
",40,riff-dr-hasestrickler,16,1,1.8758362346820336,0.0625
124,comedy,Daniel Schwing,M,policeman,government_executive_officials,lower_middle_class,"
          
Daniel :

          
(salutierend)

          
Zü Befahl, Harr Burjermäischter! 
(reißt die Küchentüre auf.)
 Im Name vun d‘r Owrigkäit! 
(Alle drei schauen gespannt in die Küche.)

        
",41,riff-dr-hasestrickler,34,1,0.0,0.029411764705882353
125,comedy,Michel Schaller,M,mayor,government_executive_officials,lower_middle_class,"
          
Michel:

          
(in langem Atemzuge den Duft durch die  Nase ziehend)

          
Aaaaaah! — Aha! — Hoosepfaffer!

        
",41,riff-dr-hasestrickler,21,1,2.5464253514614543,0.047619047619047616
126,comedy,Daniel Schwing,M,policeman,government_executive_officials,lower_middle_class,"
          
Daniel :

          
(triumphierend)

          
Was hawich nit gsäit, Harr Maire? 
(salutiert rasch.)

        
",42,riff-dr-hasestrickler,18,1,4.336097130333659,0.05555555555555555
127,comedy,Michel Schaller,M,mayor,government_executive_officials,lower_middle_class,"
          
Michel :

          
(schaut in die Küche)

          
Ja, zem Dejhanker nochemol ning, wo stackt dann äu d'r Juckel?! Do isch jo gar ken Mensch d‘häime?!

        
",42,riff-dr-hasestrickler,33,2,2.9522862750608274,0.06060606060606061
128,comedy,Chrischtoph Feldmann,M,rural_policeman,government_executive_officials,lower_middle_class,"
          
Chrischtoph :

          
(ergreift rasch die Latefne)

          
Ich will doch emol hurtli lueje, Harr Maire, ich kann e jeds Eck un e jede Winkel in dem Hüs. 
(salutiert und eilt rasch rechts ab.)

        
",42,riff-dr-hasestrickler,40,2,2.0877504701606506,0.05
130,comedy,Michel Schaller,M,mayor,government_executive_officials,lower_middle_class,"
          
Michel:

          
Bseht, nit so lüt, un im e fremde Hüs e weng respatierli, wann‘s beliebt!

        
",43,riff-dr-hasestrickler,21,3,0.0,0.14285714285714285
132,comedy,Michel Schaller,M,mayor,government_executive_officials,lower_middle_class,"
          
Michel:

          
Un wann äu! D‘Wand höön Ohre, säit m‘r als! — 
(horeht vorsichtig an der Küchentüre)
 — Un vorem Chrischtoph muehn mir üns e weng besser in Ooeht nahme, dar isch mit alle Däifel ge- ritte.

        
",44,riff-dr-hasestrickler,46,3,0.7522119325928305,0.06521739130434782
133,comedy,Daniel Schwing,M,policeman,government_executive_officials,lower_middle_class,"
          
Daniel:

          
Jaja, ar isch beköönt for dies, un daß‘r mit‘em Schlichers-Juckel inger äinere Deck stackt, dies wisse m‘r äu Harr Burjermäischter! Un wo d‘r Hoosestrickler ze Sueche isch, dies wisse mir Zwäi besser wie d’Kräisdiraktion, Harr Burjermäischter! 
(salutiert grinsend.)

          
        
		
",44,riff-dr-hasestrickler,51,2,1.5440124404113904,0.0392156862745098
134,comedy,Michel Schaller,M,mayor,government_executive_officials,lower_middle_class,"
          
Michel:

          
Brüell doch nit eso un babbel nit eso däub, hiernv‘rruckts Gäuckelhirn, iwwerzwarichs!

        
",44,riff-dr-hasestrickler,17,1,0.0,0.058823529411764705
135,comedy,Daniel Schwing,M,policeman,government_executive_officials,lower_middle_class,"
          
Daniel :

          
(hämisch)

          
Vun was sell m‘r dann babble, wann‘s göönz Hüs nooch Hoosepfaffer riecht?

        
",45,riff-dr-hasestrickler,20,1,0.0,0.05
137,comedy,Daniel Schwing,M,policeman,government_executive_officials,lower_middle_class,"
          
Daniel :

          
(grinsend)

          
Salbschtverstandli, salbscht- verstandli! — Numme ken Angscht, Michel!

        
",45,riff-dr-hasestrickler,18,1,0.0,0.05555555555555555
138,comedy,Michel Schaller,M,mayor,government_executive_officials,lower_middle_class,"
          
Michel :

          
(wütend)

          
Schun wied‘r?! — „Harr Bur- jermäischter“, wann‘s beliebt, allewiel noch „Harr Burjermäischter“!

        
",46,riff-dr-hasestrickler,28,3,0.0,0.10714285714285714
139,comedy,Daniel Schwing,M,policeman,government_executive_officials,lower_middle_class,"
          
Daniel :

          
(salutiert höhnisch)

          
Vun nün an bis in alli Ewigkeit: Harrrr Burjermäischter! 
(Geräusch hinter der Szene.)

        
",46,riff-dr-hasestrickler,24,1,2.6460168378063917,0.041666666666666664
140,comedy,Michel Schaller,M,mayor,government_executive_officials,lower_middle_class,"
          
Michel:

          
E Starnesappermant nochemol ning, loß m‘r die Däubhäite ewaek! — Höersch‘s nit, daß Jemeds kummt?! — Stell dich e weng respaktierli, od‘r ich müeß dich bie d‘r nachschde beschde Gelajehäid üs dim Amt als Bolizejdiener nüsschmisse!

        
",46,riff-dr-hasestrickler,46,2,3.171123583648092,0.043478260869565216
141,comedy,Daniel Schwing,M,policeman,government_executive_officials,lower_middle_class,"
          
Daniel:

          
Ho zall, Michel! — Ho zall! Mül g'halte jetzt, säe ich d‘r! — V‘rstehsch dû

        
",47,riff-dr-hasestrickler,22,3,3.762576693822615,0.13636363636363635
142,comedy,Michel Schaller,M,mayor,government_executive_officials,lower_middle_class,"
          
Michel :

          
(stampft zornig mit dem Fuß auf)

          
‘s mich?!

        
",47,riff-dr-hasestrickler,14,1,5.036509714313598,0.07142857142857142
143,comedy,Daniel Schwing,M,policeman,government_executive_officials,lower_middle_class,"
          
Daniel :

          
(salutiert höhnisch)

          
Ja, Michel, aw'r wann ich babble wott, no könnt‘ ich redde, Harrrrr Burjermäischter!

        
",47,riff-dr-hasestrickler,24,1,2.089389947278822,0.041666666666666664
144,comedy,Daniel Schwing,M,policeman,government_executive_officials,lower_middle_class,"
          
Daniel:

          
Haltsch jetzt ‘s Mül?!

        
",48,riff-dr-hasestrickler,8,1,1.4241507064215302,0.125
145,comedy,Daniel Schwing,M,policeman,government_executive_officials,lower_middle_class,"
          
Daniel :

          
(gelassen)

          
Numme respaktierli, Harr Burjermäischter, allewiel e weng respaktierli! — Wäisch, Michel, wann m‘r im e Glashüs huckt, no sell m‘r nit mit Briechhewwel uf öönderi schmisse welle! — V'rstehseh dü mich jetzt, Harrr Burjermäischter ?!

        
",48,riff-dr-hasestrickler,49,2,1.2549422080315262,0.04081632653061224
148,comedy,Chrischtoph Feldmann,M,rural_policeman,government_executive_officials,lower_middle_class,"
          
Chrischtoph :

          
(durch die Mitte)

          
Alli Eck hawich üsgsuecht, hab aw‘r niemeds gfunge, mit Respakt ze malde, Harr Burjermäischter 
(salutiert.)

        
",49,riff-dr-hasestrickler,28,2,1.633012771727547,0.07142857142857142
149,comedy,Michel Schaller,M,mayor,government_executive_officials,lower_middle_class,"
          
Michel:

          
Hm . .. hesch aw‘r äu iewerall guet nochgelöijt?

        
",49,riff-dr-hasestrickler,12,1,0.0,0.08333333333333333
150,comedy,Chrischtoph Feldmann,M,rural_policeman,government_executive_officials,lower_middle_class,"
          
Chrischtoph:

          
Jewerall. — Wie ich in d‘r Kiche niemeds gfunge hab, no bin ich hingenüs durch‘s Schlipfel inger de Rieswalleschopf, d‘rnoo hawich in d'r Schieredann gelôijt, im Spröijerviertel, im Fuederstall, im Keeler, enfin, vum Fundement bis inger d’Hohlziejle hawich Alles üsgsuecht un üs- gezunge mit d'r Luzern, aw'r e Juckel od‘r e Mey- Katt isch nirjeds ze finge gewahn.

        
",50,riff-dr-hasestrickler,75,1,3.266025543455094,0.013333333333333334
151,comedy,Michel Schaller,M,mayor,government_executive_officials,lower_middle_class,"
          
Michel:

          
Hm — so ebs isch doch v‘rdaachti, nit wohr? — Dies müesch dü doch salwer säueje, Chrischtoph, so ebs isch doch v‘rdaachti?!

        
",50,riff-dr-hasestrickler,30,3,0.0,0.1
152,comedy,Chrischtoph Feldmann,M,rural_policeman,government_executive_officials,lower_middle_class,"
          
Chrischtoph :

          
(etwas verwirrt)

          
Ich... ich wäiß halt nit . . . ich wäiß wahrhafti nit, was ich do ze Allem säueje sell.

        
",50,riff-dr-hasestrickler,28,3,2.106322019314406,0.10714285714285714
156,comedy,Chrischtoph Feldmann,M,rural_policeman,government_executive_officials,lower_middle_class,"
          
Chrischtoph :

          
(gelassen)

          
Ich wüeßt nit, ich hab nix eso gsahne. — Ich kann halt die Dinger nit. — Ich wüeßt warzi nit emol wie se üssahne.

        
",52,riff-dr-hasestrickler,33,1,0.0,0.030303030303030304
157,comedy,Daniel Schwing,M,policeman,government_executive_officials,lower_middle_class,"
          
Daniel :

          
(gehässig)

          
Nit, daß d'r Schlicher-Juk- kel eso däub isch, un loßt sini Schlinge grood so offe un frej erum fohre ... da, do höön'r se, griffe zü, loons üsschalle im Dörfel: m‘r höön de Hoose- strickler! Ar isch iewerfüehrt, d‘r Schlicher-Juckel — Vor‘s Güwarlema mit‘m, e Prozeß oonghankt, e Johr Anse ... nee, nee, so däub isch d‘r Schlicher- Juckel doch nit! — War de Juckel for däub v'r- käufe will, dar sell sich numme guet in Oocht nahme daß ar nit salwer vum Juckel v‘rkäuft wurd, hün- ― 19― dertmol fer äinmol! — Soviel säe ich, d‘r Schwinge- Daniel, Bolizejdiener vun hie, un was ich säe, dies het e Gewicht! — D‘r Schliecher-Tuckel isch zwar miener Fynd, min Dootsfynd sozesäueje, aw‘r göönz egal- was Raacht isch mueß Raacht bliewe!

        
",52,riff-dr-hasestrickler,168,10,1.1038078596007592,0.05952380952380952
158,comedy,Chrischtoph Feldmann,M,rural_policeman,government_executive_officials,lower_middle_class,"
          
Chrischtoph:

          
Ja, wann d‘Aktie e so stehn . .. Harr Burjermäischter, d‘rnoo könnte m‘r jo alli drej mitnööd e Hüssuechung vornahme, noch mi- nere Mäinung.

        
",52,riff-dr-hasestrickler,33,4,0.5223474868197056,0.12121212121212122
159,comedy,Michel Schaller,M,mayor,government_executive_officials,lower_middle_class,"
          
Michel:

          
E Hüssuchung . . . hm... die Mäinung isch juschtemand nit iewel.

        
",53,riff-dr-hasestrickler,16,2,0.0,0.125
160,comedy,Daniel Schwing,M,policeman,government_executive_officials,lower_middle_class,"
          
Daniel :

          
(gehässig)

          
Nee, sie iseh nit iewel, numme e weng ze Spoot.

        
",53,riff-dr-hasestrickler,18,2,1.1298253465509676,0.1111111111111111
161,comedy,Chrischtoph Feldmann,M,rural_policeman,government_executive_officials,lower_middle_class,"
          
Chrischtoph :

          
(wütend)

          
Worum ze spoot?!

        
",53,riff-dr-hasestrickler,10,2,1.1298253465509676,0.2
162,comedy,Daniel Schwing,M,policeman,government_executive_officials,lower_middle_class,"
          
Daniel :

          
(spöttisch lächelnd)

          
Hm ...ich mäin numme.

        
",54,riff-dr-hasestrickler,12,1,3.7495849758898134,0.08333333333333333
163,comedy,Michel Schaller,M,mayor,government_executive_officials,lower_middle_class,"
          
Michel:

          
Ja was mäinsch? Erüs mit d‘r Sproch!

        
",54,riff-dr-hasestrickler,11,1,2.089389947278822,0.09090909090909091
164,comedy,Daniel Schwing,M,policeman,government_executive_officials,lower_middle_class,"
          
Daniel:

          
Wo stackt d'r Juekel? — Wo stackt d‘Mej-Katt?! — Hinne?! — Läuft m‘r dann äu eso bie d‘r Noocht vun d'häime furt loßt Dhüer un Dhor offe stehn bis hinge oon, un d‘rzü goor noch, wann eso e gutes Frico uff em Fyr steht?! — Mhm ... Hoosepfaffer?!

        
",54,riff-dr-hasestrickler,64,2,1.2549422080315262,0.03125
165,comedy,Michel Schaller,M,mayor,government_executive_officials,lower_middle_class,"
          
Michel:

          
Ja, dies isch v‘rdaachti . . im höchschte Grood v'rdaachti.

        
",55,riff-dr-hasestrickler,14,3,0.6964633157596074,0.21428571428571427
166,comedy,Chrischtoph Feldmann,M,rural_policeman,government_executive_officials,lower_middle_class,"
          
Chrischtoph :

          
(ablenkend)

          
Harr Burjermäisch- ter, wie sieht dann e Hooseschling ungfahr üs?

        
",55,riff-dr-hasestrickler,18,1,3.5544419733666506,0.05555555555555555
168,comedy,Chrischtoph Feldmann,M,rural_policeman,government_executive_officials,lower_middle_class,"
          
Chrischtoph:

          
(beteuernd)

          
Uf Ehr un Wahrhaf- tigkäit, miner Lawe noch nit, Harr Burjermäischter!

        
",56,riff-dr-hasestrickler,20,4,2.413035390179969,0.2
169,comedy,Michel Schaller,M,mayor,government_executive_officials,lower_middle_class,"
          
Michel:

          
Nit?! — Na, ze kumm emol dohaare. 
(zeiehnet mit der Kreide eine Sehlinge an die dem Publikum gut sichtbare Schranktüre, dabei Chrischtoph scharf fixierend)
 Löijemol, siesch: zerscht emol eso, d‘rno eso ‘rum — un d‘rno e Ringele, un d’noo do durch un do haare — eso ... un wann d‘rnoo d‘r Hoos drinne stackt — tschupp — drnoo stackt‘r.

        
",56,riff-dr-hasestrickler,77,3,1.666539895849252,0.03896103896103896
173,comedy,Daniel Schwing,M,policeman,government_executive_officials,lower_middle_class,"
          
Daniel :

          
(gehässig)

          
Aij jo, zall gläuwich, jetz ware die öndere Zwäij ‘s Hüs üsgerüümt höön. Sie höön jo jetzt lang genuej Zyt ghet d’rzü.

        
",57,riff-dr-hasestrickler,32,3,0.8219649479205263,0.09375
174,comedy,Michel Schaller,M,mayor,government_executive_officials,lower_middle_class,"
          
Michel:

          
Chrischtoph, wo kumme dann die Hoose- hoor haare do uf dim Blüs?

        
",58,riff-dr-hasestrickler,17,3,2.19309270088479,0.17647058823529413
175,comedy,Chrischtoph Feldmann,M,rural_policeman,government_executive_officials,lower_middle_class,"
          
Chrischtoph :

          
(momentan etwas bestürzt)

          
Hoose- hoor? — Uf mim Blüs?

        
",58,riff-dr-hasestrickler,16,2,2.260893814176242,0.125
176,comedy,Daniel Schwing,M,policeman,government_executive_officials,lower_middle_class,"
          
Daniel :

          
(triumphierend)

          
Ja warzi, Hoosehoor! — Varitawli Hoosehoor! — D‘r göönz Buckel hankt jo voll!

        
",58,riff-dr-hasestrickler,22,4,2.2845008636235784,0.18181818181818182
177,comedy,Chrischtoph Feldmann,M,rural_policeman,government_executive_officials,lower_middle_class,"
          
Chrischtoph :

          
(wütend)

          
Ho zall!

        
",59,riff-dr-hasestrickler,8,2,1.2329474218807894,0.25
178,comedy,Daniel Schwing,M,policeman,government_executive_officials,lower_middle_class,"
          
Daniel:

          
Ho zall!? Zaje, Harr Burjermäischter, löije noch emol genäu nooch.

        
",59,riff-dr-hasestrickler,17,2,1.2329474218807894,0.11764705882352941
179,comedy,Michel Schaller,M,mayor,government_executive_officials,lower_middle_class,"
          
Michel :

          
(untersuehend)

          
Chrischtoph, as sin Hoosehoor, so wohr aß miner Kopf nooch mim Doodt in d‘Anatomie in de Spiritüs kummt. — Dies loßt sich nit läigne, un do loßt sich nix devun ewack dischbediere! Un dü kannsch dieh jetz drahje un wande wie de wit, diemol kann d'r ken Dokter halfe.

        
",59,riff-dr-hasestrickler,62,4,0.0,0.06451612903225806
180,comedy,Chrischtoph Feldmann,M,rural_policeman,government_executive_officials,lower_middle_class,"
          
Chrischtoph:

          
Ja zem Dejhanker noch emol ning, wie sotte dann Hoosehoor an min Blüs kumme, meecht ich wisse?!

        
",60,riff-dr-hasestrickler,23,3,2.6540210081411804,0.13043478260869565
181,comedy,Michel Schaller,M,mayor,government_executive_officials,lower_middle_class,"
          
Michel :

          
(lauernd)

          
Ja, dies meecht ich äu gaare wisse!

        
",60,riff-dr-hasestrickler,14,1,2.089389947278822,0.07142857142857142
183,comedy,Chrischtoph Feldmann,M,rural_policeman,government_executive_officials,lower_middle_class,"
          
Chrischtoph :

          
(schreit)

          
Däuwer Käib!

        
",61,riff-dr-hasestrickler,8,1,4.049716423726998,0.125
184,comedy,Michel Schaller,M,mayor,government_executive_officials,lower_middle_class,"
          
Michel :

          
(verweisend)

          
Chrischtoph, beläidig m‘r d‘Owrigkäit nit!

        
",61,riff-dr-hasestrickler,13,1,4.266177716365769,0.07692307692307693
186,comedy,Michel Schaller,M,mayor,government_executive_officials,lower_middle_class,"
          
Michel:

          
Un daß d‘s wäisch, dies mit de Hoose- hoor isch v‘rdaachti, im höechschte Grood v‘r- daachti!

        
",62,riff-dr-hasestrickler,24,2,1.0059516061447156,0.08333333333333333
187,comedy,Chrischtoph Feldmann,M,rural_policeman,government_executive_officials,lower_middle_class,"
          
Chrischtoph:

          
Hahahahaha! — Jetzt mueß ich laache! Exküseh, Herr Burjermäischter, ich mueß lache. Hahahahaha!

          

		
",62,riff-dr-hasestrickler,21,3,1.7326314838950936,0.14285714285714285
188,comedy,Michel Schaller,M,mayor,government_executive_officials,lower_middle_class,"
          
Michel :

          
(schroff)

          
Chrischtoph, sell ich d‘r waje Widderstöönd geje d‘Staatsgewalt e Proßeeswarbal maache loon?!

        
",62,riff-dr-hasestrickler,21,3,1.8319467549155792,0.14285714285714285
189,comedy,Chrischtoph Feldmann,M,rural_policeman,government_executive_officials,lower_middle_class,"
          
Chrischtoph :

          
(immer noch lachend)

          
Waje was? — Die Müehj könne-n-ihr uch spaare! — Wisse- n‘r äu, was dies fer Hoosehoor sin?

        
",63,riff-dr-hasestrickler,31,3,1.3435828873839235,0.0967741935483871
190,comedy,Michel Schaller,M,mayor,government_executive_officials,lower_middle_class,"
          
Michel :

          
(hämisch)

          
Ja, hesch d'r jetzt inger dare Zyt iew‘r Lüeje nochgedankt?!

        
",63,riff-dr-hasestrickler,18,2,1.044694973639411,0.1111111111111111
191,comedy,Chrischtoph Feldmann,M,rural_policeman,government_executive_officials,lower_middle_class,"
          
Chrischtoph :

          
(ernsthaft)

          
Lüeje?! — Pardon, Harr Burjermäischter, was ich säe isch ken Lüeje! — Parole d’honneur! Uff Ehr un Wahrhaftigkäit! — Un was an mim Blüs hankt, dies sin ken Hoose- hoor....

        
",63,riff-dr-hasestrickler,46,5,2.3565970909229748,0.10869565217391304
193,comedy,Chrischtoph Feldmann,M,rural_policeman,government_executive_officials,lower_middle_class,"
          
Chrischtoph :

          
(lachend)

          
Nee, aw‘r Kinjeleshoor!

        
",64,riff-dr-hasestrickler,10,1,0.0,0.1
194,comedy,Daniel Schwing,M,policeman,government_executive_officials,lower_middle_class,"
          
Daniel :

          
(spitz)

          
Ah zallewaj! — Ich hab gemäint as warde Pfoofaddere?

        
",64,riff-dr-hasestrickler,16,2,0.0,0.125
198,comedy,Michel Schaller,M,mayor,government_executive_officials,lower_middle_class,"
          
Michel:

          
Dies könnt d‘r niemeds v‘rwehre?

        
",66,riff-dr-hasestrickler,8,1,0.0,0.125
199,comedy,Chrischtoph Feldmann,M,rural_policeman,government_executive_officials,lower_middle_class,"
          
Chrischtoph:

          
Nit? — Na also: uff Ehr un Wahr: haftigkäit, as sin ken „Pfoofaddere“ ... 
(salutiert)
 Harr Bolizejdiener!

        
",66,riff-dr-hasestrickler,28,2,2.995529094158156,0.07142857142857142
200,comedy,Michel Schaller,M,mayor,government_executive_officials,lower_middle_class,"
          
Michel:

          
Chrischtoph, dü hesch e beeses Mül hyt.

        
",66,riff-dr-hasestrickler,11,1,1.4241507064215302,0.09090909090909091
201,comedy,Chrischtoph Feldmann,M,rural_policeman,government_executive_officials,lower_middle_class,"
          
Chrischtoph:

          
Un Öönderi selle-n-ihr‘s üs- schwanke. — War e Pris will, kann schnupfe! Mäine dann ihr, daß ich dSchuehj an mir oobutze loß?!

          

		
",67,riff-dr-hasestrickler,34,3,0.9212001551187639,0.08823529411764706
203,comedy,Chrischtoph Feldmann,M,rural_policeman,government_executive_officials,lower_middle_class,"
          
Chrischtoph :

          
(wütend)

          
Ich pfiff uch uff öijeri Respaktierliechkäit! — V‘rstehn ihr mich?! Was bilde dann ihr uch ing, hinne?! De gröeschte Hal- lunkt üssem Dorf het m‘r zem Bolizediener ge- maacht . .. d’kläinschte King mache jo‘s Kryz vor dir- dü Arzhallunk!

        
",67,riff-dr-hasestrickler,57,4,0.6274711040157631,0.07017543859649122
205,comedy,Chrischtoph Feldmann,M,rural_policeman,government_executive_officials,lower_middle_class,"
          
Chrischtoph :

          
(nachäffend)

          
„Harr Burjermäischter“?! Was isch dann los mit‘m ,,Harr Burjermäischter“?! Mäinsch daß dar d‘r halfe kann?! Wann ich dam de Sundiname säu, ze schlupft‘r inger de Disch!

        
",68,riff-dr-hasestrickler,44,2,1.7082919000034558,0.045454545454545456
207,comedy,Daniel Schwing,M,policeman,government_executive_officials,lower_middle_class,"
          
Daniel:

          
Ze Befahl, Harr Burjermäischter! Feld- hüter un Banwart Chrischtoph Feldmann: im Name vun d‘r Owriekäit, im Name des Gsetzes ...

        
",69,riff-dr-hasestrickler,27,1,0.0,0.037037037037037035
208,comedy,Chrischtoph Feldmann,M,rural_policeman,government_executive_officials,lower_middle_class,"
          
Chrischtoph :

          
(stößt ihn zurück)

          
Was isch los?! — Basse numme-n-uff, ihr Zwäi: äin Wort vun mir, un zehn Johr Anze sin uch sicher!

        
",69,riff-dr-hasestrickler,34,4,2.4266230675197735,0.11764705882352941
209,comedy,Mey-Katt,F,,,,"
          
Mey-Katt :

          
(durch die Mitteltür)

          
Löij do! — M'r höön gläuwi Visit? — Guete-n-Owe äu! — Un d'r Harr Burjermäischter kummt äu noch so spoot in d‘r Noocht?! — Isch ebs üssergewüehnliches das- siert? — Sell imstöönd e üsserordentlichi Gemäine- rootssitzung ooghalte ware hint noch?

        
",69,riff-dr-hasestrickler,58,3,0.753216897700645,0.05172413793103448
210,comedy,Michel Schaller,M,mayor,government_executive_officials,lower_middle_class,"
          
Michel :

          
(erregt)

          
Ja, m‘r welle noch e „Sitzung“ oohalte hyt! — E daffeti! — Wo isch dann d'r Juckel, daß m‘r ‘ne mit kem Äu zu sahne krejt?

        
",70,riff-dr-hasestrickler,38,3,1.547874318923118,0.07894736842105263
211,comedy,Mey-Katt,F,,,,"
          
Mey-Katt:

          
Driewe biem Noochber, biem We- werlanzebüür. — Ich kum äu grod vun driewe. — ‘s isch e Küh am kälwere. — Löij do, d'r Chrischtoph iseh jo äu do?!

          

		
",70,riff-dr-hasestrickler,39,2,2.6765009027580784,0.05128205128205128
215,comedy,Mey-Katt,F,,,,"
          
Mey-Katt :

          
(ruhig)

          
Noch ken Starweswörtele! — Sicher nit! — Ja was het dann dies Alles ze be- dytte, ihr liewi Lyt?

        
",71,riff-dr-hasestrickler,29,3,1.8436576300135297,0.10344827586206896
216,comedy,Michel Schaller,M,mayor,government_executive_officials,lower_middle_class,"
          
Michel :

          
(legt Mey-Katt die Hand auf die Schulter)

          
Mey-Katt, geh mit, d'r Wohrhäit um, un g'steh's offe un ehrli: Dü, diner Mann un d‘r Chrischtoph, ihr drej äin Komplott!

        
",72,riff-dr-hasestrickler,40,4,0.45182861742050057,0.1
217,comedy,Mey-Katt,F,,,,"
          
Mey-Katt :

          
(zuckt zusammen)

          
Komplott?!

        
",72,riff-dr-hasestrickler,9,1,0.0,0.1111111111111111
218,comedy,Chrischtoph Feldmann,M,rural_policeman,government_executive_officials,lower_middle_class,"
          
Chrischtoph:

          
Michel, nimm dich zamme!

        
",72,riff-dr-hasestrickler,8,1,2.3787760865239402,0.125
219,comedy,Michel Schaller,M,mayor,government_executive_officials,lower_middle_class,"
          
Michel:

          
Dies sell häiße: Mey-Katt, sieh dich vor! Jaa, die Sprooch v‘rstehn m‘r! — Worum bisch dann ewe eso zammegfahre, Mey-Katt?

        
",73,riff-dr-hasestrickler,29,2,0.0,0.06896551724137931
220,comedy,Mey-Katt,F,,,,"
          
Mey-Katt :

          
(erregt)

          
Zammegfahre?!. — Ja sell m‘r dann do nit zammefahre, wann m‘r an nix Bee- ses dankt un krejt no so ebs ze höere?! — Komplott! — Haha! — Mir e Komplott! — Ja was dann fer e Komplott wann m‘r fröje derf?!

        
",73,riff-dr-hasestrickler,59,4,3.261872766329139,0.06779661016949153
222,comedy,Michel Schaller,M,mayor,government_executive_officials,lower_middle_class,"
          
Michel:

          
Wit dü din Mül jetzt emol halte, Chrisehtoph?!

        
",74,riff-dr-hasestrickler,13,2,1.725831423937342,0.15384615384615385
224,comedy,Mey-Katt,F,,,,"
          
Mey-Katt :

          
(schlägt auf den Tisch)

          
Ja was dann jetzt mit dem Komplott?! — Harr Bu mäischter, wo will denn dies nüs?! — Do will ich jetzt Ööntwort höön, v‘rstange?! — Un numme nit eso lang bedankt, un mir Red un Ööntwort gee, e Starnsapperamant, noch emol! — Do hinne sin mir dhäime, v‘rstange? 
(schlägt sich auf die Brust)
 Mir! — Un wann mir e ungschliffeni Visit do ering kummt, un ich will ‘s Hüs süüfer höön, no loß ich de Hünd los, v‘rstange?! — Un wann d'r Bur- jermäischter mit‘m göönze Gemäimeroot do war! — War mir nit baßt, fliejt nüs! — Verstange?!

        
",74,riff-dr-hasestrickler,135,5,1.1011947494571468,0.037037037037037035
231,comedy,Mey-Katt,F,,,,"
          
Mey-Katt:

          
Dü Arzhallung, dü elanger! — Dü hesch‘s noch notwandi, öönderi Lyt v‘rdaachtige ze welle! — Soll ich dich uf‘s Galee führe?!

        
",77,riff-dr-hasestrickler,31,3,0.8366281386876842,0.0967741935483871
232,comedy,Michel Schaller,M,mayor,government_executive_officials,lower_middle_class,"
          
Michel:

          
Mich uf‘s Galee? Harr Bolizejdiener Daniel Schwing: im Name d‘r Owrikäit, im Name des Gsetzes . . . 
(weist auf M ey-Katt.)

        
",77,riff-dr-hasestrickler,31,2,2.864912332900669,0.06451612903225806
233,comedy,Daniel Schwing,M,policeman,government_executive_officials,lower_middle_class,"
          
Daniel:

          
Ze Befahl, Harr Burjermäischter! Ma- ria Katharina Schlicher, geboreni Gluckser, im Name vun d‘r Owrikäit, im Name des Gsetzes! ""legt ihr die Hand auf die Schulter.)

        
",77,riff-dr-hasestrickler,38,2,3.507867793170499,0.05263157894736842
234,comedy,Mey-Katt,F,,,,"
          
Mey-Katt:

          
Was isch los! — 
(gibt ihm einen kräftigen Stoß, sodaß er rückwärts zu Boden stürzt und die Beine in die Höhe streckt.)
 Mir drej Schritt vum Lyb gebliewe, od‘r ich schmiB dich zingerscht- zewerscht zem Hüs nüs! — Dü kamsch m‘r grood gschliche, ja! — Burjermäischter, kannsch de Beläi- digungsparagraph?! — Kannsch de Paragraph iewer Hüßfriddesbruch?! — 
(reißt die Mitteltür auf)
 — Zem Hüs nüs, säe ich! — Enööndernooch! — Mir' s Hüs süüfer gemoocht, od‘r ich loß de Hünd los!

        
",78,riff-dr-hasestrickler,106,9,1.7506361274784963,0.08490566037735849
235,comedy,Schakob Schlicher,M,city_councillor,government_executive_officials,lower_middle_class,"
          
Schakob :

          
(gelassen)

          
Was isch dann dies fer e Lawesdäuej do hinne? — Ah, löij do, d'r Harr Maire! — So spoot in d‘r Noocht noch? — Un d'r Bolizejdiener? — Un d‘r Bangert? — D‘göönz Ow- rigkäit isch jo bienöönder? — Sitze doch e weng, ihr Harre! -— Als Platz genumme! —- Mey-Katt, hol doch hurtli e Kriejel Wyn eruf.

        
",78,riff-dr-hasestrickler,80,4,0.5649126732754838,0.05
236,comedy,Mey-Katt,F,,,,"
          
Mey-Katt :

          
(giftig)

          
Worum nit goor?! — Sell ich nit noch e Stickel Geräuicherts üssem. Kamin d’zü läije?!

        
",78,riff-dr-hasestrickler,26,1,0.0,0.038461538461538464
237,comedy,Schakob Schlicher,M,city_councillor,government_executive_officials,lower_middle_class,"
          
Schakob:

          
Ja was geht dann äijetli vor do hinne, um ‘s Himmelswille?

        
",79,riff-dr-hasestrickler,15,1,2.089389947278822,0.06666666666666667
238,comedy,Michel Schaller,M,mayor,government_executive_officials,lower_middle_class,"
          
Michel:

          
Schakob, mit kurze Worte franschema erüs gsäit: as isch e-n-anonyms Schrywes an ‘s Güwarlema gange ... ..

        
",79,riff-dr-hasestrickler,23,1,0.0,0.043478260869565216
239,comedy,Schakob Schlicher,M,city_councillor,government_executive_officials,lower_middle_class,"
          
Schakob :

          
(gelass en)

          
... waje d‘r Hoosestrick- lerej. Ich wäiß's. — In d'r letschte Gemäineroots- sitzung isch jo die Vorläuej vum Harr Kräisdirakter vorgelaase wörre vum Greffier. — Ja un jetzt?

        
",79,riff-dr-hasestrickler,41,2,2.321811478384677,0.04878048780487805
240,comedy,Michel Schaller,M,mayor,government_executive_officials,lower_middle_class,"
          
Michel :

          
(betonend)

          
Un jetzt sueche mir d‘r Hoo- sestrickler.

        
",80,riff-dr-hasestrickler,14,1,0.0,0.07142857142857142
241,comedy,Schakob Schlicher,M,city_councillor,government_executive_officials,lower_middle_class,"
          
Schakob:

          
Ah zallewaj?! 
(pfiffartiger Laut)
 — Un do sell ich imstöönd e weng halfe mitsüeche?

        
",80,riff-dr-hasestrickler,21,2,1.9929567549537115,0.09523809523809523
243,comedy,Daniel Schwing,M,policeman,government_executive_officials,lower_middle_class,"
          
Daniel:

          
Die göönz Suecherej könnt m'r sich aw'r spaare.

        
",81,riff-dr-hasestrickler,11,1,0.0,0.09090909090909091
244,comedy,Schakob Schlicher,M,city_councillor,government_executive_officials,lower_middle_class,"
          
Schakob:

          
Ja?!

        
",81,riff-dr-hasestrickler,5,1,2.089389947278822,0.2
245,comedy,Daniel Schwing,M,policeman,government_executive_officials,lower_middle_class,"
          
Daniel:

          
Äij jo, . . . ich mäin dü könntsch äim am beschte Üskunft geen, wo d‘r Hoosestrickler ze sueche isch.

        
",81,riff-dr-hasestrickler,25,1,0.0,0.04
246,comedy,Schakob Schlicher,M,city_councillor,government_executive_officials,lower_middle_class,"
          
Schakob:

          
Worum jetzt grood ich? — Wo will dann dies nüs?! — Sell ‘s im Stöönd uf mich ge- münzt sin?!

        
",82,riff-dr-hasestrickler,28,1,2.5098844160630525,0.03571428571428571
247,comedy,Mey-Katt,F,,,,"
          
Mey-Katt:

          
Kehj ‘ne doch nüs, Juckel! — D‘Staafel ‘noo mitm, daß'r Halsch un Bäin bricht! Dar isch dr Radelsfüehrer, Juckel! — Dar isch‘s, wie im Burjermäischter in d‘Ohre ghüchelt het, daß mir Zwäi un d‘r Bangert äin Komplott warde! — Dar isch‘s, wie's im Burjermäischter biegebroocht het, daß mir drej hint Owe gstrickelti Hoose furt- gschläift hatte.

        
",82,riff-dr-hasestrickler,76,1,0.0,0.013157894736842105
248,comedy,Schakob Schlicher,M,city_councillor,government_executive_officials,lower_middle_class,"
          
Schakob:

          
Ah do will‘s nüs?! — Wit m‘r noch emol e Prozaß ans Bäin hanke? — Elanger, hutt- laachter, mißrawliger Däudieb! — Urkundefalscher kinnitzer!

          

		
",82,riff-dr-hasestrickler,34,3,1.7193012632751208,0.08823529411764706
250,comedy,Daniel Schwing,M,policeman,government_executive_officials,lower_middle_class,"
          
Daniel:

          
Ze Befahl, Harr Burjermäischter! — Gemäinerootsharr Schakob Schlicher: im Name vun d'r Owrigkäit, im Name des Gsetzes .. . . Schakob
( faßt ihn am Kragen und schüttelt ihn kräftig.)
 Ingersteh dich numme nit, elanger Schma- rotzlöffel, Urkundefalscher, Prozeßkramer, Hoose- striekler ?!

        
",83,riff-dr-hasestrickler,57,2,1.8978976683013564,0.03508771929824561
252,comedy,Schakob Schlicher,M,city_councillor,government_executive_officials,lower_middle_class,"
          
Schakob :

          
(wütend)

          
Wann ich d‘r äini vun owe- raa uf de Bleß bammer, no meriksch's!

        
",84,riff-dr-hasestrickler,22,2,1.2549422080315262,0.09090909090909091
253,comedy,Mey-Katt,F,,,,"
          
Mey-Katt:

          
Schakob, schläuej‘m doch e Briech- hewwel ins Kryz, daß'r Hang un Füeß vun sich streckt, dar Lumpehünd dar elang!

        
",84,riff-dr-hasestrickler,27,1,2.592586315551264,0.037037037037037035
255,comedy,Chrischtoph Feldmann,M,rural_policeman,government_executive_officials,lower_middle_class,"
          
Chrischtoph:

          
Juckel, loß de Hünd los! Michel 
(schlägt mit beiden Fäusten auf den Tisch, springt dann auf einen Stuhl und reckt dro- hend die geballten Fäuste hoch)
 — Dod‘rgeje pro- teschtier ieh aw‘r! — Dies isch Widderstöönd geje d'Stootsgewalt!

        
",85,riff-dr-hasestrickler,50,4,1.5224294395161135,0.08
256,comedy,Schakob Schlicher,M,city_councillor,government_executive_officials,lower_middle_class,"
          
Schakob:

          
Ja was welle-n'r dann vun mir?

        
",85,riff-dr-hasestrickler,9,1,2.089389947278822,0.1111111111111111
257,comedy,Michel Schaller,M,mayor,government_executive_officials,lower_middle_class,"
          
Michel:

          
Schakob, dü bisch iewerfüehrt als dar Hoosestrickler, wie schun johrelang ünsere göönze Bann unsicher maacht. — Dü bisch iewerfüchrt!

        
",85,riff-dr-hasestrickler,25,1,3.2796083822525524,0.04
261,comedy,Michel Schaller,M,mayor,government_executive_officials,lower_middle_class,"
          
Michel:

          
(weist gebieterisch nach der Küche)

          
Mir danne Hoosepfaffer do ering geträueje! — Do haare mitm uf de Disch! — Im Name vun dr Owrigkäit, im Name des Gesetzes

        
",87,riff-dr-hasestrickler,35,1,2.5098844160630525,0.02857142857142857
266,comedy,Michel Schaller,M,mayor,government_executive_officials,lower_middle_class,"
          
Michel :

          
(schlägt wütend auf den Tisch)

          
Danne Hoos epfaffer do ering!

        
",88,riff-dr-hasestrickler,15,1,0.0,0.06666666666666667
268,comedy,Daniel Schwing,M,policeman,government_executive_officials,lower_middle_class,"
          
Daniel :

          
(giftig)

          
Im Stöönd goor vum e prä- miierte?

        
",89,riff-dr-hasestrickler,14,1,0.0,0.07142857142857142
269,comedy,Schakob Schlicher,M,city_councillor,government_executive_officials,lower_middle_class,"
          
Schakob:

          
Ja, prämiierter Kinjelespfaffer mit ere gfälschte Ürkundesauce! — Schmecksch dene

        
",89,riff-dr-hasestrickler,14,1,2.089389947278822,0.07142857142857142
270,comedy,Michel Schaller,M,mayor,government_executive_officials,lower_middle_class,"
          
Michel :

          
(schreit)

          
In minere Äijeschaft als Bur- jermäischter säe ich‘s zem letsehtemol: danne Hoo- sepfaffer do er ing geträuje! Do haare mit, un e bissel lest wann‘s beliebt!

        
",90,riff-dr-hasestrickler,39,2,1.3988030264481037,0.05128205128205128
271,comedy,Schakob Schlicher,M,city_councillor,government_executive_officials,lower_middle_class,"
          
Schakob :

          
(gelassen)

          
Mey-Katt, hol ‘ne,

        
",90,riff-dr-hasestrickler,10,1,0.0,0.1
272,comedy,Mey-Katt,F,,,,"
          
Mey-Katt:

          
Na wart numme, Burjermäischter, na wart numme! — ‘s letscht Wort isch noch nit gebabbelt! 
(eilt hastig rechts ab.)

        
",90,riff-dr-hasestrickler,28,4,4.76150813270222,0.14285714285714285
276,comedy,Michel Schaller,M,mayor,government_executive_officials,lower_middle_class,"
          
Michel:

          
Dü hesch din Mül ze halte!

        
",92,riff-dr-hasestrickler,9,2,1.725831423937342,0.2222222222222222
277,comedy,Chrischtoph Feldmann,M,rural_policeman,government_executive_officials,lower_middle_class,"
          
Chrischtoph:

          
Nee ich halt‘s nit! — Vor dir uf kene Fall, dü latzgedrajter Patant-Hoosestrickler!

        
",92,riff-dr-hasestrickler,19,3,0.8366281386876842,0.15789473684210525
280,comedy,Daniel Schwing,M,policeman,government_executive_officials,lower_middle_class,"
          
Daniel:

          
Numme zefridde, Burjermäischter, m‘r ware schun noch ferti mit dam Gsindel!

        
",93,riff-dr-hasestrickler,16,2,0.0,0.125
281,comedy,Schakob Schlicher,M,city_councillor,government_executive_officials,lower_middle_class,"
          
Schakob:

          
Jaja, numme oogewart, m‘r ware sehun noch e Wort mitnöönd redde!

		  

        
",93,riff-dr-hasestrickler,16,1,3.780024054009131,0.0625
282,comedy,Mey-Katt,F,,,,"
          
Mey-Katt:

          
Do, ihr Hafegücker, hanke öijeri Nase ning!

        
",94,riff-dr-hasestrickler,12,1,0.0,0.08333333333333333
283,comedy,Michel Schaller,M,mayor,government_executive_officials,lower_middle_class,"
          
Michel :

          
(nimmt den Deekel von der Schüssel herab)

          
Mhm . . . aha . . . do lejt d'r Hoos im Pfaffer! — Un dies soll ken Hoosepfaffer sin?!

        
",94,riff-dr-hasestrickler,35,1,0.0,0.02857142857142857
286,comedy,Mey-Katt,F,,,,"
          
Mey-Katt:

          
Nee, e Katzeroller isch‘s, daß ‘r ‘s grood äu wisse, ihr Simpel!

        
",95,riff-dr-hasestrickler,19,1,0.0,0.05263157894736842
289,comedy,Michel Schaller,M,mayor,government_executive_officials,lower_middle_class,"
          
Michel:

          
(taumelt zurück, faßt sich jedoch rasch  wieder, deckt die Schüssel zu und legt die Hand auf  den Deckel)

          
Dar Hoosepfaffer ...

        
",96,riff-dr-hasestrickler,27,1,1.8883436785456476,0.037037037037037035
292,comedy,Michel Schaller,M,mayor,government_executive_officials,lower_middle_class,"
          
Michel:

          
Numme zefridde! — Dar Hoosepfaffer isch bschläujnahmt, im Name vun d'r Owrigkäit, im Name des Gsetzes!

        
",97,riff-dr-hasestrickler,22,1,0.0,0.045454545454545456
293,comedy,Daniel Schwing,M,policeman,government_executive_officials,lower_middle_class,"
          
Daniel:

          
Zäije, Burjermäischter, decke dene Hafe noch emol uf!

        
",97,riff-dr-hasestrickler,13,3,1.446283856943074,0.23076923076923078
294,comedy,Mey-Katt,F,,,,"
          
Mey-Katt:

          
Nixdo! — Dar Hafe bliet m‘r jetzt zügedeckt, a'wr uch will ich e-n-öönders Hafel uf- decke, daß uch d‘Ohre hyle ware sechs Wuche lang!

        
",98,riff-dr-hasestrickler,34,5,0.8677703141658444,0.14705882352941177
296,comedy,Mey-Katt,F,,,,"
          
Mey-Katt:

          
Numme staat! -— Also, jetzt wurd emol üsgepackt, un aw‘r krafti! — Nit daß ihr mäine ihr sin gschiedter as wie öönderi Lyt! — Od‘r daß ihr uch iewer eesmools noch ingbilde daate, ihr warde ehrlicher wie öönderi Lyt! — War bragon- niert dann am stärksehte im göönze Dörfel?!

        
",98,riff-dr-hasestrickler,62,4,0.6909001163390729,0.06451612903225806
297,comedy,Michel Schaller,M,mayor,government_executive_officials,lower_middle_class,"
          
Michel :

          
(knirschend)

          
Ja, war?

          

        
",99,riff-dr-hasestrickler,9,1,2.089389947278822,0.1111111111111111
300,comedy,Mey-Katt,F,,,,"
          
Mey-Katt:

          
Jaja, zäij m‘r‘s numme! — Fang numme oon ze prozässe, wann Kürasch d‘rzü hesch! — E größeri Fräid kannsch m‘r goor keni maache! — Ich wur‘s de Richter schun vorlaase, ohni Ka- leender in d‘r Höönd, an welle Daaj gstrickelti Hoose und gstriekelti Reh in de Schlinge vum Bur- jermäischter gezawwelt höön, un in welle Naacht gstrickelti Hoose un gstrickelti Reh uffem Buckel vom Bolizejdiener in de Keeler vum Burjermäisch- ter g‘schläift sin worre! — De Datum hawich m‘r jedemol uffgriewe, un d‘Stüeckzahl vun de Hoose un vun de Reh äü! —- Ja, hahahahahaha! — Un de Name vun dem Lumpejud, wie bie Noocht un Naw- wel als d‘Pelz g‘holt het im Schlipfel hingerem Bur- jermäischter sim Küehstall, wisse m‘r äul — Un wann m'r noch meh vun mir wisse will...

        
",100,riff-dr-hasestrickler,160,8,2.5418746494496935,0.05
301,comedy,Michel Schaller,M,mayor,government_executive_officials,lower_middle_class,"
          
Michel :

          
(schreit)

          
Dies isch Alles v‘rlöije, v'r- stunke un v‘rlöije! — Ehrli un redli bin ich gewahn vun Kingsbäine oon, hab miner Lawe numme Güets gemaacht, hab noch nie nix Schlaachts oongstellt — 
(mit erhobener Stimme)
 hab noch nie bragonniert un noch nie gstriekelt, bin e Ehremann durch un durch bis uf d‘Knoche, bin vun jehare guet oon- gschriewe gewahn uf d'r Kräisdiraktion, hab mir bis dato noch nix unehrlichs vorzeschmisse, un brüch mir äu nix vorschmisse ze loon! — 
(schlägt auf den Tisch )
— Un war mir aw‘r ‘s Gejedhäl bewiese will...

        
",100,riff-dr-hasestrickler,113,10,2.1498581223976823,0.08849557522123894
302,comedy,Mey-Katt,F,,,,"
          
Mey-Katt :

          
(triumphierend)

          
Ja, dies bewiese mir dir, Burjermäischter! — Hündertmol fer äi mol! — Un wann de noch so e große Lawesdäuj maachsch! — Dü wottsch üns als Hoosestrickler deklariere un bisch blööl d‘r gfahrligscht üssem göönze Landel?! — Wart e weng, mit e poor Wörtle kann ich d'r uf d‘Spüür halfe, Burjermäischter! — Am letschte Maandiznoocht sin sechs Hoosepelz üs dim Schlipfel virigschmuggelt worre. — Ich‘s wohr od’r nit? — Worum giebseh dann jetzt ken Öönt- wort?! — Worum brüellt dann d'r Bolizejdiener nimmi d‘rzwische ning?! — Am Samschdi d‘vor sin zwäi Rehpelz un oocht Hoosepelz . ..

          

        
",100,riff-dr-hasestrickler,123,8,1.9360028039755348,0.06504065040650407
303,comedy,Michel Schaller,M,mayor,government_executive_officials,lower_middle_class,"
          
Michel:

          
Bscht, stille, stille! — Brüell doch nit eso! — Mey-Katt, sej v'rstandi un brüell nit eso!

        
",101,riff-dr-hasestrickler,24,4,0.0,0.16666666666666666
304,comedy,Mey-Katt,F,,,,"
          
Mey-Katt:

          
Was isch los?! Vorewe höön ihr zwäi ‘s Hüs vollgebrüellt, jetzt isch‘s brüelle emol an üns! — V'rstange?!

        
",101,riff-dr-hasestrickler,27,3,1.1388612666689706,0.1111111111111111
305,comedy,Michel Schaller,M,mayor,government_executive_officials,lower_middle_class,"
          
Michel :

          
(ängstlich)

          
Äij jo, äij jo, um's Himmels- wille stille.

        
",101,riff-dr-hasestrickler,18,2,2.4899646984752506,0.1111111111111111
306,comedy,Schakob Schlicher,M,city_councillor,government_executive_officials,lower_middle_class,"
          
Schakob:

          
Nix do! — Mey-Katt, brüell daß d' Wand lottle!

        
",102,riff-dr-hasestrickler,14,1,0.0,0.07142857142857142
307,comedy,Chrischtoph Feldmann,M,rural_policeman,government_executive_officials,lower_middle_class,"
          
Chrischtoph:

          
Numme üsgepackt, Mey-Katt! — Wann dü ferti bisch, no fang ich oon!

        
",102,riff-dr-hasestrickler,18,1,2.678796857531517,0.05555555555555555
313,comedy,Mey-Katt,F,,,,"
          
Mey-Katt :

          
(versperrt breitspurig die Mitteltüre)

          
Nix do! — Dogebliewe wurd! — Ueh will ich's schun noch zäije! — Uch will ich schun noch e Nuß. ze kraache geen! — Uch will ch‘s schun noch ze v‘r- stehn geen, wo d‘gfahrligschte Hoosestrickler ze sueche sin, ün was m'r zwische „Ehremanner* v’rsteht!

        
",104,riff-dr-hasestrickler,67,2,0.0,0.029850746268656716
315,comedy,Daniel Schwing,M,policeman,government_executive_officials,lower_middle_class,"
          
Daniel :

          
(erleichtert)

          
Zall mäin ich doch ewe äu.

        
",105,riff-dr-hasestrickler,12,2,2.4065839225207215,0.16666666666666666
316,comedy,Michel Schaller,M,mayor,government_executive_officials,lower_middle_class,"
          
Michel:

          
Platz gemaacht!

        
",105,riff-dr-hasestrickler,5,1,0.0,0.2
317,comedy,Mey-Katt,F,,,,"
          
Mey-Katt :

          
(lachend)

          
Mit d‘r gröeschte Pläsier Harr Burjermäischter! — Fer hyt langt‘s jo jetzt! — 
(tritt zurück und öffnet die Türe)
 kumme morn Oowe e weng ehnder aß wie hynt! — Wann‘r aw'r noch e weng warte hatte wotte, ze hatte-n-'r grood mitaase könnte. — ‘s war e natter Imbs. 
(schnalzt mit der Zunge.)
 — Hoosepfaffer! — ‘s räicht fer üns Fünf, un ‘s daat noch e Portion fer de Noocht- waachter iewri bliewe!

          

        
",105,riff-dr-hasestrickler,95,7,0.6304884203191664,0.07368421052631578
318,comedy,Michel Schaller,M,mayor,government_executive_officials,lower_middle_class,"
          
Michel :

          
(knirschend)

          
Schindmarre, vrdammti! — Kum, Daniel! Lümpevolik, elangs, knitzigs! 
(Michel und Daniel ab durch die Mitteltüre.)
 
(Beide stoßen von außen das Fenster auf und schreien in ohnmächtiger Wut den Dreien Drohungen zu: „Uch ware m‘s schun noch zäije! — Woorte numme, war ze- letscht laacht, laacht am Beschte! usw usw. bis sie mit Besen, Wasserkrug und Knotenstock weggejagt werden)

        
",106,riff-dr-hasestrickler,84,8,2.0291793184568414,0.09523809523809523
319,comedy,Mey-Katt,F,,,,"
          
Mey-Katt :

          
(den Fortgehenden höhnisch nachrufend)

          
Guet Noocht mitnööndt! kumme güet häim! — Gann Oocht, daß‘r nit stulwere! — Träime die Noocht nix beeses! — Loons morn am Spritzehüs oonschläueje daß ‘r Ehremanner sin, ihi zväi, Ehremanner bis uf d' Knoche, un daß morn Owe -d‘Schlicher-Juckels-Mey-Katt e gst ckelter Hoos üssem Burjermäischter sim Rabstück in d‘r Bäitz läijt! 
(Man hört den Nachtwächter in der Ferne tuten.)

        
",106,riff-dr-hasestrickler,82,9,0.7472875007163804,0.10975609756097561
320,comedy,Schakob Schlicher,M,city_councillor,government_executive_officials,lower_middle_class,"
          
Schakob :

          
(schließt die Tür: Stille jetzt, Mey-Katt, d’v Noochtwaachter isch um de Waaj!

        
",106,riff-dr-hasestrickler,20,1,0.0,0.05
321,comedy,Mey-Katt,F,,,,"
          
Mey-Katt :

          
Mäine-n-r, wie die Zwäij jetzt d‘Schaddel hanke loon?

        
",107,riff-dr-hasestrickler,15,3,1.8621022573484955,0.2
322,comedy,Chrischtoph Feldmann,M,rural_policeman,government_executive_officials,lower_middle_class,"
          
Chrischtoph:

          
Die loon üns in Rüehj naachsch- tens!

        
",107,riff-dr-hasestrickler,11,2,2.0405732340944613,0.18181818181818182
323,comedy,Schakob Schlicher,M,city_councillor,government_executive_officials,lower_middle_class,"
          
Schakob :

          
(lachend)

          
Hoffetli!

        
",107,riff-dr-hasestrickler,7,1,0.0,0.14285714285714285
324,comedy,Mey-Katt,F,,,,"
          
Mey-Katt :

          
(lachend)

          
Ain Komplott isch vor dr Dhüer drüsse.

        
",108,riff-dr-hasestrickler,13,1,0.0,0.07692307692307693
325,comedy,Chrischtoph Feldmann,M,rural_policeman,government_executive_officials,lower_middle_class,"
          
Chrischtoph:

          
‘s ööndet Komplott steht noch fescht uf de Hingerfüeß ... Schakob, Chrisc htoph, Mey- Katt 
(reichen sich lachend die Hände)
: ...und stricklt witterseh! 
(In übermütiger Laune tanzen sie laut lachend einen tollen Reigen)

          
 Vorhang fällt.

        
",108,riff-dr-hasestrickler,48,7,0.9279711322814964,0.14583333333333334
