2022-08-20 21:31:47 - valence lexicon length: 7864
2022-08-20 21:31:47 - Number of rows: 334
2022-08-20 21:31:48 - dominance lexicon length: 7864
2022-08-20 21:31:48 - Number of rows: 334
2022-08-20 21:31:48 - arousal lexicon length: 7864
2022-08-20 21:31:48 - Number of rows: 334
2022-08-20 21:31:49 - anger lexicon length: 7864
2022-08-20 21:31:49 - Number of rows: 334
2022-08-20 21:31:49 - anticipation lexicon length: 7864
2022-08-20 21:31:49 - Number of rows: 334
2022-08-20 21:31:50 - disgust lexicon length: 7864
2022-08-20 21:31:50 - Number of rows: 334
2022-08-20 21:31:50 - fear lexicon length: 7864
2022-08-20 21:31:50 - Number of rows: 334
2022-08-20 21:31:51 - joy lexicon length: 7864
2022-08-20 21:31:51 - Number of rows: 334
2022-08-20 21:31:51 - sadness lexicon length: 7864
2022-08-20 21:31:51 - Number of rows: 334
2022-08-20 21:31:52 - surprise lexicon length: 7864
2022-08-20 21:31:52 - Number of rows: 334
2022-08-20 21:31:53 - trust lexicon length: 7864
2022-08-20 21:31:53 - Number of rows: 334
2022-08-24 17:01:02 - valence lexicon length: 7864
2022-08-24 17:01:02 - Number of rows: 334
2022-08-24 17:01:02 - dominance lexicon length: 7864
2022-08-24 17:01:02 - Number of rows: 334
2022-08-24 17:01:03 - arousal lexicon length: 7864
2022-08-24 17:01:03 - Number of rows: 334
2022-08-24 17:01:03 - anger lexicon length: 7864
2022-08-24 17:01:03 - Number of rows: 334
2022-08-24 17:01:04 - anticipation lexicon length: 7864
2022-08-24 17:01:04 - Number of rows: 334
2022-08-24 17:01:04 - disgust lexicon length: 7864
2022-08-24 17:01:04 - Number of rows: 334
2022-08-24 17:01:05 - fear lexicon length: 7864
2022-08-24 17:01:05 - Number of rows: 334
2022-08-24 17:01:05 - joy lexicon length: 7864
2022-08-24 17:01:05 - Number of rows: 334
2022-08-24 17:01:06 - sadness lexicon length: 7864
2022-08-24 17:01:06 - Number of rows: 334
2022-08-24 17:01:06 - surprise lexicon length: 7864
2022-08-24 17:01:06 - Number of rows: 334
2022-08-24 17:01:07 - trust lexicon length: 7864
2022-08-24 17:01:07 - Number of rows: 334
