Unnamed: 0,drama_type,speaker,sex,job,job_category,social_class,text,progress,short_name,numTokens,numLexTokens,avgLexVal,lexRatio
0,comedy,Suzanne,F,,,,"
            
Suzanne:

            
Das isch nit schlacht, sing ich do s’schenschta Maialied un mr han doch hit erscht dr 1. Awril. S’isch awer o so a prachtvoll Watterla, do müeß mr jüchzge un singe, eb mr will oder nit; derbi han i alli Ursach luschtig z’si, denn i erwart mini fenf amies zum a Teekranzla. Das git a fideler Mittag. Wu si awer o nur alli stacka 
(sieht auf ihre Uhr)
, es isch jo glich drei un se han mr versproche fir racht friahi z’ku. Wenn nur d’Tante Florentine nit so schlacht glünt war. Das wird noch ebbs absetze. Ja, wenn i mini Frindinna nit schu alli iglada hat vor acht Tag, so war üs dam Teekranzla nit wora. Rißt is net vorgescht Knall un Fall unseri Kecha üs. Das isch d’zweite g’si sitter Neijohr. Hoffentlig git’s bol Ersatz, denn die menus, wu mini chère tante* sitter combiniert het, brrr.

          
",0,weigel-in-dr-awril-gschickt,180,17,0.0,0.09444444444444444
1,comedy,Suzanne,F,,,,"
            
Suzanne:

            
Aha, do kumme se alla mitnander.

          
",1,weigel-in-dr-awril-gschickt,10,2,0.9746432479416681,0.2
2,comedy,Mlle Florentine Blind,F,rentier,rentiers,upper_middle_class,"
            
Freundinnen:

            
(treten ein)

            
Bonjour Suzanne, salut Suzi, bonjour ma chère etc.

          
",2,weigel-in-dr-awril-gschickt,16,1,0.0,0.0625
3,comedy,Suzanne,F,,,,"
            
Suzanne:

            
Bonjour Kinder 
(gibt allen die Hand)
, andlig isch nit ewig. Ihr lehn lang uf i warta. 
(Alle setzen sich.)

          
",3,weigel-in-dr-awril-gschickt,29,6,0.8422666455767159,0.20689655172413793
4,comedy,Jeanne,F,,,,"
            
Jeanne:

            
Mr han anander rendez-vous gah, fir unser Izug mitnander z’fiera und do hatt’s halt a Will ge- dürt, bis alli présentes g’si sin. S’Juliette isch natier- lig weder s’letschta gsi, wie immer.

          
",4,weigel-in-dr-awril-gschickt,45,4,0.0,0.08888888888888889
5,comedy,Irène,F,,,,"
            
Irène:

            
As meint, es isch a Todsind, wenn as uf uns warte müeß, ich bin ganz sicher, as kunt o a mol z’spot fir in dr Himmel.

          
",5,weigel-in-dr-awril-gschickt,34,7,0.44110306823337914,0.20588235294117646
6,comedy,Juliette,F,,,,"
            
Juliette:

            
Han nur ke so groß Mül, so g’fahrlig isch’s nit; un iwerhäupt in dr Bibel steht’s jo: die letzten werden die ersten sein. Das isch m i Troscht, hoffentlig geht's mir o so.

          
",6,weigel-in-dr-awril-gschickt,44,3,0.0,0.06818181818181818
8,comedy,Lucie,F,,,,"
            
Luzie:

            
Ja, ja, ich han’s o gedankt.

          
",8,weigel-in-dr-awril-gschickt,12,2,0.0,0.16666666666666666
9,comedy,Suzanne,F,,,,"
            
Suzanne:

            
O jeh, sinn mr nur still, ich han schu ebbes mitg’macht, mr han schu zwe Tag ke Kecha me.

          
",9,weigel-in-dr-awril-gschickt,25,1,0.0,0.04
10,comedy,Jeanne,F,,,,"
            
Jeanne:

            
Ja, kat denn eira femme de chambre nit üshalfa?

          
",10,weigel-in-dr-awril-gschickt,13,1,0.0,0.07692307692307693
11,comedy,Suzanne,F,,,,"
            
Suzanne:

            
Jo die Gans, s’hat jo ke Ahnung vu dr Koch- kunscht, das weiß nit amol, wenn s’Wasser kocht. Deßletscht hat se ebbs gebache, no hat se schint’s em Kochbüech glase: man nimmt drei ganze Eier. Wie mr das Dings welle asse, biß ich uf ebbs herts. Meine n’r hat se die drei Eier mitsamt de Schale in danne Teig ine gedolgt. 
(Lachen.)

          
",11,weigel-in-dr-awril-gschickt,81,9,0.5999821750859176,0.1111111111111111
13,comedy,Suzanne,F,,,,"
            
Suzanne:

            
Nei, mini chère tante kocht salwer un d’Mam- selle Amélie müeß re halfa. Mich will si nit in dr Kucha ha, si seit ich seig z’schtrutlig,

          
",13,weigel-in-dr-awril-gschickt,35,2,1.1378495477555828,0.05714285714285714
14,comedy,Juliette,F,,,,"
            
Juliette:

            
Ja kat dini tante denn koche?

          
",14,weigel-in-dr-awril-gschickt,9,2,0.0,0.2222222222222222
15,comedy,Suzanne,F,,,,"
            
Suzanne:

            
Un ebb. Si lest alles üs’m Kochbüech. Meine gescht z’Mittag isch re ein passiert. D’Mamselle Amelie hat re schient alles mieße rischta, wie’s im

          
",15,weigel-in-dr-awril-gschickt,34,3,0.0,0.08823529411764706
16,comedy,Lucie,F,,,,"
            
Lucie:

            
Das isch güet, das g’hert in d’Zittung.

          
",16,weigel-in-dr-awril-gschickt,12,1,0.0,0.08333333333333333
18,comedy,Marthe,F,,,,"
            
Marthe:

            
Schad aß es nit hit am 1. Awril passiert isch.

          
",18,weigel-in-dr-awril-gschickt,13,1,0.0,0.07692307692307693
19,comedy,Irène,F,,,,"
            
Irène :

            
(zu Suzanne)

            
Ja han ihr noch ke andre Kecha in Uessicht ?

          
",19,weigel-in-dr-awril-gschickt,16,2,1.6608565043667811,0.125
21,comedy,Lucie,F,,,,"
            
Lucie:

            
Kinder, ihr wisse was hit fir a Tag isch, hit mien mr unbedingt in ebbrem a Streich spiela, denn ohne das gett’s bi uns ke 1. Awril.

          
",21,weigel-in-dr-awril-gschickt,34,3,0.6965893263562458,0.08823529411764706
22,comedy,Irène,F,,,,"
            
Irène:

            
Awer sicher, ich mach schu mit, dü doch o, Ju- liette ?

          
",22,weigel-in-dr-awril-gschickt,18,2,0.0,0.1111111111111111
23,comedy,Juliette,F,,,,"
            
Juliette:

            
Salbschtverstandlig, fir so ebbis bin i nie s’letschte.

          
",23,weigel-in-dr-awril-gschickt,13,1,0.0,0.07692307692307693
24,comedy,Suzanne,F,,,,"
            
Suzanne:

            
Uf wer han ihr’s abg’sah ?

          
",24,weigel-in-dr-awril-gschickt,9,1,0.0,0.1111111111111111
26,comedy,Suzanne,F,,,,"
            
Suzanne:

            
Jo, do hat’s ke charme, sich mit dr personi- fizierte Dummheit z’amüsiere.

          
",26,weigel-in-dr-awril-gschickt,20,2,0.0,0.1
28,comedy,Lucie,F,,,,"
            
Lucie:

            
Nei, nei, das git’s nit, do mach ich nit mit. Ich han namlig a faible fir d’Mamselle Amélie. Se isch immer so lieb, hat a Himmelsgeduld für d’Lüna vu ihrer Patronne, in eim Wort, se isch a Engel. In dr Awril g'schickt 3

          
",28,weigel-in-dr-awril-gschickt,57,6,0.5555018258201723,0.10526315789473684
29,comedy,Suzanne,F,,,,"
            
Suzanne:

            
Ja, um s’Himmels Wille, wer wan ihr denn in dr Awril schicke, doch ebba nit mini Tanta.

          
",29,weigel-in-dr-awril-gschickt,24,1,0.0,0.041666666666666664
30,comedy,Lucie,F,,,,"
            
Lucie:

            
Was war jetz do derbi, wenn mr is a so a un- schuldiger Witz data erläuiwa, schada dat’s re nit, im Gegateil, weisch dü bisch grad o nit uf Rosa betta do.

          
",30,weigel-in-dr-awril-gschickt,41,5,0.0,0.12195121951219512
31,comedy,Suzanne,F,,,,"
            
Suzanne:

            
Sal schu, awer nochhar hat ich jo d’Heil, wenn se das dat erfahre.

          
",31,weigel-in-dr-awril-gschickt,19,2,0.0,0.10526315789473684
33,comedy,Irène,F,,,,"
            
Irène:

            
Jo, dü bisch nie en peine an Witz.

          
",33,weigel-in-dr-awril-gschickt,12,1,0.0,0.08333333333333333
35,comedy,Lucie,F,,,,"
            
Lucie:

            
Ja, so schnall wird nit gschossa. Kumma nur alle mit ins Gartahisla do dernawa, dert halla mr großer Rot.

          
",35,weigel-in-dr-awril-gschickt,25,5,0.36769916420081883,0.2
36,comedy,Juliette,F,,,,"
            
Juliette:

            
Ja, wenn is awer d’Mamselle Florentine schu g’sah hat?

          
",36,weigel-in-dr-awril-gschickt,14,1,0.0,0.07142857142857142
37,comedy,Irène,F,,,,"
            
Irène:

            
Jo dü, g’sah, sie isch jo so kurzsichtig, nit amol wenn sie noch drei Brilla uf d’Nas setzt, g’seht sie a so wit.

          
",37,weigel-in-dr-awril-gschickt,31,1,0.0,0.03225806451612903
38,comedy,Jeanne,F,,,,"
            
Jeanne :

            
(sieht nach links hinter die Coulisse)

            
Un do unta kunt d’Mamselle Amélie, ganz ins Lasa vertieft.

          
",38,weigel-in-dr-awril-gschickt,23,1,0.0,0.043478260869565216
40,comedy,Mlle Florentine Blind,F,rentier,rentiers,upper_middle_class,"
            
Mlle Florentine:

            
Was, niemeds do, as isch mr doch g’si, wie wenn i ebber hat hera reda. 
(Seufzt.)
 S’isch doch trürig, je älter i wird, desto schlachter wird mini

          
",40,weigel-in-dr-awril-gschickt,40,4,0.5543066213703576,0.1
41,comedy,Mlle Amélie,F,companion,service_and_sales,upper_middle_class,"
            
Mlle Amélie:

            
(tritt ganz ins Lesen vertieft, von links,  hintere Coulisse ein und slösst auf Mlle Florentine)

            
Oh pardon, mademoiselle, veuillez bien excuser.

          
",41,weigel-in-dr-awril-gschickt,31,1,0.0,0.03225806451612903
42,comedy,Mlle Florentine Blind,F,rentier,rentiers,upper_middle_class,"
            
Mlle Florentine:

            
Mais mademoiselle, sie sott mi nit verschreckt ha, gett se doch a ander Mol besser acht. A propos, hat sie vorig grad so lüt g’red un glacht?

          
",42,weigel-in-dr-awril-gschickt,35,2,0.0,0.05714285714285714
43,comedy,Mlle Amélie,F,companion,service_and_sales,upper_middle_class,"
            
Mlle Amélie:

            
Ich g’lacht un g’red! Awer mademoiselle, was dankt Se denn vu mir, ich kum jo grad dr Wag do unta ufa, 
(zeig nach links)
 un bin a so in a fran- zescher Roman vertieft gsi, daß ich se jo schier um- g’rennt han.

          
",43,weigel-in-dr-awril-gschickt,56,1,0.0,0.017857142857142856
44,comedy,Mlle Florentine Blind,F,rentier,rentiers,upper_middle_class,"
            
Mlle Florentine:

            
Schier, meint se nur. — — — Awer hert Se, Sie müeß hit mittag dana junge Dame dr Tee macha. Also nur dr Tee, dr Rascht kunt alles vum patissier. Sie hat awer noch Zitt. Se kat mr noch a wenig G’sellschaft leischta. 
(Beide setzen sich.)
 Das prachtvolle Watter hit, es macht eim weder ganz jung, findet Se nit o mademoiselle?

          
",44,weigel-in-dr-awril-gschickt,78,8,0.3024327247903489,0.10256410256410256
45,comedy,Mlle Amélie,F,companion,service_and_sales,upper_middle_class,"
            
Mlle Amélie:

            
Ich fir mi Teil, ka halt do nit mitreda, mi Alter isch jo grad s’schenschta. Bi Ihra isch das ebbis anderschs, ich ka mr’s labhaft danka...

          
",45,weigel-in-dr-awril-gschickt,36,7,0.0,0.19444444444444445
46,comedy,Elise,F,domestic_worker,elementary_professions,lower_class,"
            
Elise :

            
(tritt ein von rechts)

            
Pardon, mademoiselle Blind, awer s'isch scha weder eina do, wu sich fir Kecha maldet. Ich han se in dr salon g’fiehrt.

          
",46,weigel-in-dr-awril-gschickt,35,2,0.0,0.05714285714285714
47,comedy,Mlle Florentine Blind,F,rentier,rentiers,upper_middle_class,"
            
Mlle Florentine:

            
So, das glicht dr weder, dü dumma Gans. Sofort gesch se geh hola un bringsch se do har. 
(Zu Mlle Amélie.)
 Un Sie kennt geh lüaga, ob dr patis- sier scha a Sach g’schickt hat, wenn nit, so reklamiert Se am Telephon.

          
",47,weigel-in-dr-awril-gschickt,57,2,0.0,0.03508771929824561
48,comedy,Mlle Amélie,F,companion,service_and_sales,upper_middle_class,"
            
Mlle Amélie:

            
C'est ça, ich will o glich dr Tisch decka fir die Dame, s’Ellse kat mr no grad halfa. 
(Beide ab.)

          
",48,weigel-in-dr-awril-gschickt,30,5,0.0,0.16666666666666666
49,comedy,Mlle Florentine Blind,F,rentier,rentiers,upper_middle_class,"
            
Mlle Florentine:

            
Hoffentlig g’fallt mr die, ich bin jo gar nit difficile un verlang o nit unmegligs un doch hall’s keini bi mr üs, i frog mi nur, was do Schuld dra isch. Mr hat’s halt nit licht, wenn mr sich mit so n’re Klasse Lit müeß umaschlaga, wu doch gar nit in mi cadre passa.

          
",49,weigel-in-dr-awril-gschickt,67,6,0.0,0.08955223880597014
51,comedy,Mlle Florentine Blind,F,rentier,rentiers,upper_middle_class,"
            
Mlle Florentine:

            
S’isch güet, Elise, da kasch geh. Schick di a bitzi un hilf dr Mamselle Amélie dr Tisch decka. 
(Elise ab.)
 Mlle Florentine 
(mit ihrer Lorgnette Sophie scharf fixie- rend)
: So, Sie war also die neia Kecha, wu eventuell in Betracht kam. Kunnt Sie doch a bitzi necher, ich g’seh namlig nit ganz güet. Wie heißt Se denn?

          
",51,weigel-in-dr-awril-gschickt,78,7,0.4535498993180828,0.08974358974358974
52,comedy,Sophie,F,cook,service_and_sales,lower_middle_class,"
            
Sophie :

            
(näher tretend und sich verbeugend)

            
Sophie Meller geb. Schmitt.

          
",52,weigel-in-dr-awril-gschickt,15,1,0.0,0.06666666666666667
53,comedy,Mlle Florentine Blind,F,rentier,rentiers,upper_middle_class,"
            
Mlle Florentine:

            
Was, — — ja isch Sie denn g’hirota?

          
",53,weigel-in-dr-awril-gschickt,13,1,0.0,0.07692307692307693
54,comedy,Sophie,F,cook,service_and_sales,lower_middle_class,"
            
Sophie:

            
Ich bin’s amol g’si, awer schu sitter 25 Johr bin i Wittfräu.

          
",54,weigel-in-dr-awril-gschickt,17,1,0.0,0.058823529411764705
55,comedy,Mlle Florentine Blind,F,rentier,rentiers,upper_middle_class,"
            
Mlle Florentine:

            
Hat Sie ebba Kinder?

          
",55,weigel-in-dr-awril-gschickt,8,1,2.0897679790687373,0.125
56,comedy,Sophie,F,cook,service_and_sales,lower_middle_class,"
            
Sophie:

            
Ich han ein’s ka, s’isch awer ganz klei schu g’storwa.

          
",56,weigel-in-dr-awril-gschickt,16,1,0.0,0.0625
57,comedy,Mlle Florentine Blind,F,rentier,rentiers,upper_middle_class,"
            
Mlle Florentine:

            
So, ja kat Sie denn o kocha? Ich mein do dermit nit Suppa, G’mies, Hartepfel usw. Ich mecht wissa, ob se ebbis vu dr fina Kucha versteht, in mim Hüs git’s namlig nur güete Platta.

          
",57,weigel-in-dr-awril-gschickt,47,6,0.4997218335419786,0.1276595744680851
58,comedy,Sophie,F,cook,service_and_sales,lower_middle_class,"
            
Sophie:

            
Awer sicher, ich bin iwer zwanzig Johr Kecha bin re marquise gsi.

          
",58,weigel-in-dr-awril-gschickt,16,1,0.0,0.0625
60,comedy,Sophie,F,cook,service_and_sales,lower_middle_class,"
            
Sophie:

            
Will die marquise, wu Wittfräui gsi isch, g’storwe isch un Kinder het si keini g’ha.

          
",60,weigel-in-dr-awril-gschickt,20,2,1.0448839895343687,0.1
61,comedy,Mlle Florentine Blind,F,rentier,rentiers,upper_middle_class,"
            
Mlle Florentine:

            
Hat Sie ke Zeignis? Sophie 
(nimmt aus ihrer Handtasche einen Brief und reicht denselben Mlle Florentine)
: Doch, doch, voilà madame!

          
",61,weigel-in-dr-awril-gschickt,30,2,0.0,0.06666666666666667
62,comedy,Mlle Florentine Blind,F,rentier,rentiers,upper_middle_class,"
            
Mlle Florentine:

            
Pardon, ich bin kei madame, 
(betonend)
 ich heiß Mademoiselle Florentine Blind un bin rentiere. Ich wohn in dara Villa mit minre nièce, a G’sell- schaftere un a femme de chambre. 
(Durchliest die Zeugnisse.)
 Ihre Zeignis isch nit schlacht, wieviel Lohn verlangt Se denn?

          
",62,weigel-in-dr-awril-gschickt,59,6,0.0,0.1016949152542373
63,comedy,Sophie,F,cook,service_and_sales,lower_middle_class,"
            
Sophie:

            
Ich han bi minre letschte Herrschaft 200 Franka g'ha. —

          
",63,weigel-in-dr-awril-gschickt,13,1,0.0,0.07692307692307693
64,comedy,Mlle Florentine Blind,F,rentier,rentiers,upper_middle_class,"
            
Mlle Florentine :

            
(ganz aufgeregt)

            
Was, her ich racht? 
(Betonend.)
 Was? 200 Franka? isch das meglig ? Mini dame de compagnie het jo küm mehr.

          
",64,weigel-in-dr-awril-gschickt,35,4,0.0,0.11428571428571428
65,comedy,Sophie,F,cook,service_and_sales,lower_middle_class,"
            
Sophie:

            
Eh ben, Mamselle, Sie kat jo dr Lohn salbscht b’stimma, mr wara schu einig wara.

          
",65,weigel-in-dr-awril-gschickt,21,2,1.7731255706391316,0.09523809523809523
66,comedy,Mlle Florentine Blind,F,rentier,rentiers,upper_middle_class,"
            
Mlle Florentine:

            
Bis jetz han i noch nie mehr wie 120 Franka bezahlt, un es sin noch immer alli mini Kecha z’friede gsi.

          
",66,weigel-in-dr-awril-gschickt,27,1,2.410223179974879,0.037037037037037035
67,comedy,Sophie,F,cook,service_and_sales,lower_middle_class,"
            
Sophie:

            
Nu, so will ich halt mit 120 z’frieda si. Es isch mr mehr um a güete Behandlung z’tüe, als um a großer Lohn un daß i alli Morga in mi Maß ka geh.

          
",67,weigel-in-dr-awril-gschickt,41,6,0.0,0.14634146341463414
68,comedy,Mlle Florentine Blind,F,rentier,rentiers,upper_middle_class,"
            
Mlle Florentine:

            
Was? alla Morga in d’Kircha renna, nei, das geht nit, ich mein alla Wuch a mol, am a Sunntig, isch Ding’s genüe.

          
",68,weigel-in-dr-awril-gschickt,34,2,0.0,0.058823529411764705
69,comedy,Sophie,F,cook,service_and_sales,lower_middle_class,"
            
Sophie:

            
Ich tüe jo dermit nix vu miner Arwet versüme, denn das halwa Stendla, wu ich in dr Kircha bin, spar ich mir am Schlof ab. Lüegt Sie, ich bin das sitter Kind vu d’heim üs g’wehnt un ’s tat mr arg a tüe, wenn i jetz nem kennt geh.

          
",69,weigel-in-dr-awril-gschickt,59,5,0.5863008014543544,0.0847457627118644
70,comedy,Mlle Florentine Blind,F,rentier,rentiers,upper_middle_class,"
            
Mlle Florentine:

            
Sie schient mr jo a richtiga Bat- schweschter z’si, wu alla Kirchatera irennt.

          
",70,weigel-in-dr-awril-gschickt,20,1,0.0,0.05
71,comedy,Sophie,F,cook,service_and_sales,lower_middle_class,"
            
Sophie:

            
Sie excusiert, mademoiselle, awer a Batschwesch- ter bin i nit un o ke Kopfhangere, awer ohne unser Herrgott kann i halt amol nit fertig ware.

          
",71,weigel-in-dr-awril-gschickt,32,1,0.0,0.03125
72,comedy,Mlle Florentine Blind,F,rentier,rentiers,upper_middle_class,"
            
Mlle Florentine:

            
Ich merk schu, am Mül fahlt re o nit. Mr meint, sie kunnt mit ihrem Zingla frisch üs dr Schliffmehl. Also Sophie heißt Sie?

          
",72,weigel-in-dr-awril-gschickt,32,3,0.0,0.09375
73,comedy,Sophie,F,cook,service_and_sales,lower_middle_class,"
            
Sophie:

            
Ja, mademoiselle.

          
",73,weigel-in-dr-awril-gschickt,6,1,0.0,0.16666666666666666
74,comedy,Mlle Florentine Blind,F,rentier,rentiers,upper_middle_class,"
            
Mlle Florentine:

            
Das will mr o nit g’falla, denn da Nama mahnt mi an ebs — — — a souvenir, wu i schu lang vergrawa han un folglig nit immer dra er- innert will si. Sie miaßt vor allem a anderer Nama anah. Zum Biespiel Joséphine oder Eugénie oder Emilie. Do data mr schu noch einig ware drewer. Un a bitzi a andere Kleidung g’sacht i o garn, a wenig moderner, denn es verkehrt bi mir nur d’haute volée, un do halt i dra, daß mine domestiques immer a — —

          
",74,weigel-in-dr-awril-gschickt,104,5,0.6297213492958884,0.04807692307692308
75,comedy,Sophie,F,cook,service_and_sales,lower_middle_class,"
            
Sophie :

            
(einfallend)

            
Pardon, mademoiselle, mine friahere patronne, wu doch a marquise g’si isch, hat nie ke Anstoß an minre Kleidung un an mim Name g’funda.

          
",75,weigel-in-dr-awril-gschickt,33,3,0.0,0.09090909090909091
76,comedy,Mlle Florentine Blind,F,rentier,rentiers,upper_middle_class,"
            
Mlle Florentine :

            
(hochmütig)

            
Eh bien, madame Sophie, 
(den Namen höhnisch aussprechend)
 no müeßt se halt wider zu so re marquise ins Frankrich.

          
",76,weigel-in-dr-awril-gschickt,30,4,0.8865627853195658,0.13333333333333333
77,comedy,Sophie,F,cook,service_and_sales,lower_middle_class,"
            
Sophie:

            
Es tüet mir halt sehr leid, ich war züe garn bin re in Stellung ku, waga will mi einzige Schweschter wu ich han, hie verhirote isch un mr hat doch garn ebber in dr Necha, wu mr hie un da kat s’Harz üslara.

          
",77,weigel-in-dr-awril-gschickt,51,12,1.049535582159814,0.23529411764705882
78,comedy,Mlle Florentine Blind,F,rentier,rentiers,upper_middle_class,"
            
Mlle Florentine:

            
Was, o noch das, nei a so ebbs lied ich nit in mim Hüs, mir han fertig mitnander, Sie kat geh. 
(Sophie betrübt rechts ab.)
 Das hat grad noch g’fahlt, die hat ich jo immer z’erscht bi ihrer Schwesch- ter miesse lo hola, wenn’s Zitt gsi war zum kocha. Nei, was doch d’Magd vu hita sich nit alles erläuiwa. Ich will a mol geh lüege wie die andre zwei dr Tisch arrangiert han. 
(Stolz rechts ab.)

          
",78,weigel-in-dr-awril-gschickt,100,7,0.8389448530198254,0.07
79,comedy,Lucie,F,,,,"
            
Lucie:

            
Andlig, Gott sei Dank, aß se furt isch.

          
",79,weigel-in-dr-awril-gschickt,13,3,1.780417009672927,0.23076923076923078
80,comedy,Marthe,F,,,,"
            
Marthe:

            
Ich bin ganz g’stiff, ka mi nem riahre.

          
",80,weigel-in-dr-awril-gschickt,12,1,0.0,0.08333333333333333
81,comedy,Irène,F,,,,"
            
Irène:

            
Hole mr a Wecker, — mir sin d’Bei igschlofa, 
(sie springt hin und her)
 ujeh, ujeh, i halt’s nem üs.

          
",81,weigel-in-dr-awril-gschickt,31,2,0.0,0.06451612903225806
82,comedy,Juliette,F,,,,"
            
Juliette:

            
Ich bin schier verplatzt vor lacha.

          
",82,weigel-in-dr-awril-gschickt,9,1,0.0,0.1111111111111111
83,comedy,Jeanne,F,,,,"
            
Jeanne :

            
(ihr zerrissenes Taschentuch ausbreitend)

            
Kinder, lüega nur was ich fertig brocht han.

          
",83,weigel-in-dr-awril-gschickt,18,1,2.0897679790687373,0.05555555555555555
84,comedy,Suzanne,F,,,,"
            
Suzanne :

            
(welche ängstlich nach links schaut)

            
Nit so lüt Kinder, wenn i’s d’tante Florentine hert. Meine, wenn Se das dat wisse, aß mr do hinta züe g’lost han. Dü liewer Himmel, do gab’s ebbis. Wissen ihr, s’isch doch nit schen gsi vun is, mi Lawa lang mach i das nimi. Die Angscht wu ich üsgstanda han.

          
",84,weigel-in-dr-awril-gschickt,74,10,0.985342049913967,0.13513513513513514
85,comedy,Lucie,F,,,,"
            
Lucie:

            
Jo dü Hasafüeß, scham di, fir was denn Angscht z’ha, mr han jo nur üs Notwehr so g’handelt.

          
",85,weigel-in-dr-awril-gschickt,25,2,0.0,0.08
87,comedy,Marthe,F,,,,"
            
Marthe:

            
Keschtlig isch’s doch gsi, a so ebbs han i noch nie erlabt.

          
",87,weigel-in-dr-awril-gschickt,17,1,3.0077145370402483,0.058823529411764705
88,comedy,Jeanne,F,,,,"
            
Jeanne:

            
Ich bin schier umg’falla vor Lacha, wo se n'is so schen ihr Alter g’sait hat.

          
",88,weigel-in-dr-awril-gschickt,20,3,0.6778591747490842,0.15
89,comedy,Juliette,F,,,,"
            
Juliette:

            
Grad wie wenn mr das nit schu lang g’wißt hatta.

          
",89,weigel-in-dr-awril-gschickt,13,2,0.0,0.15384615384615385
91,comedy,Irène,F,,,,"
            
Irène :

            
(mit dem Finger an ihre Stirn greijend)

            
Kinder, mir kunt a Idee, a famosa Idee. Ich spring g’schwind furt, dr Mamselle Florentine a G’schank geh käuifa.

          
",91,weigel-in-dr-awril-gschickt,35,2,1.0448839895343687,0.05714285714285714
93,comedy,Irène,F,,,,"
            
Irène :

            
(legt den Finger an den Mund)

            
Grand secret, mes- demoiselles.

          
",93,weigel-in-dr-awril-gschickt,17,1,0.0,0.058823529411764705
94,comedy,Suzanne,F,,,,"
            
Suzanne:

            
Ums Himmels Wille Irène blib do, mach’s nit; as isch iwerhäuipt Zitt zum Tee.

          
",94,weigel-in-dr-awril-gschickt,20,1,2.419461798322791,0.05
95,comedy,Lucie,F,,,,"
            
Lucie:

            
Ja, ja, her nur, was mir in dr Sinn ku isch waga mim Awrilscharz.

          
",95,weigel-in-dr-awril-gschickt,20,3,0.0,0.15
96,comedy,Irène,F,,,,"
            
Irène:

            
Ich bin gli z’ruck, ihr kenne mir’s nochher am Tisch saga. 
(Rechts ab.)

          
",96,weigel-in-dr-awril-gschickt,22,1,0.0,0.045454545454545456
97,comedy,Juliette,F,,,,"
            
Juliette:

            
Ich han a Wüet uf dina Tanta, Suzi, daß Se die Fräui Sophie a so abkanzelt hat. Un sie nennt sich nit difficile.

          
",97,weigel-in-dr-awril-gschickt,29,2,0.0,0.06896551724137931
98,comedy,Lucie,F,,,,"
            
Lucie:

            
Nur still Kinder, ich garantier eich, daß d’Mamselle Florentine vor ebbs Nacht isch, d’Sophie als Kecha engagiert hat.

          
",98,weigel-in-dr-awril-gschickt,26,4,0.5224419947671843,0.15384615384615385
100,comedy,Lucie,F,,,,"
            
Lucie:

            
Ja, das isch mini ingeniose Idee.

          
",100,weigel-in-dr-awril-gschickt,10,1,0.0,0.1
102,comedy,Lucie,F,,,,"
            
Lucie:

            
Was kenn ich se nit? Han ihr a Ahnung! Ihre Schweschter, wu hie wohnt, das isch unsre Glättere un bi dara isch se schu zwe Monet, fir a güete Stell abz’warte. Un bi uns hat se letscht kocht, an mim Schweschter sinre Hochzit, denn unsre Magd isch fir so ebbs nit à la hauteur. Awer ich sag eich, die hat ebbs los. Se isch nur z’schad fir d’Mamselle Floren- tine. 
(Zu Suzanne.)
 Awer dir z’liab, Süzi, setz i alles in Bewegung, ich garantier eich, morna kocht d’Sophie.

          
",102,weigel-in-dr-awril-gschickt,114,13,0.5091711203185498,0.11403508771929824
104,comedy,Suzanne,F,,,,"
            
Suzanne :

            
(zu Lucie)

            
Ja, sag mr nur was de im Schild fiehrsch. Ihr han alli güet lacha, awer ich müeß nochher dr Buckel anahewa.

          
",104,weigel-in-dr-awril-gschickt,31,4,0.0,0.12903225806451613
105,comedy,Lucie,F,,,,"
            
Lucie:

            
Hasch nur ke Angscht, das wird ganz harmlos, awer ihr mien mr alla derbi halfa un d’Mamselle Amelie un s’Elise ware o in s’G’heimnis ig’weiht.

          
",105,weigel-in-dr-awril-gschickt,33,4,0.0,0.12121212121212122
106,comedy,Juliette,F,,,,"
            
Juliette:

            
Jetz isch’s üs mit minre Geduld, schieß mol los un verrot is di Faldzugsplan.

          
",106,weigel-in-dr-awril-gschickt,19,3,1.1370021770297443,0.15789473684210525
107,comedy,Lucie,F,,,,"
            
Lucie:

            
Also hera. Noch’m Tee tien mr uns alla als Kecha verkleida un stelle uns dr Mamselle Florentine vor. Mr stelle re awer Bedingunge, daß sie-n-is alle zum Kückück schickt un ihr wara g’sah, daß se hit noch d’Sophie auf de Knie bittet, fir züen re als Kecha z'ku. —

          
",107,weigel-in-dr-awril-gschickt,62,5,0.0,0.08064516129032258
108,comedy,Jeanne,F,,,,"
            
Jeanne:

            
Sag die Idee isch einzig großartig.

          
",108,weigel-in-dr-awril-gschickt,9,2,0.0,0.2222222222222222
109,comedy,Marthe,F,,,,"
            
Marthe:

            
A epatanter Witz.

          
",109,weigel-in-dr-awril-gschickt,6,1,0.0,0.16666666666666666
110,comedy,Juliette,F,,,,"
            
Juliette:

            
Das isch herrlig, ich mach mit, awer — —

          
",110,weigel-in-dr-awril-gschickt,13,1,0.0,0.07692307692307693
111,comedy,Suzanne,F,,,,"
            
Suzanne:

            
Ja, awer, awer, wenn d’Tanta derhinter kunnt, was no, hein?

          
",111,weigel-in-dr-awril-gschickt,19,1,0.0,0.05263157894736842
112,comedy,Lucie,F,,,,"
            
Lucie:

            
Bekimmer di doch nit um ung’legte Eier, ich nim s'ganza Risiko uf mich, ich wir schu fertig mit dinre Tanta.

          
",112,weigel-in-dr-awril-gschickt,26,3,1.0799294558337056,0.11538461538461539
113,comedy,Elise,F,domestic_worker,elementary_professions,lower_class,"
            
Elise :

            
(kommt von rechts)

            
Die Mamsella mechta so güet si un inna kumma, dr Tee isch g’serviert.

          
",113,weigel-in-dr-awril-gschickt,22,2,0.0,0.09090909090909091
114,comedy,Irène,F,,,,"
            
Irène :

            
(kommt von rechts)

            
So, do war i weder, ich kumm gläuib grad racht.

          
",114,weigel-in-dr-awril-gschickt,20,4,0.0,0.2
116,comedy,Elise,F,domestic_worker,elementary_professions,lower_class,"
            
Elise:

            
Ja, ja, Mamselle, un s’git noch ebbis fins derzüe. 
(Ab.)

          
",116,weigel-in-dr-awril-gschickt,20,2,0.0,0.1
117,comedy,Suzanne,F,,,,"
            
Suzanne:

            
Eh bien, so wan mr denn. Ich bin g’spanna wie a nasser parapluie, wie nochher das Dings abläuift. 
(Ab.)

          
",117,weigel-in-dr-awril-gschickt,28,2,1.7731255706391316,0.07142857142857142
118,comedy,Lucie,F,,,,"
            
Lucie:

            
Kumm Irène, ich müeß dr noch instruction gah, daß de B’scheid weisch. 
(Alle ab.)
 
(Rideau.)

          
",118,weigel-in-dr-awril-gschickt,26,2,0.0,0.07692307692307693
119,comedy,Mlle Florentine Blind,F,rentier,rentiers,upper_middle_class,"
            
Mlle Florentine :

            
(sitzt am Tisch)

            
S’isch mr tatsachlig verleide, jetz müeß i weder nodanka, was i hit will z’Nacht kocha, denn uf mi Kochbüech allei verloß i mi doch nim so blindlings; das hüfa Gald wu mr üsget fir so Biacher, un wenn’s druf un dra kunnt, no fahlt noch s’halwa drin. Wenn i doch numme weder a Kecha hat. 
(Grübelt etwas nach.)
 Hat i am End nit doch d’letschta sotta b’halta? — — Awer nei, was dankt denn mi Harz, sa o ne Person. Nei, liawer abwarte, s’'maldet sich viellicht noch eine oder d’andere.

          
",119,weigel-in-dr-awril-gschickt,123,9,0.35469851695059024,0.07317073170731707
120,comedy,Elise,F,domestic_worker,elementary_professions,lower_class,"
            
Elise :

            
(tritt von rechts ein mit einem Paketchen)

            
Mademoiselle, grad hat a portefaix das Pakla fir Sie abga.

          
",120,weigel-in-dr-awril-gschickt,23,2,0.0,0.08695652173913043
121,comedy,Mlle Florentine Blind,F,rentier,rentiers,upper_middle_class,"
            
Mlle Florentine:

            
Fir mich, zeig gib mol har, do bin i o wunderfitzig, ich han doch nieme nix b’stellt, erwart folglig o ke envoi. Was isch acht’scht do drin, will amol lüege. 
(Zu Elise.)
 S’isch güet, Elise, da kasch weder geh. 
(Elise ab.)
 Mlle Florentine öffnet das Paketchen. Ja, was isch denn das? 
(Entnimmt dem Paketchen einige Schachteln, kleinere und grössere, längliche und runde und beginnt deren Aufschrift zu lesen.)
 — Crème Tokalon, pour garder un teint d'un merveilleux éclat. — — — Poudre Floréine. — — — — — Les batons rouges Corday embellissent les Ièvres. — — — Ja,

          
",121,weigel-in-dr-awril-gschickt,133,9,0.1700234956416388,0.06766917293233082
123,comedy,Elise,F,domestic_worker,elementary_professions,lower_class,"
            
Elise :

            
(tritt von rechts ein)

            
S’isch schu weder so a Person ku, wie hit z’mittag, a so ne Kecha, ich han si awer glich mitbrocht. 
(Ruff hinter die Szene)
: Kumme nur necher. 
(Elise ab.)
 Lucie 
(welche als Bauernmädchen gekleidet ist, mit blauer Brille, tritt ein, verstellt ihre Stimme)
: Buschur madame!

          
",123,weigel-in-dr-awril-gschickt,73,5,0.3898572991766672,0.0684931506849315
124,comedy,Mlle Florentine Blind,F,rentier,rentiers,upper_middle_class,"
            
Mlle Florentine:

            
Ich heiß nit madame, sondra made- moiselle, mademoiselle Blind.

          
",124,weigel-in-dr-awril-gschickt,16,2,0.0,0.125
125,comedy,Lucie,F,,,,"
            
Lucie :

            
(für sich)

            
So so, Blind heißt Sie un isch Sie gläuib o noch halwer, waga dam hebt Se immer so ne G’stell vor d’Auiga.

          
",125,weigel-in-dr-awril-gschickt,32,1,0.0,0.03125
126,comedy,Mlle Florentine Blind,F,rentier,rentiers,upper_middle_class,"
            
Mlle Florentine:

            
Was verzehlt Se do, kunnt Se amol ganz noch.

          
",126,weigel-in-dr-awril-gschickt,14,1,0.0,0.07142857142857142
127,comedy,Lucie,F,,,,"
            
Lucie:

            
Ich ha grad g’sait, daß sie o im gliche Fall isch wie ich, un ha so Bedüres mit re, daß Sie o nit güet g’sieht. Awer lüegt Se, ich han’s erscht sitter minre Kranket, drgega Sie hat’s viellicht schu lang, s’isch wohrschienlig s’Alter wu das macht.

          
",127,weigel-in-dr-awril-gschickt,60,8,0.0,0.13333333333333333
128,comedy,Mlle Florentine Blind,F,rentier,rentiers,upper_middle_class,"
            
Mlle Florentine:

            
Ja, sagt Se, Sie, was fallt denn Ihre i, mir so ebbis z’saga, ich wu erscht drißig gsi bin.

          
",128,weigel-in-dr-awril-gschickt,29,1,0.0,0.034482758620689655
129,comedy,Lucie,F,,,,"
            
Lucie:

            
Was? eh das dat mr jetz nit meina, awer do sin allei mini Auiga dra Schuld, wu so ebbs nim kenna unterscheida. Ja, so ne Kranket nimmt eim z’wag.

          
",129,weigel-in-dr-awril-gschickt,38,6,0.5910418568797106,0.15789473684210525
130,comedy,Mlle Florentine Blind,F,rentier,rentiers,upper_middle_class,"
            
Mlle Florentine:

            
Ja. was isch denn das fir a Kranket gsi?

          
",130,weigel-in-dr-awril-gschickt,14,3,0.0,0.21428571428571427
131,comedy,Lucie,F,,,,"
            
Lucie:

            
Meint si nur Mamselle, in unserm Dorf sin dana Winter Ziginer gsi un die han die Kranket inna g’schlept un ich armer Tropf han se grad mießa verwitscha. 
(Tritt etwas näher zu Mlle Florentine.)
 Ich han d'schwarze Pocke g'ha.

          
",131,weigel-in-dr-awril-gschickt,48,6,0.0,0.125
132,comedy,Mlle Florentine Blind,F,rentier,rentiers,upper_middle_class,"
            
Mlle Florentine :

            
(springt entrüstet auf)

            
Was? Was? d’Pocke? macht Se sofort, aß Se üsa kunnt, schunscht kei i Se üsa. Sie steckt mi a, am End han is schu g’erbt.

          
",132,weigel-in-dr-awril-gschickt,42,1,0.0,0.023809523809523808
133,comedy,Lucie,F,,,,"
            
Lucie:

            
Awer mamselle, das isch doch nit meglig, d’Kran- ket isch jo umme, as sin mr numme noch d’Narwa bliwa. Lüegt Se amol vu nochem. 
(Bei den letzten Worten nähert sie sich ihr wieder.)

          
",133,weigel-in-dr-awril-gschickt,46,2,0.0,0.043478260869565216
134,comedy,Mlle Florentine Blind,F,rentier,rentiers,upper_middle_class,"
            
Mlle Florentine:

            
Z’ruck, un ke Schritt me witerscht, ich riaf sofort im a Polizei.

          
",134,weigel-in-dr-awril-gschickt,19,1,0.0,0.05263157894736842
135,comedy,Lucie,F,,,,"
            
Lucie:

            
Was? Polizei? was fallt Ihre i, ich bin a ehrbara Person un han nit mit dr Polizei z’schaffa. Un Sie isch a ganz g’meina, nedertrachtiga alta Schachtla, wu a armer Mensch verachtet, will er s’Unglick g’ha hat, a so a Kranket z’erwa.

          
",135,weigel-in-dr-awril-gschickt,56,7,0.0,0.125
136,comedy,Mlle Florentine Blind,F,rentier,rentiers,upper_middle_class,"
            
Mlle Florentine:

            
Jetz still un ke Wort me, üs mina Auiga, sofort, schunscht riaf i um Hilf.

          
",136,weigel-in-dr-awril-gschickt,22,2,0.0,0.09090909090909091
137,comedy,Lucie,F,,,,"
            
Lucie:

            
Se brücht si nit so ufrega, ich gang allei, denn mit so re Vogelschiecha will i nit z'tüe ha. Sie weißt o no nit mit was firem a G’sicht aß Sie stirbt. Do isch mi G’sicht mit dana paar Narwa apatitliger az’lüega, als Ihre vermolte Fratz. So verlase’s jetz, madame, adje! 
(Geht ab.)
 Mlle Florentine 
(setzt sich erschöpft und trocknet den Schweiss von der Stirne)
: Nei, das isch doch züe arg, ich, d’Mademoiselle Blind, rentiere, müeß mir so ebbs g’falla lo, un die Uesdrick, wu die frache Person agwanda hat. Vogelschiecha, alta Schachtla, ver- molta Fratz. Wer hat denn dara g’sait, daß ich mich a wenig schmink, das weißt doch ke Mensch. Nei, do isch doch d’Fräui Sophie ebber anderschs gsi. A so eifach un a so astandig im Benama. Wer weiß, ob i je ebbs bessers bekum. Wenn das a so witerscht geht, bekum i noch d’Galsucht vor Aerger.

          
",137,weigel-in-dr-awril-gschickt,194,17,0.20312659840094038,0.08762886597938144
138,comedy,Elise,F,domestic_worker,elementary_professions,lower_class,"
            
Elise :

            
(kommt schnellen Schrittes)

            
Mamselle, grad isch wider eini ku froga fir Kecha.

          
",138,weigel-in-dr-awril-gschickt,18,4,0.0,0.2222222222222222
139,comedy,Mlle Florentine Blind,F,rentier,rentiers,upper_middle_class,"
            
Mlle Florentine:

            
Awer hoffentlig ke so frache wie die letschta.

          
",139,weigel-in-dr-awril-gschickt,12,1,0.0,0.08333333333333333
140,comedy,Elise,F,domestic_worker,elementary_professions,lower_class,"
            
Elise:

            
Se schient mr ganz astandig z’si, isch nowel aglegt, trait a Zwicker un hat a Velo.

          
",140,weigel-in-dr-awril-gschickt,22,2,0.0,0.09090909090909091
141,comedy,Mlle Florentine Blind,F,rentier,rentiers,upper_middle_class,"
            
Mlle Florentine:

            
Was? a Velo? Jetz wird’s Tag, zeig hol se amol do ana 
(Elise ab)
 S’wird immer besser, d’nachschte kunnt sicher im a Auto, un d’ewer- nachschte in’re Flugmaschine. Ja, ja, das mol han i mr eini g’langt, hat i doch liewer d’Fräui Sophie engagiert. Zwanzig Johr isch se bi dara marquise gsi, das isch zum vorneri schu a güet Zeicha.

          
",141,weigel-in-dr-awril-gschickt,83,8,0.35592830681024384,0.0963855421686747
144,comedy,Mlle Florentine Blind,F,rentier,rentiers,upper_middle_class,"
            
Mlle Florentine:

            
Was geht doch das Sie a, das toupet vu Ihre. — — Isch Sie iwerhäuipt ku fir die Stell als Kecha ?

          
",144,weigel-in-dr-awril-gschickt,27,3,0.0,0.1111111111111111
145,comedy,Irène,F,,,,"
            
Irène:

            
Mais bien sûr, Mademoiselle, wundert Sie das a so, will ich so chic aglegt bin.

          
",145,weigel-in-dr-awril-gschickt,21,1,1.7936544595161894,0.047619047619047616
146,comedy,Mlle Florentine Blind,F,rentier,rentiers,upper_middle_class,"
            
Mlle Florentine:

            
Ja, un wie Se mit em a Vélo kunnt ge fahra.

          
",146,weigel-in-dr-awril-gschickt,16,1,0.0,0.0625
147,comedy,Irène,F,,,,"
            
Irène:

            
O jeh, das isch doch nit aparts, ich betrieb noch andre Sport, im Winter läuif i fir mi Lawa garn Schlittschüeh un Ski, im Summer do isch mr s’liabschta Vélo fahre, schwimma un turna. Im Schwimma han i s’letschta Johr a premier prix g’holt, lüegt Se, do han i mi Diplom. 
(Packt einen Bogen Papier aus, und will ihn Mlle Florentine zeigen.)

          
",147,weigel-in-dr-awril-gschickt,79,8,1.0379268148610286,0.10126582278481013
148,comedy,Mlle Florentine Blind,F,rentier,rentiers,upper_middle_class,"
            
Mlle Florentine:

            
Ja, un Sie maldet sich fir Kecha un betriebt alla megliga Sport.

          
",148,weigel-in-dr-awril-gschickt,17,2,0.0,0.11764705882352941
149,comedy,Irène,F,,,,"
            
Irène:

            
Wurum nit, do geht ein’s s’andera gar nit a. In dr Wucha bin ich Kecha, awer dr Sunntig g’hert im Sport. So han is bis jetz in alla mine Stella g’macht. Sieht Se, das isch’s jo grad, wu im Mensch Not tüet, wu ne gsund un jung erhaltet, hert se, jung.

          
",149,weigel-in-dr-awril-gschickt,66,8,0.0,0.12121212121212122
150,comedy,Mlle Florentine Blind,F,rentier,rentiers,upper_middle_class,"
            
Mlle Florentine:

            
Ja, meint Se ebba, am a Sunntig stand ich salwer in d’Kucha, fir daß d’Kecha kat geh schwim- me un vélofahre.

          
",150,weigel-in-dr-awril-gschickt,31,2,0.0,0.06451612903225806
151,comedy,Irène,F,,,,"
            
Irène:

            
Do kat Se jo macha, wie Sie meint, Se kat jo a Ueshilf astella. Dr Sunntig isch mi. Lüegt Sie, unser Herrgott hat’s im Paradies schu so igrechta. «Am siebten Tage ruhte er.» Un fir mich isch das Er- holung.

          
",151,weigel-in-dr-awril-gschickt,54,2,0.0,0.037037037037037035
153,comedy,Irène,F,,,,"
            
Irène:

            
O doch, ich kann noch güet franzesch, a wenig anglisch un verstand o ebbs vu dr Müsik.

          
",153,weigel-in-dr-awril-gschickt,22,3,0.0,0.13636363636363635
154,comedy,Mlle Florentine Blind,F,rentier,rentiers,upper_middle_class,"
            
Mlle Florentine:

            
Vu dam allem will ich nit wissa, wie steht’s denn mit em Kocha? Zeigt Se mr amol ihre Zeignis. 
(Irène überreicht ihr dieselben und sie liest sie durch)
 Was? g’sehn i racht? Sie hat do in eim Johr nin Mol d’Stella g’wachselt.

          
",154,weigel-in-dr-awril-gschickt,55,4,0.0,0.07272727272727272
155,comedy,Irène,F,,,,"
            
Irène:

            
Wundert Sie das, mich nit, mr findet jo hit zu tags ke astandiga Herrschaft meh, wu mr’s o a Zitt- lang kat üshalta.

          
",155,weigel-in-dr-awril-gschickt,31,4,0.6048654495806978,0.12903225806451613
156,comedy,Mlle Florentine Blind,F,rentier,rentiers,upper_middle_class,"
            
Mlle Florentine:

            
S’isch güet, mr wann witerscht ke Worta meh verliere, Sie isch entlassa.

          
",156,weigel-in-dr-awril-gschickt,19,4,0.0,0.21052631578947367
157,comedy,Irène,F,,,,"
            
Irène:

            
C’est bien, mademoiselle, also nix fir ungüet, wenn Se wider amol ebbis brücht. 
(Ab.)

          
",157,weigel-in-dr-awril-gschickt,23,1,0.0,0.043478260869565216
158,comedy,Mlle Florentine Blind,F,rentier,rentiers,upper_middle_class,"
            
Mlle Florentine :

            
(halb weinend)

            
Wu han ich. das verdient? — — Findet mr denn hit ke astandige Persona meh. Wie froh war ich, wenn ich jetz d’Sophie als Kecha hat. Alla morga derft se mr in d’Kircha un waga mir noch z’Nacht. Wenn, ja wenn. Jetz isch’s z’spot fir z’jomre. 
(Lässt sich auf den Stuhl fallen.)
 O wie isch’s mir verleida, ich bin schu ganz krank.. Am End bekumm i doch die Pocka.

          
",158,weigel-in-dr-awril-gschickt,98,12,0.21078227732850088,0.12244897959183673
160,comedy,Juliette,F,,,,"
            
Juliette:

            
Güeta Nowa, madame oder mamselle. Ich kum waga dam Platz als Kecha, wu hit morga in dr Zittung gstanda hat.

          
",160,weigel-in-dr-awril-gschickt,26,3,0.0,0.11538461538461539
161,comedy,Mlle Florentine Blind,F,rentier,rentiers,upper_middle_class,"
            
Mlle Florentine:

            
Scheen, doch zeigt Sie mr glich Ihre Zeignis. 
(Juliette überreicht ihr ein Büchlein, welches sie durchliest.)
 Hm, s’isch jo güet, sie wird jo g’riahmt als Kecha, — — doch zeig halt, was steht denn do unta. — — 
(Liest leise.)
 Es schient, daß Sie öfters Verkehr mit junga Manner hat, wu o züe re uf B’süech ku sin.

          
",161,weigel-in-dr-awril-gschickt,79,9,0.0,0.11392405063291139
162,comedy,Juliette,F,,,,"
            
Juliette:

            
Ja was isch do schlachts derbi, ich bin jo noch jung, folglig brüch i nit mit alta z’geh. Un derno, s’isch jo immer nur mi Hochzitter gsi; meint Sie ebba, ich will als alta Jungfre starwe, nei nur alles als das nit.

          
",162,weigel-in-dr-awril-gschickt,54,4,0.0,0.07407407407407407
163,comedy,Mlle Florentine Blind,F,rentier,rentiers,upper_middle_class,"
            
Mlle Florentine:

            
Das sin Ihra Sache; awer das kat Se si merka, daß, falls Sie züe mir als Kecha kunnt, ich Ihra Hochzitter nie in dr Kucha will gash. Mit einere vu mina letschta Kecha han i scho so-n-a Gschichta g’ha. Vierzeh Tag noch ihrem Itritt kumm ich züe- fallig in d’Kucha un mach a Kaschta uff, steht do e Mannskarl drin. Hat dia frach Person o noch s’toupet fer z’saga: da g’hert net züe mir, da hat wohrschienlig die andera Kecha vor mir do drina steh lo. Jetz frog ich Sie, e Mannskarl esch doch ke parapluie, aß m'r ne so steh loßt. Awer die han i g’schasst.

          
",163,weigel-in-dr-awril-gschickt,131,6,0.5755253621359978,0.04580152671755725
164,comedy,Juliette,F,,,,"
            
Juliette:

            
Wenn’s nur sal isch, dam isch abz’halfa, ich kan jo mi Hochzitter im salon empfanga.

          
",164,weigel-in-dr-awril-gschickt,21,3,0.0,0.14285714285714285
165,comedy,Mlle Florentine Blind,F,rentier,rentiers,upper_middle_class,"
            
Mlle Florentine:

            
Eh jo, das fahlt noch. Ich will noch ditliger reda, Sie derf Ihre Hochzitter weder do im Garta, noch weniger im Hüs empfanga. Mina friahare: Kecha han sich o alli güet verhirota, un es hat nit amol keine a Bekanntschaft g'ha.

          
",165,weigel-in-dr-awril-gschickt,52,8,0.7204347033449616,0.15384615384615385
166,comedy,Juliette,F,,,,"
            
Juliette:

            
Do bin i o wunderfitzig wie das ganga hat. Die han sich wohrschienlig par T. S. F. lehre kenna. So modern bin ich halt nit. — — — Awer ich bi ganz sicher, wenn Sie mi Fiancé amol g’sah hat, daß Sie mir’s nim verbietet, fir ne do z’empfanga, denn er isch a astandiger, natter, junger Mann, Er hat mi do ahna begleita un wartet mr dussa, ich will em g’schwind geh riafa. 
(Springt nach rechts, während Mlle Florentine ihr nachruft.)

          
",166,weigel-in-dr-awril-gschickt,101,12,0.0,0.1188118811881188
167,comedy,Mlle Florentine Blind,F,rentier,rentiers,upper_middle_class,"
            
Mlle Florentine:

            
Blibt Se do, hat Se g’hert, bringt Se nen jo nit do ahna. O jeh, o jeh, ich gläuib amol se holt nen, i gseh se nieneds meh. — — — 
(Geht nach rechts an die coulisse.)
 I mein i her ebber reda, — — ums Himmels Willa, do kumme se gläuib.

          
",167,weigel-in-dr-awril-gschickt,68,6,0.6944188302274611,0.08823529411764706
168,comedy,Juliette,F,,,,"
            
Juliette:

            
Voilà madame, do isch jetz mi Franz, isch er nit a g’fitzter Burscht. 
(Zu Franz.)
 Lüeg d’Madam hat gsait, ich derf di nie in dr Kucha empfanga, no han i dankt, i will di ihre amol vorstelle, no wird se schu anderscht reda. 
(Zu Mlle Florentine.)
 Galla madam, jetz han Ihr Eich anderscht b’sunna.

          
",168,weigel-in-dr-awril-gschickt,73,9,1.783420722722227,0.1232876712328767
169,comedy,Mlle Florentine Blind,F,rentier,rentiers,upper_middle_class,"
            
Mlle Florentine :

            
(mit erhobener Hand)

            
Sofort mache-n- Ihr, aß Ihr üssa kumma, sunscht telephonier i uf d’Wacht; un Sie, monsieur, zeig ich a bi Ihrem chef.

          
",169,weigel-in-dr-awril-gschickt,37,4,0.0,0.10810810810810811
170,comedy,Marthe,F,,,,"
            
Marthe :

            
(mit tiefer Stimme)

            
Ja, sag Catherine, was soll denn das heißa, zu so-n-re alte Schatulle witt dü als Kecha, nei, das lied ich nit, do git’s noch andre Platz. Kumm nur mit. 
(Beide ab.)

          
",170,weigel-in-dr-awril-gschickt,52,5,0.0,0.09615384615384616
171,comedy,Mlle Florentine Blind,F,rentier,rentiers,upper_middle_class,"
            
Mlle Florentine :

            
(sich ganz erschöpft hinsetzend)

            
Dü liawer Gott, ich bin halb tot. Das iwerlab ich nim. Daß mir so ebbs passiere müeß. Ich g’schpier’s, ich mach nim lang mit. 
(Sie nimmt ihr Taschentuch und weint.)
 Hat ich doch numme d'Sophie nit furt g’schickt, uf de Hand wott i se traga Alla ihre Winsch an de Auiga absah.

          
",171,weigel-in-dr-awril-gschickt,74,7,0.8501834281537762,0.0945945945945946
172,comedy,Elise,F,domestic_worker,elementary_professions,lower_class,"
            
Elise :

            
(hereineilend)

            
Mamselle, meint Sie, die Fräui, wu hit mittag do gsi isch, kunnt grad noch amol ku froga, ebb se d’Mamselle nit doch als Kecha dat nah?

          
",172,weigel-in-dr-awril-gschickt,38,2,0.0,0.05263157894736842
173,comedy,Mlle Florentine Blind,F,rentier,rentiers,upper_middle_class,"
            
Mlle Florentine :

            
(freudig erregt, springt auf)

            
Was? d'Sophie isch wider do? ja hasch di o nit trumpiert, Elise, isch se se wirklig?

          
",173,weigel-in-dr-awril-gschickt,32,4,0.0,0.125
174,comedy,Elise,F,domestic_worker,elementary_professions,lower_class,"
            
Elise:

            
Ja, ja, s’isch se, ich ha se glich wider kennt

          
",174,weigel-in-dr-awril-gschickt,16,2,0.0,0.125
175,comedy,Mlle Florentine Blind,F,rentier,rentiers,upper_middle_class,"
            
Mlle Florentine:

            
Gott sei Dank! O, wie bin ich so froh. Gang hol se g’schnall do ahna, Elise! Elise 
(tritt nach rechts, winkt Sophie und ruft hinter die Coulisse)
: Kumma, madame, d’Mamselle will mit i reda.

          
",175,weigel-in-dr-awril-gschickt,50,8,0.890504118506333,0.16
176,comedy,Sophie,F,cook,service_and_sales,lower_middle_class,"
            
Sophie :

            
(tritt bescheiden von rechts herein)

            
Bonjour, Made- moiselle. Mlle Florentine 
(eilt auf sie zu und küsst ihre beiden Hände.)
 Sie güete Seel, ja, isch Sie’s tatsachlig. Sie isch noch amol ku. Galt Se, Se verzeiht mr, aß i hit mittag so komisch mit re gsi bin. Lüegt Se, s'tüet mr vu Harza leid, ich han’s jo nit so bes g’meint ka. Also galt Se, Sie kunnt als Kecha züe mr?

          
",176,weigel-in-dr-awril-gschickt,95,10,0.2976345368759677,0.10526315789473684
177,comedy,Sophie,F,cook,service_and_sales,lower_middle_class,"
            
Sophie:

            
Ja, Mamselle, unter dr Bedingung, daß i alla Morga — — —

          
",177,weigel-in-dr-awril-gschickt,17,3,0.0,0.17647058823529413
178,comedy,Mlle Florentine Blind,F,rentier,rentiers,upper_middle_class,"
            
Mlle Florentine :

            
(sie unterbrechend)

            
Natierlig derf Se alla Morga in d’Kercha un waga mir noch z’owa. Un 200 Franka gib i re alla Monet ohne d’Gschanker. Un güet soll Sie's ha bi mir, wie wenn Se mi eiga Schweschter war.

          
",178,weigel-in-dr-awril-gschickt,51,3,0.0,0.058823529411764705
179,comedy,Sophie,F,cook,service_and_sales,lower_middle_class,"
            
Sophie :

            
(küsst ihr gerührt die Hand)

            
Merci, o merci viel- mol. I will mr o g’wiß Miahi ga, daß Se z’frede isch mit mr. Ich bin a so glicklig, daß Se mi jetz doch gnu hat, kann i doch als am a Sunntig z’owa a wenig zu mim Schweschter, un derno bin i froh, daß ke Kinder un Mannslitt im Hüs sin.

          
",179,weigel-in-dr-awril-gschickt,76,5,0.9238310614021497,0.06578947368421052
180,comedy,Mlle Amélie,F,companion,service_and_sales,upper_middle_class,"
            
Mlle Amélie :

            
(tritt von rechts ein)

            
Pardon, mademoiselle, ich han nur wella froga, was mr fir’s Nachtassa rischta müeß.

          
",180,weigel-in-dr-awril-gschickt,27,2,0.0,0.07407407407407407
181,comedy,Mlle Florentine Blind,F,rentier,rentiers,upper_middle_class,"
            
Mlle Florentine :

            
(ganz wohlgemut)

            
Do mache mr is ke große Arwet, es git kalta Platta, un vu morn ab sin mr dam corvée enthowa, lüegt Sie, do stell i re unsere neia Kecha vor.

          
",181,weigel-in-dr-awril-gschickt,42,5,0.0,0.11904761904761904
182,comedy,Mlle Amélie,F,companion,service_and_sales,upper_middle_class,"
            
Mlle Amélie :

            
(gibt Sophie die Hand)

            
So, so, das frait mi awer vu Harza. 
(Zu Mlle Florentine.)
 Ich bin jo froh, daß die Kocherei a End hat, denn mir zwei han doch nit verninftigs ferig brocht.

          
",182,weigel-in-dr-awril-gschickt,48,3,2.1715544433931813,0.0625
183,comedy,Mlle Florentine Blind,F,rentier,rentiers,upper_middle_class,"
            
Mlle Florentine:

            
Sal isch wohr, un mi Kochbüech, wu doch nur s’Halwa drin steht, wirf i ins Fier. 
(Zu Mlle Amélie.)
 Doch, mr wann jetz glich dr Sophie ihr Zimmer zeiga, no kat se, wenn se will, hitta noch ihra Kuffer bringa. 
(Zu Sophie)
 Eh bien, Sophie, kunnt Se amol mit is, fir z’lüega, ob’s re o g'fallt. 
(Alle ab.)

          
",183,weigel-in-dr-awril-gschickt,86,4,0.8865627853195658,0.046511627906976744
184,comedy,Suzanne,F,,,,"
            
Suzanne :

            
(tritt ein von links)

            
Nei, awer a so ebbs. Jetz stand i sitter do hinter me Bäum versteckt un lüeg dam ganza Theater züe. Eimol sen mr vor Angscht d’Hoor z’Barg g’standa, no war i als wieder fascht verplatzt vor lache. Das Lucie isch a Kaiwamaidle, was dam nit alles dur dr Kopf geht, un wie se alla ag’muschtert gsi sin. 
(Sieht nach rechts.)
 Ja, ich gläuib amol dert kumme si. Eh natierlig sin se si, o jeh, wenn se d’Tanta jetz g’seht, no sin mr verlore. 
(Winkt ihnen zu.)
 Um s’Himmels Willa kumma g’schwind do ahna, meine wenn d’Tanta kunnt. 
(Es erscheinen Lucie, Irène und Juliette als Köchinnen, Marthe als Eisenbahner und Jeanne in ihrem früheren Kleid.)

          
",184,weigel-in-dr-awril-gschickt,154,14,0.5283789335593309,0.09090909090909091
185,comedy,Lucie,F,,,,"
            
Lucie :

            
(zu Suzanne)

            
Ja, wu stacksch dü denn, im ganza Hüs han mr di g’süecht.

          
",185,weigel-in-dr-awril-gschickt,21,3,0.0,0.14285714285714285
186,comedy,Suzanne,F,,,,"
            
Suzanne:

            
Ich han doch dam Ding wella züelüega un han mi dert hinta versteckt g’ha. Meina numma, d’Sophie isch weder ku, un d’Tanta hat se engagiert.

          
",186,weigel-in-dr-awril-gschickt,33,4,0.0,0.12121212121212122
187,comedy,Irène,F,,,,"
            
Irène:

            
Wisse mr alles schu. S’Jeanne isch se jo gsi geh hola, fir sich noch amol vorz’stella.

          
",187,weigel-in-dr-awril-gschickt,22,1,0.0,0.045454545454545456
188,comedy,Jeanne,F,,,,"
            
Jeanne:

            
Un grad vorig sin dina Tanta, d’Mamselle Amélie un d’Sophie d’Staga ufa kumma, doch wu mr se g’sah han, han mr is versteckt un wu se dura gsi sin, heidapritsch awa in dr Garta.

          
",188,weigel-in-dr-awril-gschickt,44,3,0.0,0.06818181818181818
189,comedy,Suzanne,F,,,,"
            
Suzanne :

            
(ängstlich)

            
Ja, worum han ihr eich derno nit umzoga?

          
",189,weigel-in-dr-awril-gschickt,15,2,1.6665054774605168,0.13333333333333333
190,comedy,Juliette,F,,,,"
            
Juliette:

            
Dü müesch g’schwind unser portrait macha, waga dam han mi di iwerall g’süecht, gang hol die Apparat, mr warta dr sitter im Gartahisla.

          
",190,weigel-in-dr-awril-gschickt,29,2,0.0,0.06896551724137931
191,comedy,Suzanne,F,,,,"
            
Suzanne:

            
Güet, awer nochhar fix ins Hüs un eiri Reck ag’legt.

          
",191,weigel-in-dr-awril-gschickt,14,2,0.0,0.14285714285714285
192,comedy,Marthe,F,,,,"
            
Marthe :

            
(zu Suzanne)

            
Weisch, luschtig isch da Witz doch gsi.

          
",192,weigel-in-dr-awril-gschickt,15,2,0.0,0.13333333333333333
194,comedy,Suzanne,F,,,,"
            
Suzanne:

            
Das isch einzig gsi, de hasch’s awer o noch so güet verrota.

          
",194,weigel-in-dr-awril-gschickt,17,3,0.0,0.17647058823529413
195,comedy,Lucie,F,,,,"
            
Lucie :

            
(zu Suzanne)

            
Was meinsch jetz zu mim Awril- scharz, isch er nit g’réussiert, was han i gsait, morna kocht d’Sophie; isch’s ebba nit so ku?

          
",195,weigel-in-dr-awril-gschickt,37,3,0.0,0.08108108108108109
196,comedy,Mlle Amélie,F,companion,service_and_sales,upper_middle_class,"
            
Alle :

            
(miteinander)

            
Ja, ja, s’Lucie soll lawa!

          
",196,weigel-in-dr-awril-gschickt,14,4,0.5992660102256616,0.2857142857142857
