2022-08-20 21:55:01 - valence lexicon length: 7864
2022-08-20 21:55:01 - Number of rows: 199
2022-08-20 21:55:02 - dominance lexicon length: 7864
2022-08-20 21:55:02 - Number of rows: 199
2022-08-20 21:55:02 - arousal lexicon length: 7864
2022-08-20 21:55:02 - Number of rows: 199
2022-08-20 21:55:03 - anger lexicon length: 7864
2022-08-20 21:55:03 - Number of rows: 199
2022-08-20 21:55:04 - anticipation lexicon length: 7864
2022-08-20 21:55:04 - Number of rows: 199
2022-08-20 21:55:04 - disgust lexicon length: 7864
2022-08-20 21:55:04 - Number of rows: 199
2022-08-20 21:55:05 - fear lexicon length: 7864
2022-08-20 21:55:05 - Number of rows: 199
2022-08-20 21:55:05 - joy lexicon length: 7864
2022-08-20 21:55:05 - Number of rows: 199
2022-08-20 21:55:06 - sadness lexicon length: 7864
2022-08-20 21:55:06 - Number of rows: 199
2022-08-20 21:55:06 - surprise lexicon length: 7864
2022-08-20 21:55:06 - Number of rows: 199
2022-08-20 21:55:07 - trust lexicon length: 7864
2022-08-20 21:55:07 - Number of rows: 199
2022-08-24 17:12:59 - valence lexicon length: 7864
2022-08-24 17:12:59 - Number of rows: 199
2022-08-24 17:12:59 - dominance lexicon length: 7864
2022-08-24 17:12:59 - Number of rows: 199
2022-08-24 17:13:00 - arousal lexicon length: 7864
2022-08-24 17:13:00 - Number of rows: 199
2022-08-24 17:13:00 - anger lexicon length: 7864
2022-08-24 17:13:00 - Number of rows: 199
2022-08-24 17:13:01 - anticipation lexicon length: 7864
2022-08-24 17:13:01 - Number of rows: 199
2022-08-24 17:13:01 - disgust lexicon length: 7864
2022-08-24 17:13:01 - Number of rows: 199
2022-08-24 17:13:02 - fear lexicon length: 7864
2022-08-24 17:13:02 - Number of rows: 199
2022-08-24 17:13:02 - joy lexicon length: 7864
2022-08-24 17:13:02 - Number of rows: 199
2022-08-24 17:13:03 - sadness lexicon length: 7864
2022-08-24 17:13:03 - Number of rows: 199
2022-08-24 17:13:03 - surprise lexicon length: 7864
2022-08-24 17:13:03 - Number of rows: 199
2022-08-24 17:13:04 - trust lexicon length: 7864
2022-08-24 17:13:04 - Number of rows: 199
