Unnamed: 0,drama_type,speaker,sex,job,job_category,social_class,text,progress,short_name,numTokens,numLexTokens,avgLexVal,lexRatio
0,comedy,Lissel,F,,,,"
            
Lissel:

            
voilà, loon 's Uch gschmecke, Andrees 
            
(nachprüfend).
 Haltela, 's Glaasel isch jo noch nit göönz voll — 
            
(will einschenken.)

          
",0,riff-sainte-barbe,30,3,0.0,0.1
1,comedy,Andrees Bottjuckel,M,night_watchman,elementary_professions,lower_class,"
            
Andrees:

            
(wehrt leicht ab)

            
— 's räicht, Lissel, 's räicht! — Wäisch, so genäuej nimmt's Uenseräiner doch juscht nit grood am
            e Feschtdäuej! — 
            
(steht auf und reckt sich rasch in eine strammeHaltung.)
 — Sainte-Barbe, Lissel,
            d'erscht Sainte-Barbe wied'r nooch lange, bange Zytte! — Daß ich dieß noch erlawe hab derfe in mine
            alte Daaj, daß mir ünseri Casque un Kepi wied'r hingeviri höön derfe hole

          
",0,riff-sainte-barbe,84,6,0.0,0.07142857142857142
3,comedy,Andrees Bottjuckel,M,night_watchman,elementary_professions,lower_class,"
            
Andrees:

            
Vive la France! — Lissel, ich könnt grood hyle vor lütter Fräid!

          
",0,riff-sainte-barbe,17,3,0.0,0.17647058823529413
4,comedy,Lissel,F,,,,"
            
Lissel:

            
Ich kann's guet v'rstehn, Andrees.

          
",1,riff-sainte-barbe,10,2,0.0,0.2
5,comedy,Andrees Bottjuckel,M,night_watchman,elementary_professions,lower_class,"
            
Andrees:

            
Nee, Mäide, dies v'rstehsch Dü juschtemand lang nit so wie Uenseräiner. Do mueß m'r anno 71 d'rbie
            sin gewahn un mueß gsahne höön, wie d'Franzose ze Strooßburri nüsgezöije sin — — — 
            
(wischt sich die Augen)
 — — nom de pipe! — — wenn ich droon zeruck denk', wie
            d'Flintekolwe uffem Gelander vun d'r Wyßdurmbruck ze Krütt un Fatze gschläueje un d'Sticker 'noo ins
            Waaser ning gschmisse sin worre, wie m'r Alli. lüt uff ghylt höön vor Harzeläid, Jammer un Elang,
            ghylt wie d'kläine King, d'Burjerslytt un d'Saldote, un wie d'rnoo — — — o pauvre, pauvre Alsace!

          
",1,riff-sainte-barbe,124,8,0.0,0.06451612903225806
6,comedy,Lissel,F,,,,"
            
Lissel:

            
Kalmiere-n-Uch, Andrees. D'Franzose sin jo jetz wied'r do.

          
",1,riff-sainte-barbe,16,1,0.0,0.0625
7,comedy,Andrees Bottjuckel,M,night_watchman,elementary_professions,lower_class,"
            
Andrees:

            
Gott sej Dank, Lissel, Gott sej Dank! 
            
(setzt sich wieder).

          
",1,riff-sainte-barbe,18,5,0.4774813211148071,0.2777777777777778
8,comedy,Andrees Bottjuckel,M,night_watchman,elementary_professions,lower_class,"
            
Andrees:

            
(blitzt wieder rasch in die Höhe und salutiert stramm)

            
Guete-n-Owe Harr Brandmäischter!

          
",2,riff-sainte-barbe,19,2,0.0,0.10526315789473684
9,comedy,Schorsch Peterhänsel,M,firefighter_director,government_executive_officials,lower_middle_class,"
            
Schorsch:

            
(jovial)

            
— Guete-n-Owe Andrees. — Au schun do?

          
",2,riff-sainte-barbe,16,3,0.0,0.1875
10,comedy,Andrees Bottjuckel,M,night_watchman,elementary_professions,lower_class,"
            
Andrees:

            
(salutiert)

            
— Ja, Harr Brandmäischter.

          
",2,riff-sainte-barbe,11,2,0.0,0.18181818181818182
11,comedy,Schorsch Peterhänsel,M,firefighter_director,government_executive_officials,lower_middle_class,"
            
Schorsch:

            
Raacht so, Andrees, raacht so. — Setze-n-Uch numme. — Aha, un öijeri nöj Dienschtkapp höön'r äu
            schun uff?

          
",2,riff-sainte-barbe,28,4,0.0,0.14285714285714285
12,comedy,Andrees Bottjuckel,M,night_watchman,elementary_professions,lower_class,"
            
Andrees:

            
(salutiert)

            
— M'r sin jo jetz franzeesch, Harr Brandmäischter.

          
",3,riff-sainte-barbe,15,1,0.0,0.06666666666666667
13,comedy,Schorsch Peterhänsel,M,firefighter_director,government_executive_officials,lower_middle_class,"
            
Schorsch:

            
(lächelnd.)

            
— Raacht so, Andrees, raacht so.

          
",3,riff-sainte-barbe,15,4,0.0,0.26666666666666666
14,comedy,Daniel Wendling,M,taverner/innkeeper,service_and_sales,lower_middle_class,"
            
Daniel:

            
(hinter dem Bierausschank.)

            
— Uff dane Momant het'r schun lang gewoort. Galte, Andrees?

          
",3,riff-sainte-barbe,21,4,0.0,0.19047619047619047
15,comedy,Andrees Bottjuckel,M,night_watchman,elementary_professions,lower_class,"
            
Andrees:

            
Jo wajer.

          
",3,riff-sainte-barbe,5,1,0.0,0.2
16,comedy,Schorsch Peterhänsel,M,firefighter_director,government_executive_officials,lower_middle_class,"
            
Schorsch:

            
Aw'r mit ere Engelsgeduld, galte, Andrees?

          
",4,riff-sainte-barbe,11,2,0.0,0.18181818181818182
17,comedy,Andrees Bottjuckel,M,night_watchman,elementary_professions,lower_class,"
            
Andrees:

            
(salutiert.)

            
— In de letschte Johre nimmi, Harr Brandmäischter, denn do hawi d'Stung nimmi v'rwoorte könne,
            Harr Brandmäischter — — — —

          
",4,riff-sainte-barbe,31,1,0.0,0.03225806451612903
18,comedy,Lissel,F,,,,"
            
Lissel:

            
(drückt Andrees auf die Bank nieder.)

            
— Bliewe doch emol sitze, Andrees, m'r sin jo jetz franzeesch!

          
",4,riff-sainte-barbe,25,3,0.0,0.12
19,comedy,Daniel Wendling,M,taverner/innkeeper,service_and_sales,lower_middle_class,"
            
Daniel:

            
Zall mäin ich doch äu. Dar prejßisch Mode mueß emol v'rschwinde.

          
",4,riff-sainte-barbe,15,2,1.8255534935394226,0.13333333333333333
20,comedy,Schorsch Peterhänsel,M,firefighter_director,government_executive_officials,lower_middle_class,"
            
Schorsch:

            
Raacht so! — M'r het dies prejßische Kasarne-Trarifari ingfiehre muehn un het halt no so
            gezwungener Wies mitgemaacht, aw'r jetz heert's wied'r uff! — Lissel, schenk im Andrees noch e
            Glaasel ing.

          
",5,riff-sainte-barbe,40,5,0.0,0.125
21,comedy,Daniel Wendling,M,taverner/innkeeper,service_and_sales,lower_middle_class,"
            
Daniel:

            
(hinter dem Bierausschank ; lachend.)

            
— Aw'r Andrees!

          
",5,riff-sainte-barbe,14,2,0.0,0.14285714285714285
22,comedy,Andrees Bottjuckel,M,night_watchman,elementary_professions,lower_class,"
            
Andrees:

            
Ich maach jo e franzeescher Salü! — Het m'r nit lang genuej druff woorte muehn?! — Siewenevierzig
            Johr, ihr Manner, siewenevierzig Johr!

          
",5,riff-sainte-barbe,30,4,0.0,0.13333333333333333
23,comedy,Schorsch Peterhänsel,M,firefighter_director,government_executive_officials,lower_middle_class,"
            
Schorsch:

            
Na, no loon'm die Plasier.

          
",5,riff-sainte-barbe,10,2,0.0,0.2
24,comedy,Lissel,F,,,,"
            
Lissel:

            
Trinke doch jetz emol laar, Andrees.

          
",6,riff-sainte-barbe,10,2,0.0,0.2
25,comedy,Andrees Bottjuckel,M,night_watchman,elementary_professions,lower_class,"
            
Andrees:

            
(salutiert.)

            
— oui, mademoiselle!

          
",6,riff-sainte-barbe,11,1,0.0,0.09090909090909091
26,comedy,Lissel,F,,,,"
            
Lissel:

            
Loon m'r die Däubhäite ewack, un trinke.

          
",6,riff-sainte-barbe,11,1,0.0,0.09090909090909091
27,comedy,Andrees Bottjuckel,M,night_watchman,elementary_professions,lower_class,"
            
Andrees:

            
Däubhäite?! — Do v'rstehn ihr Wybslytt halt nix devun.

          
",6,riff-sainte-barbe,14,2,0.0,0.14285714285714285
28,comedy,Lissel,F,,,,"
            
Lissel:

            
Mientwaje! 
            
(Andrees trinkt leer, Lissel schenkt neu ein.)

          
",7,riff-sainte-barbe,15,2,0.0,0.13333333333333333
32,comedy,Schorsch Peterhänsel,M,firefighter_director,government_executive_officials,lower_middle_class,"
            
Schorsch:

            
Jaaa, wisse-n-'r, inger ünsere Bumbié sin e poor dringer — — —

          
",8,riff-sainte-barbe,18,2,0.0,0.1111111111111111
33,comedy,Daniel Wendling,M,taverner/innkeeper,service_and_sales,lower_middle_class,"
            
Daniel:

            
Un wann se-n-e Appetit höön wie d'Drescher — — — — sie asse üns nit zem Löönd nüs.

          
",8,riff-sainte-barbe,24,1,2.9431108832926243,0.041666666666666664
35,comedy,Andrees Bottjuckel,M,night_watchman,elementary_professions,lower_class,"
            
Andrees:

            
Sankt-Barwere-Äier! — Üs lüter Plasier, daß d'Franzose do sin! — Gsündhäit! — 
            
(trinkt.)

          
",8,riff-sainte-barbe,23,4,0.0,0.17391304347826086
36,comedy,Schorsch Peterhänsel,M,firefighter_director,government_executive_officials,lower_middle_class,"
            
Schorsch:

            
's war m'r aw'r äu nit erraacht, wann's an ebs fahle daat. — Un goor hyt an mim Ebredäuej. —
            Sainte-Barbe könne m'r jo jetz wied'r alle Johr fiere, gottsejdank, aw'r — — — e finfezwanzigjahrigs
            Dienschtjübiläum, dies kummt numme äinmol im Lawe.

          
",9,riff-sainte-barbe,53,2,0.0,0.03773584905660377
37,comedy,Daniel Wendling,M,taverner/innkeeper,service_and_sales,lower_middle_class,"
            
Daniel:

            
Ho zall!

          
",9,riff-sainte-barbe,5,1,3.6511069870788453,0.2
38,comedy,Lissel,F,,,,"
            
Lissel:

            
Mir zähle noch uff e fuffzigjahrigs.

          
",9,riff-sainte-barbe,9,2,0.0,0.2222222222222222
40,comedy,Andrees Bottjuckel,M,night_watchman,elementary_professions,lower_class,"
            
Andrees:

            
(salutiert.)

            
— M'r kann's nit wisse, Harr Brandmäischter.

          
",10,riff-sainte-barbe,16,1,0.0,0.0625
41,comedy,Schorsch Peterhänsel,M,firefighter_director,government_executive_officials,lower_middle_class,"
            
Schorsch:

            
(etwas geschmeichelt.)

            
— Wann d'r Kopf äu wott, so lang halte 's aw'r d'Füeß nit üs. — Un züdam, d'Junge üssem Dörfel
            wäre äu älter —

          
",10,riff-sainte-barbe,36,4,0.0,0.1111111111111111
42,comedy,Lissel,F,,,,"
            
Lissel:

            
Un welle äu emol ebs wäre in d'r Gemäin.

          
",10,riff-sainte-barbe,12,1,0.0,0.08333333333333333
44,comedy,Andrees Bottjuckel,M,night_watchman,elementary_professions,lower_class,"
            
Andrees:

            
M'r welle's aw'r nit hoffe, daß Uch d'Junge iewwer de Kopf nüs woose! — Un züdam: Brandmäischter
            kann doch nit grood Jeder spiele.

          
",11,riff-sainte-barbe,31,4,0.0,0.12903225806451613
45,comedy,Daniel Wendling,M,taverner/innkeeper,service_and_sales,lower_middle_class,"
            
Daniel:

            
Un wann'r noch so guet franzeesch kann.

          
",11,riff-sainte-barbe,10,1,0.0,0.1
46,comedy,Andrees Bottjuckel,M,night_watchman,elementary_professions,lower_class,"
            
Andrees:

            
As isch nit eso äinfach, ihr liewi Lytt! — Jaja.

          
",11,riff-sainte-barbe,15,3,0.0,0.2
47,comedy,Schorsch Peterhänsel,M,firefighter_director,government_executive_officials,lower_middle_class,"
            
Schorsch:

            
Naja, so lang wie's noch geht, v'rsahn m'r ünsere Dienscht jo wyttersch. Wann's emol nimmi geht,
            d'rnoo heere m'r vunaase uff. — Lissel schenk im Andrees noch e Glaasel ing.

          
",11,riff-sainte-barbe,41,3,0.0,0.07317073170731707
48,comedy,Lissel,F,,,,"
            
Lissel:

            
Trinke laar, Andrees.

          
",12,riff-sainte-barbe,7,2,0.0,0.2857142857142857
49,comedy,Andrees Bottjuckel,M,night_watchman,elementary_professions,lower_class,"
            
Andrees:

            
(schmunzelnd.)

            
— Noch emol? — 's isch jo schun lang laar.

          
",12,riff-sainte-barbe,18,3,0.0,0.16666666666666666
54,comedy,Schorsch Peterhänsel,M,firefighter_director,government_executive_officials,lower_middle_class,"
            
Schorsch:

            
""Ebs"" schun, ja, aw'r nimmi viel, bin ken junger Hottel meh, dies mueß m'r bedenke.

          
",13,riff-sainte-barbe,24,2,0.0,0.08333333333333333
55,comedy,Andrees Bottjuckel,M,night_watchman,elementary_professions,lower_class,"
            
Andrees:

            
(salutiert.)

            
— Exküse, Harr Brandmäischter, ich hab oochtezwanzig Johr meh uffem Buckel aß wie Ihr, aw'r
            wajezam, wann's ans trinke geht, d'rnoo stell ich miene Mann so stolz wie d'r ältscht Bumbié, un
            fröij im Däifel ebs nooch'm Alter! — Luschti laawe un saali starwe! — Gesündhäit! — 
            
(trinkt.)

          
",13,riff-sainte-barbe,69,12,0.0,0.17391304347826086
56,comedy,Schorsch Peterhänsel,M,firefighter_director,government_executive_officials,lower_middle_class,"
            
Schorsch, Daniel, Lissel:

            
Gsündhäit Andrees!

          
",14,riff-sainte-barbe,9,2,0.0,0.2222222222222222
57,comedy,Daniel Wendling,M,taverner/innkeeper,service_and_sales,lower_middle_class,"
            
Schorsch, Daniel, Lissel:

            
Gsündhäit Andrees!

          
",14,riff-sainte-barbe,9,2,0.0,0.2222222222222222
58,comedy,Lissel,F,,,,"
            
Schorsch, Daniel, Lissel:

            
Gsündhäit Andrees!

          
",14,riff-sainte-barbe,9,2,0.0,0.2222222222222222
59,comedy,Schorsch Peterhänsel,M,firefighter_director,government_executive_officials,lower_middle_class,"
            
Schorsch:

            
(schaut auf seine Uhr.)

            
— Jetz mueß ich aw'r maache, daß ich wied'r ze mim Offizierchorps zeruck kumm, sunsch gitt's noch
            Stampeneje!

          
",14,riff-sainte-barbe,31,2,0.0,0.06451612903225806
60,comedy,Daniel Wendling,M,taverner/innkeeper,service_and_sales,lower_middle_class,"
            
Daniel:

            
Wieviel fremdi Offizier sin dann kumme?

          
",15,riff-sainte-barbe,9,2,0.0,0.2222222222222222
61,comedy,Schorsch Peterhänsel,M,firefighter_director,government_executive_officials,lower_middle_class,"
            
Schorsch:

            
(stolz.)

            
— Im Göönze: zwäijedrißig.!

          
",15,riff-sainte-barbe,13,1,0.0,0.07692307692307693
62,comedy,Andrees Bottjuckel,M,night_watchman,elementary_professions,lower_class,"
            
Andrees:

            
(salutiert.)

            
— Sackerwalt!

          
",15,riff-sainte-barbe,9,1,0.0,0.1111111111111111
64,comedy,Schorsch Peterhänsel,M,firefighter_director,government_executive_officials,lower_middle_class,"
            
Schorsch:

            
(lachend.)

            
— Äij jo, aw'r — — bie dane wie jischt 'num läufe zich ich nit hott erum! — V'rstehn'r?!

          
",16,riff-sainte-barbe,29,1,0.0,0.034482758620689655
65,comedy,Andrees Bottjuckel,M,night_watchman,elementary_professions,lower_class,"
            
Andrees:

            
(salutiert.)

            
— Respakt d'rvor! — Sackerwalt! — Gsündhäit! 
            
(trinkt leer.)

          
",16,riff-sainte-barbe,22,4,0.0,0.18181818181818182
66,comedy,Lissel,F,,,,"
            
Lissel:

            
Trinke-n-'r noch e Glaasel, Andrees?

          
",16,riff-sainte-barbe,11,1,0.0,0.09090909090909091
67,comedy,Andrees Bottjuckel,M,night_watchman,elementary_professions,lower_class,"
            
Andrees:

            
Numme nit ze blitzi, sunsch wur ich hitzi! — Hähähä!

          
",16,riff-sainte-barbe,15,1,0.0,0.06666666666666667
69,comedy,Lissel,F,,,,"
            
Lissel:

            
Jaja, d'v Andrees v'rträät's. 
            
(schenkt ein.)

          
",17,riff-sainte-barbe,15,1,0.0,0.06666666666666667
70,comedy,Daniel Wendling,M,taverner/innkeeper,service_and_sales,lower_middle_class,"
            
Daniel:

            
Was trinksch denn fer e Tröpfel, Andrees?

          
",17,riff-sainte-barbe,11,2,0.0,0.18181818181818182
71,comedy,Andrees Bottjuckel,M,night_watchman,elementary_professions,lower_class,"
            
Andrees:

            
""Langsamer Salbschtmord.""

          
",17,riff-sainte-barbe,7,2,2.7905989445473107,0.2857142857142857
74,comedy,Daniel Wendling,M,taverner/innkeeper,service_and_sales,lower_middle_class,"
            
Daniel:

            
Aw'r Andrees, dies v'rträäsch Dü jo goor nit!

          
",18,riff-sainte-barbe,12,1,0.0,0.08333333333333333
75,comedy,Andrees Bottjuckel,M,night_watchman,elementary_professions,lower_class,"
            
Andrees:

            
(schmunzelnd.)

            
— Ich wäiß's, Daniel, ich wäiß's. — Aw'r, uff ünser Fescht anne — — — Gsündhäit, Harr
            Brandmäischter! — 
            
(trinki rasch ein Schlückchen, und salutiert.)

          
",18,riff-sainte-barbe,43,4,0.0,0.09302325581395349
76,comedy,Schorsch Peterhänsel,M,firefighter_director,government_executive_officials,lower_middle_class,"
            
Schorsch:

            
Wann's Uch numme gschmeckt, Andrees.

          
",19,riff-sainte-barbe,10,1,0.0,0.1
77,comedy,Andrees Bottjuckel,M,night_watchman,elementary_professions,lower_class,"
            
Andrees:

            
(wischt sich den Schnurrbart ab.)

            
— Hähähähähä!

          
",19,riff-sainte-barbe,13,1,0.0,0.07692307692307693
79,comedy,Daniel Wendling,M,taverner/innkeeper,service_and_sales,lower_middle_class,"
            
Daniel:

            
Dü hattsch aw'r Trawere trinke sotte, Andrees. — Jine bisch gewohnt vun Kingsbäine oon, aw'r dene
            do v'rträuejsch doch nit. —

          
",19,riff-sainte-barbe,27,1,0.0,0.037037037037037035
80,comedy,Andrees Bottjuckel,M,night_watchman,elementary_professions,lower_class,"
            
Andrees:

            
Ho zall!

          
",20,riff-sainte-barbe,5,2,1.8255534935394226,0.4
81,comedy,Daniel Wendling,M,taverner/innkeeper,service_and_sales,lower_middle_class,"
            
Daniel:

            
Ich wäiß's! — Maach m'r numme ken Sätz!

          
",20,riff-sainte-barbe,13,1,0.0,0.07692307692307693
83,comedy,Andrees Bottjuckel,M,night_watchman,elementary_professions,lower_class,"
            
Andrees:

            
(salutiert etwas schwankend.)

            
— Göönz mini Mäinung, Harr Brandmäischter!

          
",20,riff-sainte-barbe,16,2,0.0,0.125
84,comedy,Schorsch Peterhänsel,M,firefighter_director,government_executive_officials,lower_middle_class,"
            
Schorsch:

            
(klopft ihm auf die Schulter.)

            
— Andrees, mir bliewe biem Kirschewasser.

          
",21,riff-sainte-barbe,18,1,0.0,0.05555555555555555
85,comedy,Andrees Bottjuckel,M,night_watchman,elementary_professions,lower_class,"
            
Andrees:

            
(wie oben.)

            
— Un wann d'halb Gurjel druff geht, Harr Brandmäischter.

          
",21,riff-sainte-barbe,19,1,0.0,0.05263157894736842
86,comedy,Lissel,F,,,,"
            
Lissel:

            
(lachend.)

            
— Dies kann jo guet wäre.

          
",21,riff-sainte-barbe,13,2,0.0,0.15384615384615385
87,comedy,Daniel Wendling,M,taverner/innkeeper,service_and_sales,lower_middle_class,"
            
Daniel:

            
(lachend.)

            
— Jojo!

          
",21,riff-sainte-barbe,9,1,0.0,0.1111111111111111
88,comedy,Andrees Bottjuckel,M,night_watchman,elementary_professions,lower_class,"
            
Andrees:

            
Laache nit. — Lissel, schenk ing!

          
",22,riff-sainte-barbe,11,2,0.0,0.18181818181818182
89,comedy,Lissel,F,,,,"
            
Lissel:

            
Trinke doch zerscht laar!

          
",22,riff-sainte-barbe,7,1,0.0,0.14285714285714285
90,comedy,Andrees Bottjuckel,M,night_watchman,elementary_professions,lower_class,"
            
Andrees:

            
Ah 's isch noch ebs drinne? — Öha! — Hou-rupp! 
            
(trinkt aus.)
 Hoppla! — 's rutscht noch! Inggschankt!

          
",22,riff-sainte-barbe,29,1,0.0,0.034482758620689655
91,comedy,Schorsch Peterhänsel,M,firefighter_director,government_executive_officials,lower_middle_class,"
            
Schorsch:

            
(lachend.)

            
— Ar het e gueter Zugg, d'r Andrees.

          
",22,riff-sainte-barbe,16,3,0.0,0.1875
92,comedy,Lissel,F,,,,"
            
Lissel:

            
(lachend.)

            
— Dies sell mir nix sin!

          
",23,riff-sainte-barbe,13,1,0.0,0.07692307692307693
93,comedy,Daniel Wendling,M,taverner/innkeeper,service_and_sales,lower_middle_class,"
            
Daniel:

            
Setze-n-Uch aw'r jetz nahder geje d'r Dhüer zü, Andrees.

          
",23,riff-sainte-barbe,15,2,0.0,0.13333333333333333
94,comedy,Andrees Bottjuckel,M,night_watchman,elementary_professions,lower_class,"
            
Andrees:

            
Waje was dies?

          
",23,riff-sainte-barbe,6,1,0.0,0.16666666666666666
96,comedy,Andrees Bottjuckel,M,night_watchman,elementary_professions,lower_class,"
            
Andrees:

            
(lallend)

            
— Ah zallewaj? — 's fellt m'r aw'r goor nit ing. — ""Hier bin ich, un hier bläibe ich!"" het d'r
            Samegüschtel uff d'r Hohkinnisburri in's Adraßbuech geschriewe. — Un mir sin aw'r noch kürranter aß
            wie Iir, gall Lissel?!

          
",24,riff-sainte-barbe,56,2,0.0,0.03571428571428571
97,comedy,Lissel,F,,,,"
            
Lissel:

            
(lachend.)

            
— Hoffetli sin mir dies!

          
",24,riff-sainte-barbe,12,1,0.0,0.08333333333333333
99,comedy,Daniel Wendling,M,taverner/innkeeper,service_and_sales,lower_middle_class,"
            
Daniel:

            
Zall will ich mäine!

          
",24,riff-sainte-barbe,7,2,1.8255534935394226,0.2857142857142857
101,comedy,Schorsch Peterhänsel,M,firefighter_director,government_executive_officials,lower_middle_class,"
            
Schorsch:

            
Wäisch, Daniel, daß ich's nit v'rgiß: m'r höön um e gueti Trinkkraft zügenumme. D'r Stawalters
            Philipp het sich wied'r in d'Kumpenie uffnahme loon.

          
",25,riff-sainte-barbe,32,3,0.0,0.09375
106,comedy,Andrees Bottjuckel,M,night_watchman,elementary_professions,lower_class,"
            
Andrees:

            
(schlägt mit der Faust auf den Tisch.)

            
— Iewri bliewe derf nix! — Hupp! — Sackerwalt! — Hupp!

          
",26,riff-sainte-barbe,27,1,0.0,0.037037037037037035
107,comedy,Lissel,F,,,,"
            
Lissel:

            
(schaut zur Mitteltür hinaus.)

            
— E stockfinschteri Noocht. — Un still isch's im Dörfel!

          
",26,riff-sainte-barbe,22,1,0.0,0.045454545454545456
108,comedy,Andrees Bottjuckel,M,night_watchman,elementary_professions,lower_class,"
            
Andrees:

            
(lallend.)

            
— — Hupp! — — Woorte numme — — — as — — as kummt schun noch ööndersch! — — Hupp! — — Gsündhäit! — 
            
(trinkt).

          
",27,riff-sainte-barbe,39,3,0.0,0.07692307692307693
110,comedy,Schorsch Peterhänsel,M,firefighter_director,government_executive_officials,lower_middle_class,"
            
Schorsch:

            
Sackerwalt! Jetz mueß ich aw'r gehn! — Also, Daniel, d'r Koschtepunkt spielt ken Roll. — 's isch
            Sainte-Barbe! — Un züdam min Ehredäuej! — Un owwedrin sin m'r franzeesch! — Diesmol derfe e poor
            Krüttstickle druffgehn! — Numme, daß käin Mann vun d'r Kumpenie ebs ze reklemiere het! — Nit emol d'r
            Stawalters Philipp.

          
",27,riff-sainte-barbe,68,1,0.0,0.014705882352941176
111,comedy,Lissel,F,,,,"
            
Lissel:

            
(entsetzt.)

            
— Oh, oh, oh! — D'r Andrees — —

          
",27,riff-sainte-barbe,18,2,2.4346512759983403,0.1111111111111111
113,comedy,Andrees Bottjuckel,M,night_watchman,elementary_professions,lower_class,"
            
Andrees:

            
(die Tür suchend.)

            
— Gsündhäit! — Hupp!

          
",28,riff-sainte-barbe,14,2,0.0,0.14285714285714285
114,comedy,Daniel Wendling,M,taverner/innkeeper,service_and_sales,lower_middle_class,"
            
Daniel:

            
Maach'm hurtli d'Dhüer uff, Lissel! — Hopp, räij Dich!

          
",28,riff-sainte-barbe,17,1,0.0,0.058823529411764705
115,comedy,Lissel,F,,,,"
            
Lissel:

            
(ängstlich)

            
— Wann 'r m'r aw'r — — — ?!

          
",28,riff-sainte-barbe,15,1,3.289033568317422,0.06666666666666667
117,comedy,Andrees Bottjuckel,M,night_watchman,elementary_professions,lower_class,"
            
Andrees:

            
Ich — — ich — — ich brüch niemes! — Hupp! Ich ich kann — 
            
(drückt rasch das Taschentuch vor den Mund, stößt rasch die Tür auf und torkelt hinaus in das
            Dunkel der Nacht.)

          
",29,riff-sainte-barbe,43,2,0.0,0.046511627906976744
119,comedy,Lissel,F,,,,"
            
Lissel:

            
Jaja. — 
            
(hält sich das Taschentuch vor die Nase und schließt rasch die Tür.)
 — 's fangt jo
            schun raacht natt oon!

          
",29,riff-sainte-barbe,29,3,0.0,0.10344827586206896
121,comedy,Daniel Wendling,M,taverner/innkeeper,service_and_sales,lower_middle_class,"
            
Daniel:

            
Hawich's nit gsäit wie's kumme wurd?! — Ich kenn mini Lytt! — Lissel, stell die Schnapsflasch
            ewack, un schließ m'r 's Likörkeenschterle göönz zu. — 
            
(geschieht.)

          
",30,riff-sainte-barbe,39,2,0.0,0.05128205128205128
122,comedy,Schorsch Peterhänsel,M,firefighter_director,government_executive_officials,lower_middle_class,"
            
Schorsch:

            
Bier derfe mini Bumbié trinke, was in se ning geht. — Numme de V'rstöönd sell sich kener
            vrsüffe.

          
",30,riff-sainte-barbe,23,2,0.0,0.08695652173913043
125,comedy,Schorsch Peterhänsel,M,firefighter_director,government_executive_officials,lower_middle_class,"
            
Schorsch:

            
Mir isch's häuptsachli waje de fremde Harre Offizier, wie hynt Owe noch Alli do hare kumme! — Un
            äu waje minere Fräu!

          
",31,riff-sainte-barbe,28,4,0.0,0.14285714285714285
127,comedy,Schorsch Peterhänsel,M,firefighter_director,government_executive_officials,lower_middle_class,"
            
Schorsch:

            
Aw'r salbschtv'rstandli! — Do daat sich d'Theres dhäime nit hewwe loon. — D'erscht franzeesch
            Sainte-Barbe! Un min finfezwanzigjahrigs Dienschtjübiläum! — Ah ihr mäine?!

          
",31,riff-sainte-barbe,33,2,0.0,0.06060606060606061
129,comedy,Lissel,F,,,,"
            
Lissel:

            
Aw'r sicher! — Un wann äiner od'r d'r öönder nit kunterbiere will — — — — — 
            
(spuckt in die Hände und streift die Aermel zurück).

          
",32,riff-sainte-barbe,32,1,0.0,0.03125
130,comedy,Schorsch Peterhänsel,M,firefighter_director,government_executive_officials,lower_middle_class,"
            
Schorsch:

            
(lachend.)

            
— Na, sowyt wurd's doch hoffetli nit kumme?

          
",32,riff-sainte-barbe,17,2,0.0,0.11764705882352941
133,comedy,Schorsch Peterhänsel,M,firefighter_director,government_executive_officials,lower_middle_class,"
            
Schorsch:

            
Sie ware jetz am Dessert sin. Uff dies hawich v'rzicht. Vum Gschlacks bin ich ken Friend. Großi
            Mumpfle, die sin bie mir d'Häuptsach! — Also, wann d'r schwarz Kaffi getrunke isch, d'rnoo kumm ich
            mit d'r Theres hare. — 
            
(schaut auf seine Uhr.)
 — Bis dert anne wurd ünseri Kumpenie äu do sin.

          
",33,riff-sainte-barbe,69,5,0.0,0.07246376811594203
134,comedy,Daniel Wendling,M,taverner/innkeeper,service_and_sales,lower_middle_class,"
            
Daniel:

            
Ja un d'Harre Offizier?

          
",33,riff-sainte-barbe,8,3,0.0,0.375
135,comedy,Schorsch Peterhänsel,M,firefighter_director,government_executive_officials,lower_middle_class,"
            
Schorsch:

            
Die kumme Alli mitnöönd hare, mit Müsik.

          
",33,riff-sainte-barbe,11,2,0.0,0.18181818181818182
136,comedy,Lissel,F,,,,"
            
Lissel:

            
Ja, hingenooch wied'r, wann do d'r göönz Marikt v'rloffe-n-isch.

          
",34,riff-sainte-barbe,16,1,0.0,0.0625
137,comedy,Schorsch Peterhänsel,M,firefighter_director,government_executive_officials,lower_middle_class,"
            
Schorsch:

            
Oha! — Wann mir kumme, fangt d'r Marikt erscht raacht oon! Bedenke's doch: d'erscht franzeesch
            Sainte-Barbe, un d'rzü min finfezwanzigjahrig Dienschtjübiläum!

          
",34,riff-sainte-barbe,32,2,0.0,0.0625
138,comedy,Theres,F,,,,"
            
Theres:

            
Ja, wie räucht's dann do hinne?!

          
",34,riff-sainte-barbe,12,1,0.0,0.08333333333333333
141,comedy,Schorsch Peterhänsel,M,firefighter_director,government_executive_officials,lower_middle_class,"
            
Schorsch:

            
(will sie tätscheln.)

            
— Ja, Theres, ja.

          
",35,riff-sainte-barbe,15,2,0.0,0.13333333333333333
142,comedy,Theres,F,,,,"
            
Theres:

            
(verweisend.)

            
— Wyt vum Gschütz gitt alti Saldote! — Un iewerhäupt, los jetz! — Marsch! — en route!

          
",35,riff-sainte-barbe,28,2,0.0,0.07142857142857142
143,comedy,Schorsch Peterhänsel,M,firefighter_director,government_executive_officials,lower_middle_class,"
            
Schorsch:

            
Ja, Theres, ja. — Kum, min Harzkaferle! — 
            
(will sie umarmen.)

          
",35,riff-sainte-barbe,21,2,0.0,0.09523809523809523
146,comedy,Lissel,F,,,,"
            
Lissel:

            
(schaut zur Mitteltür hinaus.)

            
— Aw'r finschter isch's drüsse, wie im e Sack.

          
",36,riff-sainte-barbe,21,1,0.0,0.047619047619047616
148,comedy,Lissel,F,,,,"
            
Lissel:

            
Jo, m'r sin warzi lang genuej im Dunkle gedappt iewwer de Kriej!

          
",37,riff-sainte-barbe,16,3,3.1030909769871404,0.1875
149,comedy,Daniel Wendling,M,taverner/innkeeper,service_and_sales,lower_middle_class,"
            
Daniel:

            
Vor lütter Sainte-Barbe denke ünseri Harre Genieköpf im Gemäinerooth an nix Gschieds meh.

          
",37,riff-sainte-barbe,16,2,0.0,0.125
151,comedy,Daniel Wendling,M,taverner/innkeeper,service_and_sales,lower_middle_class,"
            
Daniel:

            
Petrol? — 's Elektrisch mueß hare! — Mir könne's üns läischte! — 's Gald d'rzü höön uns
            d'Stadtlytt gebroocht.

          
",37,riff-sainte-barbe,28,3,0.0,0.10714285714285714
152,comedy,Schorsch Peterhänsel,M,firefighter_director,government_executive_officials,lower_middle_class,"
            
Schorsch:

            
(atemlos.)

            
— Driewwe uff d'r Strooß — — mittle im diefschte Drack drinne — — — lejt d'r Noochtwaachter!

          
",38,riff-sainte-barbe,25,4,0.0,0.16
153,comedy,Lissel,F,,,,"
            
Lissel:

            
Oh Schrecke!

          
",38,riff-sainte-barbe,5,1,0.0,0.2
155,comedy,Schorsch Peterhänsel,M,firefighter_director,government_executive_officials,lower_middle_class,"
            
Schorsch:

            
Äij jo, zall schun. — Hilf aw'r z'erscht, daß m'r 'ne uff d'Bäin stelle könne.

          
",38,riff-sainte-barbe,22,3,1.217035662359615,0.13636363636363635
156,comedy,Lissel,F,,,,"
            
Lissel:

            
(lachend.)

            
Ich hab m'r's inggebildt, daß's eso kumme wurd.

          
",39,riff-sainte-barbe,18,2,0.0,0.1111111111111111
158,comedy,Schorsch Peterhänsel,M,firefighter_director,government_executive_officials,lower_middle_class,"
            
Schorsch:

            
Allons, kumm jetzt ich mueß häim!

          
",39,riff-sainte-barbe,10,1,0.0,0.1
159,comedy,Theres,F,,,,"
            
Theres:

            
(erscheint ebenfalls unter der Tür.)

            
— Ja, wurd's jetz bööl, od'r welle m'r do iewer Noocht bliewe?

          
",39,riff-sainte-barbe,26,2,0.0,0.07692307692307693
160,comedy,Schorsch Peterhänsel,M,firefighter_director,government_executive_officials,lower_middle_class,"
            
Schorsch:

            
Kumm doch, Daniel.

          
",40,riff-sainte-barbe,7,1,0.0,0.14285714285714285
162,comedy,Theres,F,,,,"
            
Theres:

            
's isch nit notwandi. Mir höön Alles. Numme emol erüs jetz! — 
            
(läßt eine elektrische Taschenlampe aufblitzen, schreitet den Uebrigen voran und beleuchtet
            den Weg. — Alle, bis auf Lissel, verlassen die Gaststube. Lissel macht rasch die Tür hinter den
            Dreien zu, und schaut gebückt zum Schlüsselloch hinaus.)

          
",40,riff-sainte-barbe,62,4,0.8263623635812345,0.06451612903225806
164,comedy,Lissel,F,,,,"
            
Lissel:

            
Philipp! — Hesch ken gröeßeri Viehhäit könne maache?!

          
",41,riff-sainte-barbe,13,1,0.0,0.07692307692307693
165,comedy,Philipp Stawalter,M,firefighter,government_executive_officials,lower_middle_class,"
            
Philipp:

            
(grinsend.)

            
— Wann d'Kutte nit im Waj warde gewahn, no hatt's besser geklatscht.

          
",41,riff-sainte-barbe,22,1,0.0,0.045454545454545456
166,comedy,Lissel,F,,,,"
            
Lissel:

            
Stiermaaßi genuej d'rzü wärdsch halt allewiel noch fer ebs eso ze maache.

          
",41,riff-sainte-barbe,16,2,0.0,0.125
167,comedy,Philipp Stawalter,M,firefighter,government_executive_officials,lower_middle_class,"
            
Philipp:

            
(grinsend.)

            
— Ja, mäinsch viellicht, daß Ünseräiner durch de Kriej fiener wär worre?

          
",41,riff-sainte-barbe,21,3,1.894473466167572,0.14285714285714285
169,comedy,Philipp Stawalter,M,firefighter,government_executive_officials,lower_middle_class,"
            
Philipp:

            
Lissel, beläidig ünser Bumbié-Chorps nit!

          
",42,riff-sainte-barbe,9,1,0.0,0.1111111111111111
170,comedy,Lissel,F,,,,"
            
Lissel:

            
Wärdsch ewack gebliewe vun ene! — Mit Dir läje se sich warzi wenni Ehr ing!

          
",42,riff-sainte-barbe,19,1,3.276334597011177,0.05263157894736842
171,comedy,Philipp Stawalter,M,firefighter,government_executive_officials,lower_middle_class,"
            
Philipp:

            
(weist grinsend seine gespreitzte Hand vor.)

            
— Lissel, wo die anne batscht, do woost ken Groos meh! — 
            
(ballt die Hand zur Faust.)
 — Un wann se emol ererscht eso üssieht! — 
            
(macht den rechten Unterarm einigemale vorund rückwärts schnellen.)
 — Hoppla! — Do löij
            emol anne! — hein?! — Wann d'r Hindeburri nit ghöert hatt, daß d'r Stawalters-Philipp gejenem zehjt,
            ze hatt'r noch e Wiel wyttersch gemaacht. — Aw'r denewaj het'r gedenkt: ""Jetz isch's Zytt, daß häime
            gehsch!""

          
",42,riff-sainte-barbe,107,7,0.0,0.06542056074766354
173,comedy,Philipp Stawalter,M,firefighter,government_executive_officials,lower_middle_class,"
            
Philipp:

            
Was isch los?! — Gück D'r emol dies Discheck oon! — Ain Sträich mit d'r Füscht druff, un am Bodde
            lejt's — — — grood wie ewackrasiert! — Seh ich?! — 
            
(schwingt die Faust hoch.)
 — Wie hoch gilt d'Wett?! — Äin Sträich!

          
",43,riff-sainte-barbe,60,3,0.0,0.05
174,comedy,Lissel,F,,,,"
            
Lissel:

            
(erschreckt.)

            
— Ingersteh Dich jo nit!

          
",43,riff-sainte-barbe,12,1,0.0,0.08333333333333333
177,comedy,Philipp Stawalter,M,firefighter,government_executive_officials,lower_middle_class,"
            
Philipp:

            
Ich woort uff d'Ööndere.

          
",44,riff-sainte-barbe,8,1,0.0,0.125
179,comedy,Philipp Stawalter,M,firefighter,government_executive_officials,lower_middle_class,"
            
Philipp:

            
(roh auflachend.)

            
— Drüsse lejt'r im Drack!

          
",44,riff-sainte-barbe,13,2,0.0,0.15384615384615385
180,comedy,Daniel Wendling,M,taverner/innkeeper,service_and_sales,lower_middle_class,"
            
Daniel:

            
Nee ar lejt nit! — D'r Brandmäischter un d'Theres höön 'ne mit häim genumme. — Soviel Oonstand het
            ünser Vorstand.

          
",45,riff-sainte-barbe,26,1,0.0,0.038461538461538464
183,comedy,Lissel,F,,,,"
            
Lissel:

            
(schadenfroh.)

            
— Ja, wartsch aw'r noch e weng, bis Alli do sin.

          
",45,riff-sainte-barbe,20,2,0.0,0.1
184,comedy,Philipp Stawalter,M,firefighter,government_executive_officials,lower_middle_class,"
            
Philipp:

            
Ho, hol — Numme nit eso kürios, Lissel, un maach wied'r emol e öönders Gsicht. — 
            
(will Lissel tätscheln.)

          
",46,riff-sainte-barbe,28,3,0.0,0.10714285714285714
190,comedy,Philipp Stawalter,M,firefighter,government_executive_officials,lower_middle_class,"
            
Philipp:

            
Hyt isch fer uns Bumbié e Fyrdi, un sogar e doppelter. — Do kenn ich ken Dienscht.

          
",47,riff-sainte-barbe,22,1,0.0,0.045454545454545456
191,comedy,Daniel Wendling,M,taverner/innkeeper,service_and_sales,lower_middle_class,"
            
Daniel:

            
Fyrdi hin, Fyrdi har — Dienscht od'r ken Dienscht — Kummando isch Kummando un bliet Kummando. —
            V'rstange?! — Dies isch emol mini Mainung!

          
",47,riff-sainte-barbe,31,2,1.5355201526077202,0.06451612903225806
192,comedy,Philipp Stawalter,M,firefighter,government_executive_officials,lower_middle_class,"
            
Philipp:

            
Äij jo, zall schun.

          
",48,riff-sainte-barbe,8,1,3.6511069870788453,0.125
193,comedy,Daniel Wendling,M,taverner/innkeeper,service_and_sales,lower_middle_class,"
            
Daniel:

            
Ja, aw'r Dü muesch bie jedere Gelajehäit ebs extras maache.

          
",48,riff-sainte-barbe,14,1,0.0,0.07142857142857142
195,comedy,Lissel,F,,,,"
            
Lissel:

            
(mit einem finstern Blick.)

            
— Ja, öönderi Lytt vun hinge iewerfalle un grüen un blöij häueje.

          
",48,riff-sainte-barbe,23,4,0.0,0.17391304347826086
196,comedy,Philipp Stawalter,M,firefighter,government_executive_officials,lower_middle_class,"
            
Philipp:

            
(roh auflachend.)

            
— Nit geroote! — Aw'r do mit dare Füscht 's Eck vun dare Dischplatt ewackschmattere, in äim
            Sträich — — — sahn'r, dies isch ebs extras!

          
",49,riff-sainte-barbe,37,1,0.0,0.02702702702702703
198,comedy,Philipp Stawalter,M,firefighter,government_executive_officials,lower_middle_class,"
            
Philipp:

            
Welle-n-r 's emol sahne? — 
            
(schwingt die Faust hoch.)
 — Numme äin Sträich, un 's Discheck lejt uffem Bodde. — Wie
            hoch gilt d'Wett?

          
",49,riff-sainte-barbe,36,2,0.0,0.05555555555555555
200,comedy,Philipp Stawalter,M,firefighter,government_executive_officials,lower_middle_class,"
            
Philipp:

            
(zielt mit der Faust gegen die Tischplatte.)

            
— 's eilt um fünf Franke! — cing Francs pour la exécution! — hein?! — Mit äim Sträich! — Het wer
            het!

          
",50,riff-sainte-barbe,40,2,0.0,0.05
202,comedy,Philipp Stawalter,M,firefighter,government_executive_officials,lower_middle_class,"
            
Philipp:

            
Frisch gewöijt, isch halb gewunne, wer nit setzt, kann nix bekumme! — Also: Fünf Fränkle! — Het
            niemes Kürasch? — Wer setzt d'rgeje?

          
",50,riff-sainte-barbe,34,3,0.0,0.08823529411764706
203,comedy,Daniel Wendling,M,taverner/innkeeper,service_and_sales,lower_middle_class,"
            
Daniel:

            
(faßt Philipp beim Genick und schleudert ihn in eine Ecke der Gaststube.)

            
— Hesch jetz Ruehj od'r nit, Gäuckelhirn, iewerzwarchs?!

          
",50,riff-sainte-barbe,29,1,0.0,0.034482758620689655
205,comedy,Daniel Wendling,M,taverner/innkeeper,service_and_sales,lower_middle_class,"
            
Daniel:

            
Loß 'ne leje, dane Narr!

          
",51,riff-sainte-barbe,9,2,1.9534999983874313,0.2222222222222222
206,comedy,Philipp Stawalter,M,firefighter,government_executive_officials,lower_middle_class,"
            
Philipp:

            
(erbebt sich mühsam vom Boden.)

            
— Un dies Discheck mueß hyt doch noch droon gläuwe! — V'rloon Uch druff!

          
",51,riff-sainte-barbe,26,1,0.0,0.038461538461538464
207,comedy,Lissel,F,,,,"
            
Lissel:

            
(eilt freudig erregt an die Mitteltür und reißt dieselbe auf.)

            
— D'Bumbié kumme! — D'Bumbié kumme!

          
",51,riff-sainte-barbe,25,7,0.0,0.28
208,comedy,Daniel Wendling,M,taverner/innkeeper,service_and_sales,lower_middle_class,"
            
Daniel:

            
Loß m'r die Dhüer zü! — Hesch noch nie ken Bumbié gsahne?

          
",52,riff-sainte-barbe,16,1,0.0,0.0625
210,comedy,Daniel Wendling,M,taverner/innkeeper,service_and_sales,lower_middle_class,"
            
Daniel:

            
Na, no maach nit eso v'rruckt. — 
            
(zündet ein hinter dem Ausschank stehendes Kerzenlicht an.)
 — Ich geh jetz in de
            Keeler, oonstache. — Rischt emol d'Gleeser. — 
            
(mit dem brennenden Licht ab Türe links.)

          
",52,riff-sainte-barbe,49,5,0.0,0.10204081632653061
211,comedy,Philipp Stawalter,M,firefighter,government_executive_officials,lower_middle_class,"
            
Philipp:

            
(nun etwas kleinlaut)

            
— Un ich geh do nüs, wo ich ering bin kumme. Hinge nüs, un mit de Ööndere noochhare vorne ering. —
            Lissel, gall, bisch so guet un v'rrootsch niemes nix devun, daß ich schun emol do bin gewahn. — Gall,
            Lissel? — Löij, e jeder Mensch het sini Fahler, un ich bin äu e fahlerhafter Mensch — — — —

          
",52,riff-sainte-barbe,79,4,0.39621622203071566,0.05063291139240506
213,comedy,Philipp Stawalter,M,firefighter,government_executive_officials,lower_middle_class,"
            
Philipp:

            
Juhuuuuuh! — Lissel, mit Dir döönz ich hyt Owe de-r-erschte Walzer! — 
            
(eilt zur Türe rechts, öffnet dieselbe vorsichtig, späht hinaus und schlüpft, die Tür rasch
            hinter sich schließend, ins Freie.)

          
",53,riff-sainte-barbe,43,3,0.5947351561758015,0.06976744186046512
214,comedy,Lissel,F,,,,"
            
Lissel:

            
Danz mit's Däifels Grooßel, no rannsch äu ken Häiligi um! — 
            
(öffnet die Mitteltür weit auf. Die Pompiers-Clairons und Trommeln sind noch immer gedämpft
            aus der Ferne zu hören.)

          
",53,riff-sainte-barbe,38,3,1.022267190152712,0.07894736842105263
215,comedy,Lissel,F,,,,"
            
Lissel:

            
Halt!! — — Halt!! — Halt!! — 's derf niemes ering!

          
",53,riff-sainte-barbe,20,3,0.0,0.15
216,comedy,buureburscht,M,,,,"
            
Die Burschen:

            
Oho! — Zall müeßt sin?!

          
",54,riff-sainte-barbe,11,1,3.6511069870788453,0.09090909090909091
217,comedy,Lissel,F,,,,"
            
Lissel:

            
's Wurtshüs isch hynt Owe resarviert fer d'Bumbié. — Numme wied'r nüs! — Enööndernooch! — Hopp,
            bedenke Uch numme nit lang. — D'Harre Offizier kumme äu noch! — Numme wied'r los!

          
",54,riff-sainte-barbe,42,6,0.0,0.14285714285714285
218,comedy,buuremaidle,F,,,,"
            
Die Mädchen:

            
(zu den Burschen.)

            
— Kumme, mir gehn!

          
",54,riff-sainte-barbe,15,1,0.0,0.06666666666666667
221,comedy,buuremaidle,F,,,,"
            
Die Mädchen:

            
(lachend.)

            
— Un dogebliewe wurd jetz. — Grood zeläid!

          
",55,riff-sainte-barbe,17,1,0.0,0.058823529411764705
222,comedy,Ein Bursche,M,,,,"
            
Ein Bursche:

            
Mir könne äu Sainte-Barbe fiehre, so stolz wie d'Bumbié.

          
",55,riff-sainte-barbe,15,3,0.0,0.2
224,comedy,buureburscht,M,,,,"
            
Die Burschen:

            
Kumme, ihr Mäide! 
            
(Alle placieren sich rasch am hintersten Tisch der Gaststube.)

          
",56,riff-sainte-barbe,20,2,0.0,0.1
226,comedy,buureburscht,M,,,,"
            
Die Burschen und Mädchen:

            
(lachend.)

            
— Jo wajer!

          
",56,riff-sainte-barbe,13,1,0.0,0.07692307692307693
227,comedy,buuremaidle,F,,,,"
            
Die Burschen und Mädchen:

            
(lachend.)

            
— Jo wajer!

          
",56,riff-sainte-barbe,13,1,0.0,0.07692307692307693
228,comedy,Lissel,F,,,,"
            
Lissel:

            
Mir lejt's nit oon. — Maache was'r welle. 
            
(Die Clairons und Trommeln werden jetzt in unmittelbarer Nähe hörbar und kommen allmählich vor
            der Wirtschaft an.)

          
",57,riff-sainte-barbe,33,3,1.0591072478171215,0.09090909090909091
229,comedy,Michel Ohlmershans,M,head_firefighter,government_executive_officials,lower_middle_class,"
            
Michel:

            
Kompagnie — halt! — entrer! — remplacer! — commencer! — arriver! — fouler à coups de piéd!

          
",57,riff-sainte-barbe,25,1,0.0,0.04
230,comedy,Lissel,F,,,,"
            
Lissel:

            
(geschäftig)

            
— Nahme Platz, ihr Harre! — Setze-n-Uch. — Un rucke e weng zamme, daß d'Harre Offizier noochhare
            äu noch Platz finge. — Halte, halte! — Dar Platz do vorne mueß frej bliewe fer de Harr Brandmäischter
            un d'Fräu Brandmäischtere!

          
",57,riff-sainte-barbe,56,7,0.0,0.125
231,comedy,Velde Umecker,M,firefighter_(caporal),government_executive_officials,lower_middle_class,"
            
Velde:

            
(spitz)

            
— Do hätt m'r aw'r äu zwäi Fauteuil anne stelle könne.

          
",57,riff-sainte-barbe,17,2,0.0,0.11764705882352941
232,comedy,Lissel,F,,,,"
            
Lissel:

            
Na jetzt ware numme nit schun wied'r gifti. — Ich mueß jo äu maache, was ich ghäiße wur. —
            Sitze-n-'r jetz bööl Alli?!

          
",58,riff-sainte-barbe,32,1,0.0,0.03125
233,comedy,Michel Ohlmershans,M,head_firefighter,government_executive_officials,lower_middle_class,"
            
Michel:

            
Jetz warde m'r Alli bienöönd, bis uff dane v'rlottelte Stawalters-Philipp.

          
",58,riff-sainte-barbe,14,2,0.0,0.14285714285714285
234,comedy,Philipp Stawalter,M,firefighter,government_executive_officials,lower_middle_class,"
            
Philipp:

            
So?! — Ja, wo stackt dann dar Allerwaltslottel wied'r?

          
",58,riff-sainte-barbe,15,1,0.0,0.06666666666666667
235,comedy,Michel Ohlmershans,M,head_firefighter,government_executive_officials,lower_middle_class,"
            
Michel:

            
(erstaunt.)

            
— Wo kummsch dann Dü jetz uff eesmols haregschliche?

          
",58,riff-sainte-barbe,16,1,0.0,0.0625
236,comedy,Philipp Stawalter,M,firefighter,government_executive_officials,lower_middle_class,"
            
Philipp:

            
(lacht roh auf und schlägt sich auf das Knie.)

            
— Hahaha! — Jetz wurd's Däuej! — Höön'r mich drowwe am Spritzehüs nit gsahne?

          
",59,riff-sainte-barbe,32,2,0.0,0.0625
237,comedy,Michel Ohlmershans,M,head_firefighter,government_executive_officials,lower_middle_class,"
            
Michel:

            
Biem Apall uff kene Fall

          
",59,riff-sainte-barbe,7,2,0.0,0.2857142857142857
238,comedy,Philipp Stawalter,M,firefighter,government_executive_officials,lower_middle_class,"
            
Philipp:

            
Aw'r glich druff bin ich kumme. — Isch''s imstöönd nit so, Herr Korperal? 
            
(zwinkert Velde mit den Augen zu.)

          
",59,riff-sainte-barbe,28,2,0.3104520730367321,0.07142857142857142
239,comedy,Velde Umecker,M,firefighter_(caporal),government_executive_officials,lower_middle_class,"
            
Velde:

            
Grood wie m'r ewack marschiert sin, isch'r noochzeranne kumme. Zall isch wohr.

          
",59,riff-sainte-barbe,17,3,1.217035662359615,0.17647058823529413
241,comedy,Philipp Stawalter,M,firefighter,government_executive_officials,lower_middle_class,"
            
Philipp:

            
(gelassen.)

            
— Jaja. — Aw'r Dir will ich eens säueje, Michel, un's öönder äu glich: ich will hynt Owe ken
            zwäitsmol meh so oongschnäuzt ware do hinne, sunscht schmiß ich Uch de göönze Battel wied'r vor
            d'Füeß! — Mir sin jetz franzeesch, wann'r 's je noch nit wisse, v'rstange?!

          
",60,riff-sainte-barbe,66,1,0.0,0.015151515151515152
242,comedy,Daniel Wendling,M,taverner/innkeeper,service_and_sales,lower_middle_class,"
            
Daniel:

            
Guete-n-Owe bienöönd.

          
",60,riff-sainte-barbe,7,1,0.0,0.14285714285714285
245,comedy,Lissel,F,,,,"
            
Lissel:

            
Numme emol de Hahne uff un d'Gleeser gfillt. An mir sell's nit fahle.

          
",61,riff-sainte-barbe,19,2,0.0,0.10526315789473684
247,comedy,Lissel,F,,,,"
            
Lissel:

            
Dü muesch halt wied'r d'r Erscht sin, wie's Mül uffrißt.

          
",61,riff-sainte-barbe,15,2,0.0,0.13333333333333333
250,comedy,bumbie,U,,,,"
            
D'Bumbié:

            
Bravo! — Bravo!

          
",62,riff-sainte-barbe,8,1,0.0,0.125
252,comedy,Lissel,F,,,,"
            
Lissel:

            
Drej Kiwwel voll Grümbeeresalot.

          
",63,riff-sainte-barbe,7,1,0.0,0.14285714285714285
253,comedy,bumbie,U,,,,"
            
D'Bumbié:

            
Bravo!

          
",63,riff-sainte-barbe,5,1,0.0,0.2
254,comedy,Daniel Wendling,M,taverner/innkeeper,service_and_sales,lower_middle_class,"
            
Daniel:

            
Zwäi Meter fuffzig Brootwurscht uff de Mann.

          
",63,riff-sainte-barbe,10,2,0.0,0.2
255,comedy,bumbie,U,,,,"
            
D'Bumbié:

            
Bravo!

          
",63,riff-sainte-barbe,5,1,0.0,0.2
257,comedy,Daniel Wendling,M,taverner/innkeeper,service_and_sales,lower_middle_class,"
            
Daniel:

            
E Säichkaschte voll, mit Respakt ze malde.

          
",64,riff-sainte-barbe,11,2,0.0,0.18181818181818182
258,comedy,bumbie,U,,,,"
            
D'Bumbié:

            
Bravo!

          
",64,riff-sainte-barbe,5,1,0.0,0.2
259,comedy,Philipp Stawalter,M,firefighter,government_executive_officials,lower_middle_class,"
            
Philipp:

            
(sein Glas hochschwingend.)

            
— Kamerade! — Gsündhäit!

          
",64,riff-sainte-barbe,14,2,0.0,0.14285714285714285
260,comedy,bumbie,U,,,,"
            
D'Bumbié:

            
Gsündhäit! 
            
(sie trinken.)

          
",65,riff-sainte-barbe,10,2,0.0,0.2
261,comedy,Philipp Stawalter,M,firefighter,government_executive_officials,lower_middle_class,"
            
Philipp:

            
Kamerade! — Sahn'r dies Discheck do? — 
            
(schwingt die Faust hoch.)
 — Äin Sträich vun mir, un's ringelt sich uffem Bode wie e
            oongepickter Rajewurm! — Mit äim Sträich mueß's leje! — Ich setz fünf. Fränkle! — Wer setzt
            d'rgeje?!

          
",65,riff-sainte-barbe,57,3,0.0,0.05263157894736842
263,comedy,Michel Ohlmershans,M,head_firefighter,government_executive_officials,lower_middle_class,"
            
Michel:

            
Wrinke m'r äins, ihr Manner!

          
",65,riff-sainte-barbe,9,1,0.0,0.1111111111111111
264,comedy,buureburscht,M,,,,"
            
Ein Bauernbursche:

            
Unseri Bumbié selle lawe!

          
",66,riff-sainte-barbe,8,2,0.0,0.25
266,comedy,Michel Ohlmershans,M,head_firefighter,government_executive_officials,lower_middle_class,"
            
Michel:

            
's erscht Glas hatte m'r äijetli uff's Wohl vun ünserem Brandmäischter laartrinke selle.

          
",66,riff-sainte-barbe,17,2,0.0,0.11764705882352941
271,comedy,Michel Ohlmershans,M,head_firefighter,government_executive_officials,lower_middle_class,"
            
Michel:

            
Kamerade! — Fünfezwanzig Johr steht hyt ünser Brandmäischter uff siem schware Poschte. — 
            
Fünfezwanzig Johr sin sozesäueje e Stick Menschealter — — — —

          
",67,riff-sainte-barbe,28,3,0.0,0.10714285714285714
272,comedy,Velde Umecker,M,firefighter_(caporal),government_executive_officials,lower_middle_class,"
            
Velde:

            
(schreit dazwischen.)

            
— Was Raacht isch, mueß Raacht bliewe! — Pardon, Harr Spritzemäischter, ich mueß Dir in Dini Red
            ning falle, aw'r — — — was Raacht isch, mueß Raacht bliewe!

          
",68,riff-sainte-barbe,43,5,0.0,0.11627906976744186
274,comedy,Velde Umecker,M,firefighter_(caporal),government_executive_officials,lower_middle_class,"
            
Velde:

            
Ich bin jo noch nit ferti — Kamerade! — Ünser Harr Brandmaischter loßt sich hynt Owe wied'r e
            schwar's Stick Gald koschte — — —

          
",68,riff-sainte-barbe,29,3,0.0,0.10344827586206896
275,comedy,bumbie,U,,,,"
            
D'Bumbié:

            
Bravo! — Vive!

          
",68,riff-sainte-barbe,8,1,0.0,0.125
276,comedy,Michel Ohlmershans,M,head_firefighter,government_executive_officials,lower_middle_class,"
            
Michel:

            
Ja, Velde, ich bin doch am redde.

          
",69,riff-sainte-barbe,12,1,0.0,0.08333333333333333
278,comedy,Michel Ohlmershans,M,head_firefighter,government_executive_officials,lower_middle_class,"
            
Michel:

            
Dies isch e ordinäri Inbüssion!

          
",69,riff-sainte-barbe,8,1,0.0,0.125
279,comedy,Velde Umecker,M,firefighter_(caporal),government_executive_officials,lower_middle_class,"
            
Velde:

            
In-sub-or-di-na-tion! säit m'r d'rzü, wann m'r latinisch babble will. Wann m'r aw'r do nit kabawel
            genuej isch d'rzü, d'rnoo halt m'r scheen sin däub Mül un trinkt sin Bier.

          
",69,riff-sainte-barbe,39,4,0.0,0.10256410256410256
281,comedy,Michel Ohlmershans,M,head_firefighter,government_executive_officials,lower_middle_class,"
            
Michel:

            
(vor Wut schäumend.)

            
— No isch's ewwe e Inbüsordination vor v'rsammelter Mannschaft! — Un geje so ebs proteschtier
            ich!

          
",70,riff-sainte-barbe,27,4,0.0,0.14814814814814814
282,comedy,Philipp Stawalter,M,firefighter,government_executive_officials,lower_middle_class,"
            
Philipp:

            
Gsündhäit!

          
",70,riff-sainte-barbe,4,1,0.0,0.25
283,comedy,Daniel Wendling,M,taverner/innkeeper,service_and_sales,lower_middle_class,"
            
Daniel:

            
Ruehji, ruehji! — Fange doch nit schun so an!

          
",70,riff-sainte-barbe,14,3,0.0,0.21428571428571427
284,comedy,buureburscht,M,,,,"
            
Die Burschen und Mädchen:

            
(singen.)

            
— Nür äinmal blüht, wenn's niemand sieht, nür äinmal im Leben die Liebe!

          
",71,riff-sainte-barbe,26,3,0.0,0.11538461538461539
285,comedy,buuremaidle,F,,,,"
            
Die Burschen und Mädchen:

            
(singen.)

            
— Nür äinmal blüht, wenn's niemand sieht, nür äinmal im Leben die Liebe!

          
",71,riff-sainte-barbe,26,3,0.0,0.11538461538461539
286,comedy,Michel Ohlmershans,M,head_firefighter,government_executive_officials,lower_middle_class,"
            
Michel:

            
(wütend.)

            
— Ja, wo bliet dann do noch d'Majorität?!

          
",71,riff-sainte-barbe,18,2,0.0,0.1111111111111111
288,comedy,Philipp Stawalter,M,firefighter,government_executive_officials,lower_middle_class,"
            
Philipp:

            
(dreht sich auf dem Absatz herum.)

            
— Do mueß jo e Gückelhahn laache! — Lissel, räich Bier eriewwer!

          
",72,riff-sainte-barbe,26,1,0.0,0.038461538461538464
290,comedy,Velde Umecker,M,firefighter_(caporal),government_executive_officials,lower_middle_class,"
            
Die Mädchen:

            
Gsündhäit!

          
",72,riff-sainte-barbe,5,1,0.0,0.2
292,comedy,bumbie,U,,,,"
            
D'Bumbié:

            
Gsündhäit!

          
",73,riff-sainte-barbe,5,2,0.0,0.4
293,comedy,Velde Umecker,M,firefighter_(caporal),government_executive_officials,lower_middle_class,"
            
Velde:

            
Kamerade!

          
",73,riff-sainte-barbe,4,1,0.0,0.25
295,comedy,Velde Umecker,M,firefighter_(caporal),government_executive_officials,lower_middle_class,"
            
Velde:

            
Mir fiere hyt Sainte-Barbe un zeglich 's Jübiläum vun ünserem Harr Brandmäischter.

          
",73,riff-sainte-barbe,15,1,0.0,0.06666666666666667
303,comedy,Velde Umecker,M,firefighter_(caporal),government_executive_officials,lower_middle_class,"
            
Velde:

            
Kamerade! Mir sin v'rgnüejt bienöönd, mir, ja. — Aw'r — — — wo sin ünseri Harre Offizier?! —
            Hinne?! — 
            
(Beistimmendes Gemurmel.)

          
",75,riff-sainte-barbe,35,4,0.0,0.11428571428571428
305,comedy,Velde Umecker,M,firefighter_(caporal),government_executive_officials,lower_middle_class,"
            
Velde:

            
(lachend.)

            
— Jetz wäiß ich's. — 
            
(Gelächter allseits.)

          
",76,riff-sainte-barbe,18,1,0.0,0.05555555555555555
306,comedy,Daniel Wendling,M,taverner/innkeeper,service_and_sales,lower_middle_class,"
            
Daniel:

            
Ruehji!

          
",76,riff-sainte-barbe,4,1,0.0,0.25
308,comedy,Lissel,F,,,,"
            
Lissel:

            
M'r daats aw'r bööl mäine.

          
",77,riff-sainte-barbe,8,1,0.0,0.125
309,comedy,Philipp Stawalter,M,firefighter,government_executive_officials,lower_middle_class,"
            
Philipp:

            
Lissel, ich hab Durscht.

          
",77,riff-sainte-barbe,8,1,0.0,0.125
311,comedy,Velde Umecker,M,firefighter_(caporal),government_executive_officials,lower_middle_class,"
            
Velde:

            
Ich fröij noch emol: wo sin ünseri Harre Offizier?!

          
",77,riff-sainte-barbe,14,3,0.0,0.21428571428571427
312,comedy,Michel Ohlmershans,M,head_firefighter,government_executive_officials,lower_middle_class,"
            
Michel:

            
Velde, jetz nimm ich Dir's Wort!

          
",78,riff-sainte-barbe,11,1,0.0,0.09090909090909091
313,comedy,Velde Umecker,M,firefighter_(caporal),government_executive_officials,lower_middle_class,"
            
Velde:

            
E Drack kannsch Dü mir nahme, v'rstange?!

          
",78,riff-sainte-barbe,12,1,0.0,0.08333333333333333
315,comedy,bumbie,U,,,,"
            
D'Bumbié:

            
's isch Sainte-Barbe!

          
",78,riff-sainte-barbe,7,1,0.0,0.14285714285714285
316,comedy,buureburscht,M,,,,"
            
Die Burschen und Mädchen:

            
(singen.)

            
— Schön isch die Jü-ügend, sie kommt nicht mehr!

          
",79,riff-sainte-barbe,20,3,0.0,0.15
317,comedy,buuremaidle,F,,,,"
            
Die Burschen und Mädchen:

            
(singen.)

            
— Schön isch die Jü-ügend, sie kommt nicht mehr!

          
",79,riff-sainte-barbe,20,3,0.0,0.15
318,comedy,Michel Ohlmershans,M,head_firefighter,government_executive_officials,lower_middle_class,"
            
Michel:

            
D'Glycerin mueß hoch ghalte ware!

          
",79,riff-sainte-barbe,9,1,0.0,0.1111111111111111
320,comedy,Daniel Wendling,M,taverner/innkeeper,service_and_sales,lower_middle_class,"
            
Daniel:

            
Jetz loon doch emol die ewige Stupfereje ewack!

          
",80,riff-sainte-barbe,11,2,0.0,0.18181818181818182
322,comedy,Michel Ohlmershans,M,head_firefighter,government_executive_officials,lower_middle_class,"
            
Michel:

            
Silence! — Ünser Harr Brandmäischter sell lawe!

          
",80,riff-sainte-barbe,11,1,0.0,0.09090909090909091
324,comedy,Philipp Stawalter,M,firefighter,government_executive_officials,lower_middle_class,"
            
Philipp:

            
Na, het noch Kener d'Kürasch?! — 
            
(schwingt die Faust hoch.)
 — Mit äim Sträich! — Hoppla! -Wer setzt d'rgeje?!

          
",81,riff-sainte-barbe,34,1,0.0,0.029411764705882353
327,comedy,Velde Umecker,M,firefighter_(caporal),government_executive_officials,lower_middle_class,"
            
Velde:

            
Wann noochhare ünseri Offizier kumme, Michel, no will ich hoffe, daß Dü mine Standpunkt
            v'rtrittsch — — —

          
",81,riff-sainte-barbe,23,4,0.0,0.17391304347826086
328,comedy,Michel Ohlmershans,M,head_firefighter,government_executive_officials,lower_middle_class,"
            
Michel:

            
Bisch jetz bööl emol still?!

          
",82,riff-sainte-barbe,9,1,0.0,0.1111111111111111
329,comedy,Velde Umecker,M,firefighter_(caporal),government_executive_officials,lower_middle_class,"
            
Velde:

            
Noch lang nit!

          
",82,riff-sainte-barbe,6,1,0.0,0.16666666666666666
331,comedy,Velde Umecker,M,firefighter_(caporal),government_executive_officials,lower_middle_class,"
            
Velde:

            
Fer mich hesch Dü ken Abfüehrmittel!

          
",82,riff-sainte-barbe,9,1,1.9810395237742,0.1111111111111111
332,comedy,Daniel Wendling,M,taverner/innkeeper,service_and_sales,lower_middle_class,"
            
Daniel:

            
Wenn's jetz ken Ruehj gitt, no bloos ich d'Lampe üs! — E Starnsapeprmant nochemol!

          
",83,riff-sainte-barbe,21,3,0.0,0.14285714285714285
333,comedy,Velde Umecker,M,firefighter_(caporal),government_executive_officials,lower_middle_class,"
            
Velde:

            
(klopft ihm lächelnd auf die Schulter.)

            
— So wyt geht d'Narrhäit noch nit bie Dir, Daniel. —

          
",83,riff-sainte-barbe,25,1,0.0,0.04
334,comedy,buureburscht,M,,,,"
            
Die Burschen und Mädchen:

            
(singend.)

            
— O Süsanne, wie isch das Leben doch so schön! — O Süsanna, wie isch das Leben schön!

          
",83,riff-sainte-barbe,31,4,0.0,0.12903225806451613
335,comedy,buuremaidle,F,,,,"
            
Die Burschen und Mädchen:

            
(singend.)

            
— O Süsanne, wie isch das Leben doch so schön! — O Süsanna, wie isch das Leben schön!

          
",83,riff-sainte-barbe,31,4,0.0,0.12903225806451613
336,comedy,Lissel,F,,,,"
            
Lissel:

            
(haut Michel, welcher sie in die Wange kneifen will, auf die Finger.)

            
— Michel, dies könne-n-'r dhäime bie Öijere Fräu maache! — Aw'r mich loon'r in Ruehj! — Ich säe's
            Uch!

          
",84,riff-sainte-barbe,45,1,0.0,0.022222222222222223
339,comedy,buureburscht,M,,,,"
            
Die Burschen und Mädchen:

            
(singen.) — Röslein, Röslein, Röslein rot! Röslein auf der Heiden!

          
",84,riff-sainte-barbe,22,2,0.0,0.09090909090909091
340,comedy,buuremaidle,F,,,,"
            
Die Burschen und Mädchen:

            
(singen.) — Röslein, Röslein, Röslein rot! Röslein auf der Heiden!

          
",85,riff-sainte-barbe,22,2,0.0,0.09090909090909091
341,comedy,chorus,U,,,,"
            
Chorus:

            
(wiederholend.)

            
— Röslein, Röslein, Röslein rot! Röslein auf der Heide !

          
",85,riff-sainte-barbe,19,1,0.0,0.05263157894736842
342,comedy,Schorsch Peterhänsel,M,firefighter_director,government_executive_officials,lower_middle_class,"
            
Schorsch:

            
à la bonheur! — Do geht's jo schun raacht luschdi zü!

          
",85,riff-sainte-barbe,16,2,0.0,0.125
343,comedy,Michel Ohlmershans,M,head_firefighter,government_executive_officials,lower_middle_class,"
            
Michel:

            
Kamerade! — Ünser Harr Brandmäischter un d'Fräu Brandmäischtere selle lawe!

          
",85,riff-sainte-barbe,15,2,0.0,0.13333333333333333
346,comedy,Schorsch Peterhänsel,M,firefighter_director,government_executive_officials,lower_middle_class,"
            
Schorsch:

            
(pustend.)

            
— Deraschiere Uch numme nit. Numme luschti druff los.

          
",86,riff-sainte-barbe,17,3,0.0,0.17647058823529413
347,comedy,Philipp Stawalter,M,firefighter,government_executive_officials,lower_middle_class,"
            
Philipp:

            
Dies isch äu mini Mäinung. — Harr Brandmäischter, betraachte die Füscht, un betraachte dies
            Discheck. — Äin Sträich vun mir vun owwera — — — — —

          
",86,riff-sainte-barbe,33,3,0.0,0.09090909090909091
349,comedy,Schorsch Peterhänsel,M,firefighter_director,government_executive_officials,lower_middle_class,"
            
Schorsch:

            
Warm isch's do hinne, Theres, grießerli warm.

          
",87,riff-sainte-barbe,13,2,0.0,0.15384615384615385
350,comedy,Theres,F,,,,"
            
Theres:

            
Hawich D'r's nit allewiel gsäit, Dü sellsch nit zeviel trinke? — Un no dar Kanztistriewelwyn, dar
            hatt ewack sotte bliewe.

          
",87,riff-sainte-barbe,27,1,0.0,0.037037037037037035
354,comedy,Theres,F,,,,"
            
Theres:

            
Na, viellicht äu zwäi, aw'r höchschtens drej.

          
",88,riff-sainte-barbe,12,1,0.0,0.08333333333333333
355,comedy,Schorsch Peterhänsel,M,firefighter_director,government_executive_officials,lower_middle_class,"
            
Schorsch:

            
Ja, ohni d'r Rascht!

          
",88,riff-sainte-barbe,8,1,0.0,0.125
357,comedy,Schorsch Peterhänsel,M,firefighter_director,government_executive_officials,lower_middle_class,"
            
Schorsch:

            
(pustend.)

            
— Ich kriej bööl ken Luft meh.

          
",89,riff-sainte-barbe,14,1,5.683420398502716,0.07142857142857142
358,comedy,Theres,F,,,,"
            
Theres:

            
Maach de Kräueje uff un d'Knepf am Frack. 
            
(geschieht.)

          
",89,riff-sainte-barbe,16,1,0.0,0.0625
359,comedy,Velde Umecker,M,firefighter_(caporal),government_executive_officials,lower_middle_class,"
            
Velde:

            
Michel, entweder säesch jetzt was ze säueje isch, od'r ich fang oon. — Aw'r no wurd ken Blatt
            vor's Mül genumme.

          
",89,riff-sainte-barbe,28,2,0.0,0.07142857142857142
360,comedy,Michel Ohlmershans,M,head_firefighter,government_executive_officials,lower_middle_class,"
            
Michel:

            
Sej zefridde, Velde, ich träe's schun vor.

          
",90,riff-sainte-barbe,13,1,0.0,0.07692307692307693
362,comedy,Theres,F,,,,"
            
Theres:

            
Als noch? — Lissel, maach irjes uff un loß frischi Luft ering. — 
            
(Lissel öffnet ein Fenster.)

          
",90,riff-sainte-barbe,25,2,0.0,0.08
363,comedy,Daniel Wendling,M,taverner/innkeeper,service_and_sales,lower_middle_class,"
            
Daniel:

            
Trinke ihr Harrschafte äu Bier?

          
",90,riff-sainte-barbe,8,1,0.0,0.125
368,comedy,Velde Umecker,M,firefighter_(caporal),government_executive_officials,lower_middle_class,"
            
Velde:

            
Aha! — Andli!

          
",92,riff-sainte-barbe,7,1,0.0,0.14285714285714285
369,comedy,Michel Ohlmershans,M,head_firefighter,government_executive_officials,lower_middle_class,"
            
Michel:

            
Hochv'rehrti Fräu Brandmäischtere un Jübilarin! — Liewi Kamerade! — As isch hyt e großer Däuej fer
            üns Alli zamme —

          
",92,riff-sainte-barbe,24,3,0.0,0.125
370,comedy,Velde Umecker,M,firefighter_(caporal),government_executive_officials,lower_middle_class,"
            
Velde:

            
D'Offizier! — D'Offizier!

          
",92,riff-sainte-barbe,9,2,0.0,0.2222222222222222
371,comedy,Michel Ohlmershans,M,head_firefighter,government_executive_officials,lower_middle_class,"
            
Michel:

            
Un dorum selle ünseri Harre Offizier, un vor allem ünserer Harr Jübilar lawe! — vive!

          
",92,riff-sainte-barbe,20,3,0.0,0.15
373,comedy,Velde Umecker,M,firefighter_(caporal),government_executive_officials,lower_middle_class,"
            
Velde:

            
(knirschend.)

            
— Na wart numme!

          
",93,riff-sainte-barbe,11,1,0.0,0.09090909090909091
374,comedy,Schorsch Peterhänsel,M,firefighter_director,government_executive_officials,lower_middle_class,"
            
Schorsch:

            
(kläglich.)

            
— Theres, mir wurd's schlaacht! Ich mueß an d'Luft!

          
",93,riff-sainte-barbe,20,2,0.0,0.1
375,comedy,Theres,F,,,,"
            
Theres:

            
Zerscht muesch noch e Red halte. — 's isch Dini Pflicht.

          
",93,riff-sainte-barbe,15,1,0.0,0.06666666666666667
377,comedy,Theres,F,,,,"
            
Theres:

            
Riß Dich zamme.

          
",94,riff-sainte-barbe,6,1,0.0,0.16666666666666666
380,comedy,Schorsch Peterhänsel,M,firefighter_director,government_executive_officials,lower_middle_class,"
            
Schorsch:

            
(seufzend.)

            
— Na, ich will's prowiere. — Kamerade! — Was wohr isch, kann m'r säueje. — Fünfezwanzig Johr sin
            ken Kläinigkäit — — un — — un — — ich kann Jedem säueje — daß — — daß — — ihr Manner, nahme m'r's nit
            iewel — — as — — as — as wurd m'r unpaßli!

          
",95,riff-sainte-barbe,71,4,0.0,0.056338028169014086
382,comedy,Lissel,F,,,,"
            
Lissel:

            
(besorgt.)

            
— Steht's schlimm, Harr Brandmäischter?

          
",95,riff-sainte-barbe,14,2,2.9568102345058285,0.14285714285714285
383,comedy,Schorsch Peterhänsel,M,firefighter_director,government_executive_officials,lower_middle_class,"
            
Schorsch:

            
(abwehrend.)

            
— Loon mich nüs — — loon mich nüs. — 
            
(taumelt zur Tür rechts hinaus in den Hof).

          
",95,riff-sainte-barbe,28,3,0.0,0.10714285714285714
384,comedy,Velde Umecker,M,firefighter_(caporal),government_executive_officials,lower_middle_class,"
            
Velde:

            
Wann'r halt Bier getrunke hatt, wie Ünseräiner — — —

          
",96,riff-sainte-barbe,13,1,0.0,0.07692307692307693
387,comedy,Michel Ohlmershans,M,head_firefighter,government_executive_officials,lower_middle_class,"
            
Michel:

            
Silence! — D'Fräu Brandmäischtere het's Wort!

          
",96,riff-sainte-barbe,12,1,0.0,0.08333333333333333
388,comedy,Theres,F,,,,"
            
Theres:

            
Ihr Manner! — Vun jehar hawich mich fer ünseri Fäierwehr intressiert, un um alli
            BumbiéAngelajehäite oongenumme.

          
",97,riff-sainte-barbe,21,1,0.0,0.047619047619047616
390,comedy,Theres,F,,,,"
            
Theres:

            
(schlägt sich auf die Brust.)

            
— Fünfezwanzig Johr stehn mir uff ünserem Poschte.

          
",97,riff-sainte-barbe,19,1,0.0,0.05263157894736842
392,comedy,Theres,F,,,,"
            
Theres:

            
(trocknet sich nervös die Stirne.)

            
— Mit Stolz un Fräid, trotz Gift un Näid, höön mir ünser Amt gewissehaft bekläidt.

          
",98,riff-sainte-barbe,28,6,0.8468612351614745,0.21428571428571427
400,comedy,Theres,F,,,,"
            
Theres:

            
(trocknet sich nervös die Stirn.)

            
— Un war het bie d'r Parad mit d'r beschte, gröschte un vornahmschte Spritz kunkeriere kenne? — 
            
(schlägt sich auf die Brust.)
 — Mir!

          
",100,riff-sainte-barbe,40,3,0.0,0.075
402,comedy,Theres,F,,,,"
            
Theres:

            
Un d'Harre Offizier vun ünserer Kumpenie —

          
",100,riff-sainte-barbe,10,2,0.0,0.2
403,comedy,Velde Umecker,M,firefighter_(caporal),government_executive_officials,lower_middle_class,"
            
Velde:

            
(dazwischen schreiend.)

            
— Ja?! — Wo sin se, ünseri Harre Offizier?! — Wo sin se?!

          
",100,riff-sainte-barbe,27,4,0.0,0.14814814814814814
404,comedy,Michel Ohlmershans,M,head_firefighter,government_executive_officials,lower_middle_class,"
            
Michel:

            
Velde, jetz isch's awr genuej! — Bie dr nachschte V'rsammlung stell ich de Anträuej — —

          
",101,riff-sainte-barbe,21,2,0.0,0.09523809523809523
405,comedy,Daniel Wendling,M,taverner/innkeeper,service_and_sales,lower_middle_class,"
            
Daniel:

            
(beschwichtigend.)

            
— Stille, stille, stille!

          
",101,riff-sainte-barbe,13,3,0.0,0.23076923076923078
406,comedy,Velde Umecker,M,firefighter_(caporal),government_executive_officials,lower_middle_class,"
            
Velde:

            
In d'r nachschte V'rsammlung haltsch Dü Din Mül, v'rstange?!

          
",101,riff-sainte-barbe,14,2,0.0,0.14285714285714285
407,comedy,Daniel Wendling,M,taverner/innkeeper,service_and_sales,lower_middle_class,"
            
Daniel:

            
Bliewe doch ruehji jetz.

          
",101,riff-sainte-barbe,7,1,0.0,0.14285714285714285
408,comedy,Velde Umecker,M,firefighter_(caporal),government_executive_officials,lower_middle_class,"
            
Velde:

            
Bild D'r numme nit ze viel ing uff Dine Spritzemäischter! — Fräu Brandmäischtere, ich hätt jetz
            gare emol Ööntwort uff die Fröij, wo ünseri Harre Offizier sin?!

          
",102,riff-sainte-barbe,34,5,0.0,0.14705882352941177
409,comedy,Theres,F,,,,"
            
Theres:

            
(trocknet sich nervös die Stirn.)

            
— Sie kumme noch — — — sie kumme — — un d'Müsik kummt äu noch — — Alli, Alli kumme se! — — —
            Harrjesses — — dar Kanztistriewelwyn — — — ooooh! — — — jetz wurd's mir wajer äu noch unpaßli! — — —
            ooooh! — — oooh! ooooooh !

          
",102,riff-sainte-barbe,71,5,0.0,0.07042253521126761
410,comedy,Lissel,F,,,,"
            
Lissel:

            
(springt rasch hinzu.)

            
— kumme, Fräu Brandmäischtere, ich geh mit Uch. — 
            
(geleitet die Schwankende zur Tür rechts hinaus in den Hof.)

          
",102,riff-sainte-barbe,33,2,0.0,0.06060606060606061
412,comedy,Daniel Wendling,M,taverner/innkeeper,service_and_sales,lower_middle_class,"
            
Daniel:

            
D'Rachnung zahlsch, un wann se noch so gsalze wurd!

          
",103,riff-sainte-barbe,14,1,0.0,0.07142857142857142
413,comedy,Philipp Stawalter,M,firefighter,government_executive_officials,lower_middle_class,"
            
Philipp:

            
(stolz)

            
— Mir zahle se! — Numme ken Angscht!

          
",103,riff-sainte-barbe,15,3,0.0,0.2
414,comedy,alle,U,,,,"
            
Alle:

            
(freudig)

            
— D'Offizier kumme! — D'Offizier kumme!

          
",103,riff-sainte-barbe,15,5,0.0,0.3333333333333333
415,comedy,Michel Ohlmershans,M,head_firefighter,government_executive_officials,lower_middle_class,"
            
Michel:

            
(zu Velde.)

            
— Aha jetz?! — Bisch jetz zefridde?! — 
            
(zu den Uebrigen.)
 — Attention! — Garde à vous! — In zwäi Glidder oontratte! —
            Ehrespalier! — 
            
(wird von den Bumbiés flink und ordnungsgemäß ausgeführt, sodaß gegen der Mitteltür zu eine
            Gasse gebildet ist. — Die Musik ist inzwischen vor der Wirtschaft angelangt.)

          
",103,riff-sainte-barbe,74,3,0.0,0.04054054054054054
416,comedy,Michel Ohlmershans,M,head_firefighter,government_executive_officials,lower_middle_class,"
            
Michel:

            
Compagnie! — Attention! — 
            
(öffnet rasch die Mitteltür, eilt wieder zurück an seinen Platz und 
            
salutiert. — Die Musik bricht mit einem schaudervollen Mißakkord ab. — Alle schauen mit
            berechtigter Spannung nach der geöffneten Tür.)

          
",104,riff-sainte-barbe,45,3,1.1196259701672562,0.06666666666666667
417,comedy,Andrees Bottjuckel,M,night_watchman,elementary_professions,lower_class,"
            
Andrees:

            
Hähähä — — — ihr Manner — — hähähä — — — ihr — — — hupp — — — ihr selle, exküsiere — — — hähähä —
            — — hupp — — — ünseri Harrer Offizier — — — —

          
",104,riff-sainte-barbe,44,3,0.0,0.06818181818181818
418,comedy,Velde Umecker,M,firefighter_(caporal),government_executive_officials,lower_middle_class,"
            
Velde:

            
Oha?! — Was isch mit ünsere Harre Offizier?! — — — — Kumme se?!

          
",104,riff-sainte-barbe,22,3,0.0,0.13636363636363635
419,comedy,Andrees Bottjuckel,M,night_watchman,elementary_professions,lower_class,"
            
Andrees:

            
Nee — — — — sie könne nit kumme — — — hähähä — — — sie sin — — — sie sin Alli voll wie d'Affe! — —
            — hupp! — — hähähä!

          
",104,riff-sainte-barbe,40,3,0.0,0.075
