Unnamed: 0,drama_type,speaker,sex,job,job_category,social_class,text,progress,short_name,numTokens,numLexTokens,avgLexVal,lexRatio
2,tale,Barthelmé Scheid,M,captain_of_the_knights,military,,"
            
M. Scheid:

            
Die Speckritter, Revolutzer, Patriote, Sans- culotte un Jakobiner, wie se alli heisse, müen doch a mol mied wäre vun dem unuffherliche Gemetzel. Villicht dämmert in dennä doch noch e biss'l vun de alt Wihnachtsherrlichkeit.

          
",1,weber-wihnachtsstimme,45,4,1.2362145897559633,0.08888888888888889
3,tale,Mathis,M,domestic_worker,elementary_professions,,"
            
Mathis :

            
(noch am Fenster)

            
Wahrhaftig, wenn se nit däne Morje noch ä armi, rechtschaffeni Frau, wo nur e bess’l ewer de schlechte Zitte geklagt het, do d’Stross nab züe d'r Guillotine g’schleppt hätte als Feindin vun der Republique, mer könnt fascht sage: Es isch hitt ken Révolution.

          
",1,weber-wihnachtsstimme,58,7,0.4103844656035703,0.1206896551724138
4,tale,Barthelmé Scheid,M,captain_of_the_knights,military,,"
            
M. Scheid:

            
Wieviel Ühre isch’s?

          
",2,weber-wihnachtsstimme,8,1,0.0,0.125
5,tale,Mathis,M,domestic_worker,elementary_professions,,"
            
Mathis:

            
Es müess glich 3e schlawe!

          
",2,weber-wihnachtsstimme,8,1,2.6047682621606536,0.125
6,tale,Barthelmé Scheid,M,captain_of_the_knights,military,,"
            
M. Scheid:

            
Schun? Es wird mer immer ängstliger züe Müet! Sag! Siehsch nit ä strammer Zemmermanns- bursch met Richtscheid un Säj d’Stross nabwandere? So lang isch’r noch nie üssgebliwe, miner Florence.

          
",3,weber-wihnachtsstimme,40,3,0.0,0.075
7,tale,Mathis,M,domestic_worker,elementary_professions,,"
            
Mathis :

            
(schaut hinaus)

            
Nai! 
(zurück vom Fenster)
 Oh, Monsieur, berühige n’eich. D’Müeter Gottes isch mit'm. Em Herr Abbé bassiert nix.

          
",3,weber-wihnachtsstimme,34,3,0.10167360688321926,0.08823529411764706
8,tale,Barthelmé Scheid,M,captain_of_the_knights,military,,"
            
M. Scheid:

            
Un doch! Ich kann die Angscht nit nider- drucke. Jung, wie är isch, ganz voller Ifer für sine heilig Berüef, wie er in so schwerer Zitt üssiewe müess? Ich hab Angscht, er dät mol ä Unvorsichtig- keit begehn un wurd no vun däne wietige, gottlose Speckritter entdeckt.

          
",4,weber-wihnachtsstimme,61,13,0.0,0.21311475409836064
9,tale,Mathis,M,domestic_worker,elementary_professions,,"
            
Mathis:

            
Schun meh ass einmol isch er in de greschte Gfahr gewänn; awer wie durch ä Wunder isch’r immer wider sine Verfolger entgange.

          
",4,weber-wihnachtsstimme,26,4,1.0135438072421943,0.15384615384615385
10,tale,Barthelmé Scheid,M,captain_of_the_knights,military,,"
            
M. Scheid:

            
Awer hit het er ä ganz g’fährlige Versähgang ze mache g'het. Er isch züem totkranke Dominika- nerjerry drüsse uff der Dominikanerferme gerüefe worre. Der wohnt bim rote Hannes, bim wietigschte Jakobiner üss der ganze Umgejet. Wann där me- rike dät, dass in sim Hüss ä Prieschter hit Nacht im ä arme Kranke der letschte Troscht reicht? — Oh, mini Angscht isch hit nur züe berechtigt. — Du lie- wer Gott, b’schitz ne! — Loss mer mine Sohn, mine Stolz, mine einzigschte Troscht in däne schwere Zitte.

          
",5,weber-wihnachtsstimme,105,19,0.08804204212044817,0.18095238095238095
11,tale,Mathis,M,domestic_worker,elementary_professions,,"
            
Mathis:

            
Herr Scheid! — Awer ihr hän doch zwei Söhn! — Ja, wenn doch noch der ander do wär!

          
",5,weber-wihnachtsstimme,24,2,0.1525104103248289,0.08333333333333333
13,tale,Mathis,M,domestic_worker,elementary_professions,,"
            
Mathis:

            
Ejer Aeltschter, der Barthelmé!! M. Scheid 
(zuckt zusammen — hebt abwehrend die beiden Hände)
: De Barthelmé? — Sprich m'r nit vun’m, vun dem abg’fallene Sohn, vun dem Revolutzer! — Nai!—

          
",6,weber-wihnachtsstimme,45,1,0.0,0.022222222222222223
14,tale,Mathis,M,domestic_worker,elementary_professions,,"
            
Mathis:

            
Eiri Befirchtunge, Herr Scheid, sin numme Ah- nunge. Wer weiss, was er nit alles für Güets schafft jetzt dort in Paris, im Sinn von de güete, alte Zitte.

          
",7,weber-wihnachtsstimme,38,4,0.07625520516241445,0.10526315789473684
15,tale,Barthelmé Scheid,M,captain_of_the_knights,military,,"
            
M. Scheid :

            
(wegwerfend)

            
Er mit sinere wive Natur?! 
(entrüstet)
 Näi! Höchschstens isch er im Bund mit däne Vernunftsapostel un mit dene liedrige Göttine vun der raison.

          
",7,weber-wihnachtsstimme,35,3,1.7355689099002465,0.08571428571428572
16,tale,Mathis,M,domestic_worker,elementary_professions,,"
            
Mathis:

            
Awer sicher, un är isch jo mit soviel Begeisch- terung furt, fürs Kaufmannsfach ze stüdiere. Sicher isch 'r jetzt in so-r-ä g’heime Verwaltung tätig, wu widder Ordnung schaffe will.

          
",8,weber-wihnachtsstimme,37,2,0.0,0.05405405405405406
17,tale,Barthelmé Scheid,M,captain_of_the_knights,military,,"
            
M. Scheid:

            
Näi! — Er isch ken Mann für heimlich Getües. Oeffentli isch er tätig, im Dienscht vum Umsturz un vun der Revolution.

          
",8,weber-wihnachtsstimme,28,4,0.0,0.14285714285714285
18,tale,Mathis,M,domestic_worker,elementary_professions,,"
            
Mathis :

            
(bekümmert für sich)

            
Könnt ich numme einmol däne güete alte Herre tröschte?!

          
",9,weber-wihnachtsstimme,18,4,0.0,0.2222222222222222
19,tale,Barthelmé Scheid,M,captain_of_the_knights,military,,"
            
M. Scheid:

            
Züe ditli hab i’s geläse zwische de Zile vun sim letschte Brief. Mit Begeischterung het’r g’schrie- we vun däne grosse Vorgäng in Paris im Jüli 89; dass er in’s Palais rojal geht, in däne „Firhärd vum Patriotismus‘; wie er in de erschte Reihe mitge- kämpft het bi der Erstirmung der Bastille. —

          
",9,weber-wihnachtsstimme,65,4,0.969988691592804,0.06153846153846154
20,tale,Mathis,M,domestic_worker,elementary_professions,,"
            
Mathis:

            
Der Brief stammt awer üss de erschte Tag vun de Revolution, üss däne hetzige Jülitäi 89. Es isch jo wohr, er het ä wiver Charakter! Ganz natirli isch’s also, wenn er sich domols vun dem Gebriehls: liberté, fraternité, égalité het verfiehre lon, un het mitgekämpft. Ganz gewiss hets nit lang gedürt, bis er hell g’sähn het, wo eijentli der ganz Umsturz nüssgewellt het, un sicher: so firig, wie er mitge- kämpft het, so begeischtert kämpft er jetzt dergege.

          
",10,weber-wihnachtsstimme,98,13,0.12106109826580741,0.1326530612244898
21,tale,Barthelmé Scheid,M,captain_of_the_knights,military,,"
            
M. Scheid:

            
Oh, e Revolutzer, wu Blüet g’schmeckt het, kanns nimm lon! — Warum schribt er nemmeh ziter sälmols?

          
",10,weber-wihnachtsstimme,25,2,2.286856764184879,0.08
23,tale,Barthelmé Scheid,M,captain_of_the_knights,military,,"
            
M. Scheid :

            
(erhebt sich aufgeregt)

            
Es druckt mer fascht s’Herz ab! — Ä Scheid — de einzigscht, wie däne alte — unbefleckte — Name Scheid in d’Zükunft ver- pflanze soll? — Ä Patriot! Ä Revolutzer ? — Ä Jako- biner? — 
(aufgeregt)
 Mini Nachkumme wäre also Gottesschänder? — Mörder? — Reiwer? — Flüech!

          
",11,weber-wihnachtsstimme,71,7,0.0,0.09859154929577464
24,tale,Florence Scheid,M,abbot,clergy,,"
            
Florence :

            
(hatte schon länger zugehört)

            
Halt!! — Vatter!

          
",12,weber-wihnachtsstimme,14,3,0.7106934337132138,0.21428571428571427
26,tale,Mathis,M,domestic_worker,elementary_professions,,"
            
Mathis :

            
(mit Verbeugung)

            
Gelobt sei Jesus Christus!

          
",13,weber-wihnachtsstimme,11,3,0.0,0.2727272727272727
27,tale,Florence Scheid,M,abbot,clergy,,"
            
Florence:

            
In Ewigkeit.

          
",13,weber-wihnachtsstimme,5,1,0.0,0.2
28,tale,Barthelmé Scheid,M,captain_of_the_knights,military,,"
            
M. Scheid:

            
Florence! — Kumm un tröscht mi!

          
",14,weber-wihnachtsstimme,11,2,0.0,0.18181818181818182
29,tale,Florence Scheid,M,abbot,clergy,,"
            
Florence :

            
(im Vorbeigehen zu Mathis)

            
Isch ebs Nej’s kumme vum Barthelmé?

          
",14,weber-wihnachtsstimme,16,1,0.0,0.0625
31,tale,Florence Scheid,M,abbot,clergy,,"
            
Florence :

            
(ergreift die Hände des Vaters, die ihn suchen)

            
Vatter, dü hesch nur Händ züem Seje bekumme. — Nieh solle se sich züem Flüech un Verdamme üss- strecke.

          
",15,weber-wihnachtsstimme,36,5,0.0,0.1388888888888889
32,tale,Barthelmé Scheid,M,captain_of_the_knights,military,,"
            
M. Scheid:

            
Verzeih mer, Sohn! no macht’s der Herrgott o.

          
",16,weber-wihnachtsstimme,14,1,0.0,0.07142857142857142
33,tale,Florence Scheid,M,abbot,clergy,,"
            
Florence:

            
Ja, er het mich g’schickt im richtige Moment, für die Sind, o Vatter, ze verbiete.

          
",16,weber-wihnachtsstimme,22,6,0.0,0.2727272727272727
34,tale,Barthelmé Scheid,M,captain_of_the_knights,military,,"
            
M. Scheid :

            
(zieht ihn an sich)

            
Was isch des, Florence? — Dini Kleider sin jo ganz ficht? — Mathis, het’s dänn gereit oder g’schneit?

          
",17,weber-wihnachtsstimme,33,1,0.0,0.030303030303030304
35,tale,Mathis,M,domestic_worker,elementary_professions,,"
            
Mathis:

            
Nix vun beidem! Mer hän grieni Wihnachte des Johr!

          
",17,weber-wihnachtsstimme,13,1,0.0,0.07692307692307693
36,tale,Christophe,M,domestic_worker,elementary_professions,,"
            
Christophe:

            
Es isch die Nacht schwer hergange. Numme durich ä Wunder sin mer de Speckritter entgange.

          
",18,weber-wihnachtsstimme,19,2,0.0,0.10526315789473684
37,tale,Barthelmé Scheid,M,captain_of_the_knights,military,,"
            
M. Scheid:

            
Oh, mini Ahnung!

          
",18,weber-wihnachtsstimme,8,1,0.0,0.125
38,tale,Christophe,M,domestic_worker,elementary_professions,,"
            
Christophe:

            
Mir sin ung’schore bis an’s Dominikanerwäl- dele kumme un hän schun s’Liecht vun der Ferme im Fenschterle glitzere sähn. Do galoppiere vor uns ä paar Rösser d’Stross her. Schnell d’Laterne üss- gelöscht, un mir sin abseits en d’Hecke g’stande, für die Ritter an uns verbei ze lon. Do halte se 5 Schritt vor uns un sitze ab. Ä grosses Gebriehls uff de Stross, un mir höre grad soviel rüss, dass se unsri Laterne schun vun wittem g’sähn hän un jetzt wisse welle, wo des Liecht ane isch kumme. Es munkelt schun: Pfaffebrüet, Verräter, Aristokrate. Mir wisse, well Zitt dass isch, un schliche in d’Hecke herin. Awer uff einmol entsteht ä Freideg’heil uff de Stross, un mit'm Gsang: „Ça ira, ça ira, les aristocrats, on les prendra“, stirzt alles hinter uns her. D’r Rüess- bach isch awer hoch ang’schwolle vum letschte Tau- wetter, un d’Speckritter sin schun ganz noch. In Gott's Name springe mir dann in's Wasser un schwimme niwer. In däm Moment sin d’Speckritter au schun driwe angelangt. Sie mache Halt! Soviel tröje se awer im ä Pfaff denn doch nit züe, dass er do niwer kännt g’schwumme sin, un sie süeche wit- tersch in de Hecke. — Mir sin dann in grossem Böje um des Plätz'l rumgange hän nochmol mien zerück- schwimme, un kumme spot un durich nass uff der Ferme an.

          
",19,weber-wihnachtsstimme,278,27,0.20717738758899526,0.09712230215827339
39,tale,Florence Scheid,M,abbot,clergy,,"
            
Florence:

            
Un grad noch züe rechter Zitt. Küm isch de alt Dominikanerjerry versähn gewänn, du esch ’r schun verschiede.

          
",19,weber-wihnachtsstimme,23,3,0.0,0.13043478260869565
40,tale,Barthelmé Scheid,M,captain_of_the_knights,military,,"
            
M. Scheid:

            
Un der rot Hannes?

          
",20,weber-wihnachtsstimme,8,1,0.0,0.125
41,tale,Florence Scheid,M,abbot,clergy,,"
            
Florence:

            
Er isch bi sälle Speckritter gewänn un isch d’ganz Nacht nit heimkumme.

          
",20,weber-wihnachtsstimme,16,1,0.0,0.0625
42,tale,Christophe,M,domestic_worker,elementary_professions,,"
            
Christophe :

            
(lacht)

            
Der het halt d’ganz Nacht drüsse im Wald noch dem Pfaff gsüecht, wie er grad in sinem Hüss het müen iwer Nacht b’halte.

          
",21,weber-wihnachtsstimme,31,5,0.4264160602279283,0.16129032258064516
43,tale,Barthelmé Scheid,M,captain_of_the_knights,military,,"
            
M. Scheid:

            
Un jetzt hab i di widder, o Florence. Awer jetzt geh schnell in din Kammerle, ins Bett, dass mer nit krank worsch. Dü weisch, es isch Wihnachte hit, un irer welle doch henicht au a bess’l Wihnachte fire.

          
",21,weber-wihnachtsstimme,49,4,0.39182270434851035,0.08163265306122448
44,tale,Florence Scheid,M,abbot,clergy,,"
            
Florence:

            
Awer mir nit allein! Hä Vatter! Ich hab vor, a scheni Chrischtmette abzehalte drunte em Keller.

          
",22,weber-wihnachtsstimme,22,3,0.0,0.13636363636363635
45,tale,Barthelmé Scheid,M,captain_of_the_knights,military,,"
            
M. Scheid:

            
Ich ferich numme, dass d’Patriote hit Nacht ganz b’sunders uffbasse ware!

          
",22,weber-wihnachtsstimme,17,1,0.0,0.058823529411764705
46,tale,Mathis,M,domestic_worker,elementary_professions,,"
            
Mathis:

            
Ja, un dezu word hit noch a Rejement Frei- welligi üss Paris erwart. Es esch namli bekannt wore, dass es in unsre Stadt noch ziemli Aristokrate, Prieschter un Katholike soll han, un für des isch extra des Rejement geruefe wore. Sie känne alle Awebleck ankumme. 
(ferner Trompetenschall)
 Du kumme se jo schun. 
(ans Fenster)
 Rechtig, owe’s Owertor rinn ritt a ganze Masse Soldate.

          
",23,weber-wihnachtsstimme,81,12,0.0,0.14814814814814814
47,tale,Christophe,M,domestic_worker,elementary_professions,,"
            
Christophe:

            
Unsri Henker. 
(Geschrei auf der Strasse unten)
.

          
",23,weber-wihnachtsstimme,13,3,1.1304764878439337,0.23076923076923078
48,tale,Mathis,M,domestic_worker,elementary_professions,,"
            
Mathis:

            
Wie die Jakobiner un Patriote renne, wie se johle un briehle!

          
",24,weber-wihnachtsstimme,15,2,0.8551655769581992,0.13333333333333333
49,tale,Barthelmé Scheid,M,captain_of_the_knights,military,,"
            
M. Scheid:

            
Florence! Loss dine Plan! Wenn dir un de andre ebs arriviere dat?! Ich bin jo alt genueg, ich frog nix meh noch’m Lawe, noch’m Dot un noch der Guillotine. Awer dü, dü muesch dich dir, im Herrgott un de arme Kranke erhalte.

          
",24,weber-wihnachtsstimme,57,6,0.7575816765855845,0.10526315789473684
50,tale,Florence Scheid,M,abbot,clergy,,"
            
Florence:

            
O Vatter! Loss mer die Freid! wie ich alle mache will. Lueg e mol, was jetzt taglig der Him- mel beleidigt wird. 
(Pferdegetrappel geht unten vorbei)
.

          
",25,weber-wihnachtsstimme,37,5,1.1116579568197182,0.13513513513513514
51,tale,Mathis,M,domestic_worker,elementary_professions,,"
            
Mathis :

            
(am Fenster)

            
Schrecklichi Mensche des! Rich- tigi Révolutionssoldate! Wie ware die in unserem guete Städt’l wiete?!

          
",25,weber-wihnachtsstimme,25,2,0.0,0.08
53,tale,Mathis,M,domestic_worker,elementary_professions,,"
            
Mathis :

            
(zitternd und ängstlich)

            
Ganz vorne an der Spitz sen 2 Offizier geritte. Wie se do am Hüss sin, het der eint zuem andre ebs g’sait un derbi do ruff geditte.

          
",26,weber-wihnachtsstimme,37,5,0.0,0.13513513513513514
54,tale,Barthelmé Scheid,M,captain_of_the_knights,military,,"
            
M. Scheid :

            
(zitternd)

            
Solle mer villicht zerscht dran glauwe muen? Florence, mach dich en Sicherheit!

          
",27,weber-wihnachtsstimme,21,3,0.0,0.14285714285714285
55,tale,Christophe,M,domestic_worker,elementary_professions,,"
            
Christophe :

            
(vorwurfsvoll z. Mathis)

            
Alter Wissnas. 
(Wunderfitz)
 Muesch doch immer d’Nas zuem Fenschter nüsstrecke, wenn ebs los isch. Weisch net? — Wer d’Soldate zue begriesse het, isch jetzt drunte uff der Stross, un wer verstohle zuem Fenschter nüssgikelt, dar isch glich Feind vun de République.

          
",27,weber-wihnachtsstimme,60,7,0.0,0.11666666666666667
57,tale,Florence Scheid,M,abbot,clergy,,"
            
Florence:

            
Numme rueich, Alter! Des word schun net gemeint sen. Uff dich alter Gröjkopf wurd’s ken Jakobiner absahn. Wenne danne 2 chevaliers ebs uffg’falle isch, dann isch’s höchschtens unser präch- tiges, historisches Wappe ewer de Hüsstir, wie doch vun alle Fremde, wu do durichkumme, bewundert word.

          
",28,weber-wihnachtsstimme,60,3,0.0,0.05
58,tale,Barthelmé Scheid,M,captain_of_the_knights,military,,"
            
M. Scheid:

            
Wenn mer awer doch schun verrote sotte sen? Florence, gal dü haltsch hit Nacht ken Mette?

          
",29,weber-wihnachtsstimme,22,1,0.0,0.045454545454545456
59,tale,Florence Scheid,M,abbot,clergy,,"
            
Florence:

            
Doch Vatter! Grad, weil die fremde Schinder kumme sin. Es ware die Nacht, en der heilige Chrischtnacht, jetzt so viel Sünde begange in unse- rem Städt’l, dass es für de liewe Gott a helli Freid wird sin, wenn so e richtigs, heiligs Wihnachtsge- bet ufstiegt un um Verzeihung batet für die Sünder.

          
",29,weber-wihnachtsstimme,65,11,0.4922754517555025,0.16923076923076924
60,tale,Christophe,M,domestic_worker,elementary_professions,,"
            
Christophe:

            
Ja, Gott wells!

          
",30,weber-wihnachtsstimme,7,2,0.0,0.2857142857142857
61,tale,Barthelmé Scheid,M,captain_of_the_knights,military,,"
            
M. Scheid :

            
(überzeugt)

            
Es soll g’schahn!

          
",30,weber-wihnachtsstimme,10,2,0.0,0.2
62,tale,Florence Scheid,M,abbot,clergy,,"
            
Florence:

            
Merçi, Vater, für dini Inwilligung. Es isch miner heischt Adventswunsch gewann, des Fescht mit mine Treie fire ze känne. Mathis, de Keller mues awer au recht wihnachtlich ingericht ware.

          
",31,weber-wihnachtsstimme,38,7,0.0,0.18421052631578946
64,tale,Florence Scheid,M,abbot,clergy,,"
            
Florence:

            
Es mues awer au e Krippele un a Chrischt- baum har!

          
",32,weber-wihnachtsstimme,15,2,0.0,0.13333333333333333
65,tale,Mathis,M,domestic_worker,elementary_professions,,"
            
Mathis:

            
A Krippele wur ich schun zeracht mache känne, awer a Tannebaum in de Keller schaffe, des war doch schun a bess’l zue uffallig.

          
",32,weber-wihnachtsstimme,28,2,0.0,0.07142857142857142
66,tale,Florence Scheid,M,abbot,clergy,,"
            
Florence:

            
Leider muen m'r dann druff verzichte.

          
",33,weber-wihnachtsstimme,9,2,1.1383536349377852,0.2222222222222222
67,tale,Mathis,M,domestic_worker,elementary_professions,,"
            
Mathis:

            
Na, villicht find sich au noch a Ersatz vor de Chrischtbaum.

          
",33,weber-wihnachtsstimme,15,2,1.6790192606099013,0.13333333333333333
68,tale,Christophe,M,domestic_worker,elementary_professions,,"
            
Christophe:

            
Lon nur de Mathis mache un sorje net. Awer wer litt d’Wihnachtsglocke?

          
",34,weber-wihnachtsstimme,17,1,1.5737942774554963,0.058823529411764705
69,tale,Florence Scheid,M,abbot,clergy,,"
            
Florence:

            
De Mathis selbscht isch unsri Wihnachtsglock, wie die treie Katholike zue de Mette rueft. Dü gehsch jetzt zerscht zue alle guete Katholike, dü kennsch se jo, un bringsch ne de gross Freid, dass se sich hit Nacht im bekannte Keller drunte zue de Wih- nachtsmette infinde solle. Zugang durichs Garte- törl em Hintergassel, Parole: Friede.

          
",34,weber-wihnachtsstimme,68,7,0.5107620887679519,0.10294117647058823
70,tale,Christophe,M,domestic_worker,elementary_professions,,"
            
Christophe :

            
(z. Mathis)

            
Un geh jetzt, Mathis, for des be- kummsch sicher e mol a Extraplatzle im Himmel, weil de Engel vun Bethlehem oder besser noch Wihnachtsglocke hesch derfe spiele. Mathis 
(nachdenklich beim Abgehen — dann wie ge- funden für sich)
: Un d’Wihnachtsglocke solle doch litte! 
(ab)
.

          
",35,weber-wihnachtsstimme,64,5,0.0,0.078125
71,tale,Barthelmé Scheid,M,captain_of_the_knights,military,,"
            
M. Scheid:

            
Un dü, Florence! Her endlich uff mich! Geh in’s Bett, dass hitt Nacht wieder frisch un munter bisch.

          
",35,weber-wihnachtsstimme,27,4,0.0,0.14814814814814814
74,tale,Florence Scheid,M,abbot,clergy,,"
            
Florence :

            
(z. M. Scheid)

            
Also 3 Sparre sin morsch am Dach?

          
",37,weber-wihnachtsstimme,15,1,0.0,0.06666666666666667
76,tale,Florence Scheid,M,abbot,clergy,,"
            
Florence:

            
Wie lang? 
(nimmt Notizbuch vor)
.

          
",38,weber-wihnachtsstimme,11,1,0.0,0.09090909090909091
81,tale,Christophe,M,domestic_worker,elementary_professions,,"
            
Christophe:

            
Abbé Scheid?! 
(barsch)
 Wie känn si im e guete patriotische Hüss noch’m a Abbé sueche? 
(packt den Karstmichel)
 Wenn dü in solcher Angscht a Abbé suechsch, dann bisch dü jo a Feind vun der République. Los met dir uffs Schaffott.

          
",40,weber-wihnachtsstimme,53,7,0.0,0.1320754716981132
82,tale,Karstmichel,M,farmer,agriculture,,"
            
Karstmichel:

            
O han doch Erbarme, un verstelle eich nit! Ich bin doch ganz racht do. Des isch de alt Mons. Scheid, a gueter Katholik, wie mer de Kellerjerry verzehlt het. Ich bin de Karstmichel vun Kränzel- hüse driwe. Miner Sohn isch geschtert vun de Speckritter, vun sine Kamerade, so arich misshan- delt worre, dass er jetzt am Sterwe lejt. Er rueft noch’m a Pfarrer. Florence 
(war wieder eingetreten u. horcht unauffällig zu)

          
",41,weber-wihnachtsstimme,91,6,0.0,0.06593406593406594
83,tale,Karstmichel,M,farmer,agriculture,,"
            
Karstmichel:

            
Un de Nochber, de Kellerierry, het mer verrote, dass do im Städt’l noch a Abbé namens Scheid soll sin. D’Adress stimmt ganz genau uff des Hüss mit dem schene Wappe ewer de Ter. Des esch siner Vater, un — 
(betrachtet Florence)
 sie — gale, sie sen net Zimmermann? — Sie sen de Herr Abbé Scheid?

          
",41,weber-wihnachtsstimme,69,9,0.033891202294406425,0.13043478260869565
84,tale,Christophe,M,domestic_worker,elementary_professions,,"
            
Christophe:

            
Der Mann esch verruckt.

          
",42,weber-wihnachtsstimme,7,2,0.0,0.2857142857142857
85,tale,Karstmichel,M,farmer,agriculture,,"
            
Karstmichel:

            
Gewiss! 
(z. Florence)
 Do lueje sie, Herr Abbé, des Blatt’l het mer de Kellerjerry als Empfeh- lung mit gan.

          
",42,weber-wihnachtsstimme,28,2,0.1525104103248289,0.07142857142857142
86,tale,Florence Scheid,M,abbot,clergy,,"
            
Florence :

            
(durchschaut es)

            
Es stimmt! — Em Kellerjerry sini Unterschrift — 
(bestimmt)
 Ich kumm!

          
",43,weber-wihnachtsstimme,21,2,0.0,0.09523809523809523
87,tale,Karstmichel,M,farmer,agriculture,,"
            
Karstmichel:

            
Gott sei Dank! Schnell awer, sunscht stirbt miner Sohn!

          
",43,weber-wihnachtsstimme,14,4,0.0,0.2857142857142857
89,tale,Barthelmé Scheid,M,captain_of_the_knights,military,,"
            
M. Scheid:

            
Florence! Dü witt schun widder zuem a Kranke gehn? Dini Kleider sen noch nass, un hit Nacht soll doch .....

          
",44,weber-wihnachtsstimme,26,1,0.0,0.038461538461538464
90,tale,Florence Scheid,M,abbot,clergy,,"
            
Florence :

            
(einfallend)

            
Ich muess, wenn a Kranker rueft.

          
",45,weber-wihnachtsstimme,13,1,0.0,0.07692307692307693
91,tale,Karstmichel,M,farmer,agriculture,,"
            
Karstmichel :

            
(ungeduldig)

            
Schnell! Am Owertor halt min Wäjele. Schnell, sunscht stirbt miner Sohn un wurd verdammt.

          
",45,weber-wihnachtsstimme,23,7,0.7991785412985217,0.30434782608695654
93,tale,Florence Scheid,M,abbot,clergy,,"
            
Florence:

            
Es esch ken Zitt ze verliere, wenn’s so schlimm steht. Christophe, ich geh desmol allein.

          
",46,weber-wihnachtsstimme,22,4,0.9415760359539754,0.18181818181818182
95,tale,Florence Scheid,M,abbot,clergy,,"
            
Florence:

            
Bes dort ane bin ich widder do. De Mathis soll jo alles richte.

          
",47,weber-wihnachtsstimme,17,2,0.9247205024514901,0.11764705882352941
97,tale,Barthelmé Scheid,M,captain_of_the_knights,military,,"
            
M. Scheid:

            
Gott sei mit der. Gelobt sei Jesus Christus.

          
",48,weber-wihnachtsstimme,13,4,0.0,0.3076923076923077
98,tale,Florence Scheid,M,abbot,clergy,,"
            
Florence:

            
In Ewigkeit. Amen. 
( ab — im Abgehen zu Karstmichel)
: Merke’s eich wohl, ich bin Zimmer- mann un hab ejer Dach ze repariere. 
(reicht Karst- michel die Kiste — er selbst trägt Richtscheid und Säge)
.

          
",49,weber-wihnachtsstimme,49,4,0.0,0.08163265306122448
99,tale,Barthelmé Scheid,M,captain_of_the_knights,military,,"
            
M. Scheid :

            
(z: Christophe)

            
Ich muess still sin vor som’e Sohn. Ich, a alter, erfahrener Mann bin a Kind ge- jene. Er esch.....

          
",49,weber-wihnachtsstimme,33,5,0.0,0.15151515151515152
100,tale,Christophe,M,domestic_worker,elementary_professions,,"
            
Christophe:

            
D’Revolution het Mensche zuem Veh un andri wedder zue Engel gemacht.

          
",50,weber-wihnachtsstimme,15,3,0.0,0.2
101,tale,Barthelmé Scheid,M,captain_of_the_knights,military,,"
            
M. Scheid:

            
Do seht m'r s’himmlisch Walte vun der Hand Gottes. 
(sinkt nachdenklich in sich zusammen)
.

          
",50,weber-wihnachtsstimme,22,3,0.0,0.13636363636363635
102,tale,Christophe,M,domestic_worker,elementary_professions,,"
            
Christophe:

            
Mons. Scheid! Wars net besser, sie date e bess’l ins Bett gehn? Sie hann bim Warte uff de Herr Abbé gewiss ihr Mittagsschlafele versümt. Un üsserdem, hit Nacht bi de Chrischtmette welle sie doch au nit fahle?!

          
",51,weber-wihnachtsstimme,47,4,0.07625520516241445,0.0851063829787234
103,tale,Barthelmé Scheid,M,captain_of_the_knights,military,,"
            
M. Scheid:

            
Gewiss! 
(während ihm Christophe aufhilft u. ihn führt)
 Un dü, Christophe, au dü wursch’s neti han. Geh au dü schlofe, dü hesch au noch ganz nassi Kleider. 
(beide ab durch die Seitentüre)
.

          
",51,weber-wihnachtsstimme,47,2,0.0,0.0425531914893617
104,tale,Barthelmé Scheid,M,captain_of_the_knights,military,,"
            
Barthelmé:

            
(bleibt erst unter der Türe sinnend stehen  und bewegt sich sprechend nach vorne — Mock  folgt ihm lauernd)

            
Ja, es isch’s noch, s’alte heimi- sche Fameliezimmer. Do de Cheminé. An so Winterdaj isch’s gewann, do sin mir Kinder im Vater uff d’Knie g’sesse dort uff dem Lehnsessel, un no het er uns verzehlt! Die herrliche, glückliche Kinderdaj!

          
",52,weber-wihnachtsstimme,75,9,0.0,0.12
105,tale,Mock,M,captain’s_adjudant,military,,"
            
Mock:

            
Capitaine! Derfe ihr ruckwarts denke, zeruck villicht gar in Zitte, wo die Capetbruet s'schene Frankrich geknächt het? Derf m'r salli Sklavezitte glicklich nenne?

          
",52,weber-wihnachtsstimme,31,4,0.0,0.12903225806451613
106,tale,Barthelmé Scheid,M,captain_of_the_knights,military,,"
            
Barthelmé:

            
Me isch nur einmol Kind, a Kind wie vun dare Welt nix weiss: vun ihrem Schaffe, vun ihrem Jammer, vun ihrem Elend?

          
",53,weber-wihnachtsstimme,29,3,0.0,0.10344827586206896
107,tale,Mock,M,captain’s_adjudant,military,,"
            
Mock:

            
Des sell heisse: D’Revolution het Elend un Not. in d’Welt gebrocht?

          
",53,weber-wihnachtsstimme,18,4,0.6896372608763748,0.2222222222222222
108,tale,Barthelmé Scheid,M,captain_of_the_knights,military,,"
            
Barthelmé:

            
Mock! Denk zeruck! Au dü bisch mol e Kind g’sin.

          
",54,weber-wihnachtsstimme,15,1,0.0,0.06666666666666667
109,tale,Mock,M,captain’s_adjudant,military,,"
            
Mock:

            
Ja! Wohl bin ich mol e Kind g’sin, un gewiss, ich hab’s nie vergesse; denn ich hab vieles ze raehe.

          
",54,weber-wihnachtsstimme,28,4,0.0,0.14285714285714285
110,tale,Barthelmé Scheid,M,captain_of_the_knights,military,,"
            
Barthelmé:

            
Mock! Sag! Was hesch denn dü ze rache üss unschuldige Kinderdaj.

          
",55,weber-wihnachtsstimme,16,2,0.0,0.125
111,tale,Mock,M,captain’s_adjudant,military,,"
            
Mock:

            
S’Findelhüss isch mini erscht Heimet g'sien. Armi, kinderlosi Pförtnerslitt vum a grosse Herreschloss üss de Tourraine han mi not angenumme. Ich bin dort am Schlosstor g’stande, Tag for Tag un hab se sahn üss- un inkutschiere un ritte, sie, die verdammte Seigneurs et Dames, ducs et duchesses, comtes et comtesses en ehre prächtige Sid- un Sammetkleider. Ich in mine Lumpe, barfuess un dräckig, hab se muen um a Almose anbettle. Un wenn ich dann de paar Sous abgeliefert hab, no hets immer noch Schlag gan, weils net genung isch g’sin. So isch’s mir elendig gange bis ins 15. Johr. Do ben i einfach in mim Schindvatter furt geloffe nach Paris. Dort hab ich noch viel Leidensgenosse getroffe. Dort hab ich au sie, capitaine, kenne lehre als junger Stu- dent. Wie het sie doch sallemols unser Schicksal gedürt? Sie han uns ihre Hand gereicht, mir han d’Bastille g’stirmt. de Pfaffe- un Herreneschter ge- lärt Liberté, fraternité, égalité han m'r der Welt g’schenkt. Ewer de Trümmer vum Despotismus un der Religion han mer d’Fahne vun de Vernunft uff- gepflanzt. Unser Warik isch noch nit fertig. Mir sin hit do en ehr Vaterstädt’l geruefe wore, für die Pfaffe- un Aristokrateneschter üsszehewe, un sie denke uff einmol zerück an Kinderdaj? A Republi- kaner, a Jakobiner denkt nur vorwärts, nie zeruck!

          
",55,weber-wihnachtsstimme,265,19,0.5178024915347074,0.07169811320754717
112,tale,Barthelmé Scheid,M,captain_of_the_knights,military,,"
            
Barthelmé:

            
Dü hesch recht, Mock! Un doch ....!

          
",56,weber-wihnachtsstimme,12,1,0.0,0.08333333333333333
113,tale,Mock,M,captain’s_adjudant,military,,"
            
Mock:

            
Was? doch? — Ewerhaupt schint’s m'r, dass m'r do in eurem Vaterhüss direkt uff so a Pfaffenescht g’stosse sin. Was sell denn das Bild do? 
(greift nach dem Muttergottesbild)
.

          
",56,weber-wihnachtsstimme,40,1,0.0,0.025
114,tale,Barthelmé Scheid,M,captain_of_the_knights,military,,"
            
Barthelmé:

            
Halt! Mock! Vergriff di nit an dem Bild! Ich erkenns wider. Es isch a Votivtafel, wie d’Mame sali vor Johre im Walfartskirchle uffg’henkt het, wie ich als kleins Kind am Scharlach hoffnungslos darniederg’lage bin. Der Vatter hets alleweg gerett un do uffg'henkt, wie d’Bilder dort verbrennt sin wore.

          
",57,weber-wihnachtsstimme,61,6,1.3006678753040324,0.09836065573770492
115,tale,Mock,M,captain’s_adjudant,military,,"
            
Mock:

            
Capitaine! Capitaine! — Ich kenn sie nimmeh! Isch des ihri Art ze redde? Ha, wenn ich noch ze- ruckdenk dort ans Palais royal, wo ich sie hab zuem erschtemol here redde?! Sie han Fir un Flamme üssg’haucht, un es het uns angebrennt. Ha, het des geklunge, wie vun Rousseau un Voltaire. — Un hit muess ich üss’m namliche Mül so e Gelobhudels here iwer so a staatsfindlich Bild, wie üss’m a iwerg’ schnappte Mueterhirn hervorgange isch? Sie solle rede, wie a Jakobiner red. Runter mit dem Lumpe- dings. 
(will das Bild herunterrreissen.)

          
",57,weber-wihnachtsstimme,119,4,1.6969226344170538,0.03361344537815126
116,tale,Barthelmé Scheid,M,captain_of_the_knights,military,,"
            
Barthelmé:

            
(ergreift schnell die Photographie auf dem cheminée und reicht sie Mock hin, der so von dem Bild abgelenkt wird)
.

          
",58,weber-wihnachtsstimme,25,3,1.105362399418912,0.12
118,tale,Barthelmé Scheid,M,captain_of_the_knights,military,,"
            
Barthelmé:

            
Es isch’s Kind: Barthelmé! Verriss es!

          
",59,weber-wihnachtsstimme,12,1,0.0,0.08333333333333333
120,tale,Barthelmé Scheid,M,captain_of_the_knights,military,,"
            
Barthelmé:

            
Verriss ne mit! Es isch miner Brueder, de jüngscht vun uns, de Liebling vum Vatter, ich hab ne nie känne lide.

          
",60,weber-wihnachtsstimme,28,6,0.0,0.21428571428571427
121,tale,Mock,M,captain’s_adjudant,military,,"
            
Mock :

            
(verächtlich)

            
Fraternité!

          
",60,weber-wihnachtsstimme,7,1,3.9599870047856895,0.14285714285714285
122,tale,Barthelmé Scheid,M,captain_of_the_knights,military,,"
            
Barthelmé:

            
Ja wohl! Esch des Fraternité erzöje, wenn m'r sini Kinder vun-a-nander scheid durich d'Gunscht? Er isch alles gewann bim Vatter, ich nix! Er het halt au g’horicht, ich hab mich nieh unter’s Vaterjoch känne pfrange lon. 
(wild)
 Verriss es, sag ich der, verriss’s. Es isch falsch! Es lacht wie Bruederlieb, wie Fraternité, awer es steckt Brueder- hass dehinter. Verriss’s!

          
",61,weber-wihnachtsstimme,83,12,1.0718176928137453,0.14457831325301204
123,tale,Mock,M,captain’s_adjudant,military,,"
            
Mock:

            
Wo steckt denn hit des Lämmele, wie em alte Leithammel so trei un blind nochg’foligt esch?

          
",61,weber-wihnachtsstimme,20,1,0.0,0.05
125,tale,Mock,M,captain’s_adjudant,military,,"
            
Mock:

            
(während er mechanisch die Photographie zerreisst)

            
Capitaine? Ihre Brueder? — De Brueder vum capitaine des chevaliers volontaires, a Pfaff? Hahahaha! !

          
",62,weber-wihnachtsstimme,30,2,0.0,0.06666666666666667
126,tale,Barthelmé Scheid,M,captain_of_the_knights,military,,"
            
Barthelmé  :

            
(düster)

            
Er het’s mol salle mols studiert, wie ich furt bin, un er wurds au wore sin.

          
",63,weber-wihnachtsstimme,25,1,0.0,0.04
127,tale,Mock,M,captain’s_adjudant,military,,"
            
Mock:

            
Capitaine! Ich glaub, no brüche mer net lang ze sueche in dem Städt’l. Do in dem Hüss, do isch des Pfaffe-, des Aristokratenescht, wie mer üss solle hewe.

          
",63,weber-wihnachtsstimme,38,4,0.0,0.10526315789473684
129,tale,Mock,M,captain’s_adjudant,military,,"
            
Mock:

            
D’République kennt ken Vater, ken Brueder un ken Frind, wie nit republikanisch denkt. Capitaine! Dat ich mine Vater, mine Brueder, mini Mueter uff de Pfaffe-, uff de Aristokratesitt finde, mit kaltem Bluet dat ich se uff d’Guillotine schleppe.

          
",64,weber-wihnachtsstimme,52,14,0.7147119157836929,0.2692307692307692
130,tale,Barthelmé Scheid,M,captain_of_the_knights,military,,"
            
Barthelmé :

            
(erschauert)

            
Vater, Mueter un Brueder um- bringe, des hab ich eich nie gelehrt.

          
",65,weber-wihnachtsstimme,21,3,0.0,0.14285714285714285
131,tale,Mock,M,captain’s_adjudant,military,,"
            
Mock:

            
Sie sin vertröjt mit'm G’setz vun der République. D’République wills, sie sin Républikaner durich un durich. Also....

          
",65,weber-wihnachtsstimme,25,1,0.0,0.04
132,tale,Mathis,M,domestic_worker,elementary_professions,,"
            
Mathis :

            
(tritt arglos ein)

            
Wer sin de fremde Herre?

          
",66,weber-wihnachtsstimme,13,1,0.0,0.07692307692307693
133,tale,Barthelmé Scheid,M,captain_of_the_knights,military,,"
            
Barthelmé :

            
(freudig)

            
Mathis!

          
",66,weber-wihnachtsstimme,7,1,0.0,0.14285714285714285
134,tale,Mathis,M,domestic_worker,elementary_professions,,"
            
Mathis :

            
(erstaunt u. verblüfft)

            
Esch’s wohr? Sie? — Dü? — De Bathelmé? — Zeruck vun Paris? Gott griess dich liewer Barthelmé! 
(reicht ihm die Hand)
 Oh! Wie word sich do der Vatter freie! Er het so Angscht um dich g’het, dü warsch dort en Paris umkumme, oder, — dü warsch gar Jakobiner wore. 
(vertrau- lich)
 Gal, Barthelmé, dü bisch ken Jakobiner? — Oh, un au noch grad hit wos Wihnachte isch? — Her, ich kumm grad vum Lade zue de Chrischtmette zeruck hit Nacht em Keller drunte. Gal, de weisch noch gar nit? De Florence isch Abbé. Er isch trei gebliwe un lebt im G’heime do im Hüss bim Vatter. Hit Nacht halt er Chrischtmette, un ich hab alli guete, treie Crischte dezue ingelade. Jetzt lad ich au dich dezü in: Zügang durich’s Gartetörel em Hinter- gass’l, Parole: Friede. — So un jetzt will ich glich de guete, alte Herre wecke. Wie word der sich freie! 
(ab ins Schlafzimmer des M. Scheid)
.

          
",67,weber-wihnachtsstimme,209,23,0.0926991435278105,0.11004784688995216
135,tale,Barthelmé Scheid,M,captain_of_the_knights,military,,"
            
Barthelmé:

            
Merçi, Mathis, for de Inladung.

          
",67,weber-wihnachtsstimme,10,1,0.0,0.1
136,tale,Mock,M,captain’s_adjudant,military,,"
            
Mock  :

            
(schadenfroh)

            
Merçi! — Aha! Do han mrs jo! Ver- witscht! Es isch doch guet, capitaine, dass sie noch a bess’l pfaffisch drinlöje, sunscht hat der Alt nit so zütröjlich des ganze Geheimnis vun sim Hüss üssge- packt. Vive la République! — 
(singt)
 ça ira, ça ira, les aristocrats, on les prendra. — Ehr Alter word jetzt kumme. Dem derfe mer’s natirli nit verrote, dass mer vun de Mette die Nacht schun wisse. — Met 4,5 vun unsre chevaliers noch, un es muess gelinge.

          
",68,weber-wihnachtsstimme,109,10,0.0,0.09174311926605505
137,tale,Barthelmé Scheid,M,captain_of_the_knights,military,,"
            
Barthelmé:

            
Still jetzt! De Vater kummt!

          
",68,weber-wihnachtsstimme,9,2,0.0,0.2222222222222222
138,tale,Mathis,M,domestic_worker,elementary_professions,,"
            
Mathis :

            
(setzt den alten M. Scheid auf den Lehnsessel,  dann leise zu Barthelmé)

            
Er weiss noch nit, dass dü’s bisch, wie ne verlangt het. Schon ne! Er isch blind wore, s’letschte Johr. 
(ab)
.

          
",69,weber-wihnachtsstimme,48,1,0.0,0.020833333333333332
139,tale,Barthelmé Scheid,M,captain_of_the_knights,military,,"
            
Barthelmé :

            
(für sich)

            
Armer Vater! — Blind?

          
",69,weber-wihnachtsstimme,12,2,0.0,0.16666666666666666
140,tale,Barthelmé Scheid,M,captain_of_the_knights,military,,"
            
M. Scheid:

            
Wer verlangt mit mir ze rede? Barthelmé 
(gerührt vom Anblick des Vaters, kämpft mit sich selbst — Mock zerrt an ihm — er stürzt endlich hin und sinkt vor dem Vater auf die Knie)
: Vatter!?

          
",70,weber-wihnachtsstimme,45,4,0.5355242060785302,0.08888888888888889
141,tale,Barthelmé Scheid,M,captain_of_the_knights,military,,"
            
M. Scheid:

            
Barthelmé? Dü bisch’s 
(sinkt auf ihn nieder — dann feierlich)
 Heilige Wihnachte, dü bringsch alte, blinde Vatter grad so Freid wie kleine, un- schuldige Kinder. Im Himmel sei Dank, dass er dich, Barthemé, miner ältscht, widder so heil un g’sund üss dare Bluetzitt heimg’fiehrt het an min Herz.

          
",70,weber-wihnachtsstimme,65,17,0.0,0.26153846153846155
142,tale,Barthelmé Scheid,M,captain_of_the_knights,military,,"
            
Barthelmé :

            
(schluchzend)

            
Vatter! Mock 
(war leise zu Barth. getreten und zischt ihm in’s Ohr)
: Kindskopf!

          
",71,weber-wihnachtsstimme,25,1,0.0,0.04
145,tale,Mock,M,captain’s_adjudant,military,,"
            
Mock :

            
(höhnisch)

            
Ich! — Alter Narr! — De Mock! — Do ejrem Sohn, em capitaine des chevaliers volontaires siner adjudant. Mer sin hit do en des verfluechte Pfaffenescht ingeritte, um alle Staatsfeind üsszehe- we. Mer han schon e Spür! Capitaine! Here d' Stimm vun der République, sie mahnt ejch, an ejr Pflicht. — Denke ans palais royal, unsri erscht Be- kanntschaft; denke an de grescht Ruhmesta, an de 14 juillet, wie m'r d’Bastille em Erdbode glich ge- macht han, denke an Versailles, an d’Tuileries, denke an Varennes, un an d’Guillotine, wo die Ca- petschädel geburzelt sin; denke an all de siegreiche Schlachte, wie m'r um d’Rechte vun de Menschheit üssg’fochte han. 
(Barthelmé hebt das Haupt und horcht)
 Denke dran, wie sie dort uff’m Feld vun Arcole vor'm Feind im Kugelreje vum général Bo- naparte zuem capitaine ernannt wore sin. Uff, d' Républijue rueft zuer Pflicht! 
(Barthelmé lehnt sith zurück)
.

          
",72,weber-wihnachtsstimme,196,13,0.5379167539775277,0.0663265306122449
146,tale,Barthelmé Scheid,M,captain_of_the_knights,military,,"
            
M. Scheid :

            
(sucht ihn tastend)

            
Barthelmé! Barthelmé 
(reisst sich los — bestimmt)
 Vatter!

          
",73,weber-wihnachtsstimme,20,3,0.0,0.15
147,tale,Barthelmé Scheid,M,captain_of_the_knights,military,,"
            
M. Scheid :

            
(im Schmerz)

            
Barthelmé, bli bi-mer! Barthelmé 
(steht unschlüssig zwischen M. Scheid und Mock)

          
",73,weber-wihnachtsstimme,22,1,0.0,0.045454545454545456
148,tale,Mock,M,captain’s_adjudant,military,,"
            
Mock:

            
Doher! Capitaine! — A Rejement, wie sie ver- göttert, rueft! 1000 Mann sin bereit, for met'm Ruef: liberté, égalité, fraternité sich uff ejer Zeiche in de Tod ze stirze.

          
",74,weber-wihnachtsstimme,43,5,0.0,0.11627906976744186
149,tale,Barthelmé Scheid,M,captain_of_the_knights,military,,"
            
M. Scheid:

            
Barthelmé?! 
(Barthelmé weicht immer weiter vom Vater zurück)
.

          
",74,weber-wihnachtsstimme,16,1,0.0,0.0625
150,tale,Mock,M,captain’s_adjudant,military,,"
            
Mock:

            
1000 Mann sin au bereit, sie, capitaine, in Fatze ze risse, wenn sie zuem — Verrater date ware.

          
",75,weber-wihnachtsstimme,25,3,0.0,0.12
151,tale,Barthelmé Scheid,M,captain_of_the_knights,military,,"
            
M. Scheid:

            
Barthelmé? 
(B. weicht stumm zurück)
. Barthelmé? 
(B. weicht immer weiter zurück)
 
(Zu folgendem: Barth., ganz im Banne des Mock, horcht auf den Vater, folgt aber willenlos Mock, der ihn langsam zur Türe zerrt)
. Geh! — Geh ins Verderwe! — Folg dim Verfiehrer! En der Stimm vum a Vatter, wu’s guet mit der meint, hesch nie känne folge.Jetzt besch zuem Sklave vum a fremde Strolch wore. — Hersch net, wie’s klingt, wie’n a Schlange. Barthelme, dü bich blind, blinder ass diner Vater. Wo isch d’Freiheit? In dere Sklaverei, des gliche Recht for d’Rechtslosig- keit, d’Bruederlichkeit for de Bruederhass? O grobi Gewalt, sittlichi, religiösi Freiheit sin d’Mittel, wo ehr d’Welt mit regiere! Ja, wenn m'r raube un plündre will,no muess m'r zerscht Gott un Religion abschaffe, wie des verbiete. 
(Mock zieht Barthelmé, der noch widerstrebt, zur Türe hinaus — beide ab)
. M. Scheid richtet sich bebend auf) Un wenn ichs hit beröje hab, jetzt sprech ich’s frei un angschtlos üss: Verfluecht sei, o Sohn! De Friede vum Chrischtkindel, wie dir angebote isch, tritsch verächtlich mit Fiess! Din Lawe sei a Qual, diner Tod a Höllefahrt! 
 — Vorhang fällt. —

          
",75,weber-wihnachtsstimme,258,33,0.7490236164375118,0.12790697674418605
152,tale,Jörgl,M,,,,"
            
Jörgl :

            
(bewundernd vor der Krippe)

            
Grossvater, o wie schön, wie schön! Warum han mer dann nit jedes Johr go a Tannebaum un so a Krippele g’het?

          
",76,weber-wihnachtsstimme,33,4,0.0,0.12121212121212122
153,tale,Mathis,M,domestic_worker,elementary_professions,,"
            
Mathis:

            
Arms Kind! Dini schön Kinderzitt wird ver- gehn, un dü worsch nit wisse, was Wihnachte ei- jentli beditt for kleini Kinder. Dü sottsch sahn, was des für a schens Fescht isch die Nacht im Keller, datsch din Lawe dran denke.

          
",76,weber-wihnachtsstimme,51,8,0.0,0.1568627450980392
154,tale,Jörgl,M,,,,"
            
Jörgl:

            
Ja! Ich ben hit Midag driwe gewann in da Sebal- duskirich mit’m Nuss Ros’l, for dane abg’falle Pfar- rer ze sahn.

          
",77,weber-wihnachtsstimme,29,1,0.0,0.034482758620689655
155,tale,Mathis,M,domestic_worker,elementary_professions,,"
            
Mathis:

            
Awer ich hab der’s doch verbote! Dü sollsch des G’spöttels nit ansahn. Des isch nix für kleini Kin- der.

          
",77,weber-wihnachtsstimme,26,2,0.0,0.07692307692307693
156,tale,Jörgl,M,,,,"
            
Jörgl:

            
Grossvater, ich geh jo nimmeh ane! Ich derf au gar nimmeh; denn de Weibel Peter het mi so arich uff d’Muck bekumme, dass i mi nimmeh dort sahn derf lon.

          
",78,weber-wihnachtsstimme,38,4,0.39344856936387407,0.10526315789473684
157,tale,Mathis,M,domestic_worker,elementary_professions,,"
            
Mathis:

            
De Weibel, de arigscht Patriot au grad noch? — Was hesch denn schun wedder ang’stellt? Zei ver- zehl a mol!

          
",78,weber-wihnachtsstimme,27,2,0.0,0.07407407407407407
158,tale,Jörgl,M,,,,"
            
Jörgl:

            
Grossvater! Des hatsch sotte sahn — wies do zugange isch in dare Kirich! — Mer han uns ganz vorne hinter de dick Sül g’stellt, dass mer alles genau here un sahn. De Patriote un Patriotewiwer sin in alle Eck rumg’sasse un han mitnander ver- zehlt. Em Weibel sini Grossmueter allein esch ganz not bi mir ufffm a Betstuehl gekneit un het ifrig im a gross mächtige Buech gelase. Ich hab so ver- stohle ewer ihre Buckel in’s Buech geluegt, un ich bin bal geplatzt mit Lache. Denk der, sie het’s Buech latz rum g'het. — Nu esch de Pater Baimel uff d’Altarstaffle g’stande. Er het welle predje. Awer niemes hert uff ne. Er briehlt alli Teifel üss de Höll rüss, es nutzt nix. De Jormärik in de Kirich geht als wittersch. Uff der Kanzel wars jo besser gange.

          
",79,weber-wihnachtsstimme,162,20,0.5265045474845514,0.12345679012345678
160,tale,Jörgl,M,,,,"
            
Jörgl:

            
Endlich het der Weibel eins anfange ze trummle, awer es nutzt nix. Un wie’s immer ken Ruh git, no fangt er einfach an ze predje. — Hahahaha! Wei- welpredig — Hahahahaha! So ebs isch noch nie do gewann. Fascht muess i mer jetzt noch lache. S’Ros’l un ich hans Nastuech in’s Mül g'stopft, dass mer nit lüt han muen lache. — Hahahaha! — Zerscht het ar d’Wiwer verhandelt, dass nit eini kann a Eier- kueche bache, Wie a richtiger Prediger het er’s no üssanandergeleit. — Zerscht nimmt m'r a Löffel vol Mehl un schlat a Ei nin und riehrt alles durichenan- der, dann macht m'r noch a Löffel voll Mehl dezü un noch a Ei, dann noch a Löffel voll Mehl un wedder a Ei un so wittersch, bis er ebena 50 Löffel voll Mehl un 50 Eier durichanander geriehrt het. Un vum Firanzinde — un vun de Pfann, un un — Hahahaha! — S’Ros’l het sich nimmeh könne halte, un ich hab’ m uff de Buckel muen klopfe, dass es net verstickt isch. — Un des sieht de Weibel. Er schreit: Was gits denn do ze lache? Und er lipft d’Hand for mer eini ze ga. Awer ich buck mi schnell, un em Weibel sini Hand klatscht platt an d'Kerichsül. — Dann awer los durich d’Sitetir.

          
",80,weber-wihnachtsstimme,261,20,0.09439574431538672,0.07662835249042145
161,tale,Mathis,M,domestic_worker,elementary_professions,,"
            
Mathis:

            
Des hesch jo guet gemacht! — Awer in Zükunft blisch mer schen weg vun dem lumpige Patriote- corps. — So jetzt zeig mol, eb dorin aw ebs ver- stehsch. Ich weiss nit, wie mer do de Esel un d’Kueh anestelle. Ich mein, de Esel dat am beschte do an de Ranft basse.

          
",80,weber-wihnachtsstimme,65,5,0.0,0.07692307692307693
162,tale,Jörgl,M,,,,"
            
Jörgl:

            
Jo, nu muess m'r em jo immer Hei nochstopfe. Ich mein, iwerhaupt s’ basst a Esel gar net zuem Jesuskindel ans Krippele.

          
",81,weber-wihnachtsstimme,28,3,0.0,0.10714285714285714
163,tale,Mathis,M,domestic_worker,elementary_professions,,"
            
Mathis:

            
Was? A Esel? Net? Er het d’Muetergottes uff Bethlehem getrage, un nochher s’Jesuskind’l bes uff Egypte.

          
",81,weber-wihnachtsstimme,25,4,0.46236025122574503,0.16
164,tale,Jörgl,M,,,,"
            
Jörgl:

            
Wenn er des alles gemacht het, dann möcht ich ne am liebschte mit ins Bett namme, dane arme, glickliche Esel.

          
",82,weber-wihnachtsstimme,26,3,0.0,0.11538461538461539
165,tale,Mathis,M,domestic_worker,elementary_professions,,"
            
Mathis:

            
Dü meinsch’s jo guet mit'm, awer er g'hert mol ans Krippele, wie a Engel in da Himmel.

          
",82,weber-wihnachtsstimme,24,4,0.0,0.16666666666666666
166,tale,Jörgl,M,,,,"
            
Jörgl:

            
No kummt er mer awer ganz do vorne dran, dass ne alli Litt sahn. 
(stellt ihn dahin)
.

          
",83,weber-wihnachtsstimme,24,1,0.0,0.041666666666666664
167,tale,Mathis,M,domestic_worker,elementary_professions,,"
            
Mathis:

            
So, wenn jetzt noch de Kuh a schens Plätzl hatt, dann war alles ferti. Awer die kännte mer doch an de Ranft stelle.

          
",83,weber-wihnachtsstimme,29,1,0.0,0.034482758620689655
168,tale,Jörgl,M,,,,"
            
Jörgl:

            
Eh warum denn? Se brücht doch net en einem furt ze frasse. Die kann au ebs fors Jesuskindel mache. 
(stellt sie dicht neben die Krippe)
 So do muess se ganz not newes Chrischtkindel, un wenn se hücht, nu bekummt’s Chrischtkindel warm. 
(Es klopft rechts oben)
.

          
",84,weber-wihnachtsstimme,59,4,0.6896372608763748,0.06779661016949153
169,tale,Mathis,M,domestic_worker,elementary_professions,,"
            
Mathis :

            
(öffnet Kellertüre rechts und ruft hinauf)

            
Wer isch do? Stimmen 
(von oben)
: Friede!

          
",84,weber-wihnachtsstimme,22,1,0.0,0.045454545454545456
170,tale,Mathis,M,domestic_worker,elementary_professions,,"
            
Mathis:

            
Ach, d’Geladene kumme schun. 
(eilt hinauf — oben)
: Entrez — Messieurs! 
(erscheint mit Barthel- mé und Mock in der Bühne — beide in schwarze Mäntel vermummt — verharren stumm.)
 Ihr sin d’- erschte! Awer es isch d’recht Zitt, d’andere muen au bal do sin. Jörgl, geh nuff un hilf noch ä biss’l em Christophe. Er soll em Herr Abbe au sawe, dass d’Litt so langsam ankumme.

          
",85,weber-wihnachtsstimme,90,7,0.043574402949951116,0.07777777777777778
171,tale,Jörgl,M,,,,"
            
Jörgl:

            
Ja! Grossvater! 
(ab nach links)
.

          
",85,weber-wihnachtsstimme,12,2,0.0,0.16666666666666666
173,tale,Mock,M,captain’s_adjudant,military,,"
            
Mock:

            
Capitaine, einschtwile sin mer noch ällein.

          
",86,weber-wihnachtsstimme,10,1,0.0,0.1
174,tale,Barthelmé Scheid,M,captain_of_the_knights,military,,"
            
Barthelmé:

            
In kurzer Zitt wäre se jo kumme!

          
",87,weber-wihnachtsstimme,10,2,0.0,0.2
176,tale,Barthelmé Scheid,M,captain_of_the_knights,military,,"
            
Barthelmé :

            
(nachdenklich)

            
Miner Brüeder! Miner alt, blend Vatter!

          
",88,weber-wihnachtsstimme,14,6,0.0,0.42857142857142855
177,tale,Mock,M,captain’s_adjudant,military,,"
            
Mock:

            
Für uff d’Guillotine g’schleppt ze wäre. Barthelmé 
(ist nachdenklich betrachtend vor der Krippe stehen geblieben)
:

          
",88,weber-wihnachtsstimme,22,3,0.9575637530749973,0.13636363636363635
178,tale,Mock,M,captain’s_adjudant,military,,"
            
Mock:

            
Capitaine! Es isch jetzt nit Zitt züe stille Be- de République un ihre G’setzer ze trotze. Ich möcht am liebschte des ganz G’schlamassels do iwer ä Hüffe risse, awer des dät uns nur verrote. Ich müess mini Wüet noch ä kleins Minitele zeruck- halte. Awer no ..... 
(zu Barthlemé)
 Capitaine! Barthelmé 
(zuckt wie ertappt zusammen)
 Mock?!

          
",89,weber-wihnachtsstimme,72,10,0.4867585886162087,0.1388888888888889
179,tale,Mock,M,captain’s_adjudant,military,,"
            
Mock:

            
Capitaine! Es isch jetzt net Zitt züe stelle Be- trachtunge. Mer stehn do als vereidigti Vollstrecker von de Revolutionsjustice 
(mit Verführerstimme)
: Capitaine! Ich sieh sie jetzt schun als Major, als Colonel. For däne wichtige Fang, wie mer die Nacht mache, weiss d'République uns au ze danke!

          
",89,weber-wihnachtsstimme,61,5,0.0,0.08196721311475409
180,tale,Barthelmé Scheid,M,captain_of_the_knights,military,,"
            
Barthelmé  :

            
(verwirrt)

            
Mock? Hesch dü nieh ä Wihnachte verlebt?

          
",90,weber-wihnachtsstimme,14,2,0.0,0.14285714285714285
181,tale,Mock,M,captain’s_adjudant,military,,"
            
Mock:

            
G’sähn! Ja! — Uff sällem verflüechte Schloss en de Tourraine. Die Seigneurs et Dames, wie se ge- danzt, wie se g’soffe, wie se gelacht hän! — Un ich, de klein Bettelmock, ich hab d’Fischtle geballt nuff zue sälle höhnisch grinzende Wihnachtsfenschter.

          
",90,weber-wihnachtsstimme,55,4,0.0,0.07272727272727272
183,tale,Mock,M,captain’s_adjudant,military,,"
            
Mock:

            
Un sie, Capitaine, sie hän g’schwore, ihre Kopf dranzesetze, für uns arme Sklave ze hälfe.

          
",91,weber-wihnachtsstimme,22,2,1.7736063212467315,0.09090909090909091
184,tale,Barthelmé Scheid,M,captain_of_the_knights,military,,"
            
Barthelmé:

            
Wohl hab i en de Begeischterung for de güet Sach vun de République mit kaltem Blüet sälli, eiri Henker könne niedersäble; awer — 
(für sich)
 de Brüeder wohl au — de alt blind Vater?! 
(laut)
 S’Bluet rollt mer so unrüech durich de Körper.

          
",92,weber-wihnachtsstimme,55,11,0.9242350686339065,0.2
186,tale,Barthelmé Scheid,M,captain_of_the_knights,military,,"
            
Barthelmé :

            
(wie um sich zu befreien)

            
Mock! Fehlt vil- licht noch ebs! Müess noch ebs in Ordnung gebrocht wäre, dass alles klappt?

          
",93,weber-wihnachtsstimme,30,3,0.0,0.1
187,tale,Mock,M,captain’s_adjudant,military,,"
            
Mock:

            
Es word mir jo schwer falle, des Pfaffegeäffs ä Zit lang ahhere ze müen. — 5 vun de beschte che- valiers hab i noch b’stellt. Sie sin instruiert. Sie kumme vermummt, wie mir, un gän d’Parole: Fride, ab. Weni no alles do un still un sicher isch, dann gän sie s’Zeiche. Sie werfe de Mantel ab, mir maches noch, un sie erkläre no im Name vun de République d’Verhaftung. S’andere müess gelinge. For alli Fäll sin in der Nochberschaft noch 20 chevaliers versteckt. Na, Capitaine? Het der Mock e Fehler gemacht?

          
",93,weber-wihnachtsstimme,117,17,0.24117807622350523,0.1452991452991453
188,tale,Barthelmé Scheid,M,captain_of_the_knights,military,,"
            
Barthelmé :

            
(kurz)

            
Güet! 
(für sich)
 Wenns numme schun rum wär!

          
",94,weber-wihnachtsstimme,17,1,0.0,0.058823529411764705
189,tale,Barthelmé Scheid,M,captain_of_the_knights,military,,"
            
Barthelmé:

            
Still! Es kummt eber! 
(Sie vermummen sich wieder)
. Christophe 
(tritt von links ein mit Tüchern und einer Kiste)
: Ah! Schun 2 do? Güete-n-Owet!

          
",94,weber-wihnachtsstimme,38,2,0.0,0.05263157894736842
190,tale,Barthelmé Scheid,M,captain_of_the_knights,military,,"
            
Barthelmé:

            
Güete-n-Owet! 
(B. und M. bleiben stumm rechts stehen)
.

          
",95,weber-wihnachtsstimme,16,1,0.0,0.0625
191,tale,Christophe,M,domestic_worker,elementary_professions,,"
            
Christophe:

            
Wie de Mathis doch des Krippele so nett hergericht het, un do gar ä Chrischtbaum. Messieurs! Es fangt ball an! Der Herr Abbe isch grad ewe vum e Krankeb’süech zeruckkumme. Wenn alles gericht un do isch, no kummt er herab.

          
",95,weber-wihnachtsstimme,49,4,0.07625520516241445,0.08163265306122448
192,tale,Mock,M,captain’s_adjudant,military,,"
            
Mock :

            
(verstellend)

            
S’isch schun güet! Mir könne warte! 
(für sich)
 Ich halt’s ball nimme üss. Christophe 
(bereitet unterdessen den Altar)
.

          
",96,weber-wihnachtsstimme,33,3,0.7106934337132138,0.09090909090909091
193,tale,Mock,M,captain’s_adjudant,military,,"
            
Mock :

            
(schaut verächtlich zu — leise zu Barthelmé)

            
In Paris müen so un soviel Kinder nackit laufe, un die verschwände do so scheni Linne. 
(Es klopft rechts oben)
.

          
",96,weber-wihnachtsstimme,36,3,1.3199956682618965,0.08333333333333333
194,tale,Christophe,M,domestic_worker,elementary_professions,,"
            
Christophe:

            
Aha! Alleweg noch Litt! 
(geht hinauf)
. Wer isch do? Stimmen 
(von oben)
: Friede!

          
",97,weber-wihnachtsstimme,25,1,0.0,0.04
196,tale,group,sex_unknown,job_unknown,job_category_unknown,social_class_unknown,"
            
Bürger:

            
1. Ah! Des schöne Krippele!

          
",98,weber-wihnachtsstimme,9,2,0.0,0.2222222222222222
199,tale,group,sex_unknown,job_unknown,job_category_unknown,social_class_unknown,"
            
Bürger:

            
3. Es wird e schöns Winachtsfescht gän!

          
",99,weber-wihnachtsstimme,10,1,0.0,0.1
201,tale,Christophe,M,domestic_worker,elementary_professions,,"
            
Christophe :

            
(am Altar arbeitend)

            
Wie siehts denn uff de Strosse üss?

          
",100,weber-wihnachtsstimme,15,1,0.0,0.06666666666666667
202,tale,group,sex_unknown,job_unknown,job_category_unknown,social_class_unknown,"
            
Bürger:

            
1. Net grad wie an Wihnachte. Die chevalliers, wie hit kumme sin, sin alli voll.

          
",101,weber-wihnachtsstimme,21,4,0.0,0.19047619047619047
204,tale,Christophe,M,domestic_worker,elementary_professions,,"
            
Christophe:

            
Umso besser! Nu lon se uns in Rüeh!

          
",102,weber-wihnachtsstimme,12,2,0.7868971387277481,0.16666666666666666
205,tale,group,sex_unknown,job_unknown,job_category_unknown,social_class_unknown,"
            
Bürger:

            
2. Die Lumpemaidle vun de Patriote sin schun güet ami mit ne un zottle mit ne in de Strosse rum. 
(Es klopft oben)
.

          
",102,weber-wihnachtsstimme,29,1,0.0,0.034482758620689655
206,tale,Christophe,M,domestic_worker,elementary_professions,,"
            
Christophe :

            
(hinauf)

            
Wer do? Stimmen 
(oben)
: Friede. 
(Christophe erscheint mit 2 vermummten chevaliers in der Bühne, die sich zu B. und M. gesellen)
.

          
",103,weber-wihnachtsstimme,35,1,0.0,0.02857142857142857
207,tale,group,sex_unknown,job_unknown,job_category_unknown,social_class_unknown,"
            
Bürger:

            
3. Isch de Herr Abbé au wohluff? Er het doch soviel ze düen!?

          
",103,weber-wihnachtsstimme,18,1,0.3050208206496578,0.05555555555555555
208,tale,Christophe,M,domestic_worker,elementary_professions,,"
            
Christophe:

            
Net vum beschte. Geschtert z’Nachts hän mer vor de Speckritter üssrisse müen, un durich de Rüessbach schwimme. Un küm sin mer d’heim ge- wänn hit Midda, do isch ’r widder züem ä Kranke uff Kränzelhüse gerüefe wore, ziem ä Speckritter.

          
",104,weber-wihnachtsstimme,51,3,0.0,0.058823529411764705
210,tale,Christophe,M,domestic_worker,elementary_professions,,"
            
Christophe:

            
Ja! Sini Kamerade hän ne bim-e Händel halwer tot g’schlage, un wie er an’s Sterwe isch kumme, do hetts’m alleweg doch vor’m Teifel ge- grüst un het noch'm e Pfarrer verlangt.

          
",105,weber-wihnachtsstimme,42,7,0.6248795753980271,0.16666666666666666
211,tale,group,sex_unknown,job_unknown,job_category_unknown,social_class_unknown,"
            
Bürger:

            
2. Do hän m’rs jo! An de Tod denke so Brie- der jo nit. 
(Es klopft oben)
.

          
",105,weber-wihnachtsstimme,25,1,0.0,0.04
212,tale,Christophe,M,domestic_worker,elementary_professions,,"
            
Christophe :

            
(geht hinauf)

            
Wer do? Stimmen 
(von oben)
: Friede!

          
",106,weber-wihnachtsstimme,17,1,0.0,0.058823529411764705
214,tale,Barthelmé Scheid,M,captain_of_the_knights,military,,"
            
Barthelmé :

            
(leise für sich)

            
An de Tod!

          
",107,weber-wihnachtsstimme,11,1,0.0,0.09090909090909091
216,tale,Barthelmé Scheid,M,captain_of_the_knights,military,,"
            
Barthelmé :

            
(leise und verwirrt)

            
An de Tod hab i noch nie gedenkt.

          
",108,weber-wihnachtsstimme,16,2,0.0,0.125
217,tale,group,sex_unknown,job_unknown,job_category_unknown,social_class_unknown,"
            
Bürger:

            
3. Wenn die Jakobiner, Schinder un Mörder numme emol e kleins bissl nochdenke däte, was so Abbe in däne Zitte alles leischt. Sie miesste doch ä biss'l stutzig wäre, un sich fröje, woher dass er die Kraft un der Müet hernimmt. 
(Es klopft oben rechts)
.

          
",108,weber-wihnachtsstimme,56,6,0.596116119698458,0.10714285714285714
218,tale,Christophe,M,domestic_worker,elementary_professions,,"
            
Christophe :

            
(geht hinauf)

            
Wer do? Stimmen 
(oben)
: Friede!

          
",109,weber-wihnachtsstimme,16,1,0.0,0.0625
220,tale,Mock,M,captain’s_adjudant,military,,"
            
Mock :

            
(leise z. Barthelmé)

            
Unsri sin jetzt alli do. De Tanz könnt los gehn. Ä kleins Hiffele numme. Die packe mir ällein. Awer es sin gewiss d’Rädels- fiehrer, d’schlimmschte Pfaffebrieder vu hie.

          
",110,weber-wihnachtsstimme,44,5,0.0,0.11363636363636363
221,tale,Florence Scheid,M,abbot,clergy,,"
            
Florence:

            
In Ewigkeit!

          
",110,weber-wihnachtsstimme,5,1,0.0,0.2
222,tale,Barthelmé Scheid,M,captain_of_the_knights,military,,"
            
M. Scheid:

            
Amen.

          
",111,weber-wihnachtsstimme,5,1,0.0,0.2
223,tale,Florence Scheid,M,abbot,clergy,,"
            
Florence :

            
(tritt auf die Stufe vor den Altar)

            
De Friede sei mit eich, mini liewe, treie Brieder. — Es drängt mich üss de innerschte Seel rüss, ä paar Troscht- wörtle an eich ze richte. Stehn uff! 
(alles erhebt sich)
. Mini liewe, treie Chrischte! Ich steh do vor eich, un ihr tüen mir ä unverdienti Ehr an. Ich bin bi eich gebliewe, mittle in dem Leid un Misère, dass der Herrgott bi eich isch. Ich bin siner Diener, er isch de Herr. Noch nie hän mer so ä Wihnachte derfe fire, wie grad hit. Het nit de Keller jetzt de nämliche Glanz, wie de Stall vun Bethlehem? Am ä elende Platzl het de Welteheiland s’Licht der Welt erblickt, un an som’ä weltfremde Ort fire mir jetzt grad s’Andenke an säll grosse Ereignis. — Hän nit ums Krippele in Bethlehem d’Henker vum König Herodes im kl. Je- suskindel noch’m Läwe getracht, grad wie au hit Nacht um uns de blindwietige Jakobiner uff uns lüschtere. Würdiger als numme je ä mol begehn mir drum hit des Fescht. Möchts uns de Friede bringe. Un er kummt. Die wietigschte Revolutio- naire sin g’stirzt, un d'r siegreich General Bona- parte het d’Fiehrung übernomme, — er wurd die Morderei nit lang meh dulde.

          
",111,weber-wihnachtsstimme,251,35,0.20632385075123627,0.1394422310756972
224,tale,Barthelmé Scheid,M,captain_of_the_knights,military,,"
            
Barthelmé:

            
(der unruhig gehorcht — leise für sich)
: Lang han-i nimmeh so Worte g’hört. 
(erbost)
 Awer es isch jo der Brüeder — der —! 
(Es schlägt auf der Turmuhr 12)
.

          
",112,weber-wihnachtsstimme,41,4,0.0,0.0975609756097561
225,tale,Florence Scheid,M,abbot,clergy,,"
            
Florence:

            
D’Stund isch do! D’Glock rüeft de Erlösungs- moment ung’hört in d’Gasse un Strosse vun der Stadt nüss, numme do hunte, in dem finschtere Kel- ler, do klingt’s in feschtlich g’stimmti Herze. Wann wider, wann klinge ihr fröhlichi Wihnachtsglocke in d’Köpf vun all dene sinnbetörte Mensche? 
(Nach Ende des 12-Uhrschlags fangen die Glocken an, dumpf, dann immer lauter in der Ferne zu läuten)
. Was isch des?

          
",112,weber-wihnachtsstimme,87,6,0.0,0.06896551724137931
227,tale,Christophe,M,domestic_worker,elementary_professions,,"
            
Christophe:

            
Wer litt d’Glocke? Ich geh un schau 
(ab — Unruhe)
.

          
",113,weber-wihnachtsstimme,17,1,0.0,0.058823529411764705
228,tale,group,sex_unknown,job_unknown,job_category_unknown,social_class_unknown,"
            
Bürger:

            
1. Villicht d’Sturmglocke?

          
",114,weber-wihnachtsstimme,7,1,0.0,0.14285714285714285
229,tale,Florence Scheid,M,abbot,clergy,,"
            
Florence:

            
Nä! Es sin jo alli Glocke! Wie s’klingt, so hoch un feierlich, als wär’s Friede, als wär’s Wihnachte for alli Welt. 
(Glocken brechen ab)
.

          
",114,weber-wihnachtsstimme,38,5,0.0,0.13157894736842105
230,tale,group,sex_unknown,job_unknown,job_category_unknown,social_class_unknown,"
            
Bürger:

            
2. Villicht ä Unfug, ä Spass, wie sich einer vun däne volle Chevaliers erlaubt het!?

          
",115,weber-wihnachtsstimme,21,3,0.0,0.14285714285714285
231,tale,Christophe,M,domestic_worker,elementary_professions,,"
            
Christophe :

            
(atemlos zurück)

            
Der Mathis, der Mathis!

          
",115,weber-wihnachtsstimme,12,1,0.0,0.08333333333333333
233,tale,Christophe,M,domestic_worker,elementary_professions,,"
            
Christophe:

            
Do schleppe ne grad d’Jakobiner üss de Kirch rüss.

          
",116,weber-wihnachtsstimme,13,1,0.0,0.07692307692307693
234,tale,Barthelmé Scheid,M,captain_of_the_knights,military,,"
            
M. Scheid:

            
Armer, treier Diener!

          
",117,weber-wihnachtsstimme,8,2,0.0,0.25
238,tale,Florence Scheid,M,abbot,clergy,,"
            
Florence:

            
Berühige eich, ihr Litt! Ich versteh die güet Seel! Er het de Hauptanteil an dem Fescht. Dene Chrischtbaum het er hergericht, des Krippele het er zürecht gemacht, un jetzt het er uns au noch mit de Wihnachtsglocke welle erfreie. Züviel, güeter Al- ter! Des het de Herrgott nit verlangt! Er het meh gemacht, ass was er gebrücht het. 
(tiefe Rührung)
.

          
",119,weber-wihnachtsstimme,78,8,0.0,0.10256410256410256
239,tale,Barthelmé Scheid,M,captain_of_the_knights,military,,"
            
Barthelmé :

            
(leise)

            
Wie die Mensche mit Freid an de Tod denke! Un ich — ich hab so Angscht, so schreck- lich Angscht vor’m Tod.

          
",119,weber-wihnachtsstimme,32,6,0.0,0.1875
240,tale,Mock,M,captain’s_adjudant,military,,"
            
Mock :

            
(z. Barthelmé)

            
Es isch Zitt, Capitaine, gän s' Zeiche!

          
",120,weber-wihnachtsstimme,16,2,0.0,0.125
241,tale,Barthelmé Scheid,M,captain_of_the_knights,military,,"
            
Barthelmé:

            
Der Tod, der Tod!

          
",120,weber-wihnachtsstimme,8,2,0.0,0.25
242,tale,Florence Scheid,M,abbot,clergy,,"
            
Florence:

            
Des isch ä Opfer üss däre blinde Zitt. Er geht hit schun, mir villicht morge, oder iwermorge, Gott weiss, wann unsri Stund schlagt. Mir könne numme for ne bäte. 
(kniet vor dem Altar nieder — alles kniet und verharrt in stummer Andacht — un- terdessen)
:

          
",121,weber-wihnachtsstimme,58,7,0.0,0.1206896551724138
243,tale,Barthelmé Scheid,M,captain_of_the_knights,military,,"
            
Barthelmé :

            
(für sich)

            
De Mathis, er isch de erscht, wo uffs Schaffott steje müess. Die güet, alt, trei Seel. In alte, schöne Kinderdag, do het er immer an Wih- nachte de Rüppelz 
(Hanstrapp)
 gemacht. Er het uns d’G’schenker, Bretle, Nusse un Aepfel gebrocht, un ich bin als zitternd vor’m g’stande un hab gebet, was ich längscht vergesse hab. — Awer —

          
",121,weber-wihnachtsstimme,83,8,0.0,0.0963855421686747
244,tale,Mock,M,captain’s_adjudant,military,,"
            
Mock :

            
(leise zu Barthelmé)

            
Capitaine! Endlich emol los! — Hän sie denn vergesse, warum dass m'r ei- jentli do sin? Ich will doch nit Wihnachte fire do, ich will Blüet sähn. Schnell, gän s’Zeiche!

          
",122,weber-wihnachtsstimme,47,7,0.42855989298775177,0.14893617021276595
245,tale,Barthelmé Scheid,M,captain_of_the_knights,military,,"
            
Barthelmé :

            
(noch abwesend)

            
Wihnachte hit.

          
",122,weber-wihnachtsstimme,9,2,0.0,0.2222222222222222
246,tale,Florence Scheid,M,abbot,clergy,,"
            
Florence :

            
(erhebt sich — alles mit ihm)

            
Un jetzt, ihr liewe, treie Brieder, mir welle doch nit unser Fescht vergesse, wie mer unserem liewe Chrischtkindel schuldi sin.

          
",123,weber-wihnachtsstimme,35,7,0.0,0.2
247,tale,Mock,M,captain’s_adjudant,military,,"
            
Mock :

            
(zischend rasch)

            
In dreiteifelsname! Capitaine! Schnell, gän ’s Zeiche!

          
",123,weber-wihnachtsstimme,17,2,0.0,0.11764705882352941
248,tale,Florence Scheid,M,abbot,clergy,,"
            
Florence:

            
Sähn däne Chrischtbaum, wie uns de arm Ma- this noch als Erbschaft hinterlon het. In sinere Einfachheit soll er eich immer in der Erinnerung bliwe, als herrlichs Andenke an de trürig Wih- nachte, wie mir de Nacht in dem Keller fire. Christophe 
(zündet schweigend die Kerzen an)
.

          
",124,weber-wihnachtsstimme,59,5,0.0,0.0847457627118644
249,tale,Florence Scheid,M,abbot,clergy,,"
            
Florence:

            
Sähn, wie d’Kerze glänze un flackere! Oh, könnte se doch die blinde Patriote sähn un verstehn. Däts ne leichte vun de finschtere Höllepforte züem ewige Liecht.

          
",124,weber-wihnachtsstimme,34,3,0.0,0.08823529411764706
251,tale,Mock,M,captain’s_adjudant,military,,"
            
Mock :

            
(einfallend)

            
Capitaine! Ich kann’s nimm anhöre! Schnell! s’ Zeiche!

          
",125,weber-wihnachtsstimme,18,1,0.0,0.05555555555555555
252,tale,Florence Scheid,M,abbot,clergy,,"
            
Florence:

            
Oh, es miesst se bekehre, des Liecht, es dät sie erinnere an die Kinderdag, wie sie so gleckseli g’sunge un gebat han.

          
",126,weber-wihnachtsstimme,29,2,0.0,0.06896551724137931
254,tale,Florence Scheid,M,abbot,clergy,,"
            
Florence:

            
Un sie däte fröhlich instimme in des herrliche Lied:

          
",127,weber-wihnachtsstimme,12,2,0.0,0.16666666666666666
256,tale,Florence Scheid,M,abbot,clergy,,"
            
Florence :

            
(intoniert)

            
Stille Nacht!

          
",128,weber-wihnachtsstimme,8,1,0.0,0.125
257,tale,group,sex_unknown,job_unknown,job_category_unknown,social_class_unknown,"
            
Bürger :

            
(stimmen ein)

            
Heilige Nacht usw.

          
",128,weber-wihnachtsstimme,10,1,0.0,0.1
258,tale,Barthelmé Scheid,M,captain_of_the_knights,military,,"
            
Barthelmé :

            
(hält inne)

            
Die Stimme! — Die Melodie! 
(knöpft mechanisch wieder zu — zu Mock)
: Ich kann jetzt nit. — 
(für sich)
: Des Lied, wie’s mer ans wildverzerrte Herz pocht! — Wie’s klingt un verzehlt üss schöne, längscht-vergessene Kinderdag. 
(lauscht gerührt)
.

          
",129,weber-wihnachtsstimme,62,3,0.0,0.04838709677419355
259,tale,Mock,M,captain’s_adjudant,military,,"
            
Mock:

            
(während dem Gesang fasst ausser sich)
: Capi- taine! 
(hält sich die Ohren zu)
. In dreiteifelsname! Jetzt endlich mol los! Wache uff! Capitaine! Es isch hechschti Zitt! Gän ’s Zeiche! 
(Lied klingt aus)
.

          
",129,weber-wihnachtsstimme,51,8,0.0,0.1568627450980392
260,tale,Florence Scheid,M,abbot,clergy,,"
            
Florence:

            
Frind, das Lied isch e Gebet ..... Jeder von uns het ä alter, güeter Kamerad, wie dort in de Reihe vun däne Blüetmensche steht. Für ihn het jeder von uns des Gebet züem Himmel g’schickt. Au ich, au dü, alter Vatter, mir hän Blüet in de Odere vom Umsturz un vum Frevel rolle. Miner Brüeder, er steht dort un mordet un läschtert.

          
",130,weber-wihnachtsstimme,75,14,0.34796969738454603,0.18666666666666668
261,tale,Barthelmé Scheid,M,captain_of_the_knights,military,,"
            
Barthelmé :

            
(erschüttert)

            
Gott!

          
",130,weber-wihnachtsstimme,7,1,0.0,0.14285714285714285
262,tale,Florence Scheid,M,abbot,clergy,,"
            
Florence:

            
Für ihne hab ich gebet alle Tag! O Herrgott, loss ne nit untergehn, fiehr ne zeruck züem Vatter, züe dir! 
(Alle beten still, unterdessen :)

          
",131,weber-wihnachtsstimme,35,5,0.6515967544422062,0.14285714285714285
263,tale,Barthelmé Scheid,M,captain_of_the_knights,military,,"
            
Barthelmé:

            
Er — sie bete for mich? — O, Herrgott! — Was sa ich do? — Ich bin Jakobiner! — Ich bin... !

          
",131,weber-wihnachtsstimme,30,1,1.5851849719225157,0.03333333333333333
264,tale,Mock,M,captain’s_adjudant,military,,"
            
Mock:

            
Capitaine! Züam letschte mol! Es dürt züe lang!

          
",132,weber-wihnachtsstimme,13,1,0.0,0.07692307692307693
265,tale,Barthelmé Scheid,M,captain_of_the_knights,military,,"
            
Barthelmé:

            
Halt, Mock! Nüer ä kleine Minüte noch!

          
",132,weber-wihnachtsstimme,12,2,1.0660401505698207,0.16666666666666666
266,tale,Barthelmé Scheid,M,captain_of_the_knights,military,,"
            
M. Scheid :

            
(mühsam)

            
D'r Barthelmé! — Dass er mit sälle Blüetmensche geht, es isch jo mini Schuld. Ich hab ne mit Gewalt welle ziege. Das het ne awer verdrosse, un er isch im Zorn un Hass uff Paris — un isch dort g’falle. — O Gott — ich hab'm hit g’flüecht, wie er vor mir g’stande isch. — Herrgott, — im Himmel — verzeih m'r. — Nimm da Flüech vun ihm! — Hole ne! — Ich will'm mine Säge gän! 
(sinkt zurück, alle bemühen sich um ihn)
. Barthelmé 
(ist äusserst unruhig geworden — will mehr- mals zum Vater eilen)
.

          
",133,weber-wihnachtsstimme,125,15,0.3065740044163498,0.12
267,tale,Mock,M,captain’s_adjudant,military,,"
            
Mock :

            
(hält ihn zurück)

            
Capitaine! Sie müen!

          
",133,weber-wihnachtsstimme,12,1,0.0,0.08333333333333333
269,tale,Mock,M,captain’s_adjudant,military,,"
            
Mock :

            
(wütend)

            
Gän ‘s Zeiche! Barthelmé 
(reisst am Mantel, als wollte er ihn abwer- fen — sinkt in sich zusammen)
: Ich kann nit! 
(bleibt geschlagen in der Ecke stehen)
.

          
",134,weber-wihnachtsstimme,42,4,0.0,0.09523809523809523
270,tale,Mock,M,captain’s_adjudant,military,,"
            
Mock :

            
(zischend)

            
Verräter! 
(wirft schnell den Mantel ab — die Chevaliers machen nach — sie ziehen die Säbel — Bürger weichen erschreckt zurück)
. Ket- zer! — Verräter! 
(stürmt auf die Altarstufe)
: Im Name der République, ihr Pfaffebrieder, ihr sin ver- haft! 
(ergreift Florence)
. Elender Pfaff, diner Kopf müess zerscht falle! 
(Die Bürger springen hinzu, um zu helfen)
.

          
",135,weber-wihnachtsstimme,83,8,0.0,0.0963855421686747
271,tale,Florence Scheid,M,abbot,clergy,,"
            
Florence:

            
Kinder! Birjer! Es isch um uns g’schähn! Bliwe rueig, denke an d'r Herrgott! — Euch g’schieht nix — kein Tribunal kann eich ’s Lewe nemme — denn die gröschte Blüethunde sin nimm am Rueder. Ich derf mit mim Blüet un Lewe villicht als letsch- ter eure Freiheit, die echte, erkaufe un unser arme Land wird wieder ufferstehn. 
(Die Bürger lassen ab und werden überwältigt)
.

          
",135,weber-wihnachtsstimme,79,11,0.27271993190129656,0.13924050632911392
272,tale,group,sex_unknown,job_unknown,job_category_unknown,social_class_unknown,"
            
Bürger:

            
Vive le roi! — Ehre sei Gott in der Höhe! Chevaliers 
(bemächtigen sich der Bürger u. Christophe und ketten sie)
. Mock 
(laut z. Barthelmé, der noch im Mantel, furchtbar erregt, von der Ecke aus dem Schauspiel zugeschaut hatte)
: Capitaine! — Sie könne noch alles güet mache. Do binde däne Alt! Des isch ehri Sach! 
(bindet unterdessen Florence)
.

          
",136,weber-wihnachtsstimme,77,8,0.0,0.1038961038961039
273,tale,Barthelmé Scheid,M,captain_of_the_knights,military,,"
            
M. Scheid :

            
(horcht auf)

            
Was isch des für e Stimm? Der Verfiehrer von mim Sohn, vum Barthelmé. — No isch er oi do un will sin Brüeder — sin Vatter, sini Mitbirger an ’s Messer liefere? So wit bisch g’sunke — Vatermörder — Kain wit wärde! — Oh, ich hab noch ebs für dich, wu dü nit vergesse wursch! — Sei ewig vom Himmel verfl— —

          
",136,weber-wihnachtsstimme,79,7,0.0,0.08860759493670886
274,tale,Barthelmé Scheid,M,captain_of_the_knights,military,,"
            
Barthelmé :

            
(in höchster Angst)

            
Halt!, Vater, nit flüeche, ich blib bi dir —ich verteidig der Brüeder. 
(sinkt vor ihm in die Knie)
.

          
",137,weber-wihnachtsstimme,34,7,0.3045829001628059,0.20588235294117646
275,tale,Mock,M,captain’s_adjudant,military,,"
            
Mock :

            
(höhnisch zischend)

            
Aha — der Verräter — der verkappte Pfaff! Soldate fessle-n-e.

          
",137,weber-wihnachtsstimme,19,2,0.0,0.10526315789473684
276,tale,Barthelmé Scheid,M,captain_of_the_knights,military,,"
            
Barthelmé :

            
(zieht den Degen)

            
Eweg von mir — oder — 
(die Soldaten weichen zurück — er dringt auf Mock ein, der feige zurückweicht, stolpert und zu Boden stürzt)
. So stirb, dü Satan, fahr in d’Höll...

          
",138,weber-wihnachtsstimme,47,6,1.6071645090547129,0.1276595744680851
277,tale,Florence Scheid,M,abbot,clergy,,"
            
Florence :

            
(wirft sich gefesselt dazwischen)

            
Halt!, Bar- thelmé! Kän Blüet — kän Mord! Mir sin so glück- lich, dass dü der Weg züe uns g’funde häsch, ass dü wieder e trejer Sohn vun der Kirch witt bliwe. Loss da Mann gehn — die Soldate solle ihri Pflicht erfülle un uns vor ’s Tribunal bringe, Dü müesch o dort dich verteidige.

          
",138,weber-wihnachtsstimme,74,11,0.618618032031129,0.14864864864864866
278,tale,Barthelmé Scheid,M,captain_of_the_knights,military,,"
            
Barthelmé:

            
Oh, dert hab ich kän Angscht. Ich schrieb sofort an d'r Général Bonaparte — der wird seller noch kenne, wu ihm ’s Lewe gerett het. 
(kniet vor M. Scheid, der in den Sessel zusammengesunken ist)
: Vatter, verzeih mir — verzeih dim verlorene Sohn, e nei Lewe will ich hit anfange! — Im Florence will ich mir e Vorbild nämme! — Vatter, hör mi — gib mir dine Säge.

          
",139,weber-wihnachtsstimme,84,7,0.0,0.08333333333333333
279,tale,Florence Scheid,M,abbot,clergy,,"
            
Florence :

            
(eilt hinzu, kniet auch nieder)

            
Vatter, — d’Müeter im Himmel wartet uff die Verzeihung für de Barthelmé, — ich bitt dich drum — gib ihm din Säge. —

          
",139,weber-wihnachtsstimme,37,7,0.0,0.1891891891891892
280,tale,Barthelmé Scheid,M,captain_of_the_knights,military,,"
            
M. Scheid :

            
(langsam zu sich kommend)

            
Barthelmé — Florence! bal bin ich bi d'r Müeter. Nu Sege eich beide! 
(legt die Hände auf — verklärt in die Ferne schauend)
 un unser Frankrich wird sich wieder erhewe, wird in Einigkeit mächtig werde — wird ufferstehn üss all dem Blüet züe hoher Pracht — un Glick, denn o in d'r République kann mer glieklig sin. 
(sinkt zurück)
. Es isch vorbei — ich derf d'r Martertod nit han. — S’Chrischtkind holt mich hite schon! — Dank für d'r Barthelmé — im Himmel — sahn — mir — uns — wieder — 
(er stirbt)
.

          
",140,weber-wihnachtsstimme,120,9,0.9857517493380441,0.075
281,tale,Florence Scheid,M,abbot,clergy,,"
            
Florence:

            
Vater — lab wohl — bal, bal sehn mir uns wieder — 
(drückt einen Kuss auf seine Hand, Bar- thelmé bleibt in stummem Schmerze knien)
. Mock 
(mit verstörtem Gesicht, legt die Hand auf Flo- rence)
 : Im Name vun der Liberté — furt jetzt, vor’s Tribunal, ihr alle! Barthelmé 
(steht auf, hält beschwörend die Hand in die Höhe)
: Im Name vun der Egalité wann mir kämpfe, dass jeder Birger läwe derf, wie’s im g’fallt, ass jeder o bette derf un in d'Kirch gehn, wie er will — dass müess die Gerechtigkeit uns gän.

          
",140,weber-wihnachtsstimme,120,13,0.0,0.10833333333333334
282,tale,Florence Scheid,M,abbot,clergy,,"
            
Florence:

            
Un im Herrgott z’Ehre, wenn mir d’echte Fra- ternité üsuewe, indem mir alle dene verzeihe, wu uns hitte Böses thüen. Mit de Hirte awer wann mir rüefe „Ehre sei Gott in der Höhe —

          
",141,weber-wihnachtsstimme,44,5,0.0,0.11363636363636363
283,tale,group,sex_unknown,job_unknown,job_category_unknown,social_class_unknown,"
            
Alle :

            
(Bürger — Barthelmé einfallend)

            
Un Friede alle dene, wu güeter Wille han. 
 — Ende. — — 
 
(Vorhang fällt.)

          
",141,weber-wihnachtsstimme,28,2,0.0,0.07142857142857142
