2022-08-20 21:32:47 - valence lexicon length: 7864
2022-08-20 21:32:47 - Number of rows: 96
2022-08-20 21:32:47 - dominance lexicon length: 7864
2022-08-20 21:32:47 - Number of rows: 96
2022-08-20 21:32:47 - arousal lexicon length: 7864
2022-08-20 21:32:47 - Number of rows: 96
2022-08-20 21:32:48 - anger lexicon length: 7864
2022-08-20 21:32:48 - Number of rows: 96
2022-08-20 21:32:48 - anticipation lexicon length: 7864
2022-08-20 21:32:48 - Number of rows: 96
2022-08-20 21:32:48 - disgust lexicon length: 7864
2022-08-20 21:32:48 - Number of rows: 96
2022-08-20 21:32:48 - fear lexicon length: 7864
2022-08-20 21:32:48 - Number of rows: 96
2022-08-20 21:32:48 - joy lexicon length: 7864
2022-08-20 21:32:48 - Number of rows: 96
2022-08-20 21:32:48 - sadness lexicon length: 7864
2022-08-20 21:32:48 - Number of rows: 96
2022-08-20 21:32:48 - surprise lexicon length: 7864
2022-08-20 21:32:48 - Number of rows: 96
2022-08-20 21:32:49 - trust lexicon length: 7864
2022-08-20 21:32:49 - Number of rows: 96
2022-08-24 17:01:52 - valence lexicon length: 7864
2022-08-24 17:01:52 - Number of rows: 96
2022-08-24 17:01:52 - dominance lexicon length: 7864
2022-08-24 17:01:52 - Number of rows: 96
2022-08-24 17:01:53 - arousal lexicon length: 7864
2022-08-24 17:01:53 - Number of rows: 96
2022-08-24 17:01:53 - anger lexicon length: 7864
2022-08-24 17:01:53 - Number of rows: 96
2022-08-24 17:01:53 - anticipation lexicon length: 7864
2022-08-24 17:01:53 - Number of rows: 96
2022-08-24 17:01:53 - disgust lexicon length: 7864
2022-08-24 17:01:53 - Number of rows: 96
2022-08-24 17:01:53 - fear lexicon length: 7864
2022-08-24 17:01:53 - Number of rows: 96
2022-08-24 17:01:53 - joy lexicon length: 7864
2022-08-24 17:01:53 - Number of rows: 96
2022-08-24 17:01:53 - sadness lexicon length: 7864
2022-08-24 17:01:53 - Number of rows: 96
2022-08-24 17:01:53 - surprise lexicon length: 7864
2022-08-24 17:01:53 - Number of rows: 96
2022-08-24 17:01:54 - trust lexicon length: 7864
2022-08-24 17:01:54 - Number of rows: 96
