2022-08-20 21:34:11 - valence lexicon length: 7864
2022-08-20 21:34:11 - Number of rows: 206
2022-08-20 21:34:11 - dominance lexicon length: 7864
2022-08-20 21:34:11 - Number of rows: 206
2022-08-20 21:34:11 - arousal lexicon length: 7864
2022-08-20 21:34:11 - Number of rows: 206
2022-08-20 21:34:11 - anger lexicon length: 7864
2022-08-20 21:34:11 - Number of rows: 206
2022-08-20 21:34:12 - anticipation lexicon length: 7864
2022-08-20 21:34:12 - Number of rows: 206
2022-08-20 21:34:12 - disgust lexicon length: 7864
2022-08-20 21:34:12 - Number of rows: 206
2022-08-20 21:34:12 - fear lexicon length: 7864
2022-08-20 21:34:12 - Number of rows: 206
2022-08-20 21:34:12 - joy lexicon length: 7864
2022-08-20 21:34:12 - Number of rows: 206
2022-08-20 21:34:13 - sadness lexicon length: 7864
2022-08-20 21:34:13 - Number of rows: 206
2022-08-20 21:34:13 - surprise lexicon length: 7864
2022-08-20 21:34:13 - Number of rows: 206
2022-08-20 21:34:13 - trust lexicon length: 7864
2022-08-20 21:34:13 - Number of rows: 206
2022-08-24 17:04:55 - valence lexicon length: 7864
2022-08-24 17:04:55 - Number of rows: 206
2022-08-24 17:04:55 - dominance lexicon length: 7864
2022-08-24 17:04:55 - Number of rows: 206
2022-08-24 17:04:55 - arousal lexicon length: 7864
2022-08-24 17:04:55 - Number of rows: 206
2022-08-24 17:04:55 - anger lexicon length: 7864
2022-08-24 17:04:55 - Number of rows: 206
2022-08-24 17:04:56 - anticipation lexicon length: 7864
2022-08-24 17:04:56 - Number of rows: 206
2022-08-24 17:04:56 - disgust lexicon length: 7864
2022-08-24 17:04:56 - Number of rows: 206
2022-08-24 17:04:56 - fear lexicon length: 7864
2022-08-24 17:04:56 - Number of rows: 206
2022-08-24 17:04:56 - joy lexicon length: 7864
2022-08-24 17:04:56 - Number of rows: 206
2022-08-24 17:04:56 - sadness lexicon length: 7864
2022-08-24 17:04:56 - Number of rows: 206
2022-08-24 17:04:56 - surprise lexicon length: 7864
2022-08-24 17:04:56 - Number of rows: 206
2022-08-24 17:04:56 - trust lexicon length: 7864
2022-08-24 17:04:56 - Number of rows: 206
