Unnamed: 0,drama_type,speaker,sex,job,job_category,social_class,text,progress,short_name,numTokens,numLexTokens,avgLexVal,lexRatio
0,comedy,Georges Frosch,M,businessman,service_and_sales,lower_middle_class,"
            
GEORGES

            
(noch hinter d'r Scène, lütt):

            
Ze bass doch uff, Michel ! Dü verdrucksch mir jo de Büch !

          
",0,jost-so-e-liederlicher-frack,24,2,0.0,0.08333333333333333
1,comedy,Michel,M,businessman,service_and_sales,lower_middle_class,"
            
MICHEL

            
(au noch hinter d'r Scène):

            
Ei, 's isch au so arich eng do hinne !

            
(Iwerdem kumme beidi vun hinte eryn ; sie draawe mitnand e grosser Kuffer [odder e grossi,
            g'stricheni Kischt mit-e-me Deckel unn zwei Handhewer an de Sytte], wo gross genue isch, ass sich e
            Mann drinne versteckle kann. Unte hett'r kenn Bodde meh.)

          
",0,jost-so-e-liederlicher-frack,71,6,0.5888892876050561,0.08450704225352113
2,comedy,Georges Frosch,M,businessman,service_and_sales,lower_middle_class,"
            
GEORGES

            
(stellt mit'm Michel de Kuffer an d' Wand rächts vor e beliewig's Meewelstick) :

            
Enfin, hätte mir'ne so wytt! Ich schwitz wajer wie e Daadieb, wo in're Arweit züegückt !

          
",1,jost-so-e-liederlicher-frack,38,2,0.0,0.05263157894736842
3,comedy,Michel,M,businessman,service_and_sales,lower_middle_class,"
            
MICHEL :

            
Diss soll mir kein unb'holfes Stickel Meewel sinn ! Diss isch jo d'r reinscht Sarich ! Was witt de
            denn mit anfange, Schorsch ?

          
",1,jost-so-e-liederlicher-frack,27,1,0.0,0.037037037037037035
4,comedy,Georges Frosch,M,businessman,service_and_sales,lower_middle_class,"
            
GEORGES :

            
Ei, liewer Brueder, dü weisch doch, ass ich demnächscht e paar Wuche in d' Vakanze will. Wyll awer
            e nejer Kuffer hyttzedaas e Hüffe Geld koscht, ze loss ich mir einfach in denne alt Kaschte, wo
            schunscht noch ganz guet isch, e neje Bodde nynmache, wyll d'r alt füddi isch. D'r Schrynner losst'ne
            hytt noch abhole.

          
",2,jost-so-e-liederlicher-frack,68,8,0.21413646558565838,0.11764705882352941
5,comedy,Michel,M,businessman,service_and_sales,lower_middle_class,"
            
MICHEL :

            
Do hesch de rächt, Brueder, als spare ! Awer was isch, hesch de schun mit unsrem Neveu geredd
            ?

          
",2,jost-so-e-liederlicher-frack,24,3,0.0,0.125
6,comedy,Georges Frosch,M,businessman,service_and_sales,lower_middle_class,"
            
GEORGES :

            
Nein, Michel, ich habb hytt noch gar kein Zytt g'hett, fur mit'm Robert e'n ernscht's Wertel ze
            redde !

          
",3,jost-so-e-liederlicher-frack,26,1,0.0,0.038461538461538464
7,comedy,Michel,M,businessman,service_and_sales,lower_middle_class,"
            
MICHEL :

            
's muess awer partout sinn, Schorsch. Als syne Unkel isch diss au dyni Sach... ich habb myn Deil
            gemacht. Ich habb myne Frynd Burjer extra dohere b'stellt, 
            
fur'ne mit dir unn mit'm Robert bekannt ze mache. By dere Affär will'r no nadierlich au
            wisse, wie d' g'schäftliche Conditione fur e Hyroot zwische'm Robert unn synere Dochter sinn.

          
",3,jost-so-e-liederlicher-frack,69,4,0.0,0.057971014492753624
8,comedy,Georges Frosch,M,businessman,service_and_sales,lower_middle_class,"
            
GEORGES :

            
Hm, hm! E kaiwe Affär diss! Ich habb jo im Robert schun so drumrum gebabbelt unn Andyttunge
            gemacht ; er schynt awer gar kein Interesse fur so e Verbindung zu hann.

          
",4,jost-so-e-liederlicher-frack,37,2,0.0,0.05405405405405406
9,comedy,Michel,M,businessman,service_and_sales,lower_middle_class,"
            
MICHEL :

            
Er muess einfach! Diss isch schun allein e'n Ehresach fur unseri Firma, ass s'e sich am e scheene
            Daa mit d'r Firma Burjer z'sammeschliesse dhuet !

          
",4,jost-so-e-liederlicher-frack,32,5,0.0,0.15625
10,comedy,Georges Frosch,M,businessman,service_and_sales,lower_middle_class,"
            
GEORGES :

            
Gewiss, so isch's : e'n Ehresach, denn finanziell hätte mir jo so e Z'sammeschluss gar nitt
            neetig. Unn wyll d'r Robert doch emool unser G'schäft bekummt, ze muess'r einfach ...

          
",5,jost-so-e-liederlicher-frack,38,2,0.0,0.05263157894736842
13,comedy,Michel,M,businessman,service_and_sales,lower_middle_class,"
            
MICHEL :

            
So isch's! Unn mir miehn guet uffbasse, ass uns der Bue nitt noch im letschte Moment e Striffe
            durich unseri Rechnung macht !

          
",6,jost-so-e-liederlicher-frack,28,3,0.0,0.10714285714285714
14,comedy,Georges Frosch,M,businessman,service_and_sales,lower_middle_class,"
            
GEORGES :

            
Mit so junge Lytt kamm'r nitt vorsichtig genue sinn, denn schunscht mache s'e hinter'm Buckel vun
            de Alte d' greeschte Daubheite, wo s'e ihre Läbdesdaa dran ze daue hann.

          
",7,jost-so-e-liederlicher-frack,37,5,0.0,0.13513513513513514
15,comedy,Michel,M,businessman,service_and_sales,lower_middle_class,"
            
MICHEL :

            
Waje dem haw ich dir jo au de guet Root gänn, alle Daa syni Kleider ze visitiere. So erfahrt m'r
            am beschte, was fur Gedanke unn was fur Spring ass so e Fitzer im Kopf hett !

          
",7,jost-so-e-liederlicher-frack,42,3,0.0,0.07142857142857142
16,comedy,Georges Frosch,M,businessman,service_and_sales,lower_middle_class,"
            
GEORGES :

            
's isch jo wohr ! Ich bin hytt noch gar nitt dezue kumme ! Ah, do hängt jo noch im Robert syner
            Pardessü! Ich will glych emool lueje ! Gibb e bissel acht, ass'r uns nitt verwitscht, Michel !

            
(Michel geht lyeslich an d'Dier links unn horicht, d'r Georges grad so an de Pardessü, wo'r e
            Portefeuille drüss nemmt ; beidi redde im Lauf vun d'r nächschte Scène arich vorsichlig unn im
            Abstand vum Pardessü bis zue d'r Dier links.)

          
",8,jost-so-e-liederlicher-frack,92,4,0.7386203519341857,0.043478260869565216
18,comedy,Georges Frosch,M,businessman,service_and_sales,lower_middle_class,"
            
GEORGES :

            
Ja, do isch syn Portefeuille !

          
",9,jost-so-e-liederlicher-frack,9,1,0.0,0.1111111111111111
20,comedy,Georges Frosch,M,businessman,service_and_sales,lower_middle_class,"
            
GEORGES :

            
Wart, wart ! 
            
(Suecht.)
 Aha, was isch denn diss? 
            
(Läst :)
 « Unfehlbare Berechnungstabelle für alle Kartenspiele. » Michel, was saasch de
            do dezue ?

          
",10,jost-so-e-liederlicher-frack,37,3,0.0,0.08108108108108109
23,comedy,Michel,M,businessman,service_and_sales,lower_middle_class,"
            
MICHEL :

            
Unn verbulvert unser Vermeje! Erscht gescht hett'r mich um ganzi finf Franke angebumbt !

          
",11,jost-so-e-liederlicher-frack,17,3,0.0,0.17647058823529413
27,comedy,Michel,M,businessman,service_and_sales,lower_middle_class,"
            
MICHEL :

            
Mâtin, dorte isch jo 's Westminster-Bar, wie ich üss Erfahrung weiss... äh, ich will saawe... ich
            mein, wyll ich als ab unn zue mit'm Tram dran durchfahre dhue !

          
",13,jost-so-e-liederlicher-frack,38,3,0.0,0.07894736842105263
28,comedy,Georges Frosch,M,businessman,service_and_sales,lower_middle_class,"
            
GEORGES :

            
Ah, waje dem hett d'r Robert gescht, middles in d'r Wuch, e frische Stellkraawe angezöje! — Was
            isch denn diss fur e Ansichtskart? Ah, üss Italie!

          
",14,jost-so-e-liederlicher-frack,35,2,0.0,0.05714285714285714
30,comedy,Georges Frosch,M,businessman,service_and_sales,lower_middle_class,"
            
GEORGES

            
(läst) :

            
« Lieber Robert! Im schönen Italien sitze ich am Meeresgestade und gedenke Dein. Ich bin entzückt.
            Du musst die stolze, blaue Adria unbedingt auch einmal kennen lernen. Sie bezaubert Dich und lässt
            Dich nicht mehr frei! Dein Freund Louis! » — Was, « Adria »? Diss wurd allewäj so e
            italienisch's Menschel sinn !

          
",15,jost-so-e-liederlicher-frack,69,7,0.0,0.10144927536231885
31,comedy,Michel,M,businessman,service_and_sales,lower_middle_class,"
            
MICHEL :

            
Kein Zwyefel! Awer ass diss Lueder blöj isch, kapier ich nitt! D' Italienere sinn doch gewehnlich
            schwarz.

          
",15,jost-so-e-liederlicher-frack,23,2,0.0,0.08695652173913043
32,comedy,Georges Frosch,M,businessman,service_and_sales,lower_middle_class,"
            
GEORGES :

            
Viellycht süfft s'e viel unn isch no als « blöj », wie m'r saat?

          
",16,jost-so-e-liederlicher-frack,19,3,0.0,0.15789473684210525
33,comedy,Michel,M,businessman,service_and_sales,lower_middle_class,"
            
MICHEL :

            
Ich glabb ehnder, ass die grien isch, denn schunscht wär s'e nitt so frech unn dhät eine nimmi los
            lonn !

          
",16,jost-so-e-liederlicher-frack,26,3,0.517114012713921,0.11538461538461539
35,comedy,Michel,M,businessman,service_and_sales,lower_middle_class,"
            
MICHEL :

            
G'schwind, Schorsch, g'schwind ! Er kummt! 
            
(D'r Georges steckt's Portefeuille widder in de Pardessü.)
 Loss dir jo nix anmerke
            !

          
",17,jost-so-e-liederlicher-frack,29,1,1.713091724685267,0.034482758620689655
39,comedy,Michel,M,businessman,service_and_sales,lower_middle_class,"
            
MICHEL :

            
Unn wichtigi !

          
",19,jost-so-e-liederlicher-frack,5,1,0.0,0.2
43,comedy,Robert,M,,,,"
            
ROBERT :

            
Numme ze guet; awer die Visit interessiert mich nitt !

          
",21,jost-so-e-liederlicher-frack,13,1,0.0,0.07692307692307693
45,comedy,Georges Frosch,M,businessman,service_and_sales,lower_middle_class,"
            
GEORGES :

            
Awer uns umsomeh! Dü hesch einfach ze mache, was dyni Pflicht isch!

          
",22,jost-so-e-liederlicher-frack,17,1,0.0,0.058823529411764705
46,comedy,Robert,M,,,,"
            
ROBERT :

            
Diss isch mir e scheeni Moral, wenn m'r ebber numme üss Pflicht lieb soll hann.

          
",23,jost-so-e-liederlicher-frack,19,3,0.0,0.15789473684210525
47,comedy,Georges Frosch,M,businessman,service_and_sales,lower_middle_class,"
            
GEORGES :

            
Ach was, « Moral » — « lieb hann » ! G'schäftsmann, Kaufmann muess m'r sinn, wenn m'r sich e
            solid's Glick sichere will !

          
",23,jost-so-e-liederlicher-frack,31,4,0.0,0.12903225806451613
48,comedy,Michel,M,businessman,service_and_sales,lower_middle_class,"
            
MICHEL :

            
Ja, denn die Partie, wo mir dir üssg'suecht hann, isch e Kapital vun jährlich 100 000 Franke Zinse
            !

          
",24,jost-so-e-liederlicher-frack,24,2,0.0,0.08333333333333333
49,comedy,Georges Frosch,M,businessman,service_and_sales,lower_middle_class,"
            
GEORGES :

            
Unn beidi G'schäfter dhäte no in ein Famili kumme unn blyewe !

          
",24,jost-so-e-liederlicher-frack,14,3,0.0,0.21428571428571427
50,comedy,Robert,M,,,,"
            
ROBERT

            
(energischer):

            
Diss isch's jo! Ihr welle ejer Glick mache, awer nitt myn's. Non, jamais ! Myni Frejheit unn myni
            G'fiehler dhue unn kann ich nitt verkaufe !

          
",25,jost-so-e-liederlicher-frack,37,3,0.0,0.08108108108108109
51,comedy,Georges Frosch,M,businessman,service_and_sales,lower_middle_class,"
            
GEORGES :

            
Robert, ze luej dir doch diss Maidel erscht emool an!

          
",25,jost-so-e-liederlicher-frack,14,1,0.0,0.07142857142857142
52,comedy,Michel,M,businessman,service_and_sales,lower_middle_class,"
            
MICHEL

            
(meh fur sich) :

            
By so're ginschtige Partie wott ich myni Frau iwerhaupt am liebschte gar nie sähn !

          
",26,jost-so-e-liederlicher-frack,22,2,0.0,0.09090909090909091
53,comedy,Robert,M,,,,"
            
ROBERT :

            
Nein, wenn ich hyroote will, ze suech ich mir myni Frau sälwer unn zwar eini, wo mir g'fallt!

          
",26,jost-so-e-liederlicher-frack,24,1,0.0,0.041666666666666664
54,comedy,Georges Frosch,M,businessman,service_and_sales,lower_middle_class,"
            
GEORGES :

            
So? Diss welle mir sähn ! Ich bin dyner Unkel, unn dü hesch ze mache, was ich will ! Iwerleij
            dir's bis denne Middaa ! 
            
(Wietig rächts ab).

          
",27,jost-so-e-liederlicher-frack,37,1,0.0,0.02702702702702703
55,comedy,Michel,M,businessman,service_and_sales,lower_middle_class,"
            
MICHEL :

            
Unn ich bin au dyner Unkel, unn dü hesch au ze mache, was ich will! 
            
(Wietig links ab.)

          
",27,jost-so-e-liederlicher-frack,26,1,0.0,0.038461538461538464
56,comedy,Robert,M,,,,"
            
ROBERT :

            
Do haw ich d' Bscherung ohne Wyhnachte! Soll ich noochgänn unn diss Maidel hyroote, wo ich noch
            nitt emool g'sähn habb? Wenn s'e so arich rych isch, wie myni zwei Unkel saawe, ze kann ich mir schun
            vorstelle, ass s'e noch im letschte Johrhundert uff d' Welt isch kumme. Nein, ich kann einfach nitt,
            denn myn Härz g'heert jo schun lang dir, Yvonne, dir, wo ich bis jetzt numme vum Sähn kenne dhue. Bis
            jetzt haw ich vun dem liewe, scheene Kind numme de Vorname erfahre kenne, schunscht nix; awer, wenn
            ich mich nitt drumpier, ze haw ich in syne Aue läse kenne, ass's mich au nitt schlächt lyede kann...
            Unn jetzt g'schwind in d' Stadt ; viellycht sieh ich diss härzig Maidel hytt widder uff d'r Promenad!
            
            
(Langt nooch'm Pardessü.)
 Ah, ebb 
            
ass ich's vergesse d'hue : mir kummt's als so vor, wie wenn mir ebber myni Kleider
            üssmüse dhät — 's isch allewyli alles am lätze Platz ! Diss Mool haw ich awer e Zeiche gemacht, unn
            wenn ich mich nitt drumpier — 
            
(luejt's Portefeuille nooch)
 — ei, nadierlich !, 's isch so ! 's isch ebber an mym
            Portefeuille g'sinn! Unn wer kann's andersch sinn als wie myni zwei liewe Unkel, wo waje dere geplant
            Hyroot gewiss erfahre welle, was ich alles anstell! Na, sie halte mich jo knapp genue, fur ass's mir
            nitt ze wohl wurd! — Awer was fang ich numme an? Die Kleidervisitation will ich'ne schun vertriewe
            mitsamt dere Hyrootsg'schieht! Ich bin doch kenn Kind meh ! Ich muess s'e partout uff anderi Gedanke
            bringe! Halt, e'n Idee! Diss wurd gemacht! Sie hann jo alli zwei e Mordsrespekt vor d'r Rejierung unn
            e Helleangscht vor jedere Partejpolitik. Diss kummt mir fur myne Plan wie gewunsche. Ich will ejch
            emool e Begriff devun mache, wie 's isch, wenn m'r allewyll in d'r Angscht läwe muess, ass eim syni
            privatschte Saches üssg'spioniert wäre! Babier, e'n Enveloppe unn e Fillfedder haw ich jo by mir —
            also los unn e heilsams Briefel g'schriwe. 
            
(Setzt sich unn schryebt)
: « An die Herren Gebrüder Frosch ! Ein wohlmeinender
            Freund macht Sie darauf aufmerksam, dass Sie in politischer Beziehung verdächtigt worden sind und
            dass daher eine polizeiliche Haussuchung bei Ihnen zu erwarten steht. Treffen Sie Ihre Massnahmen. »
            So, Schluss — Punkt! Ja, myni liewi Unkel, wenn ihr mir nitt myni Ruehj lonn, ze loss ich ejch ejri
            au nitt ! Am beschte leij ich diss Schryewes do unter die Zyttunge unn Brief, wo denne Morje kumme
            unn noch nitt uffgemacht sinn worre. Briefele, Briefele, bring mir jo bonne chance ! 
            
(Iwermietig ab nooch hinte, noochdem er Huet unn Pardessü angezöje hett.)

          
",28,jost-so-e-liederlicher-frack,526,52,0.18603730756525824,0.09885931558935361
58,comedy,Michel,M,businessman,service_and_sales,lower_middle_class,"
            
MICHEL

            
(vun links):

            
Unn ich habb noch kein Blick in d' Zyttunge geworfe !

          
",29,jost-so-e-liederlicher-frack,17,1,0.0,0.058823529411764705
59,comedy,Georges Frosch,M,businessman,service_and_sales,lower_middle_class,"
            
GEORGES

            
(setzt sich an de Disch):

            
Ich bitt dich, Michel, loss mich mit de Zyttunge zefridde! Ja, fur e gueti G'schäftsreklam drinne
            ze mache, do sinn s'e guet; im Iwerrescht awer tryewe s'e alli numme Partejpolitik, unn diss isch e
            g'fährlichi Sach, so lang ass s'e nitt uff d'r Sytt vun d'r Rejierung steht. M'r ryebt sich numme d'
            Nerve demit uff.

          
",29,jost-so-e-liederlicher-frack,78,10,0.1713091724685267,0.1282051282051282
60,comedy,Michel,M,businessman,service_and_sales,lower_middle_class,"
            
MICHEL :

            
Ich bin ganz dynere Ansicht, Schorsch, awer im stille interessiert's eine doch, wie anderi
            denke.

          
",30,jost-so-e-liederlicher-frack,22,2,0.0,0.09090909090909091
61,comedy,Georges Frosch,M,businessman,service_and_sales,lower_middle_class,"
            
GEORGES :

            
Michel, ich bitt dich, 's kann awer emool g'fährlich wäre! Iwerall gitt's Lytt, wo eine fur ihri
            Partej gewinne welle !

          
",30,jost-so-e-liederlicher-frack,28,3,0.0,0.10714285714285714
62,comedy,Michel,M,businessman,service_and_sales,lower_middle_class,"
            
MICHEL :

            
So daub bin ich nitt! Ich habb e guete Blick unn kann 's Müll halte.

          
",31,jost-so-e-liederlicher-frack,19,4,0.525631586183314,0.21052631578947367
63,comedy,Georges Frosch,M,businessman,service_and_sales,lower_middle_class,"
            
GEORGES :

            
Uff jede Fall bin ich mit allem zefridde unn winsch mir gar kein anderi Verhältnisser, obwohl jo
            d'r letscht Kriej in unserer Fawrik ganz guet gemacht hett.

          
",31,jost-so-e-liederlicher-frack,31,8,0.0,0.25806451612903225
64,comedy,Michel,M,businessman,service_and_sales,lower_middle_class,"
            
MICHEL :

            
Waje dem denk ich au alle Daa bym Uffstehn : « Was ich bin und was ich habe, dank' ich dir,
            mein Vaterland! »

            
(D'r Georges hett iwer dem G'spräch e paar Brief uffgemacht, kurz nyn geluejt unn s'e uff de
            Disch zeruckgeleijt; er hett jetzt de Brief vum Robert in d'r Hand unn läst.)

          
",32,jost-so-e-liederlicher-frack,66,2,0.0,0.030303030303030304
65,comedy,Georges Frosch,M,businessman,service_and_sales,lower_middle_class,"
            
GEORGES

            
(fahrt vergelschtert in d' Heeche unn losst de Brief falle):

            
Gott steh m'r by! Diss iwerläw ich nitt! 
            
(Fallt in de Stuehl zeruck.)

          
",32,jost-so-e-liederlicher-frack,32,2,0.0,0.0625
66,comedy,Michel,M,businessman,service_and_sales,lower_middle_class,"
            
MICHEL :

            
Schorsch, was gitts? Was hesch de denn? 
            
(Er hebbt de Brief uff, läst unn sinkt au verschrocke in de Stuehl.)
 So ebbs isch jo
            nitt mejlich ! Draim ich denn ? Nein, 's isch Wohret! 
            
(Läst) :
 « Treumeinender Freund — in politischer Beziehung verdächtigt —
            Haussuchung! » Schorsch ! Brueder, ich stärb am lawendige Lyeb!

          
",33,jost-so-e-liederlicher-frack,72,10,0.26818161724173384,0.1388888888888889
67,comedy,Georges Frosch,M,businessman,service_and_sales,lower_middle_class,"
            
GEORGES

            
(kummt zue sich) :

            
Ich bin wie vor's Hirn g'schlaawe! Mir unn politisch verdächtig?

          
",33,jost-so-e-liederlicher-frack,20,2,0.0,0.1
68,comedy,Michel,M,businessman,service_and_sales,lower_middle_class,"
            
MICHEL :

            
Ehnder fresst 's Lamm de Wolf! Wer kennt uns awer numme denunziert hann ? Mir hann jo nix als wie
            Frind unn kimmere uns numme um unser G'schäft !

          
",34,jost-so-e-liederlicher-frack,32,2,0.0,0.0625
69,comedy,Georges Frosch,M,businessman,service_and_sales,lower_middle_class,"
            
GEORGES :

            
Michel, m'r kann alles erwarte! M'r wurd gar oft hyttzedaas vun Welf iwerfalle, wo im Schoofsbelz
            erumlaufe. Sogar d' Konkürrenz kann uns boshafterwyes denunziert hann; au e furtg'schickter Arweiter
            kann's sin.

          
",34,jost-so-e-liederlicher-frack,40,2,0.8281212576365629,0.05
70,comedy,Michel,M,businessman,service_and_sales,lower_middle_class,"
            
MICHEL :

            
Am End isch's gar der Burscht, wo die Däj mit mir im Tram isch g'fahre ?

          
",35,jost-so-e-liederlicher-frack,20,1,0.0,0.05
71,comedy,Georges Frosch,M,businessman,service_and_sales,lower_middle_class,"
            
GEORGES :

            
Was fur e Burscht? Do hesch dü mir jo kein Sterweswertel devun gebycht. Viellycht wäre mir unser
            Läwe lang unglicklich gemacht, wyll m'r dich mit dem Mensch z'samme g'sähn hett!

          
",35,jost-so-e-liederlicher-frack,37,5,0.0,0.13513513513513514
72,comedy,Michel,M,businessman,service_and_sales,lower_middle_class,"
            
MICHEL :

            
Also, do isch e Mann im e blöje Schurz näwe mir g'sässe unn hett mich in Gejewart vun alle
            Fahrgäscht angeredd.

          
",36,jost-so-e-liederlicher-frack,25,2,0.0,0.08
74,comedy,Michel,M,businessman,service_and_sales,lower_middle_class,"
            
MICHEL :

            
Was'r g'saat hett, Schorsch ? O, er hett wytt üssg'holt! Z'erscht hetfr vum schlächte Wätter
            gebabbelt no vun de noch schlächtere Zytte, no vum Kriej in China.

          
",37,jost-so-e-liederlicher-frack,34,2,0.0,0.058823529411764705
76,comedy,Michel,M,businessman,service_and_sales,lower_middle_class,"
            
MICHEL :

            
Ich? Nix nadierlich! Awer wie lycht hett ebber glauwe kenne, ich wär mit dem Krakeeler syne
            Reddesarte ynverstande, will ich nix erwidert habb...

          
",38,jost-so-e-liederlicher-frack,30,3,1.011820753695919,0.1
77,comedy,Georges Frosch,M,businessman,service_and_sales,lower_middle_class,"
            
GEORGES :

            
...oder dü wärdsch gar e Bekannter vun'm, un hett dich no by d'r Bolizej angezejt! Do sieht m'r
            widder emool, wie m'r uff ganz unschuldigi Wyes in d' greeschte Unannehmlichkeite kann kumme.

          
",38,jost-so-e-liederlicher-frack,40,6,0.0,0.15
78,comedy,Michel,M,businessman,service_and_sales,lower_middle_class,"
            
MICHEL :

            
Grosser Gott, wenn uns die Affär numme nitt de Hals koschte dhuet ! 's wär myner Dood !

          
",39,jost-so-e-liederlicher-frack,21,1,0.0,0.047619047619047616
79,comedy,Georges Frosch,M,businessman,service_and_sales,lower_middle_class,"
            
GEORGES :

            
Uff jede Fall hann mir e Frind, wo's guet mit uns meint unn uns bezytte gewarnt hett, unn waje dem
            isch's rootsam, sich uff's Uesserschte g'fasst ze mache, egal, wie's no au kummt. Mir miehn alles,
            was uns uff ierigs e'n Art g'fährlich kennt wäre, üss d'r Welt schaffe unn zwar uff d'r G'stell !

          
",39,jost-so-e-liederlicher-frack,69,11,0.0,0.15942028985507245
80,comedy,Michel,M,businessman,service_and_sales,lower_middle_class,"
            
MICHEL :

            
Awer, Schorsch, so Dings hann mir jo gar nitt im Hüss!

          
",40,jost-so-e-liederlicher-frack,16,1,0.0,0.0625
81,comedy,Georges Frosch,M,businessman,service_and_sales,lower_middle_class,"
            
GEORGES :

            
Pardon ! — Vorsicht isch besser als wie 's Nochsähn ! Wie steht's, par exemple, mit de Brief, wo
            mir im Hüss hann ?

          
",40,jost-so-e-liederlicher-frack,30,2,0.0,0.06666666666666667
83,comedy,Georges Frosch,M,businessman,service_and_sales,lower_middle_class,"
            
GEORGES :

            
Michel, saa diss nitt! D'r Rebespierre, par exemple, hett emool g'saat: « Gänn mir drej
            x-beliewigi Werter, wo e Mensch g'schriewe hett, unn ich bring'ne uff's Schafott! »

          
",41,jost-so-e-liederlicher-frack,39,2,0.0,0.05128205128205128
84,comedy,Michel,M,businessman,service_and_sales,lower_middle_class,"
            
MICHEL :

            
Herrjeh, diss isch jo allerhand ! Do heisst's allerdings vorg'sorjt ! 
            
(Macht d' Dischschüblad uff unn langt Brief erüss.)

          
",42,jost-so-e-liederlicher-frack,26,2,0.0,0.07692307692307693
89,comedy,Georges Frosch,M,businessman,service_and_sales,lower_middle_class,"
            
GEORGES :

            
Um's Gott's Will! Diss sinn d' g'fährlichschte ! Die sinn's jo, wo in de Kinder 's Schryewe
            bybringe, so ass s'e no, wenn s'e gross sinn, Brandartikel geje d' Re- 
            
jierung schryewe kenne! Ich bitt dich, ich bitt dich, verryss denne Brief unn werf'ne
            dort in de Babierkorb mitzamt denne Zyttunge do! Nochher verbrenne mir alles, was uns g'fährlich
            kennt wäre.

          
",44,jost-so-e-liederlicher-frack,80,7,0.6827508830799331,0.0875
90,comedy,Michel,M,businessman,service_and_sales,lower_middle_class,"
            
MICHEL :

            
Dü hesch, ma foi, rächt, Georges! 
            
(Werft de Brief unn d' Zyttunge etc., wo uff'm Disch leje, in de Babierkorb.)

          
",45,jost-so-e-liederlicher-frack,32,3,0.6653706555077057,0.09375
92,comedy,Michel,M,businessman,service_and_sales,lower_middle_class,"
            
MICHEL :

            
Diss isch e Frynd vun mir, wo vor'm Kriej G'freiter by de 143er hie isch g'sinn.

          
",46,jost-so-e-liederlicher-frack,21,3,0.0,0.14285714285714285
93,comedy,Georges Frosch,M,businessman,service_and_sales,lower_middle_class,"
            
GEORGES :

            
Also e Schwoob ! Am End hett'r im Kriej gar e Schlacht gewunne! Als furt mit! 
            
(Macht's.)
 Unn wer isch diss ?

          
",46,jost-so-e-liederlicher-frack,30,4,1.0594647406417947,0.13333333333333333
95,comedy,Georges Frosch,M,businessman,service_and_sales,lower_middle_class,"
            
GEORGES :

            
Herrjeh ! G'schwind, g'schwind in de Babierkorb mit. Wenn'ne de Rüsse au noch Sibirie g'spediert
            hann, ze isch diss noch lang kein Grund, ass mich d' Franzose uff Cayenne schicke! — Unn do, ich
            glabb gar, diss isch's Porträt vun unsere friehjere Hüsshältere üss Pose !

          
",47,jost-so-e-liederlicher-frack,56,2,0.0,0.03571428571428571
97,comedy,Georges Frosch,M,businessman,service_and_sales,lower_middle_class,"
            
GEORGES :

            
Was ? Harmlos? Bedenk, d'r Hindeburj isch jo au üss Pose! Nein, so ebbs! Diss Photographie-Album
            do isch jo 's reinscht Verbrecher-Album ! 's bescht wurd sinn, ich wärf's ganz furt ! Do kennt eim jo
            sogar e Photographie vum ewige Judd oder vum Adam unn Eva g'fährlich wäre ! 
            
(Er wärft's Album in de Babierkorb.)

          
",48,jost-so-e-liederlicher-frack,69,4,0.0,0.057971014492753624
98,comedy,Michel,M,businessman,service_and_sales,lower_middle_class,"
            
MICHEL

            
(langt e Nasduech üss'm Sack):

            
Ah, guet, ass ich dran denk ! Ich habb denne Morje üss d'r Nas gebluete unn...

          
",49,jost-so-e-liederlicher-frack,29,2,0.0,0.06896551724137931
99,comedy,Georges Frosch,M,businessman,service_and_sales,lower_middle_class,"
            
GEORGES :

            
...dyn Nasdiechel bluetig gemacht! Allmächtiger, als furt mit 
            
(nemmťs unn werft's zue de andere Sache).
 Bluet! Was kamm'r sich nitt alles deby denke
            ! 
            
's Schrecklichschte losst sich do gar nitt üssmoole! — Awer was sieh ich denn do! Unseri
            Dischdeck isch jo knallrot !

          
",49,jost-so-e-liederlicher-frack,57,4,1.934348491310319,0.07017543859649122
100,comedy,Michel,M,businessman,service_and_sales,lower_middle_class,"
            
MICHEL :

            
Richtig, diss isch e revolütionäri Farb ! Also als ab ins Krematorium mit dere Deck ! 
            
(Werft sie zue de andere Sache.)

          
",50,jost-so-e-liederlicher-frack,28,2,0.0,0.07142857142857142
101,comedy,Georges Frosch,M,businessman,service_and_sales,lower_middle_class,"
            
GEORGES :

            
Unn die Wandühr do müess au verschwinde! 's isch jo e Schwarzwälderühr ! 
            
(Wie vorig.)

          
",50,jost-so-e-liederlicher-frack,21,1,0.0,0.047619047619047616
102,comedy,Michel,M,businessman,service_and_sales,lower_middle_class,"
            
MICHEL :

            
Was isch do mit dere Figür, wo dü vor'm Kriej im Kejelklub gewunne hesch ?

          
",51,jost-so-e-liederlicher-frack,19,2,0.0,0.10526315789473684
103,comedy,Georges Frosch,M,businessman,service_and_sales,lower_middle_class,"
            
GEORGES :

            
Was steht denn unte? 
            
(Läst) :
 « Dem wackern Kegelschieber Georges Frosch vom Kegelklub « Alleweil gut
            Holz » ! » Grosser Gott, diss isch jo myn weritawels Doodesurdeil! Ab mit uff
            Nimmerwiddersähn ! 
            
(Wie vorig.)

          
",51,jost-so-e-liederlicher-frack,46,4,0.0,0.08695652173913043
104,comedy,Michel,M,businessman,service_and_sales,lower_middle_class,"
            
MICHEL

            
(zeijt uff e Dafel an d'r Wand):

            
Wie steht's mit dem Bild do vum Louis quatorze?

          
",52,jost-so-e-liederlicher-frack,22,1,0.0,0.045454545454545456
105,comedy,Georges Frosch,M,businessman,service_and_sales,lower_middle_class,"
            
GEORGES :

            
Guet, ass de mich dran gemahnsch ! Au diss muess g'opfert wäre ; m'r kennt jo schunscht annemme,
            mir halte's mit de Royalischte! 
            
(Wie vorig.)
 Hm, unn die Dafel do stellt d' Frejheitsstatüt im Hafe vun New-York vor
            !

          
",52,jost-so-e-liederlicher-frack,49,4,0.525631586183314,0.08163265306122448
106,comedy,Michel,M,businessman,service_and_sales,lower_middle_class,"
            
MICHEL :

            
Die kamm'r, glauw ich, lonn ?

          
",53,jost-so-e-liederlicher-frack,10,2,0.7756710190708814,0.2
107,comedy,Georges Frosch,M,businessman,service_and_sales,lower_middle_class,"
            
GEORGES :

            
Michel, hesch dü e Ahnung! Bedenk: Frejheit ! Kennt m'r do nitt drüss schliesse, ass mir mit
            unserm Los unzefridde und frej welle sinn ! Ab mit Schade! 
            
(Wie vorig.)
 Unn die Umhängle do? Die sinn jo au rot! D' scheenschte Raiwer-G'schichte
            kennt m'r drüss z'samme dichte !

          
",53,jost-so-e-liederlicher-frack,61,8,0.373913352688002,0.13114754098360656
108,comedy,Michel,M,businessman,service_and_sales,lower_middle_class,"
            
MICHEL :

            
M'r kennt denke, mir wotte im rächte Moment revolütionäri Fähne drüss mache! Die miehn verschwinde
            ! 
            
(Wie vorig.)

          
",54,jost-so-e-liederlicher-frack,25,2,0.0,0.08
109,comedy,Georges Frosch,M,businessman,service_and_sales,lower_middle_class,"
            
GEORGES

            
(langt üss'm Sack e Daschemesser) :

            
Diss Sackmesser do will ich uff alli Fäll au verschmerze. 
            
(Wie vorig.) 
            

            
(D'Stubb muess jetzt e leerer, armseliger Yndruck mache unn nurmme noch mit de nackete Wänd
            unn e paar Meewel do stehn.)

          
",54,jost-so-e-liederlicher-frack,52,3,0.0,0.057692307692307696
110,comedy,Michel,M,businessman,service_and_sales,lower_middle_class,"
            
MICHEL

            
(luejt sich erum) :

            
Jetzt simm'r nooch minere Ansicht politisch züverlässig !

          
",55,jost-so-e-liederlicher-frack,15,2,0.0,0.13333333333333333
111,comedy,Georges Frosch,M,businessman,service_and_sales,lower_middle_class,"
            
GEORGES :

            
Bis uff diss Dings do, wo uff d'r G'stell verschwinde muess ! Was lycht verbrennbar isch, verbrenn
            ich jetzt in d'r Kiche, un dü packsch d'andere Sache z'samme uınn wärfsch s'e in de Kanal ! No kann
            vun mir üss d' Bolizej hüssüeche, so lang ass s'e Luscht hett! 
            
(Er nemmt de Babierkorb mit de Brief, Zyttunge, Nasdiechel unn Album drinne; d'r Michel
            wickelt in d' Dischdeck die zwei Dafle, d' Vorhäng, d' Ühr, d' Figür unn's Messer.)

          
",55,jost-so-e-liederlicher-frack,99,7,0.0,0.0707070707070707
112,comedy,Michel,M,businessman,service_and_sales,lower_middle_class,"
            
MICHEL :

            
Dü, Georges, diss isch e g'fährlichi Sach! Am End dhuet m'r uns jetzt schun iwerwache, unn wenn
            m'r mich mit dem Dings do verwitscht, ze simm'r erscht rächt geliffert !

          
",56,jost-so-e-liederlicher-frack,37,1,0.0,0.02702702702702703
113,comedy,Georges Frosch,M,businessman,service_and_sales,lower_middle_class,"
            
GEORGES :

            
Ei, dü muesch's halt schlöj anfange, Michel. Dü bisch doch schunscht nitt grad uff de Kopf
            g'falle! 
            
(Ab noch rächts mit syne Sache.)

          
",56,jost-so-e-liederlicher-frack,33,6,0.392672049444667,0.18181818181818182
114,comedy,Michel,M,businessman,service_and_sales,lower_middle_class,"
            
MICHEL :

            
E kaiwe Affär diss! Was fang ich numme an, ass mich niemes sieht, wenn ich an de Kanal geh? Ich
            kumm'r grad vor wie einer, wo e Verbreche begehn will! Halt, do kummt mir e Gedanke vum Schiller üss
            d'r Krütenau: Ich verkleid mich, unn zwar zej ich d' Kleider vun unsere Hüsshältere an, no kennt mich
            kein Mensch ! Ich sieh no grad dryn wie e Frau, wo uff's Versatzhüs geht! 
            
(Er nemmt syne Pack unn geht mit links ab.)

          
",57,jost-so-e-liederlicher-frack,99,7,0.33657604238114314,0.0707070707070707
115,comedy,Robert,M,,,,"
            
ROBERT

            
(vun hinte ; ohne Huet unn Mantel) :

            
Ich bin iwerglicklich — ich habb's Yvonne uff d'r Promenad g'sähn ! Wie sieht's awer denn do üss?
            Wie wenn, d' Raiwer do hinne gewiet unn geplindert hätte ! Oder wie e Wald im Dezember! Was soll diss
            bedytte? — Ah, mir geht e Licht uff! 
            
(Lacht.)
 Do isch gewiss myner Brief dran d' Schuld! Die zwei alte Herre sinn ihr Läwe
            nimmi sicher unn hann « alle Spuren verwischt », wie's als in de Detektiv-Romane heisst ! Na, d'
            Hauptsach isch, wenn se mir in Zuekunft myni Ruehj lonn! 
            
('s klopft.)
's hett geklopft! Wer kann diss sinn ? Entrez!

          
",57,jost-so-e-liederlicher-frack,134,12,0.12927850317848025,0.08955223880597014
117,comedy,Robert,M,,,,"
            
ROBERT

            
(fur sich) :

            
Dü liewer Strohsack, dem syni Dochter soll ich jo hyroote ! i

          
",58,jost-so-e-liederlicher-frack,19,2,0.0,0.10526315789473684
118,comedy,Burjer,M,businessman,service_and_sales,lower_middle_class,"
            
BURJER :

            
Unn ich bin kumme, fur d' Bekanntschaft vun sym Bruder Georges unn sym Neveu Robert ze mache. Ich
            nemm an, ass Sie d'r Neveu sinn ?

          
",59,jost-so-e-liederlicher-frack,31,2,0.0,0.06451612903225806
119,comedy,Robert,M,,,,"
            
ROBERT

            
(fur sich) :

            
Jetzt odder nie! Ich will dem Monsieur Burjer e Denkzettel gänn, ass'r sich hiete wurd, mir syni
            Dochter anzevertröje ! 
            
(Lütt)
: Sie drumpiere sich, Monsieur Burjer ! Myn Name isch... isch, ja, isch Meier
            mit'e-me weiche Ei! Ich bin numme e Bekannter vun de Gebrieder Frosch !

          
",59,jost-so-e-liederlicher-frack,65,6,0.0,0.09230769230769231
120,comedy,Burjer,M,businessman,service_and_sales,lower_middle_class,"
            
BURJER :

            
Diss ändert's Bild! 
            
(Fur sich)
: Do hinne sieht's nitt grad arich nooch Millione üss ! Awer durch fremdi
            Lytt erfahrt m'r als am beschte, wie's um anderi b'stellt 
            
isch ! 
            
(Lütt):
 Awer Sie kenne doch gewiss de Monsieur Robert ?

          
",60,jost-so-e-liederlicher-frack,53,2,0.0,0.03773584905660377
121,comedy,Robert,M,,,,"
            
ROBERT :

            
Ich will's meine! Diss isch mir noch einer... na, ich will nix g'saat hann !

          
",60,jost-so-e-liederlicher-frack,21,1,0.0,0.047619047619047616
122,comedy,Burjer,M,businessman,service_and_sales,lower_middle_class,"
            
BURJER :

            
Im Gejedeil, Sie dhäte mir e grosse G'falle mache, wenn Sie mich iwer syni Perseenlichkeit e
            bissel uffkläre dhäte. 's steht nämlich fur mich ebbs uff'm Spiel, wo myne Geldsack angeht, unn waje
            dem soll's mir nitt uff döjsig Fränkle ankumme, wenn Sie mich e bissel renseigniere wolte. 
            
(Er gitt'm Geld.)

          
",61,jost-so-e-liederlicher-frack,66,7,0.0,0.10606060606060606
123,comedy,Robert,M,,,,"
            
ROBERT

            
(fur sich):

            
Geld kann ich allewyll gebrüche! 
            
(Lütt)
: Monsieur Burjer, mit so 'me Schlissel därfe Sie myn Müll noch e paar Mool
            uffschliesse ! Also horiche Sie, was ich Ihne im Vertröje verroot: D'r Robert hett vorerscht emool e
            G'sicht, wo uff jede Steckbrief basst, unn wer'm z' nachts am zwelfe uff-e-me Kryzwäj am e Gottsacker
            in de Wäj lauft, der stärbt nitt im Bett !

          
",61,jost-so-e-liederlicher-frack,81,9,0.0,0.1111111111111111
125,comedy,Robert,M,,,,"
            
ROBERT :

            
Unn syni Nas glänzt vum viele Süffe so rot, ass'r z' nachts nitt ynschloofe kann. Unn füll isch'r,
            ass'r sogar ze füll isch, fur d'Umdrähjung vun d'r Erd mitzemache!

          
",62,jost-so-e-liederlicher-frack,37,3,0.0,0.08108108108108109
127,comedy,Robert,M,,,,"
            
ROBERT :

            
Unn um e Härel wär'r waje Unterschlaawung vun 20 000 Franke yng'spunne worre, awer syni zwei Unkel
            hann diss Geld widder ersetzt. Er soll awer waje noch ganz andere Verbreche verhaft wäre!

          
",63,jost-so-e-liederlicher-frack,37,2,0.0,0.05405405405405406
128,comedy,Burjer,M,businessman,service_and_sales,lower_middle_class,"
            
BURJER :

            
Diss langt! Diss langt! Unn so'me Luftibüs soll ich myni Dochter gänn? Non, jamais de la vie!

          
",64,jost-so-e-liederlicher-frack,25,2,0.0,0.08
129,comedy,Robert,M,,,,"
            
ROBERT

            
(fur sich) :

            
Endlich haw ich 'ne so wytt! 
            
(Lütt)
: Do wär ihri Dochter scheen ang'schmiert, ! Er isch jo schun g'hyroot — ganz
            heimlich — niemes weiss ebbs devun. Sie kenne sich also vorstelle, welle Wäj ass no Ihr Geld nemme
            dhät! Numme waje dem will'r jo Ihri Dochter hyroote! Unn was syni zwei Unkel angeht, ze sinn s'e
            ärmer als wie arm.

          
",64,jost-so-e-liederlicher-frack,79,10,0.0,0.12658227848101267
130,comedy,Burjer,M,businessman,service_and_sales,lower_middle_class,"
            
BURJER :

            
Junger Mann, Sie hann mir e grosser Dienscht geleischt, wo mit döjsig Franke niti ze dyer bezahlt
            isch, unn fur myni Dochter wurr ich schun noch e anderi Partie finde.

          
",65,jost-so-e-liederlicher-frack,36,4,0.773199975745202,0.1111111111111111
131,comedy,Robert,M,,,,"
            
ROBERT

            
(fur sich) :

            
Gott sej Dank !

          
",65,jost-so-e-liederlicher-frack,10,2,0.0,0.2
132,comedy,Burjer,M,businessman,service_and_sales,lower_middle_class,"
            
BURJER :

            
Par exemple, so e Mann wie Sie dhät mir schun ehnder zuesaawe un mynere Dochter gewiss au, wie ich
            myn Kind kenn... Sie hann so ebbs Frisch's, Ehrlich's unn Unverdorwes im G'sicht !

          
",66,jost-so-e-liederlicher-frack,41,6,0.0,0.14634146341463414
133,comedy,Robert,M,,,,"
            
ROBERT

            
(fur sich):

            
Diss hett mir jetzt grad noch g'fählt ! 
            
(Lütt)
: Vun Härze gern, Monsieur Burjer, awer leider bin ich schun nyngedappt — ich
            mein, in de Ehstand yngeträtte — unn wie!... unn wie lang schun, mein ich !

          
",66,jost-so-e-liederlicher-frack,52,8,0.24837159999139952,0.15384615384615385
134,comedy,Burjer,M,businessman,service_and_sales,lower_middle_class,"
            
BURJER :

            
Schad ! Na, 's gitt jo noch genue anderi, bravi, jungi Männer ! Also noch emool vielmools merci
            unn au revoir ! 
            
(Ab noch hinte.)

          
",67,jost-so-e-liederlicher-frack,33,4,0.0,0.12121212121212122
135,comedy,Robert,M,,,,"
            
ROBERT :

            
Allons, au revoir, Monsieur Burjer ! 
            
(Ellein)
: So, diss haw ich guet gemacht! Dem liewe Monsieur Burjer haw ich's grindlich
            vertriwe, uff mich als Dochtermann ze speküliere! 
            
(Links ab.)

          
",67,jost-so-e-liederlicher-frack,44,6,0.0,0.13636363636363635
136,comedy,Burjer,M,businessman,service_and_sales,lower_middle_class,"
            
BURJER

            
(vun hinte) :

            
Ich habb m'r's iwerleijt ! Ich will mit denne zwei Gebrieder Frosch doch noch e'n-ernscht's Wort
            redde, nitt ass s'e meine, ass s'e e Dummer vor sich hann, wo froh miesst sinn, ass ihre Neveu myni
            Dochter iwerhaupt nemmt ! Die zwei speküliere grad so uff myn Geld unn uff myn guet's G'schäft wie
            ihre proper Herr Neveu! Schun wie's by denne do hinne üssieht, bewyest, ass s'e armi Dejfel sinn unn
            ass ihr G'schäft nitt so glänzend floriert, wie's als heisse dhuet !

          
",68,jost-so-e-liederlicher-frack,107,19,0.11130554290723,0.17757009345794392
137,comedy,Georges Frosch,M,businessman,service_and_sales,lower_middle_class,"
            
GEORGES :

            
So, alles isch verbrennt — jetzt kann uns kein Mensch ebbs welle. Hoffetlich hett au d'r Michel
            chance g'hett unn sich syn Päckel vum Hals g'schafft ! 
            
(Er sieht de Burjer):
 Wer isch denn diss? Wie kummt denn der do ryn, ohne angemeld !
            Herrjeh ! Diss isch am End gar schun einer vun d'r Polizej — die verstehn's jo bekanntlich, sich
            iwerall ynzeschlyche !

          
",68,jost-so-e-liederlicher-frack,76,2,1.6218920472558471,0.02631578947368421
138,comedy,Burjer,M,businessman,service_and_sales,lower_middle_class,"
            
BURJER

            
(fur sich) :

            
Diss isch gewiss d'r Brueder vum Michel Frosch, wo ich schun perseenlich kenn! Na, dem kann ich's
            jo au stecke! 
            
(Lütt)
: Sinn Sie d'r Monsieur Georges Frosch ?

          
",69,jost-so-e-liederlicher-frack,42,2,0.0,0.047619047619047616
139,comedy,Georges Frosch,M,businessman,service_and_sales,lower_middle_class,"
            
GEORGES

            
(ängschtlich):

            
Gewiss... gewiss, der bin ich, Monsieur !

          
",69,jost-so-e-liederlicher-frack,15,1,0.0,0.06666666666666667
141,comedy,Georges Frosch,M,businessman,service_and_sales,lower_middle_class,"
            
GEORGES

            
(fur sich) :

            
Nadierlich vun d'r Police unn waje d'r Hüssuechung ! 
            
(Lütt)
: Leider nitt, Monsieur !

          
",70,jost-so-e-liederlicher-frack,24,2,0.9934863999655981,0.08333333333333333
142,comedy,Burjer,M,businessman,service_and_sales,lower_middle_class,"
            
BURJER :

            
So? Ihre Bruder unn Sie hann mich jo hytt erwart !

          
",71,jost-so-e-liederlicher-frack,14,2,0.0,0.14285714285714285
143,comedy,Georges Frosch,M,businessman,service_and_sales,lower_middle_class,"
            
GEORGES

            
(fur sich):

            
Grosser Gott, also haw ich doch erächt! 
            
(Lütt)
: Ich kann's nitt leigle !

          
",71,jost-so-e-liederlicher-frack,25,2,0.0,0.08
144,comedy,Burjer,M,businessman,service_and_sales,lower_middle_class,"
            
BURJER :

            
Bon ! Ze will ich Ihne glych ganz kurz saawe, ass ihr mir noch e scheeni Pratik sinn !

          
",72,jost-so-e-liederlicher-frack,22,2,0.0,0.09090909090909091
146,comedy,Burjer,M,businessman,service_and_sales,lower_middle_class,"
            
BURJER :

            
Numme stille! Ich habb Bewyes!

          
",73,jost-so-e-liederlicher-frack,9,2,0.0,0.2222222222222222
147,comedy,Georges Frosch,M,businessman,service_and_sales,lower_middle_class,"
            
GEORGES

            
(fur sich) :

            
Die sinn, Gottlob, verbrennt unn im Kanal!

          
",73,jost-so-e-liederlicher-frack,16,2,1.6218920472558471,0.125
148,comedy,Burjer,M,businessman,service_and_sales,lower_middle_class,"
            
BURJER :

            
Im stille haw ich ejch jo allewyll im Verdacht g'hett, ass by ejch nit alles so isch, wie's sinn
            soll, unn ass ihr's nitt ehrlich meine !

          
",74,jost-so-e-liederlicher-frack,34,4,0.0,0.11764705882352941
149,comedy,Georges Frosch,M,businessman,service_and_sales,lower_middle_class,"
            
GEORGES :

            
Diss kenne numme beesi Lytt behaupt hann !

          
",74,jost-so-e-liederlicher-frack,10,2,0.4479517123158631,0.2
150,comedy,Burjer,M,businessman,service_and_sales,lower_middle_class,"
            
BURJER :

            
Meine Sie? M'r brücht numme ze sähn, wie's by ejch drynsieht! 
            
(Er zeijt uff d' leere Wänd unn Fenschter.)

          
",75,jost-so-e-liederlicher-frack,28,3,0.0,0.10714285714285714
151,comedy,Georges Frosch,M,businessman,service_and_sales,lower_middle_class,"
            
GEORGES

            
(vergelschtert fur sich) :

            
Er weiss, ma foi, schun, ass mir do Dings verschwinde hann mache! Mir sinn verlore! Halt, e Idee! 
            
(Lütt):
 Monsieur, mir sinn halt armi Lytt!

          
",75,jost-so-e-liederlicher-frack,44,6,1.570688197778668,0.13636363636363635
152,comedy,Burjer,M,businessman,service_and_sales,lower_middle_class,"
            
BURJER :

            
Waje dem hann ihr au uff Geld speküliert unn zwar uff e ganz gemeini Art unn Wyes! Wisse Sie, was
            diss isch ? Diss isch Verroot !

          
",76,jost-so-e-liederlicher-frack,31,6,0.0,0.1935483870967742
154,comedy,Schnappne,M,,,,"
            
SCHNAPPNE :

            
Ich bin dr Schutzmann Schnappne! 
            
(Salütiert.)
 Wo isch d'r Monsieur Frosch ?

          
",77,jost-so-e-liederlicher-frack,18,2,0.0,0.1111111111111111
155,comedy,Georges Frosch,M,businessman,service_and_sales,lower_middle_class,"
            
GEORGES

            
(vergelschtert) :

            
Allmächtiger, jetzt wurr ich arretiert ! 
            
(Lütt)
: Der... der bin ich!

          
",77,jost-so-e-liederlicher-frack,22,2,0.0,0.09090909090909091
156,comedy,Schnappne,M,,,,"
            
SCHNAPPNE :

            
Ich bin dato uff d'r Suech nooch-e-me g'fährliche Schwerverbrecher...

          
",78,jost-so-e-liederlicher-frack,12,4,1.0520971137944943,0.3333333333333333
157,comedy,Georges Frosch,M,businessman,service_and_sales,lower_middle_class,"
            
GEORGES

            
(fur sich) :

            
Der Unglicklich bin ich! Ich schmeck schun 's Bluet vun d'r Guillotine !

          
",78,jost-so-e-liederlicher-frack,20,3,2.324891338962955,0.15
159,comedy,Schnappne,M,,,,"
            
SCHNAPPNE :

            
Gewehnlich tryebt'r sich in Frauekleider erum, fur lychter ynbreche zu kenne...

          
",79,jost-so-e-liederlicher-frack,15,2,0.0,0.13333333333333333
160,comedy,Georges Frosch,M,businessman,service_and_sales,lower_middle_class,"
            
GEORGES

            
(fur sich) :

            
Gott sej Dank ! Mich kann'r nitt meine!

          
",80,jost-so-e-liederlicher-frack,15,3,0.0,0.2
161,comedy,Schnappne,M,,,,"
            
SCHNAPPNE :

            
Unn grad ewe isch uns uff's Revier getelephoniert worre, ass m'r beobacht hett, wie'r sich in diss
            Hüss do yng'schliche hett. Hann Sie 'ne viellycht g'sähn?

          
",80,jost-so-e-liederlicher-frack,33,5,0.0,0.15151515151515152
162,comedy,Georges Frosch,M,businessman,service_and_sales,lower_middle_class,"
            
GEORGES :

            
Nitt e Zipfel vun'm, was 'ne Ihre Kolleg do gewiss au b'stätige wurd kenne ! 
            
(Er zeijt uff de Burjer.)

          
",81,jost-so-e-liederlicher-frack,27,1,0.0,0.037037037037037035
163,comedy,Burjer,M,businessman,service_and_sales,lower_middle_class,"
            
BURJER

            
(zuem Georges):

            
Awer ich bitt Sie!

          
",81,jost-so-e-liederlicher-frack,11,1,0.0,0.09090909090909091
164,comedy,Schnappne,M,,,,"
            
SCHNAPPNE :

            
Was? E Kolleg vun mir ? Der Monsieur do ? Diss stimmt nitt! Ich kenn alli Herre vun d'r
            Polizej.

          
",82,jost-so-e-liederlicher-frack,25,2,0.0,0.08
167,comedy,Schnappne,M,,,,"
            
SCHNAPPNE :

            
Was? Sie gänn jetzt zue, ass Sie nitt vun d'r Polizej sinn ? No sinn Sie halt e Gauner !

          
",83,jost-so-e-liederlicher-frack,24,3,0.785344098889334,0.125
168,comedy,Georges Frosch,M,businessman,service_and_sales,lower_middle_class,"
            
GEORGES :

            
Mir geht e Licht uff ! Agent, diss isch am End der Gauner, wo Sie sueche, denn'r isch uff's Mool
            in mynere Wohnung g'stande, ohne ass ich gewisst habb wie!

          
",84,jost-so-e-liederlicher-frack,38,4,0.0,0.10526315789473684
169,comedy,Schnappne,M,,,,"
            
SCHNAPPNE

            
(schnappt de Burjer im Gnick):

            
Ah, so e Frichtel isch diss! Do haw ich schynnt's schun denne Gauner verwitscht! Marsch — mit!

          
",84,jost-so-e-liederlicher-frack,31,1,0.0,0.03225806451612903
170,comedy,Burjer,M,businessman,service_and_sales,lower_middle_class,"
            
BURJER :

            
Lonn mich au in Ruehj — ich bitt drum! Ich bin jo...

          
",85,jost-so-e-liederlicher-frack,16,3,0.517114012713921,0.1875
171,comedy,Schnappne,M,,,,"
            
SCHNAPPNE

            
(stossť ne nooch d'r Dier hinte) :

            
Wer Sie sinn, diss stellt sich schun uff d'r Polizej erüss! Also vorwärts unn nimm gemückst ! 
            
(Alli zwei ab nooch hinte.)

          
",85,jost-so-e-liederlicher-frack,37,3,0.0,0.08108108108108109
172,comedy,Georges Frosch,M,businessman,service_and_sales,lower_middle_class,"
            
GEORGES :

            
Diss wär noch emool guet abgeloffe! Ich soll kein Angscht üssg'stande hann! Wie der sich
            uffg'fiehrt hett! Ich habb als gemeint, er wär vun d'r Polizej! E ganz raffinierter Gauner, diss! 
            
(Ab nooch rächts.)

          
",86,jost-so-e-liederlicher-frack,46,4,0.0,0.08695652173913043
173,comedy,E Gauner,M,conman,unknown,lower_class,"
            
Gauner

            
(macht vorsichtig d' Dier uff, luejt eryn unn kummt no ins Zimmer):

            
Verdeckel, diss Mool isch's brenzlich fur mich g'sinn! Um e Härel hätte mich d' Blejele g'schnappt
            ! Awer ich habb noch emool chance 
            
g'hett. So, unn jetzt will ich emool sähn, ob ich dohinne e guete Fang kann mache! Ich
            brüch Geld! Hm, do sieht's jo meh als wie pauvre üss ! Awer au gar nix, wo sich rentiert, mitgenumme
            ze wäre ! 
            
(Horicht.)
 Habb ich rächt g'heert ! Ja, 's kummt ebber ! Do heisst's sich verdufte!
            Awer wo anne? Ich mecht nitt doch noch am Schlawittel gepackt wäre! Ah, do isch jo e Kuffer! Isch'r
            leer? 
            
(Macht uff.)
 Ja! Also, als nyn unn zwar heijo! 
            
(Er schlupft in de Kuffer unn macht de Deckel iwer sich zue ; macht noch emool g'schwind uff
            unn zue unn saat)
: Kücküs... dada !

          
",86,jost-so-e-liederlicher-frack,182,18,0.0,0.0989010989010989
174,comedy,Michel,M,businessman,service_and_sales,lower_middle_class,"
            
MICHEL

            
(in Frauekleider ; er isch arich uffgerejt):

            
Luft! Ich verstick ! Nein, ich soll nitt gerennt sinn ! So e Malchance! Wo ich mit mym Pack voll
            politische « Verdachtsmomenter » nooch'm Kanal unterwäjs bin g'sinn, lauft mir uffs Mool e Schutzmann
            in de Wäj; im glyche Moment kummt e Windstoss unn wirwelt mir denne elend Wyewerrock iwerm Kopf
            z'samme; d'r Blejele spanne, ass ich Mannskleider drunter an habb unn mir noochrenne, diss isch eins
            g'sinn! Na, ich binn g'fiesselt, wie wenn ich's bezahlt bekäm, unn do bin ich jetzt ! Ich glaub kümm,
            ass d'r Schutzmann g'spanne hett, in well Hüss ass ich verschwunde bin, denn schunscht wär's lätz!
            Fur besser renne zu kenne, haw ich zuedem au noch myne Pack furt miehn wärfe ... hoffetlich finde s'e
            nitt erüss, wem ass'r g'heert, denn schunscht sinn myner Brueder unn ich geliffert! Dü liwer Alledaa!
            Do isch d'r Schutzmann schun ! Mir wurd's schwach !

          
",87,jost-so-e-liederlicher-frack,186,16,0.546467464784173,0.08602150537634409
175,comedy,Hebbne,M,watchman/policeman,elementary_professions,lower_class,"
            
HEBBNE

            
(mit'm Pack vum Michel ; fur sich) :

            
Denne Dieb muess ich schnappe ! Ah, do isch'r jo! 
            
(Lütt)
: Haw ich dich jetzt, Birschtel! Meinsch, ich habb nitt g'spanne, 
            
wie de do ryn gewitscht bisch? Ja, d'r Schutzmann Hebbne isch e schlöjer Kadett! Dü
            bisch uns schun signalisiert worre, ass de dich in're Wyewerkutt erumtryebsch !

          
",87,jost-so-e-liederlicher-frack,73,4,0.8266477322671028,0.0547945205479452
176,comedy,Michel,M,businessman,service_and_sales,lower_middle_class,"
            
MICHEL

            
(fur sich) :

            
Allmächtiger! Kein Zwyefel, mir wäre schun iwerwacht ! 
            
(Lütt):
 Herr Schutzmann, 's handelt sich jo numme um e ganz harmloser Jüx... ich...
            habb uff de bal masqué gewellt !

          
",88,jost-so-e-liederlicher-frack,43,5,0.07054834534204303,0.11627906976744186
178,comedy,Michel,M,businessman,service_and_sales,lower_middle_class,"
            
MICHEL

            
(fur sich) :

            
Jetzt simm'r verlore — perdü ! Er hett jo unser Doodesurteil uff d'r Strooss uffg'hebbt ! Jetzt
            hälft numme noch frech's Leigle ! 
            
(Lütt)
: Die Sache sinn nitt myne!

          
",89,jost-so-e-liederlicher-frack,40,4,0.0,0.1
179,comedy,Hebbne,M,watchman/policeman,elementary_professions,lower_class,"
            
HEBBNE :

            
Diss kenne m'r ! Mir kummt's awer als so vor, wie wenn s'e do hinne fähle dhäte, denn do sieht's
            jo üss, wie finf Minütte nooch Erschaffung vun d'r Welt! Mir welle mool sähn ! 
            
(Er macht de Pack uff.)

          
",89,jost-so-e-liederlicher-frack,52,3,0.0,0.057692307692307696
181,comedy,Hebbne,M,watchman/policeman,elementary_professions,lower_class,"
            
HEBBNE

            
(zeijt d' Uehr):

            
Han, was isch diss, Birschtel ?

          
",90,jost-so-e-liederlicher-frack,15,1,0.0,0.06666666666666667
182,comedy,Michel,M,businessman,service_and_sales,lower_middle_class,"
            
MICHEL

            
(fur sich):

            
Am beschte wurd sinn, wenn ich mich daub stell ! 
            
(Lütt)
: Diss? Diss isch e Sunne-Uehr !

          
",91,jost-so-e-liederlicher-frack,28,2,0.0,0.07142857142857142
183,comedy,Hebbne,M,watchman/policeman,elementary_professions,lower_class,"
            
HEBBNE :

            
Unn dü hesch e Sunnestich ! E Schwarzwälderühr isch diss, unn die fählt do! 
            
(Er hängt s'e an de friehjer Platz.)

          
",91,jost-so-e-liederlicher-frack,29,1,0.0,0.034482758620689655
187,comedy,Hebbne,M,watchman/policeman,elementary_professions,lower_class,"
            
HEBBNE :

            
Unn dü hesch Dinde g'soffe ! Diss isch e Kejelprys vun de Schwoowe... 
            
(fur sich):
 Ich hab au eine d'heim !... 
            
(lütt)
: Unn ass er in die Wohnung do g'heert, sieh ich, wyll do de Name « Frosch »
            steht! 
            
(Er stellt d' Figür an de alt Platz.)
 M'r sieht's jo noch am Staub, ass die Figür do
            g'stande isch !

          
",93,jost-so-e-liederlicher-frack,80,1,0.0,0.0125
188,comedy,Michel,M,businessman,service_and_sales,lower_middle_class,"
            
MICHEL

            
(fur sich):

            
Wenn ich chance habb, wurr ich uff läweslänglich Cayenne begnadigt !

          
",94,jost-so-e-liederlicher-frack,18,2,0.0,0.1111111111111111
190,comedy,Michel,M,businessman,service_and_sales,lower_middle_class,"
            
MICHEL :

            
Ich glaub, diss isch d'r Präsident vun Frankrych !

          
",95,jost-so-e-liederlicher-frack,12,1,0.0,0.08333333333333333
192,comedy,Michel,M,businessman,service_and_sales,lower_middle_class,"
            
MICHEL

            
(fur sich) :

            
Am liebschte mecht ich mich denäwe hänge!

          
",96,jost-so-e-liederlicher-frack,14,2,0.0,0.14285714285714285
195,comedy,Hebbne,M,watchman/policeman,elementary_professions,lower_class,"
            
HEBBNE :

            
Unn dü bisch e Dolle! Diss stellt ebbs vor, wo dü nimm lang geniesse wursch, nämlich d' Frejheit !
            Die fählt do... 
            
(zeijt uff d' Wand)...
 an d'r Wand... 
            
(fur sich)
...unn noch an viele andere Plätz ! 
            
(Er hängt's Bild uff).

          
",97,jost-so-e-liederlicher-frack,59,7,0.5814543936571894,0.11864406779661017
198,comedy,Hebbne,M,watchman/policeman,elementary_professions,lower_class,"
            
HEBBNE

            
(zeijt d' rote Umhängle un d' rot Dischdeck) :

            
Unn was isch diss, Männel ?

          
",99,jost-so-e-liederlicher-frack,19,4,0.0,0.21052631578947367
199,comedy,Michel,M,businessman,service_and_sales,lower_middle_class,"
            
MICHEL :

            
Diss sinn e Paar grini Strimpf, unn diss sche e schwarzer Huet !

          
",99,jost-so-e-liederlicher-frack,16,1,0.0,0.0625
200,comedy,Hebbne,M,watchman/policeman,elementary_professions,lower_class,"
            
HEBBNE :

            
Unn dü bekummsch au glych e paar uff de Huet, wenn dü mich fur daub angücksch ! Die rote Umhängle
            fähle do unn die rot Dischdeck do! 
            
(Er macht beid's an de Platz.)

          
",100,jost-so-e-liederlicher-frack,41,6,0.0,0.14634146341463414
201,comedy,Michel,M,businessman,service_and_sales,lower_middle_class,"
            
MICHEL

            
(fur sich):

            
Kein chance! Noch nitt emool farweblind isch'r !

          
",100,jost-so-e-liederlicher-frack,15,1,0.0,0.06666666666666667
202,comedy,Hebbne,M,watchman/policeman,elementary_professions,lower_class,"
            
HEBBNE :

            
So, jetzt sieht alles widder üss, wie's friehjer isch g'sinn ! Diss langt... diss isch Bewyes
            genue !

          
",101,jost-so-e-liederlicher-frack,24,1,0.0,0.041666666666666664
203,comedy,Michel,M,businessman,service_and_sales,lower_middle_class,"
            
MICHEL :

            
Na, in Gott's Namme, ich gibb zue, ass die Sache myne sinn! Ich ergibb mich mit Herz unn mit Hand
            fur's Vaterland! 
            
(Streckt!'m d' Händ zuem Kettle anne.)

          
",101,jost-so-e-liederlicher-frack,42,2,0.0,0.047619047619047616
204,comedy,Burjer,M,businessman,service_and_sales,lower_middle_class,"
            
BURJER

            
(ohne d' andere ze sähn):

            
Enfin hann s'e mich laufe lonn... awer 's hett Hitz genue koscht! E Schand isch so ebbs,
            e'n-ehrliche Mensch ze verhafte! Awer do isch numme de Monsieur Georges Frosch dran schuld ! Na, dem
            will ich's stecke! 
            
(Er sieht de Michel):
 Ja, sieh ich denn erächt? Isch diss nitt myner ami Michel Frosch
            ?

          
",102,jost-so-e-liederlicher-frack,77,6,0.2585570063569605,0.07792207792207792
205,comedy,Michel,M,businessman,service_and_sales,lower_middle_class,"
            
MICHEL

            
(trürig) :

            
Ja, liewer Burjer, ich bin's!

          
",102,jost-so-e-liederlicher-frack,14,3,0.0,0.21428571428571427
206,comedy,Burjer,M,businessman,service_and_sales,lower_middle_class,"
            
BURJER :

            
Ja, Mensch, wie kummsch dü denn in die Wyewerklift ?

          
",103,jost-so-e-liederlicher-frack,14,1,0.0,0.07142857142857142
207,comedy,Michel,M,businessman,service_and_sales,lower_middle_class,"
            
MICHEL

            
(noch trüriger) :

            
Ei, wyll ich politisch verdächtig bin ! Siehsch's denn nitt ? 
            
(Er zeijt uff d' Dafle, d' Dischdeck etc.)

          
",103,jost-so-e-liederlicher-frack,30,4,0.0,0.13333333333333333
209,comedy,Burjer,M,businessman,service_and_sales,lower_middle_class,"
            
BURJER :

            
Diss geht iwer d'Kräfte vun mym Denkapperat! Do hinne sieht's jo uff's Mool widder ganz wohnlich
            dryn !

          
",104,jost-so-e-liederlicher-frack,24,3,0.0,0.125
210,comedy,Schnappne,M,,,,"
            
SCHNAPPNE

            
(iwer'm Erynkumme) :

            
Also, Monsieur Frosch, wie g'saat, 's isch leider e Versähn g'sinn ! Der Monsieur isch
            daadsächlich de Monsieur Burjer unn kein Gauner g'sinn !

          
",105,jost-so-e-liederlicher-frack,34,3,0.662324266643732,0.08823529411764706
211,comedy,Georges Frosch,M,businessman,service_and_sales,lower_middle_class,"
            
GEORGES :

            
Nein, so ebbs! Diss isch jo unser bescht G'schäftsfrind, numme haw ich'ne noch nitt perseenlich
            kennt! 
            
(Luejt sich im Zimmer um; verschrocke zue sich unn zeijt uff d' Wänd)
: Allmächtiger,
            do hänge jo widder unseri sämtlichi Doodesurdeiler! 
            
(Er sieht de 
            
Michel)
: Michel ! Bisch's odder bisch's nitt ! Wie bisch denn dü gemutzt?

          
",105,jost-so-e-liederlicher-frack,71,5,0.0,0.07042253521126761
212,comedy,Michel,M,businessman,service_and_sales,lower_middle_class,"
            
MICHEL

            
(zeijt uff de Schnappne) :

            
Hann s'e dich au schun arretiert? Na, ich bin au so wytt! 
            
(Er zeijt uff de Hebbne.)

          
",106,jost-so-e-liederlicher-frack,32,3,0.0,0.09375
213,comedy,Schnappne,M,,,,"
            
SCHNAPPNE :

            
Was soll denn die Uffrejung bedytte? Unn was die Maschkerad ?

          
",106,jost-so-e-liederlicher-frack,14,2,1.4180468332644476,0.14285714285714285
215,comedy,Schnappne,M,,,,"
            
SCHNAPPNE :

            
Ihr, so ehrewärti Lytt, unn denunziert? Do miesst ich au ebbs devun wisse !

          
",107,jost-so-e-liederlicher-frack,19,2,0.0,0.10526315789473684
217,comedy,Georges Frosch,M,businessman,service_and_sales,lower_middle_class,"
            
GEORGES :

            
Wie? Was? 's isch nitt wohr ?

          
",108,jost-so-e-liederlicher-frack,11,1,0.0,0.09090909090909091
218,comedy,Michel,M,businessman,service_and_sales,lower_middle_class,"
            
MICHEL :

            
Gott sej Dank, d' Guillotine isch noch emool an uns durichgange !

          
",109,jost-so-e-liederlicher-frack,15,3,1.0812613648372313,0.2
219,comedy,Schnappne,M,,,,"
            
SCHNAPPNE :

            
Do hett Ihnne gewiss ebber e Streich welle spiele !

          
",109,jost-so-e-liederlicher-frack,12,2,0.0,0.16666666666666666
220,comedy,Georges Frosch,M,businessman,service_and_sales,lower_middle_class,"
            
GEORGES :

            
Awer wer kennt denn e Interesse dran hann, uns so iwel mitzespiele ?

          
",110,jost-so-e-liederlicher-frack,16,1,0.0,0.0625
221,comedy,Burjer,M,businessman,service_and_sales,lower_middle_class,"
            
BURJER :

            
Am End gar der, wo ejch unn ejere Neveu by mir so schlächt gemacht het, denn nooch allem sieh ich,
            ass'r mich ganz g'heerig verschwindelt hett!

          
",110,jost-so-e-liederlicher-frack,32,3,0.0,0.09375
222,comedy,Michel,M,businessman,service_and_sales,lower_middle_class,"
            
GEORGES u. MICHEL :

            
Wer isch der gemein Fetze g'sinn! Ich will 'ne kenne unn Mores lehre !

          
",111,jost-so-e-liederlicher-frack,19,3,0.9111528820532963,0.15789473684210525
224,comedy,Robert,M,,,,"
            
ROBERT

            
(ohne d' andere zu sähn, singt):

            
Ich hab' mein Herz in Heidelberg verloren... 
            
(Er sieht d' andere unn verschreckt ; fur sich)
: Fitzekapores, was isch denn do fur e
            Velkerbundsversammlung? 
            
(Kratzt sich hinter de Ohre)
: Ich ahn beesi Zytte!

          
",112,jost-so-e-liederlicher-frack,54,4,0.5734052112751595,0.07407407407407407
227,comedy,Burjer,M,businessman,service_and_sales,lower_middle_class,"
            
BURJER :

            
Wie? Was? Der ejere Neveu ? Unn het sich sälwer by mir schlächt gemacht ? Diss kapier, wer will
            !

          
",113,jost-so-e-liederlicher-frack,25,2,0.0,0.08
228,comedy,Robert,M,,,,"
            
ROBERT

            
(fur sich) :

            
Do bin ich scheen ryngerasselt !

          
",114,jost-so-e-liederlicher-frack,12,1,0.0,0.08333333333333333
229,comedy,Georges Frosch,M,businessman,service_and_sales,lower_middle_class,"
            
GEORGES :

            
Zeij, Robert, kumm emool e bissel here! Was saasch dü zue dere ganz G'schicht ?

          
",114,jost-so-e-liederlicher-frack,20,2,0.0,0.1
230,comedy,Robert,M,,,,"
            
ROBERT

            
(fur sich):

            
Jetzt heisst's bychte! 
            
(Lütt):
 Na, ja, ich gibb zue, ass d'r Monsieur Burjer rächt hett!

          
",115,jost-so-e-liederlicher-frack,30,3,0.0,0.1
231,comedy,Burjer,M,businessman,service_and_sales,lower_middle_class,"
            
BURJER :

            
So? Unn worum hann Sie mir so schlächt's Dings iwer sich sälwer verzählt ?

          
",115,jost-so-e-liederlicher-frack,18,1,0.0,0.05555555555555555
232,comedy,Robert,M,,,,"
            
ROBERT :

            
Ei, wyll ich nitt an Ihri Dochter verschachert will wäre !

          
",116,jost-so-e-liederlicher-frack,14,1,0.0,0.07142857142857142
233,comedy,Burjer,M,businessman,service_and_sales,lower_middle_class,"
            
BURJER :

            
Diss heisst m'r ehrlich geredd! Unn isch au alles wohr, was Sie vun sich sälwer g'saat hann ?

          
",116,jost-so-e-liederlicher-frack,22,2,0.0,0.09090909090909091
234,comedy,Robert,M,,,,"
            
ROBERT :

            
Nein... diss heisst doch ; 's isch noch döjsig Mool schlimmer !

          
",117,jost-so-e-liederlicher-frack,15,1,0.0,0.06666666666666667
235,comedy,Michel,M,businessman,service_and_sales,lower_middle_class,"
            
MICHEL

            
(wie d'r Georges vorher) :

            
Zej, Robert, kumm emool e bissel here! Wer hett uns denn mit dere Denunziation an d'r Nas
            erumg'fiehrt ?

          
",117,jost-so-e-liederlicher-frack,30,2,2.1012471768500682,0.06666666666666667
236,comedy,Robert,M,,,,"
            
ROBERT

            
(fur sich) :

            
Ein Unglick kummt nie ellein ! 
            
(Lütt)
: Diss isch myni Wenigkeit g'sinn, Unkel !

          
",118,jost-so-e-liederlicher-frack,24,3,0.0,0.125
238,comedy,Robert,M,,,,"
            
ROBERT :

            
Fur ass ihr mich mit ejere Hyrootsg'schichte in Fridde lonn !

          
",119,jost-so-e-liederlicher-frack,13,2,0.7756710190708814,0.15384615384615385
239,comedy,Schnappne,M,,,,"
            
SCHNAPPNE

            
(packt d' rächt Hand vum Robert) :

            
Monsieur, ich verhaft Sie waje growem Unfuej !

          
",119,jost-so-e-liederlicher-frack,19,2,0.0,0.10526315789473684
240,comedy,Hebbne,M,watchman/policeman,elementary_professions,lower_class,"
            
HEBBNE

            
(packt d' link Hand):

            
Monsieur, ich verhaft Sie waje Selbschtbeleidigung !

            
(Beidi zerre de Robert hin unn here )

          
",120,jost-so-e-liederlicher-frack,25,1,2.2325779697072927,0.04
241,comedy,Robert,M,,,,"
            
ROBERT :

            
Nemme mich mit ; stroofe mich, so hart ass ihr welle, awer mache mich nitt hyroote !

          
",120,jost-so-e-liederlicher-frack,21,2,3.0634405328209042,0.09523809523809523
242,comedy,Burjer,M,businessman,service_and_sales,lower_middle_class,"
            
BURJER :

            
Kein Angscht, jeune homme, so e Maidel wie myni Dochter wär fur Sie doch viel ze schad ! 
            
(Er langt e Photographie üss'm Sack unn hebbt s'e im Robert vor d'Aue.)

          
",121,jost-so-e-liederlicher-frack,41,4,0.0,0.0975609756097561
243,comedy,Robert,M,,,,"
            
ROBERT

            
(rysst sich vun de Schutzlytt los unn nemmt's Bild):

            
Was sieh ich? Diss isch jo 's Yvonne, myn goldich's Yvonnel! Ich nemm s'e.... ich hyroot s'e so
            lang, als wie m'r will!

          
",121,jost-so-e-liederlicher-frack,45,2,0.0,0.044444444444444446
244,comedy,Georges Frosch,M,businessman,service_and_sales,lower_middle_class,"
            
GEORGES :

            
Der Bue isch verruckt worre...

          
",122,jost-so-e-liederlicher-frack,8,1,0.0,0.125
246,comedy,Burjer,M,businessman,service_and_sales,lower_middle_class,"
            
BURJER :

            
Was? Sie kenne myni Dochter?

          
",123,jost-so-e-liederlicher-frack,9,1,0.0,0.1111111111111111
247,comedy,Robert,M,,,,"
            
ROBERT :

            
Schun lang, ich habb awer nitt gewisst, ass diss Ihri Dochter isch, Monsieur! Ihre zelieb haw ich
            jo die ganze Streich losgelonn, denn sie unn kein anderi haw ich als Frau gewellt!

          
",123,jost-so-e-liederlicher-frack,40,3,0.0,0.075
248,comedy,Burjer,M,businessman,service_and_sales,lower_middle_class,"
            
BURJER :

            
Ah, so stehts! Na, ich mein, ass wemm'r d'r Lieb zelieb so wytt geht, sich sälwer schlächt ze
            mache, ze kamm'r nitt grad so arich schlächt sinn, denn anderi im glyche Fall wie Sie mache sich als
            gewehnlich besser als wie s'e sinn !

          
",124,jost-so-e-liederlicher-frack,54,6,0.0,0.1111111111111111
249,comedy,Hebbne,M,watchman/policeman,elementary_professions,lower_class,"
            
HEBBNE

            
(geriehrt, hyllt) :

            
Ich begnadig'ne! 
            
(Losst 'ne los.)

          
",124,jost-so-e-liederlicher-frack,16,1,0.0,0.0625
250,comedy,Schnappne,M,,,,"
            
SCHNAPPNE

            
(grad so) :

            
Unn ich enthaft'ne !

          
",125,jost-so-e-liederlicher-frack,10,2,0.0,0.2
251,comedy,Burjer,M,businessman,service_and_sales,lower_middle_class,"
            
BURJER :

            
Fur ass'r awer doch nitt ohne Stroof üssgeht...

          
",125,jost-so-e-liederlicher-frack,11,1,2.852745115274707,0.09090909090909091
252,comedy,Georges Frosch,M,businessman,service_and_sales,lower_middle_class,"
            
GEORGES :

            
...unn nit noch emool in d'r Wuch zwei Mool e frischer Stellkraawe anzejt...

          
",126,jost-so-e-liederlicher-frack,17,1,0.0,0.058823529411764705
253,comedy,Michel,M,businessman,service_and_sales,lower_middle_class,"
            
MICHEL :

            
...Unn am End nitt doch noch in d'r blöj Adria in de Wäj lauft...

          
",126,jost-so-e-liederlicher-frack,18,1,0.0,0.05555555555555555
254,comedy,Burjer,M,businessman,service_and_sales,lower_middle_class,"
            
BURJER :

            
...ze soll'r uff läweslängliche Ehstand mit mynere Dochter verurdeilt wäre!

          
",127,jost-so-e-liederlicher-frack,14,3,1.220079005912943,0.21428571428571427
255,comedy,Robert,M,,,,"
            
ROBERT

            
(fallt im Burjer um de Hals):

            
Vielmools merci, Herr Staatsanwalt! Ich leij kein Beruefung geje diss Urdeil yn !

          
",127,jost-so-e-liederlicher-frack,25,5,0.31973243652788214,0.2
257,comedy,1. Arweiter,M,,,,"
            
1. Arweiter :

            
Bysamme, haw ich g'saat ! Mir solle denne Kuffer hole, wo repariert soll wäre !

          
",128,jost-so-e-liederlicher-frack,20,1,0.0,0.05
259,comedy,2. Arweiter,M,,,,"
            
2. Arweiter

            
(zuem 1. Arweiter) :

            
Hopp, Kamerad, pack'ne ! 
            
(Sie nemme de Kuffer jeder am e Griff, lipfe'ne in d' Heche unn gehn mit nooch hinte ab. D'r
            Gauner blyet nadierlich, wyll d'r Kuffer kein Bodde hett, uff'm Fuesbodde sitze.)

          
",129,jost-so-e-liederlicher-frack,53,3,0.0,0.05660377358490566
261,comedy,Schnappne,M,,,,"
            
SCHNAPPNE

            
(stirzt sich uff'ne) :

            
Was Dejfels, was isch denn nitt diss! Diss isch jo der Gauner, wo mir schun lang sueche !

          
",130,jost-so-e-liederlicher-frack,28,3,0.0,0.10714285714285714
262,comedy,Hebbne,M,watchman/policeman,elementary_professions,lower_class,"
            
HEBBNE

            
(grad so) :

            
Denne hätte m'r ! 
            
(Sie kettle'ne.)

          
",131,jost-so-e-liederlicher-frack,15,1,0.0,0.06666666666666667
265,comedy,E Gauner,M,conman,unknown,lower_class,"
            
GAUNER :

            
Saawe liewer, ass diss e boddeloser Kuffer isch g'sinn, denn schunscht hätte ihr mich nitt
            verwitscht !

            
(D'Schutzlytt fiehre de Gauner ab, unn d'r Vorhang fallt g'schwind.)

            

              
FINIS!

            

          
",132,jost-so-e-liederlicher-frack,38,2,0.0,0.05263157894736842
