2022-08-20 21:35:50 - valence lexicon length: 7864
2022-08-20 21:35:50 - Number of rows: 266
2022-08-20 21:35:50 - dominance lexicon length: 7864
2022-08-20 21:35:50 - Number of rows: 266
2022-08-20 21:35:51 - arousal lexicon length: 7864
2022-08-20 21:35:51 - Number of rows: 266
2022-08-20 21:35:51 - anger lexicon length: 7864
2022-08-20 21:35:51 - Number of rows: 266
2022-08-20 21:35:52 - anticipation lexicon length: 7864
2022-08-20 21:35:52 - Number of rows: 266
2022-08-20 21:35:52 - disgust lexicon length: 7864
2022-08-20 21:35:52 - Number of rows: 266
2022-08-20 21:35:53 - fear lexicon length: 7864
2022-08-20 21:35:53 - Number of rows: 266
2022-08-20 21:35:53 - joy lexicon length: 7864
2022-08-20 21:35:53 - Number of rows: 266
2022-08-20 21:35:53 - sadness lexicon length: 7864
2022-08-20 21:35:53 - Number of rows: 266
2022-08-20 21:35:54 - surprise lexicon length: 7864
2022-08-20 21:35:54 - Number of rows: 266
2022-08-20 21:35:54 - trust lexicon length: 7864
2022-08-20 21:35:54 - Number of rows: 266
2022-08-24 17:06:20 - valence lexicon length: 7864
2022-08-24 17:06:20 - Number of rows: 266
2022-08-24 17:06:21 - dominance lexicon length: 7864
2022-08-24 17:06:21 - Number of rows: 266
2022-08-24 17:06:21 - arousal lexicon length: 7864
2022-08-24 17:06:21 - Number of rows: 266
2022-08-24 17:06:21 - anger lexicon length: 7864
2022-08-24 17:06:21 - Number of rows: 266
2022-08-24 17:06:22 - anticipation lexicon length: 7864
2022-08-24 17:06:22 - Number of rows: 266
2022-08-24 17:06:22 - disgust lexicon length: 7864
2022-08-24 17:06:22 - Number of rows: 266
2022-08-24 17:06:23 - fear lexicon length: 7864
2022-08-24 17:06:23 - Number of rows: 266
2022-08-24 17:06:23 - joy lexicon length: 7864
2022-08-24 17:06:23 - Number of rows: 266
2022-08-24 17:06:23 - sadness lexicon length: 7864
2022-08-24 17:06:23 - Number of rows: 266
2022-08-24 17:06:24 - surprise lexicon length: 7864
2022-08-24 17:06:24 - Number of rows: 266
2022-08-24 17:06:24 - trust lexicon length: 7864
2022-08-24 17:06:24 - Number of rows: 266
