2022-08-20 21:33:49 - valence lexicon length: 7864
2022-08-20 21:33:49 - Number of rows: 1259
2022-08-20 21:33:50 - dominance lexicon length: 7864
2022-08-20 21:33:50 - Number of rows: 1259
2022-08-20 21:33:51 - arousal lexicon length: 7864
2022-08-20 21:33:51 - Number of rows: 1259
2022-08-20 21:33:53 - anger lexicon length: 7864
2022-08-20 21:33:53 - Number of rows: 1259
2022-08-20 21:33:55 - anticipation lexicon length: 7864
2022-08-20 21:33:55 - Number of rows: 1259
2022-08-20 21:33:56 - disgust lexicon length: 7864
2022-08-20 21:33:56 - Number of rows: 1259
2022-08-20 21:33:58 - fear lexicon length: 7864
2022-08-20 21:33:58 - Number of rows: 1259
2022-08-20 21:33:59 - joy lexicon length: 7864
2022-08-20 21:33:59 - Number of rows: 1259
2022-08-20 21:34:00 - sadness lexicon length: 7864
2022-08-20 21:34:00 - Number of rows: 1259
2022-08-20 21:34:01 - surprise lexicon length: 7864
2022-08-20 21:34:01 - Number of rows: 1259
2022-08-20 21:34:02 - trust lexicon length: 7864
2022-08-20 21:34:02 - Number of rows: 1259
2022-08-24 17:04:36 - valence lexicon length: 7864
2022-08-24 17:04:36 - Number of rows: 1259
2022-08-24 17:04:37 - dominance lexicon length: 7864
2022-08-24 17:04:37 - Number of rows: 1259
2022-08-24 17:04:38 - arousal lexicon length: 7864
2022-08-24 17:04:38 - Number of rows: 1259
2022-08-24 17:04:40 - anger lexicon length: 7864
2022-08-24 17:04:40 - Number of rows: 1259
2022-08-24 17:04:41 - anticipation lexicon length: 7864
2022-08-24 17:04:41 - Number of rows: 1259
2022-08-24 17:04:42 - disgust lexicon length: 7864
2022-08-24 17:04:42 - Number of rows: 1259
2022-08-24 17:04:43 - fear lexicon length: 7864
2022-08-24 17:04:43 - Number of rows: 1259
2022-08-24 17:04:44 - joy lexicon length: 7864
2022-08-24 17:04:44 - Number of rows: 1259
2022-08-24 17:04:45 - sadness lexicon length: 7864
2022-08-24 17:04:45 - Number of rows: 1259
2022-08-24 17:04:46 - surprise lexicon length: 7864
2022-08-24 17:04:46 - Number of rows: 1259
2022-08-24 17:04:48 - trust lexicon length: 7864
2022-08-24 17:04:48 - Number of rows: 1259
