Unnamed: 0,drama_type,speaker,sex,job,job_category,social_class,text,progress,short_name,numTokens,numLexTokens,avgLexVal,lexRatio
3,comedy,"Eine alte Frau. ― Leute aus dem Hause, Dienstboten, Polizisten.",B,policeman,government_executive_officials,lower_class,"
        
Alte Frau:

        
Ja, sin’r ejrer Sach) denn au ganz sicher ?

      
",3,stoskopf-e-mordsaffar,14,4,0.0,0.2857142857142857
4,comedy,Schuster,M,doorman,elementary_professions,lower_class,"
        
Schuster:

        
Au noch?! Ihr muehn e solide Schlof han oder daub sin wie e Pfohl, wenn er nix g'hört han vun dem Mord un Totschlaa 
(zu den Leuten im Türrahmen)
 Ihr han’s doch alli ghört? —

      
",4,stoskopf-e-mordsaffar,44,2,1.3389309234428177,0.045454545454545456
5,comedy,Eine alte Frau,F,,,,"
        
Alle :

        
(mit dem Kopfe nickend)

        
Ja, un ob!—

      
",5,stoskopf-e-mordsaffar,14,1,0.0,0.07142857142857142
6,comedy,Katherin,F,,,,"
        
Katherin:

        
Es isch ganz gottsjämmerlich g’sin, diß Gebruels anzehöre ! Die arm Frau hett gejehlt un gekrische, wie er als uf se g’haue hett, daß sich d'Stein hätte-n-erweiche möchte!

      
",6,stoskopf-e-mordsaffar,37,4,0.33473273086070443,0.10810810810810811
7,comedy,Schuster,M,doorman,elementary_professions,lower_class,"
        
Schuster:

        
E jede Streich hawi g’hört, wie ere versetzt hett.

      
",7,stoskopf-e-mordsaffar,13,1,1.4065517523719688,0.07692307692307693
8,comedy,"Eine alte Frau. ― Leute aus dem Hause, Dienstboten, Polizisten.",B,policeman,government_executive_officials,lower_class,"
        
Alte Frau:

        
Um well Zitt isch’s g’sin?

      
",8,stoskopf-e-mordsaffar,10,2,0.0,0.2
9,comedy,Marie,F,domestic_worker,elementary_professions,middle_class,"
        
Marie:

        
S’isch geje de Zwölfe g’sin.

      
",9,stoskopf-e-mordsaffar,9,1,1.1780516264399985,0.1111111111111111
10,comedy,"Eine alte Frau. ― Leute aus dem Hause, Dienstboten, Polizisten.",B,policeman,government_executive_officials,lower_class,"
        
Alte Frau:

        
In d'r Beischterstund ?!

      
",10,stoskopf-e-mordsaffar,8,1,0.0,0.125
11,comedy,Marie,F,domestic_worker,elementary_professions,middle_class,"
        
Marie:

        
Ich hab grad getraimt g’hett, daß d’Hüsare vun Stroßburri versetzt worre sin, do krej ich e Mordsschrecke un verwach un hör im Zimmer newe mir — wisse Sie, ich schloof newe d’r Herr- schaft wäje-n-em kleine Kind — un hör, wie g’saat, e Heidespektakel.

      
",11,stoskopf-e-mordsaffar,56,6,0.9159770352097295,0.10714285714285714
12,comedy,Schuster,M,doorman,elementary_professions,lower_class,"
        
Schuster:

        
Grad wie ich, ich hab grad getraimt, ich hab e Los genumme in ere Lotterie, un im Moment, wie ich m’r’s Nummero hab merike welle, wur ich uffgeweckt durich e Läwesdaa iwer mir, wie ganz gottvergesse-n-isch g’sin. Ich rieb m’r d’Aue-n- üs un fall fascht in Ohnmacht, im Bett newe mir steht e großi wiffi G'stalt uffrecht an d'r Wand...

      
",12,stoskopf-e-mordsaffar,76,9,0.0,0.11842105263157894
13,comedy,"Eine alte Frau. ― Leute aus dem Hause, Dienstboten, Polizisten.",B,policeman,government_executive_officials,lower_class,"
        
Alte Frau:

        
Um’s Gottswille isch’s möjli? — Es isch doch ken G’spenscht g’sin?

      
",13,stoskopf-e-mordsaffar,18,2,0.0,0.1111111111111111
14,comedy,Schuster,M,doorman,elementary_professions,lower_class,"
        
Schuster:

        
Nein, es isch mini Frau g’sin, wie au schun vun dem Läwesdaa uffgeweckt isch g’sin, un wie gelüschtert hett. „Hörsch?“ saat sie zue mir. „Ja Frau,” hawi zue ere g’saat. „Diß isch jo schreckli,” hett sie g’saat, „diß isch jo schreckli” saa ich d’rno.

      
",14,stoskopf-e-mordsaffar,66,5,2.658781290153405,0.07575757575757576
15,comedy,Katherin,F,,,,"
        
Katherin :

        
(welche bestätigend mit dem Kopfe genickt hat)

        
Un no han m’r mitnander gelüschtert. D’Hoor sin uns ze Berry g’stande, wie der sini Frau verschlaaue hett. Bim e jede Streich wie m’r süse han höre, han m’r uns als gebuckt, un glich druff hett m’r als wid’r krische höre. Diß Ding hett e Wyl so furt gedürt, bis’r sie kalt gemacht hett g’hett. Im ganze Zimmer isch’r ’re nochgeloffe, bis’r se verwitscht hett. Sie hett sich natierlich flüchte welle, awer der elend Herr hett allewäj d’Tür zueb’schlosse g’hett —.

      
",15,stoskopf-e-mordsaffar,106,8,0.35227650261346916,0.07547169811320754
16,comedy,Schuster,M,doorman,elementary_professions,lower_class,"
        
Schuster:

        
„Un dü gehsch m’r doch nit durich,” hett’r als g’saat, „miserawls G’schöpf, elends,” un bumms hett'r wid’r eins drufflosg’haue, un die arm Frau hett gekrische, daß’s eim durich Mark un Bein g'fahre-n-isch.

      
",16,stoskopf-e-mordsaffar,48,2,0.0,0.041666666666666664
17,comedy,Katherin,F,,,,"
        
Katherin:

        
Do uff einmol hett m'r noch e stariker Streich g’hört, d’rno hett m’r krische höre, wie ebber, wo e Meffer im Hals stecke hett.. . .

      
",17,stoskopf-e-mordsaffar,33,3,0.8460360475562472,0.09090909090909091
18,comedy,Schuster,M,doorman,elementary_professions,lower_class,"
        
Schuster:

        
Un d'r Mörder, haw ich g’hört, wie'r ganz dittli g’saat hett: „So jetzt hesch furs Murre —”

      
",18,stoskopf-e-mordsaffar,24,3,0.0,0.125
19,comedy,Katherin,F,,,,"
        
Katherin:

        
So isch's, ja so isch's!

      
",19,stoskopf-e-mordsaffar,11,1,0.0,0.09090909090909091
20,comedy,Marie,F,domestic_worker,elementary_professions,middle_class,"
        
Marie:

        
Un no isch’s stille worre.

      
",20,stoskopf-e-mordsaffar,9,1,0.0,0.1111111111111111
21,comedy,Katherin,F,,,,"
        
Katherin:

        
Stille, wie im Grab! —

      
",21,stoskopf-e-mordsaffar,9,2,0.0,0.2222222222222222
22,comedy,"Eine alte Frau. ― Leute aus dem Hause, Dienstboten, Polizisten.",B,policeman,government_executive_officials,lower_class,"
        
Alte Frau:

        
Diß isch jo grieserli ! Nein, so e Canaille ! Marie 
(an der Tür durch das Schlüsselloch schauend)
 : Jesses Maria, jetzt kummt’r allewäj glich, er thuet grad d’Hosse-n-an.

      
",22,stoskopf-e-mordsaffar,41,3,0.0,0.07317073170731707
23,comedy,Katherin,F,,,,"
        
Katherin:

        
So ganz kaltbluetig?! So mir nix dir nix ?! — O, die Canaille! S’bescht wurd sin, ich geh jetzt die arm Mamme prevenire, die wurd lueije, wenn ich's ere so hinte-n-erum ze verstehn wurr gän, daß se-n-e Mörder zuem Dochtermann hett.

      
",23,stoskopf-e-mordsaffar,59,6,0.0,0.1016949152542373
24,comedy,"Eine alte Frau. ― Leute aus dem Hause, Dienstboten, Polizisten.",B,policeman,government_executive_officials,lower_class,"
        
Alte Frau:

        
M’r grüst’s ganz, wenn’r jetzt awer so uf einmol erüs thät kumme.

      
",24,stoskopf-e-mordsaffar,18,4,0.0,0.2222222222222222
25,comedy,Schuster,M,doorman,elementary_professions,lower_class,"
        
Schuster:

        
Nur kenn Angscht ! Do solle Sie ebs erlewe, do solle Sie emol sehn, wie ich denne anne- stelle wurr. Sie gottvergessener Frauemörder, wurr ich zuem saaue un wurr'm d’rbi in’s Wiß vun sine-n- Aue löuije, daß'r for Scham in de Erdsgrundsbodde nin versinke möcht!

      
",25,stoskopf-e-mordsaffar,58,3,0.0,0.05172413793103448
26,comedy,Marie,F,domestic_worker,elementary_professions,middle_class,"
        
Marie:

        
Scht! — Ich glaub er kummt 
(die Türe geht auf, Herr Müller tritt herein, er hat eine kleine Schachtel in der Hand und sieht erstaunt um sich. Marie reibt hastig mit einem Lappen an einem Möbel herum; die alte Frau, Katherin und die Leute im Türrahmen stieben entsetzt davon, Schuster hinterdrein, Müller eilt ihm nach und hält ihn zurück.)

      
",26,stoskopf-e-mordsaffar,72,7,0.040014839748430224,0.09722222222222222
27,comedy,Adolph Müller,M,accountant,intermediate_professionals,lower_middle_class,"
        
Müller:

        
Schueschter, Schueschter! Ja, was Deifels, was isch, denn do Ios, ich glaub ihr han Conferenze do in mim Zimmer in aller Fruehj? 
(Schuster in allen Ängsten sucht nach einer Antwort)
 Ze redde doch, was han’r denn gewellt ?!

      
",27,stoskopf-e-mordsaffar,51,2,0.0,0.0392156862745098
28,comedy,Marie,F,domestic_worker,elementary_professions,middle_class,"
        
Marie :

        
(für sich)

        
Schreckli ! Wie schreckli daß’r üssicht!

      
",28,stoskopf-e-mordsaffar,13,3,4.431302150255675,0.23076923076923078
29,comedy,Schuster,M,doorman,elementary_professions,lower_class,"
        
Schuster:

        
S'isch nix, gar nix, Herr Müller, gar nix, ich hab ne numme d’Zyttung eruff gebrocht 
(sucht in seiner Schürze)
.

      
",29,stoskopf-e-mordsaffar,30,1,0.28010387823901156,0.03333333333333333
30,comedy,Adolph Müller,M,accountant,intermediate_professionals,lower_middle_class,"
        
Müller:

        
Ja, un die viele Lytt? —

      
",30,stoskopf-e-mordsaffar,10,1,0.0,0.1
31,comedy,Schuster,M,doorman,elementary_professions,lower_class,"
        
Schuster:

        
Ei, — ei, die han m’r sie helfe bringe...

      
",31,stoskopf-e-mordsaffar,14,1,0.0,0.07142857142857142
32,comedy,Adolph Müller,M,accountant,intermediate_professionals,lower_middle_class,"
        
Müller:

        
Ja, un do d’rzue brücht m’r e so viel Lytt ?

      
",32,stoskopf-e-mordsaffar,15,1,0.0,0.06666666666666667
33,comedy,Schuster,M,doorman,elementary_professions,lower_class,"
        
Schuster:

        
Diß heißt, sie han mich begleit, sie han grad guet d'r Zitt g’hett . . . . sie sin spaziere gange.

      
",33,stoskopf-e-mordsaffar,26,4,0.0,0.15384615384615385
34,comedy,Adolph Müller,M,accountant,intermediate_professionals,lower_middle_class,"
        
Müller:

        
(für sich)

        
Ich glaub der Mann hett de Verstand verlore, 
(zu Schuster)
 ze gän m’r se e Gottsname here die Zyttung.

      
",34,stoskopf-e-mordsaffar,29,5,0.0,0.1724137931034483
35,comedy,Schuster,M,doorman,elementary_professions,lower_class,"
        
Schuster:

        
Grad suech i sie, jetzt sieh i ererscht, daß i se vergeffe hab... Ich will sie glich gehn hole.

      
",35,stoskopf-e-mordsaffar,25,2,0.0,0.08
36,comedy,Adolph Müller,M,accountant,intermediate_professionals,lower_middle_class,"
        
Müller:

        
Ich weiß gar nit, wie Ihr mir vorkumme, m’r meint, Ihr han glauwi schun e Dampf

      
",36,stoskopf-e-mordsaffar,21,2,0.0,0.09523809523809523
37,comedy,Schuster,M,doorman,elementary_professions,lower_class,"
        
Schuster:

        
(in der Mitteltür)

        
Besser e Dampf, wie e schlechts Gewisse schleunig 
(ab)
.

      
",37,stoskopf-e-mordsaffar,20,2,0.0,0.1
38,comedy,Adolph Müller,M,accountant,intermediate_professionals,lower_middle_class,"
        
Müller:

        
(den Kopf schüttelnd)

        
Total verhuttelt, total verhuttelt! Ex dürt mi, der arm Mann. —

      
",38,stoskopf-e-mordsaffar,22,4,2.8231721796623757,0.18181818181818182
39,comedy,Marie,F,domestic_worker,elementary_professions,middle_class,"
        
Marie:

        
Ich rieder an Arm und Bein, allein bliew ich au net 
(will ab)
.

      
",39,stoskopf-e-mordsaffar,19,2,0.0,0.10526315789473684
40,comedy,Adolph Müller,M,accountant,intermediate_professionals,lower_middle_class,"
        
Müller:

        
Worum lauft Sie denn so furt wie nasebluetig ? Sie hätte g’scheiter dran gethon, wenn Sie mir de Kaffee ferviert hätte, als do ze rätsche; un daß m’r diß nimm vorkummt, daß i fremdi Lytt am Morje in minere Wohnung treff.

      
",40,stoskopf-e-mordsaffar,48,2,0.0,0.041666666666666664
41,comedy,Marie,F,domestic_worker,elementary_professions,middle_class,"
        
Marie:

        
Ah, de Kaffee! — Ja, Herr, im Aues- blick 
(schnell ab)
.

      
",41,stoskopf-e-mordsaffar,21,4,0.07002596955975289,0.19047619047619047
42,comedy,Adolph Müller,M,accountant,intermediate_professionals,lower_middle_class,"
        
Müller:

        
Ich weiß nit, die Sach kummt m’r so merkwürdi vor, was do nur for e G’heimnis drunter stecke mueß. C’est curieux, très curieux!

      
",42,stoskopf-e-mordsaffar,30,1,0.0,0.03333333333333333
46,comedy,Adolph Müller,M,accountant,intermediate_professionals,lower_middle_class,"
        
Müller:

        
Ja, ewi Frau, ich hab schun dran gedenkt, ich hab sie do in ere Lad.

      
",46,stoskopf-e-mordsaffar,21,2,0.0,0.09523809523809523
48,comedy,Adolph Müller,M,accountant,intermediate_professionals,lower_middle_class,"
        
Müller:

        
Oui, Herzele. 
(Zieht eine tote Fledermaus aus der Schachtel, dieselbe mitleidig betrachtend)
 Arm’s Thier’l, so hesch dü din Läwe-n-inbüße muehn ! Diß hesch dü dier bezahlt, daß dü in dere warme Sommernacht zuem offene Fenschter in unser Schlofzimmer ning’flöuje besch, un daß dü min liebs herzigs Wiewele so ver- schreckt hesch. 
(Legt die Fledermaus wieder in die Schachtel)
. S'isch einthuen, ich möcht nit alli Nacht so e surprise han. Was diß e Hitz koscht het, bis ich diß arm Thierl verwitscht hab. Huppla, wie ich als gemeint hab, jetz triff i’s mit'm Stock, isch’s schun wittersch g'sin und ich hab d’rnewe g’schlaue, uff’s Bett, uff’s Commod, an d’Wand. Diß isch e fuerichterlicher Krambol g’sin, d’rno hett mini Frau jedesmol gekrische, wenn d’Fledermüs iwer’s Bett g'flueje-n-isch, daß m’r hett meine könne, es geht ere-n-an de Kraue. Ich fericht fascht m’r han ’s ganz Hüs rewellisch gemacht. Zum große Glück hawich sie finalement doch verwitscht. En plein hawich ich sie getroffe, un tot isch tot g’sin, un kapüt kapüt! 
(bei den Ietzten Worten ist die Magd in der Mitteltüre erschienen, voll Entsetzen hört sie die Ietzten Worte. Sie fängt an zu zittern und läßt das Plateau fallen, mit Caffe, Kaffee und Milchkanne)
.

      
",48,stoskopf-e-mordsaffar,261,22,0.3838115254236172,0.0842911877394636
49,comedy,Marie,F,domestic_worker,elementary_professions,middle_class,"
        
Marie:

        
Kapüt isch kapüt!

      
",49,stoskopf-e-mordsaffar,6,2,4.221926779659789,0.3333333333333333
50,comedy,Adolph Müller,M,accountant,intermediate_professionals,lower_middle_class,"
        
Müller :

        
(sich entsetzt umwendend)

        
Ei, d’r Schinder, was macht sie do schun wid’r, Sie verhejt uns jo noch alles G’schirr. 
(auf die Magd zu Daß Sie doch nie Acht gan kann! — Marie zitternd)
: Verschone Sie mi, Herr, ver- schone Sie mi !

      
",50,stoskopf-e-mordsaffar,57,5,0.7244483064208059,0.08771929824561403
51,comedy,Adolph Müller,M,accountant,intermediate_professionals,lower_middle_class,"
        
Müller:

        
Macht Sie kenn so dummi Plän, ich will Sie jo nit fresse, un paßt Sie mir e-n-anders Mol besser uff. 
(Es schlägt 8 Uhr, Müller schaut auf die Uhr
. Bon, jetzt kumm i au noch ze spoot uffs Bureau mit dere-n-Affär, un von Kaffeetrinke kann kenn Red meh sin. 
(Zu Marie)
 Hol Sie Kehrwisch un Bese, un fäj Sie mir d’Scherwe zamme. ’s isch nimm üszehalte mit dem Dienschtpersonal. Ieanne 
(aus dem Nebenzimmar)
: Männele, gäll's Marie hett wid’r ebs verhejt?

      
",51,stoskopf-e-mordsaffar,107,12,0.11202977392758597,0.11214953271028037
52,comedy,Adolph Müller,M,accountant,intermediate_professionals,lower_middle_class,"
        
Müller:

        
Ja, ’s Kaffeeservice.

      
",52,stoskopf-e-mordsaffar,7,1,0.0,0.14285714285714285
54,comedy,Adolph Müller,M,accountant,intermediate_professionals,lower_middle_class,"
        
Müller:

        
Nein, liebs Kind, blieb nur noch Ieje, dü hesch bös genue g’schloofe die Nacht wäje dere Fledermüs . ... Au revoir, Schätzele, ich mueß uffs Bureau gehn.

      
",54,stoskopf-e-mordsaffar,35,2,1.5741963482691586,0.05714285714285714
57,comedy,Marie,F,domestic_worker,elementary_professions,middle_class,"
        
Marie :

        
(mit Besen und Schaufel)

        
Schreckli, fchreckli, ich zit’r am ganze Körper.

      
",57,stoskopf-e-mordsaffar,18,3,1.1078255375639188,0.16666666666666666
58,comedy,Adolph Müller,M,accountant,intermediate_professionals,lower_middle_class,"
        
Müller:

        
(zuräck, nimmt die kleine Schachtel mit der Fledermaus)

        
’s Üsstopfe derfe m’r nit vergesse ! — 
(Zu Marie)
 Un paßt Sie mir e-n-anders Mol besser uff ! 
(ab)
.

      
",58,stoskopf-e-mordsaffar,40,4,0.0,0.1
59,comedy,Marie,F,domestic_worker,elementary_professions,middle_class,"
        
Marie:

        
Ja Herr! — 
(für sich)
 Gott sei Dank, daß’r furt isch. Daß au grad mir diß Unglück passiere mueß, in e Hüs ze kumme, wo e Mann sini Frau umbringt! O, wär ich nie gebore ! Schuster 
(den Kopf vorsichtig zur Mitteltüre herein steckend)
 : Er isch furt ! Er isch furt! 
(Marie dreht fisich ersechreckt um)
 Ich hab awer d’Bolizej preveniert ! Sie wurd bald kumme ! 
(reibt sich die Hände)
.

      
",59,stoskopf-e-mordsaffar,92,11,0.025463988930819234,0.11956521739130435
60,comedy,Marie,F,domestic_worker,elementary_professions,middle_class,"
        
Marie:

        
D’Bolizej?! — O, es grüst m’r ganz.

      
",60,stoskopf-e-mordsaffar,14,1,0.0,0.07142857142857142
61,comedy,Schuster,M,doorman,elementary_professions,lower_class,"
        
Schuster:

        
Hein? Mamsell Marie, han Sie ne recht betracht, wie verstört, daß’r üsg’sehn hett, wie bleich daß'r isch g'sin? Un wier verschrocke-n-isch, wie ich'm eine niewer g’stellt hab, un wie ich’m g'saat hab, daß’s besser isch, m’r hett e Dampf in d'r Fruehj als e schlechts Gewisse !

      
",61,stoskopf-e-mordsaffar,64,6,0.0,0.09375
62,comedy,Marie,F,domestic_worker,elementary_professions,middle_class,"
        
Marie:

        
Ja, er isch ganz zammeg’fahre !

      
",62,stoskopf-e-mordsaffar,9,2,0.0,0.2222222222222222
63,comedy,Schuster,M,doorman,elementary_professions,lower_class,"
        
Schuster:

        
Han Sie's au gemerikt, wie'r mim Blick üsgewiche-n-isch, wenn ich ne als angeluejt hab? 
(Marie nickt mit dem Kopf)
. Sehn Sie, Mamsell Marie, diß macht im e-n-ehrliche Mann Fraid, wenn’r im e Ver- brecher so recht in d'Aue Iueje kann, um sin Gewisse schlaaue ze mache. Marie 
(an der Türe links lauschend)
? Jesses, m’r sott fascht meine, m’r hört ebs!? — Jesses Maria!

      
",63,stoskopf-e-mordsaffar,91,12,0.1869820781923054,0.13186813186813187
64,comedy,Schuster,M,doorman,elementary_professions,lower_class,"
        
Schuster:

        
Sott se-n-am End noch nit ganz tot sin ? — die arm Frau, sie thät mich düre, wenn se liede mueßt. 
(Die Mitteltüre geht auf, Madame Schmidt, das Taschen- tuch in der Hand, tritt ein mit Katherin, der Frau des Pförtners)
; Do kummt die arm Mamme ! —

      
",64,stoskopf-e-mordsaffar,63,5,0.0,0.07936507936507936
65,comedy,Katherin,F,,,,"
        
Katherin:

        
Kumme se numme-n-rin, Madame Schmidt.

      
",65,stoskopf-e-mordsaffar,11,2,0.0,0.18181818181818182
66,comedy,Madame Schmidt,M,,,,"
        
Mme. Schmidt :

        
(trostlos mit dem Kopf hin und her)

        
O‚ ich armi unglicklichi Frau !

      
",66,stoskopf-e-mordsaffar,18,3,0.7036543667646069,0.16666666666666666
67,comedy,Schuster,M,doorman,elementary_professions,lower_class,"
        
Schuster:

        
Ich nemm Antheil, recht Antheil an ihrem große-n-Unglick.

      
",67,stoskopf-e-mordsaffar,14,2,0.0,0.14285714285714285
68,comedy,Madame Schmidt,M,,,,"
        
Mme. Schmidt:

        
O, ich armi, armi Mamme ! Ich kann’s als noch nit recht glauwe, isch’s denn au ganz sicher wohr?

      
",68,stoskopf-e-mordsaffar,28,8,0.0,0.2857142857142857
69,comedy,Schuster,M,doorman,elementary_professions,lower_class,"
        
Schuster:

        
Un ebs wohr isch?! — Diß wär noch schöner, wenn's nit wohr wär, ’s isch grieserlich g’sin — grieserlich ! Es hett hatt e so kumme muehn.

      
",69,stoskopf-e-mordsaffar,35,4,0.0,0.11428571428571428
70,comedy,Katherin,F,,,,"
        
Katherin:

        
Ja, es hett so kumme muehn!

      
",70,stoskopf-e-mordsaffar,10,2,0.0,0.2
72,comedy,Madame Schmidt,M,,,,"
        
Mme. Schmidt:

        
Ja, un worum sin se-s-ere denn nit ze Hilf kumme, wo sie so gekrische hett?

      
",72,stoskopf-e-mordsaffar,22,2,0.0,0.09090909090909091
73,comedy,Schuster,M,doorman,elementary_professions,lower_class,"
        
Schuster:

        
Ja, was soll ich do saue. Wenn einer sini Frau durichhaut, diß isch Privatsach, un in Privatsahe melier ich mich als Concierge par prineipe nit. Mme. Schmidt 
(geht nach der Türe Iinks)
 : Die arm Tochter, es grüst m’r ganz, in’s Schloofzimmer ze gehn 
(macht die Türe auf und tritt wieder zurück)
 Jeanne ! Jeanne !

      
",73,stoskopf-e-mordsaffar,70,5,0.0,0.07142857142857142
74,comedy,Jeanne Müller,F,,,,"
        
Jeanne:

        
Bisch dü's Mamme?

      
",74,stoskopf-e-mordsaffar,7,1,0.0,0.14285714285714285
75,comedy,Madame Schmidt,M,,,,"
        
Mme. Schmidt:

        
Ja, liebs Kind. 
(Aufathmend. Zu den anderen)
 : Sie lebt noch! Sie lebt noch! Schuster 
(enttäuscht)
 : Sie lebt noch ?!

      
",75,stoskopf-e-mordsaffar,34,3,0.6019999500750653,0.08823529411764706
76,comedy,Jeanne Müller,F,,,,"
        
Jeanne:

        
Ich kumm grad, Mamme.

      
",76,stoskopf-e-mordsaffar,8,3,0.0,0.375
78,comedy,Katherin,F,,,,"
        
Katherin:

        
Die mueß awer e zäh’s Lewe han.

      
",78,stoskopf-e-mordsaffar,11,1,0.0,0.09090909090909091
79,comedy,Jeanne Müller,F,,,,"
        
Jeanne:

        
(im Négligé auf die Mama zu und sie umarmend)

        
Guete Morje Mamme. (Sieht mit großer Verwunderung die anderen, welche ganz zusammengeknickt dastehen. Besorgt: Ja, was isch denn? Was han’r denn, daß’r mich alli so anlöuje?

      
",79,stoskopf-e-mordsaffar,48,8,0.3645732456273564,0.16666666666666666
80,comedy,Madame Schmidt,M,,,,"
        
Mme. Schmidt :

        
(die Arme ausbreitend)

        
Jeanne, mini Tochter, mini arm unglicklich Tochter!

      
",80,stoskopf-e-mordsaffar,18,4,0.0,0.2222222222222222
81,comedy,Jeanne Müller,F,,,,"
        
Jeanne:

        
Mamme, Mamme ! 
(fällt ihr weinend in die Arme)
 Ja, was isch denn, liewi Mamme? —

      
",81,stoskopf-e-mordsaffar,24,6,0.0,0.25
82,comedy,Madame Schmidt,M,,,,"
        
Mme. Schmidt:

        
Arms Kind, hawich dich wäje dem verhierothe muehn?

      
",82,stoskopf-e-mordsaffar,13,1,0.0,0.07692307692307693
83,comedy,Jeanne Müller,F,,,,"
        
Jeanne:

        
Ja, redd doch Mamme, gell mim Mann isch e-n-Unglick zueg’stoße ?

      
",83,stoskopf-e-mordsaffar,17,4,0.0,0.23529411764705882
84,comedy,Madame Schmidt,M,,,,"
        
Mme. Schmidt:

        
Wenn's nur diß wär !? — Ich versteh dich nit, wie kannsch dü dich nur so verstelle, wie wenn de vun nix wisse thätsch. Wie kannsch dü nur noch nooch dim Mann fröuje ? — So e Monstre, so e schlechter Mensch ! So e Galleefueder !

      
",84,stoskopf-e-mordsaffar,56,2,0.0,0.03571428571428571
85,comedy,Jeanne Müller,F,,,,"
        
Jeanne:

        
O, jetzt versteh ich Alles! Alles! N’est-ce pas, il me trompe? Er hintergeht mich?! Oh ich armi Frau! 
(umarmt abermals die Mutter)
. Müller 
(hastig zur Mitteltüre herein, sehr verwundert)
 : Ja, was isch denn do los? — Schuster, Katherin, Marie 
(entsetzt)
: Uh ! — do kummt’r wid’r ! — Mme, Schmidt 
(theatralisch ihre Tochter beschützend)
; Ah do kummt der süfer Patron!

      
",85,stoskopf-e-mordsaffar,90,8,0.2837719973321139,0.08888888888888889
86,comedy,Adolph Müller,M,accountant,intermediate_professionals,lower_middle_class,"
        
Müller:

        
Ja, zuem Gücksel, was isch denn do los? Was mache Sie denn mit minere Frau?

      
",86,stoskopf-e-mordsaffar,21,2,0.0,0.09523809523809523
87,comedy,Madame Schmidt,M,,,,"
        
Mme. Schmidt:

        
Ich b’schuetz mini Tochter, wie e Glück ihri Huehnle, wenn d'r Raubvöjel kummt.

      
",87,stoskopf-e-mordsaffar,19,2,0.0,0.10526315789473684
88,comedy,Adolph Müller,M,accountant,intermediate_professionals,lower_middle_class,"
        
Müller:

        
Ja zum Henker, isch denn hytt Alles verruckt? — Jeanne 
(weinerlich)
 : Brüchsch dich nit ze verstelle, ich weiß Alles ! Alles !

      
",88,stoskopf-e-mordsaffar,30,4,0.8355344134662545,0.13333333333333333
89,comedy,Adolph Müller,M,accountant,intermediate_professionals,lower_middle_class,"
        
Müller:

        
Alles weisch? Ja, was Alles?

      
",89,stoskopf-e-mordsaffar,10,1,0.0,0.1
90,comedy,Schuster,M,doorman,elementary_professions,lower_class,"
        
Schuster :

        
(für sich)

        
Der hett e toupet. 
(Zu Herrn Müller)
 : Ei, elle sait tout, sie weiß Alles!

      
",90,stoskopf-e-mordsaffar,27,1,0.0,0.037037037037037035
92,comedy,Jeanne Müller,F,,,,"
        
Jeanne:

        
Min Mamme hett m’r alles g’saat 
(weinend)
 Ja, diß hätt ich nie vun d’r geglaubt, daß dü dich mit andere-n-abgiebsch, un dini Frau so hintergehsch.

      
",92,stoskopf-e-mordsaffar,35,4,0.0,0.11428571428571428
93,comedy,Adolph Müller,M,accountant,intermediate_professionals,lower_middle_class,"
        
Müller :

        
(wüthend)

        
Na, jetzt saau ich au nix meh. Was hett dir dinni Mamme do g’saat? 
(Zu Madame Schmidt)
: Was traaue Sie do ihrer Tochter for Mähre zue, um Unfridde in unseri Hüshaltung ze bringe. Ich fröuj mich, worum daß d’Schöpfung d’Schwejer- muedre erschaffe hett ! — S'isch eini so viel werth wie d’ander. 
(Auf und ab.)

      
",93,stoskopf-e-mordsaffar,78,4,0.6292456374707041,0.05128205128205128
95,comedy,Madame Schmidt,M,,,,"
        
Mme. Schmidt:

        
Wenn d’Schwejermuedere nix werth sin, no sin awer Dochtermänner erscht recht nix nutz !

      
",95,stoskopf-e-mordsaffar,19,1,0.0,0.05263157894736842
96,comedy,Adolph Müller,M,accountant,intermediate_professionals,lower_middle_class,"
        
Müller:

        
Ja, in’s drei Deifels Namme, ze saaue Sie jetz doch emol, was Sie mit uns welle?

      
",96,stoskopf-e-mordsaffar,23,1,0.0,0.043478260869565216
97,comedy,Madame Schmidt,M,,,,"
        
Mme, Schmidt:

        
Was i will?! Mini Tochter wid’r zue m’r nemme.

      
",97,stoskopf-e-mordsaffar,16,1,0.0,0.0625
99,comedy,Adolph Müller,M,accountant,intermediate_professionals,lower_middle_class,"
        
Müller:

        
Ich glaub Ihne rappelt’s?

      
",99,stoskopf-e-mordsaffar,8,1,0.0,0.125
100,comedy,Madame Schmidt,M,,,,"
        
Mme. Schmidt:

        
Diß Ding kann nimm so furt- gehn, meine Sie denn, daß ich Ihne mini Tochter gän hab, for daß Sie se-n-alli Nacht durichhauwe wie e Tanzbär, so daß s’ganz Hüs rewellisch wurd.

      
",100,stoskopf-e-mordsaffar,44,5,0.0,0.11363636363636363
102,comedy,Schuster,M,doorman,elementary_professions,lower_class,"
        
Schuster :

        
(für sich)

        
Er Ieigelt, diß isch e sicherer Bewies.

      
",102,stoskopf-e-mordsaffar,15,2,0.0,0.13333333333333333
103,comedy,Jeanne Müller,F,,,,"
        
Jeanne:

        
Was saasch dü do, Mamme ? Miner Mann haut mich wie e Tanzbär? — Ja, wer bind denn dir so Bäre-n-an?

      
",103,stoskopf-e-mordsaffar,29,5,0.0,0.1724137931034483
104,comedy,Madame Schmidt,M,,,,"
        
Mme. Schmidt:

        
Verstell dich au noch, brüchsch au noch, zuem ze halte,

      
",104,stoskopf-e-mordsaffar,16,1,2.167237904164972,0.0625
107,comedy,Madame Schmidt,M,,,,"
        
Mme. Schmidt:

        
’s wurd am End nit wohr sin, daß dich diner Mann die Nacht am zwölfe g’haaue hett, un daß de e so gekrische hesch, daß m’r's im ganze Hüs g’hört hett, un daß d’Lytt gemeint han, s'isch Mord un Totschlaa, un daß m’r même d’Boli- zej preveniert hett.

      
",107,stoskopf-e-mordsaffar,63,5,0.0,0.07936507936507936
108,comedy,Schuster,M,doorman,elementary_professions,lower_class,"
        
Schuster:

        
Ja, sie kann alle-n-Auesblick kumme.

      
",108,stoskopf-e-mordsaffar,11,2,0.0,0.18181818181818182
109,comedy,Jeanne Müller,F,,,,"
        
Jeanne :

        
(freudig)

        
Mamme, diß isch gelöuje, ganz gewiß gelöuje ! 
(Müller lachend den Kopf schättelnd.)

      
",109,stoskopf-e-mordsaffar,23,5,0.0,0.21739130434782608
110,comedy,Madame Schmidt,M,,,,"
        
Mme. Schmidt:

        
Was gelöuje? D’Noochberslytt han dich um Hilf ruefe höre, sie han’s au ganz dittli g’hört, wie finalement diner Mann g’saat hett: So jetzt hesch for’s Murre ! —

      
",110,stoskopf-e-mordsaffar,38,3,0.0,0.07894736842105263
112,comedy,Adolph Müller,M,accountant,intermediate_professionals,lower_middle_class,"
        
Müller :

        
(lachend)

        
Aha! — Wittersch im Text !

      
",112,stoskopf-e-mordsaffar,12,1,0.0,0.08333333333333333
113,comedy,Madame Schmidt,M,,,,"
        
Mme. Schmidt:

        
D’ganz Stadt isch jo rewellisch, iwwerall heißt's, daß dich diner Mann totg’schlaaue hett.

      
",113,stoskopf-e-mordsaffar,21,2,0.0,0.09523809523809523
114,comedy,Jeanne Müller,F,,,,"
        
Jeanne:

        
Ja Mamme, wäje dem bisch kumme? — S'isch nit g’sin for mir ze saaue, daß mich miner Mann hintergeht? —

      
",114,stoskopf-e-mordsaffar,27,5,0.0,0.18518518518518517
115,comedy,Madame Schmidt,M,,,,"
        
Mme. Schmidt:

        
Von dem weiß i nix, ich bin nur kumme, um d'rgeje ze protestire, daß’r dich alli Nacht verhaut ! 
(Jeanne und Müller brechen in lautes Lachen aus.)
 Ja, was lache-n-r denn jetzt so dumm? — 
(Jeanne und ihr Mann lachen aufs neue)
 Diß soll jetzt nix sin ! —

      
",115,stoskopf-e-mordsaffar,65,8,0.0,0.12307692307692308
116,comedy,Schuster,M,doorman,elementary_professions,lower_class,"
        
Schuster:

        
D’r V’rstand steht m’r still ! 
(Katherin und Marie schütteln den Kopf.)

      
",116,stoskopf-e-mordsaffar,17,2,1.0534999126313644,0.11764705882352941
117,comedy,Madame Schmidt,M,,,,"
        
Mme. Schmidt:

        
Ja, was han'r denn ?

      
",117,stoskopf-e-mordsaffar,9,1,0.0,0.1111111111111111
118,comedy,Jeanne Müller,F,,,,"
        
Jeanne:

        
Ei liewi Mamme, diß isch e großes Mißverständnis.

      
",118,stoskopf-e-mordsaffar,12,3,0.3562808722178405,0.25
119,comedy,Adolph Müller,M,accountant,intermediate_professionals,lower_middle_class,"
        
Müller:

        
Es handelt sich uff jede Fall um nix als um e Fledermüs, wie in unser Schloofzimmer g'flöuje-n-isch, un wie ich alli Muehj hab g’hett for ze fange?

      
",119,stoskopf-e-mordsaffar,34,4,0.0,0.11764705882352941
120,comedy,Madame Schmidt,M,,,,"
        
Mme. Schmidt:

        
Ja un diß Gekrisch ?

      
",120,stoskopf-e-mordsaffar,8,1,0.0,0.125
121,comedy,Adolph Müller,M,accountant,intermediate_professionals,lower_middle_class,"
        
Müller:

        
C’est bien simple, jedes Mol, wie d’Fledermüs iwer’s Bett g’flöuje-n-isch, hett’s Jeanne e Gäll üsgelon — S’nettscht isch, daß ich wäje dere G'schicht üs’m Bureau heimkumme bin, au dort ver- zähle se schun, daß in unserer Stroß e Mann sini Frau un sini Kinder umgebrocht hett.

      
",121,stoskopf-e-mordsaffar,63,3,0.0,0.047619047619047616
122,comedy,Jeanne Müller,F,,,,"
        
Jeanne :

        
Do isch üs der Fledermüs e-n-Elephant gemacht worre. Adolph, liewer Adolph, gell dü ver- zejsch m’r, daß i numme-e-n-Auesblick an d’r zwiefle hab könne ?!

      
",122,stoskopf-e-mordsaffar,37,2,0.0,0.05405405405405406
123,comedy,Adolph Müller,M,accountant,intermediate_professionals,lower_middle_class,"
        
Müller:

        
D’Hauptsach isch, daß Alles nit wohr isch un nie wohr wäre wurd. 
(Sie umarmen sich.)

      
",123,stoskopf-e-mordsaffar,23,2,0.0,0.08695652173913043
124,comedy,Katherin,F,,,,"
        
Katherin:

        
Diß isch e dummer Stoß.

      
",124,stoskopf-e-mordsaffar,8,1,0.0,0.125
125,comedy,Schuster,M,doorman,elementary_professions,lower_class,"
        
Schuster:

        
S’isch doch ambetant, wenn doch numme wenigstens e bissl ebs an d’r Sach wär g'sin. Hoffent- lich kummt’s noch, ganz süfer schient’r m’r doch nit ze sin.

      
",125,stoskopf-e-mordsaffar,36,2,0.0,0.05555555555555555
126,comedy,Madame Schmidt,M,,,,"
        
Mme. Schmidt:

        
Mon gendre, verzejhe Sie, s’isch jo nit mini Schuld, umarmt Müller).

      
",126,stoskopf-e-mordsaffar,20,2,0.0,0.1
127,comedy,Adolph Müller,M,accountant,intermediate_professionals,lower_middle_class,"
        
Müller:

        
Ich nemm gern zeruck, was i iwer d’Schwejermuedre g’saat hab, d’Schwejermuedre solle Iewe !

      
",127,stoskopf-e-mordsaffar,20,1,0.0,0.05
128,comedy,Madame Schmidt,M,,,,"
        
Mme. Schmidt:

        
Un d’Dochtermänner d'rnewe ! 
(Zwei Polizisten treten herein)
.

      
",128,stoskopf-e-mordsaffar,16,2,0.0,0.125
130,comedy,Schuster,M,doorman,elementary_professions,lower_class,"
        
Schuster:

        
Ihr liewi Herre vun d'r Bolizej, ihr muehn excusiere, ihr kumme awer, wie allewyl, ze spoot.
Der Vorhang fällt.

      
",130,stoskopf-e-mordsaffar,27,5,0.26887145742620633,0.18518518518518517
