Unnamed: 0,drama_type,speaker,sex,job,job_category,social_class,text,progress,short_name,numTokens,numLexTokens,avgLexVal,lexRatio
0,comedy,Dominik,M,inn_attendant,service_and_sales,lower_class,"
          
Dominik:

          
(allein, sitzt auf dem Kanapee)

          
Schlächti Zitte, schlächti Gschäfter. Kenn Trinkgälder. Schun de ganz Döj wart ich uff Gäscht, wie
          d'r Teijfel uff-e-n-armi Seel. Andli hitt owe hett d'r Facteur e Depesch gebrocht 
          
(nimmt die Depesche aus der Westentasche, liest)
 «Ersuche um ein ruhiges Zimmer nach
          hinten heraus». Diss känne m'r, wenn diss Zimmer bstellt wurd, nach hinten heräus, no sinn's als
          Hochzittspäärle, die welle nit gstört sinn, drum welle sie nach hinten heräus, 
          
(pfiffig)
 Do gitt's Trinkgelder, by de Hochzittspäärle, m'r muess's numme v'rstehn, un
          ich v'rsteh mich druff, uffs Trinkgeld nämme, wie kenn zwäiter. Bie de Hochzittspäärle mach ich mir
          alle gälte ebs im Zimmer ze schaffe, no gitt's Trinkgäld, ass ich widder nüss geh, denn sie welle
          alläin sinn — hehehe — ich wäiss worum. Ich gickel als durch's Schlüsselloch. 
          
(schlägt sich vor Vergnügen auf's Knie)
 D'Poschtkütch wurd jetz glich kumme, do wäre sie
          drinne sinn 
          
(steht auf, besieht das Zimmer)
 Alles in schöenschter Ordnung. Blüeme uff'em Tisch, diss
          macht e gueter Indruck, do gitt's Trinkgälder. Jetz will ich noch niwwer un zäll Zimmer abschliesse 
          
(geht nach links ab).

        
",0,kettner-uff-dr-hochzittsreis,240,22,0.35501922425808813,0.09166666666666666
2,comedy,Jülie,F,,,,"
          
Julie:

          
(trägt den Handkoffer und die Schirme)

          
Endlich allein.

        
",1,kettner-uff-dr-hochzittsreis,13,3,0.0,0.23076923076923078
3,comedy,Felix Kächele,M,master_hairdresser,crafts,upper_middle_class,"
          
Felix:

          
(nachspottend)

          
Endlich allein, endlich allein! Wenn ich nurre emol endlich allein wär. Wenn mr sich uff eijch
          Wibslitt vrlosst, no isch me vrlonn. Ich hab d'r noch extra gsaat, dü sollsch im Güschtäffel jo saue,
          er soll d'r Kinjelestall bschliesse — awer vrgässe — Un wär! Minni Frau — Un die Moor het au noch
          Jungi.

        
",1,kettner-uff-dr-hochzittsreis,69,10,0.0,0.14492753623188406
5,comedy,Felix Kächele,M,master_hairdresser,crafts,upper_middle_class,"
          
Felix:

          
Dran dänke? Hättsch dü dran gedänkt. O Wiewer wenn ihr halt alt wäre. 
          
(Zieht den Frack aus, Hut ab).

        
",2,kettner-uff-dr-hochzittsreis,28,1,0.0,0.03571428571428571
6,comedy,Jülie,F,,,,"
          
Jülie:

          
(setzt sich auf Kanapee, sie hat in der Zeit Hut und Mantel ausgezogen und an den Kleiderhaken
          gehängt)

          

          
Jo, natirli jetz wur ich alt. 
          
(weinend)
 Ich hätt mir unsere silwerne Hochzittsdaa doch schöner vorgstellt. —
          D'Kinjelemoor isch-em hitt liewer ass d'Frau.

        
",3,kettner-uff-dr-hochzittsreis,54,4,0.0,0.07407407407407407
7,comedy,Felix Kächele,M,master_hairdresser,crafts,upper_middle_class,"
          
Felix:

          
(stülpt die Hemdärmel auf)

          
Do isch frisch Wasser, do wello m'r glich emol e Bad nämme — — ah, isch diss e Genuss. 
          
(Wäscht die Hände).

        
",3,kettner-uff-dr-hochzittsreis,36,1,0.0,0.027777777777777776
8,comedy,Jülie,F,,,,"
          
Jülie:

          
Kenn guet Wort hett-r mr hitt noch gänn — dr Kinjelestall isch d'Hauptsach. Diss isch dr Dank ass
          ich dr zeh Kinder uffgezöje hab.

        
",4,kettner-uff-dr-hochzittsreis,29,5,0.0,0.1724137931034483
9,comedy,Felix Kächele,M,master_hairdresser,crafts,upper_middle_class,"
          
Felix:

          
(wieder gut)

          
Jo, jo Alti!!, jetz sej stille, .. hiel nitt Mamme s'isch nitt so böes gemeint, ich bin jetz emol
          eso: — — 
          
(brüllt)
 Ich bin jo widder guet, verdeckel noch emol! 
          
(Trocknet die Hände ab).

        
",4,kettner-uff-dr-hochzittsreis,56,5,0.6002837486175725,0.08928571428571429
10,comedy,Jülie,F,,,,"
          
Jülie:

          
Dü wursch halt nitt andersch ... Felix!

        
",5,kettner-uff-dr-hochzittsreis,10,1,0.0,0.1
11,comedy,Felix Kächele,M,master_hairdresser,crafts,upper_middle_class,"
          
Felix:

          
(zärtlich)

          
Was denn Schülli?

        
",5,kettner-uff-dr-hochzittsreis,9,1,0.0,0.1111111111111111
13,comedy,Felix Kächele,M,master_hairdresser,crafts,upper_middle_class,"
          
Felix:

          
Kenn Ahnung — an de Kinjelestall?

        
",6,kettner-uff-dr-hochzittsreis,9,1,0.0,0.1111111111111111
14,comedy,Jülie,F,,,,"
          
Jülie:

          
(weich)

          
Loss doch jetz de Kinjelestall. ..... Höer, wie mr hitt vor 25 Johr als frischgebaches
          Hochzittspärel do im «Kalte Jäger» unser erscht Logie genumme hann, hesch mich do in dem Zimmer in
          d'Aerm genumme, hesch mr e Schmutz gänn un wäiseh noch wie gsaat hesch? ..... Mini liewi, goldichi,
          einzichi Schülli». — Un hitt? — Hitt wäscht er d'Händ.

        
",7,kettner-uff-dr-hochzittsreis,79,7,0.2683458580921631,0.08860759493670886
15,comedy,Felix Kächele,M,master_hairdresser,crafts,upper_middle_class,"
          
Felix:

          
Do haw ich jetz gar nitt dran gedänkt, ass mr hitt uff dr Hochzittsreiss sinn, mit dere Moor do. —
          Na kumm here Mamme. 
          
(Zieht sie an sich und küsst sie)
 Mini liewi gueti alti Schülli. 
          
(Sie sitzen auf dem Kanapee).

        
",7,kettner-uff-dr-hochzittsreis,53,7,0.0,0.1320754716981132
16,comedy,Dominik,M,inn_attendant,service_and_sales,lower_class,"
          
Dominik:

          
(kommt d. d. Mitte)

          
Pardon, ich hab nitt gewüsst, ass die Herrschafte schun do sinn.

        
",8,kettner-uff-dr-hochzittsreis,22,1,0.0,0.045454545454545456
17,comedy,Felix Kächele,M,master_hairdresser,crafts,upper_middle_class,"
          
Felix:

          
Oh diss macht nix, nurre erin. Eins vun de Rösser vun dr Poscht isch gfalle un no sinn m'r zue Fues
          here gewalzt. Mir sinn nämlich hie bekannt.

        
",8,kettner-uff-dr-hochzittsreis,34,4,0.0,0.11764705882352941
18,comedy,Dominik,M,inn_attendant,service_and_sales,lower_class,"
          
Dominik:

          
(für sich)

          
Diss isch doch kenn Hochzittspäärel die zwei Alte.- 
          
(Laut)
 Ah die Herrschafte sinn schun emol do gsinn?

        
",9,kettner-uff-dr-hochzittsreis,28,3,0.0,0.10714285714285714
19,comedy,Felix Kächele,M,master_hairdresser,crafts,upper_middle_class,"
          
Felix:

          
Jaja. 
          
(Singt)
 Lang, lang ist's her, ... 
          
(Küsst Jülie).

        
",9,kettner-uff-dr-hochzittsreis,20,2,0.0,0.1
20,comedy,Dominik,M,inn_attendant,service_and_sales,lower_class,"
          
Dominik:

          
(für sich)

          
Diss isch e-n-alter Schmüser. 
          
(laut)
 Alle no bhalte sie diss Zimmer. 
          
(Hält ihm den Notizblock hin)
 Wann's beliebt, schriewe Sie sich do in.

        
",10,kettner-uff-dr-hochzittsreis,40,5,0.8954971381797149,0.125
21,comedy,Felix Kächele,M,master_hairdresser,crafts,upper_middle_class,"
          
Felix:

          
(schreibt)

          
«Felix Kächele, Friseurmeister aus Strasbourg mit sinere Alte».

        
",10,kettner-uff-dr-hochzittsreis,17,1,0.0,0.058823529411764705
23,comedy,Felix Kächele,M,master_hairdresser,crafts,upper_middle_class,"
          
Felix:

          
(lachend)

          
Na schriewe mr: «mit sinere liewe Frau» ... Da... 
          
(Gibt Dominik den Block).

        
",11,kettner-uff-dr-hochzittsreis,25,2,0.0,0.08
24,comedy,Dominik,M,inn_attendant,service_and_sales,lower_class,"
          
Dominik:

          
(sehr höflich die Hand hinhaltend)

          
Merci Monsieur Kächele.

        
",12,kettner-uff-dr-hochzittsreis,13,1,2.3876560099302107,0.07692307692307693
25,comedy,Felix Kächele,M,master_hairdresser,crafts,upper_middle_class,"
          
Felix:

          
(die Hand drückend)

          
S'isch gern gschähne, — awer ich hab jetz e Durscht vun dem schriewe. Bringe emol e Flasch Win, awer
          ebs wie lüpft, — hann-er Türkemer Brand?

        
",12,kettner-uff-dr-hochzittsreis,39,5,1.097681060949332,0.1282051282051282
26,comedy,Dominik,M,inn_attendant,service_and_sales,lower_class,"
          
Dominik:

          
«Dr kalt Jäger» hett alles.

        
",13,kettner-uff-dr-hochzittsreis,10,2,0.0,0.2
27,comedy,Felix Kächele,M,master_hairdresser,crafts,upper_middle_class,"
          
Felix:

          
Na zo bringe glich zwei Flasche. Hitt kummts nitt druff an, hitt solls ebbs koschte, gäll Mamme?

        
",13,kettner-uff-dr-hochzittsreis,23,1,0.0,0.043478260869565216
28,comedy,Dominik,M,inn_attendant,service_and_sales,lower_class,"
          
Dominik:

          
(anzüglich)

          
C'est ça, im kalte Jäger wäre nr guet bsorit, wande ejch nurre an mich. Hann-er schun gsahne,
          frischi Blueme haw ich in s'Zimmet gstellt, diss isch natt, galle? 
          
(Fält die Hand hin).

        
",14,kettner-uff-dr-hochzittsreis,48,7,0.2601768931060485,0.14583333333333334
29,comedy,Felix Kächele,M,master_hairdresser,crafts,upper_middle_class,"
          
Felix:

          
(drückt die Hand)

          
Merci, ... äh, wie häisse nr denn?

        
",14,kettner-uff-dr-hochzittsreis,17,1,0.0,0.058823529411764705
30,comedy,Dominik,M,inn_attendant,service_and_sales,lower_class,"
          
Dominik:

          
Dominik häiss i. 
          
(abgekend, Mitte)
 Der isch awer zah.

        
",15,kettner-uff-dr-hochzittsreis,15,1,0.0,0.06666666666666667
31,comedy,Felix Kächele,M,master_hairdresser,crafts,upper_middle_class,"
          
Felix:

          
(sich umsehend)

          
Weisch dü Mamme, die Stubb isch noch ganz genau wie vor 25 Johr. Noch d'nämlich Dapet, noch
          d'nämliche Bilder an de Wänd, nix hett sich verändert in dere Zitt, .... nurre mir.

        
",15,kettner-uff-dr-hochzittsreis,46,4,0.0,0.08695652173913043
33,comedy,Felix Kächele,M,master_hairdresser,crafts,upper_middle_class,"
          
Felix:

          
Schülli, was bisch dü doch vor 25 Johr e herzichs Mäidele gsinn, rotbackig, e goldichblunder
          Lockekopf un hitt — e-n-alti Pflutt.

        
",16,kettner-uff-dr-hochzittsreis,29,1,0.0,0.034482758620689655
34,comedy,Jülie,F,,,,"
          
Jülie:

          
Psst, Alterle, bild dir jo nitt in, ass dü zitter schöener bisch worre, zällemols e nätter Barickes
          mit-eme Strüwelkopf un jetz e nätter Bluttkopf.

        
",17,kettner-uff-dr-hochzittsreis,31,3,0.0,0.0967741935483871
35,comedy,Felix Kächele,M,master_hairdresser,crafts,upper_middle_class,"
          
Felix:

          
Poh, wenn i au e paar Hoor verlore hab, ze bin ich doch noch e ganz nätter Mann un näm's mit-eme
          jede Junge uff im trinke.

        
",17,kettner-uff-dr-hochzittsreis,32,7,0.0,0.21875
36,comedy,Jülie,F,,,,"
          
Jülie:

          
Diss bringsch noch ferti. Awer jetz rot emol was ich do hab. 
          
(Nimmt ein Päckchen aus der Handtasche).

        
",18,kettner-uff-dr-hochzittsreis,25,1,0.0,0.04
38,comedy,Jülie,F,,,,"
          
Jülie:

          
Oh dü, ... nein din Strissel als Hochzitter, diss müen mir doch trawe hitt. 
          
(Steckt es ihm an).

        
",19,kettner-uff-dr-hochzittsreis,26,1,0.0,0.038461538461538464
39,comedy,Felix Kächele,M,master_hairdresser,crafts,upper_middle_class,"
          
Felix:

          
Merci Mamme. 
          
(Steckt es ihr auch an)
 Dü denksch halt an alles, — 
          
(wütend)
 nur an de Kinjelestall hesch nitt gedänkt.

        
",19,kettner-uff-dr-hochzittsreis,30,3,0.0,0.1
40,comedy,Jülie,F,,,,"
          
Jülie:

          
Felix, wenn de jetz nitt stille bisch ...

        
",20,kettner-uff-dr-hochzittsreis,11,1,0.0,0.09090909090909091
41,comedy,Felix Kächele,M,master_hairdresser,crafts,upper_middle_class,"
          
Felix:

          
D'Moor hett doch Jungi, wenn se verrecke un no?

        
",20,kettner-uff-dr-hochzittsreis,14,2,0.0,0.14285714285714285
42,comedy,Jülie,F,,,,"
          
Jülie:

          
(ernst)

          
Stille sollsch sinn, sunsch geh ich heim zue mine Kinder. 
          
(weinend)
 Eim so de Hochzittsdaa ze verderwe. 
          
(Geht ans Kanapee).

        
",21,kettner-uff-dr-hochzittsreis,33,5,0.0,0.15151515151515152
43,comedy,Felix Kächele,M,master_hairdresser,crafts,upper_middle_class,"
          
Felix:

          
(tröstend)

          
Verstehsch denn kenn Gspass. Sej zefridde. 
          
(Küsst sie)
 Bisch doch mini lieb, guet, alt Schülli. 
          
(Es klopft).

        
",21,kettner-uff-dr-hochzittsreis,32,4,0.0,0.125
44,comedy,Dominik,M,inn_attendant,service_and_sales,lower_class,"
          
Dominik:

          
(kommt herein)

          
Sott diss am And doch e Hochzitspärel sinn? .... Exküsiere ihr Herrschafte, ich hab geklopft awer es
          hett nieme «Entrez» gsäit. Do bring i dr Win. 
          
(Öffnet die Flaschen und stellt sie auf den Tisch, für sich)
 Die selle nitt schmüse die
          zwei alte Drachheetle, hoffentli wichst er jetz ebs erüss. 
          
(Laut)
 Do isch ingschankt, lonns ejch gschmecke. 
          
(hält die Hand hin).

        
",22,kettner-uff-dr-hochzittsreis,86,5,0.8954971381797149,0.05813953488372093
45,comedy,Felix Kächele,M,master_hairdresser,crafts,upper_middle_class,"
          
Felix:

          
(die Hand drückend)

          
Merci, .. wie heisse nr?

        
",22,kettner-uff-dr-hochzittsreis,14,1,0.0,0.07142857142857142
47,comedy,Felix Kächele,M,master_hairdresser,crafts,upper_middle_class,"
          
Felix:

          
(lachend)

          
Aba, ich hab nix dergeje, ich kann nurre dene dauwe Name niit b'halte.

        
",23,kettner-uff-dr-hochzittsreis,21,1,0.0,0.047619047619047616
48,comedy,Dominik,M,inn_attendant,service_and_sales,lower_class,"
          
Dominik:

          
(bissig)

          
Isch Dominik e dauwer Name? Nitt ass ihr e dauwere hann, Ihr sahn grad so üss. 
          
(Abgehend)
 Gitzkräuje !

        
",24,kettner-uff-dr-hochzittsreis,29,2,1.0956390602458095,0.06896551724137931
49,comedy,Felix Kächele,M,master_hairdresser,crafts,upper_middle_class,"
          
Felix:

          
(lachend)

          
Hahaha, der isch schun uffgepumpt. Un e Durscht haw ich. 
          
(Geht an den Tisch trinkt sein Glas schnell leer, schenkt sich wieder ein, nimmt die Gläser und
          geht ans Kanapee)
 Gsundheit silwerichi Hochzittere! 
          
(Sie trinken).

        
",24,kettner-uff-dr-hochzittsreis,51,6,0.0,0.11764705882352941
50,comedy,Jülie,F,,,,"
          
Jülie:

          
Weisch noch Felix wie mir hitt vor 25 Johr do gsässe sinn, am nämliche Platz, no hesch de Arm um
          mich gelajt un hesch gsunge: ...

        
",25,kettner-uff-dr-hochzittsreis,31,1,0.0,0.03225806451612903
51,comedy,Felix Kächele,M,master_hairdresser,crafts,upper_middle_class,"
          
Felix:

          
(singt)

          
«Du bischt mein Glück mein Augenstern, dü bischt so schön, ich hab dich gern»!

        
",25,kettner-uff-dr-hochzittsreis,24,5,0.0,0.20833333333333334
52,comedy,Jülie,F,,,,"
          
Jülie:

          
Un grad in dem Moment hett's Oweglöchel uffem Kapellele anfange litte, ..... diss isch so ernscht,
          so feierlich gsinn.

        
",26,kettner-uff-dr-hochzittsreis,25,4,0.0,0.16
53,comedy,Felix Kächele,M,master_hairdresser,crafts,upper_middle_class,"
          
Felix:

          
(ganz gerührt)

          
So feierlich — e schöner Momant isch's gsinn, gell Mammele? 
          
(Pause)
 Wenn nur de Lüsangel de Kinjelestall .... !

        
",26,kettner-uff-dr-hochzittsreis,30,4,0.0,0.13333333333333333
54,comedy,Jülie,F,,,,"
          
Jülie:

          
(hält ihm den Mund zu)

          
Felix! 
          
(Es klopft)
 Entrez !

        
",27,kettner-uff-dr-hochzittsreis,17,1,2.656247439156235,0.058823529411764705
55,comedy,Dominik,M,inn_attendant,service_and_sales,lower_class,"
          
Dominik:

          
(für sich)

          
Ich mues alle bezitte erin kumme. 
          
(laut)
 Do haw ich dr Bougie. 
          
(Geht ins Schlafzimmer links).

        
",27,kettner-uff-dr-hochzittsreis,29,2,0.0,0.06896551724137931
56,comedy,Jülie,F,,,,"
          
Jülie:

          
Un weisch noch wie no dr Hüssknächt isch kumme un hett gfröjt: «Wenn welle die Herrschaft geweckt
          sinn»? Weisch noch was de gsaat hesch? 
          
(Stösst ihn schelmisch an).

        
",28,kettner-uff-dr-hochzittsreis,38,2,0.0,0.05263157894736842
57,comedy,Felix Kächele,M,master_hairdresser,crafts,upper_middle_class,"
          
Felix:

          
(lacht)

          
Ich hab gsaat: «Zuem Zmiddaesse». 
          
(lachen).

        
",28,kettner-uff-dr-hochzittsreis,18,2,0.0,0.1111111111111111
58,comedy,Dominik,M,inn_attendant,service_and_sales,lower_class,"
          
Dominik:

          
(zurückommend)

          
Wann welle die Herrschafte morje frühj geweckt sinn?

        
",29,kettner-uff-dr-hochzittsreis,14,2,0.0,0.14285714285714285
59,comedy,Felix Kächele,M,master_hairdresser,crafts,upper_middle_class,"
          
Felix:

          
(lustig)

          
Am fünfe, gell Frau?

        
",29,kettner-uff-dr-hochzittsreis,11,1,0.0,0.09090909090909091
60,comedy,Dominik,M,inn_attendant,service_and_sales,lower_class,"
          
Dominik:

          
E guet's Bett hann'r, ächti Sprungfederematraz, 
          
(hält die Hand hin).

        
",30,kettner-uff-dr-hochzittsreis,18,4,1.1193714227246436,0.2222222222222222
61,comedy,Felix Kächele,M,master_hairdresser,crafts,upper_middle_class,"
          
Felix:

          
(drückt dieselbe)

          
Mir brüche kenn Sprungfedermatraz mir schlofe doch guet.

        
",30,kettner-uff-dr-hochzittsreis,15,1,0.0,0.06666666666666667
62,comedy,Dominik,M,inn_attendant,service_and_sales,lower_class,"
          
Dominik:

          
(abgehend, für sich)

          
Widder nix, dü kannsch mir am fünfe de Buckel nuff rutsche, Gitskräuje.

        
",31,kettner-uff-dr-hochzittsreis,23,1,0.0,0.043478260869565216
63,comedy,Felix Kächele,M,master_hairdresser,crafts,upper_middle_class,"
          
Felix:

          
Jaja Mamme, morje fruej am fünfe geht's rüss un no gehn mr nuff uff d'Burig un lueje wie d'Sunn
          uffgeht.

        
",31,kettner-uff-dr-hochzittsreis,27,4,0.0,0.14814814814814814
64,comedy,Jülie,F,,,,"
          
Jülie:

          
(schelmisch)

          
Vor 25 Johr hesch gar nitt welle lueje wie d'Sunn uffgeht.

        
",32,kettner-uff-dr-hochzittsreis,18,1,0.0,0.05555555555555555
65,comedy,Felix Kächele,M,master_hairdresser,crafts,upper_middle_class,"
          
Felix:

          
Ja zällemols un hitt. 
          
(Nimmt eine Prise)
 Witt au einer?

        
",32,kettner-uff-dr-hochzittsreis,16,2,0.0,0.125
66,comedy,Jülie,F,,,,"
          
Jülie:

          
(nimmt auch eine Prise)

          
Dini Schupfdüwacksbüchs hesch mit müen näme, die muesch halt hann.

        
",33,kettner-uff-dr-hochzittsreis,20,2,0.0,0.1
67,comedy,Felix Kächele,M,master_hairdresser,crafts,upper_middle_class,"
          
Felix:

          
Weisch Mamme, sigsch ich hab in mim Läwe nurre zwei Liebschti kett, dich un mini
          Schnupftüwacksbüchs, dene zwei bin ich nie untrej worre. — Kumm jetz gehn mr noch e bissel in de Garte,
          wottsch ?

        
",33,kettner-uff-dr-hochzittsreis,43,6,0.7546848126582905,0.13953488372093023
68,comedy,Jülie,F,,,,"
          
Jülie:

          
Erscht noch, es isch so e schöner Owe.

        
",34,kettner-uff-dr-hochzittsreis,12,1,0.0,0.08333333333333333
69,comedy,Felix Kächele,M,master_hairdresser,crafts,upper_middle_class,"
          
Felix:

          
(zieht sich an)

          
Kumm Manne. 
          
(Nimmt sie am Arm, geht mit ihr Mitte ab, singt).

        
",34,kettner-uff-dr-hochzittsreis,25,2,0.0,0.08
70,comedy,Alfons Lieblich,M,writer,professionals_scientific_technical,lower_middle_class,"
          
Alfons:

          
(stolpert an der Tür, zärtlich).

          
Gib acht Emma, dass de nitt fallsch. 
          
(Emma kommt herein, Mitte Bühne umarmt er sie)
 Endlich allein! Min süsses Herzele!

        
",35,kettner-uff-dr-hochzittsreis,38,3,0.0,0.07894736842105263
71,comedy,Emma,F,,,,"
          
Emma:

          
Min liewer Alphons! 
          
(Macht sich los und weint)
 Was wurd mini Mamme mache?

        
",35,kettner-uff-dr-hochzittsreis,19,4,0.0,0.21052631578947367
73,comedy,Emma,F,,,,"
          
Emma:

          
(sitzt aufs Kanapee)

          
Oh ich bekumm schun widder mini nervöse Kopfschmerze.

        
",36,kettner-uff-dr-hochzittsreis,16,2,0.0,0.125
74,comedy,Alfons Lieblich,M,writer,professionals_scientific_technical,lower_middle_class,"
          
Alfons:

          
(ängstlich)

          
Ums Gottswille, wo hab denn ich mine Migränstift? 
          
(sucht in allen Taschen)
 Do isch'r. Da Liewele, rich dran.

        
",37,kettner-uff-dr-hochzittsreis,30,2,0.0,0.06666666666666667
75,comedy,Emma,F,,,,"
          
Emma:

          
(richt)

          
Aah, diss kühlt.

        
",37,kettner-uff-dr-hochzittsreis,10,1,0.0,0.1
77,comedy,Emma,F,,,,"
          
Emma:

          
(selig)

          
Ja. — 
          
(Will die Handschuhe ausziehen).

        
",38,kettner-uff-dr-hochzittsreis,15,2,0.0,0.13333333333333333
78,comedy,Alfons Lieblich,M,writer,professionals_scientific_technical,lower_middle_class,"
          
Alfons:

          
Wart Schätzel ich hilf dir — so. 
          
(küsst die Hand)
 Un jetz kummts ander Batschhandele. 
          
(Zieht ihr die Handschuhe vorsichtig aus)
 Soo.

        
",39,kettner-uff-dr-hochzittsreis,31,2,0.0,0.06451612903225806
79,comedy,Emma,F,,,,"
          
Emma:

          
Wie guet dü bisch min goldicher Alfons.

        
",39,kettner-uff-dr-hochzittsreis,10,1,0.0,0.1
80,comedy,Alfons Lieblich,M,writer,professionals_scientific_technical,lower_middle_class,"
          
Alfons:

          
(selig)

          
Noch besser bin ich. Soll ich dir au dr Huet abnämme? 
          
(tut es)
 Soo.

        
",40,kettner-uff-dr-hochzittsreis,24,2,0.0,0.08333333333333333
81,comedy,Emma,F,,,,"
          
Emma:

          
Wie gschickt dü diss fertich bringsch — gell dü hesch's bie-re andere au schun gemacht?

        
",40,kettner-uff-dr-hochzittsreis,19,2,0.0,0.10526315789473684
83,comedy,Emma,F,,,,"
          
Emma:

          
(erschrocken)

          
Was hesch Alfons?

        
",41,kettner-uff-dr-hochzittsreis,9,1,0.0,0.1111111111111111
85,comedy,Emma,F,,,,"
          
Emma:

          
Wie denn, .. do? Armer Alfons. 
          
(streichelt die Hand),
 Heile, heile Säje ....

        
",42,kettner-uff-dr-hochzittsreis,22,3,0.0,0.13636363636363635
86,comedy,Alfons Lieblich,M,writer,professionals_scientific_technical,lower_middle_class,"
          
Alfons:

          
Oh wie guet diss macht! — Emma derf ich dir jetz dr erschte Schmutz gänn? 
          
(Setzt klopft, sie hören es nicht).

        
",43,kettner-uff-dr-hochzittsreis,29,4,0.0,0.13793103448275862
90,comedy,Alfons Lieblich,M,writer,professionals_scientific_technical,lower_middle_class,"
          
Alfons:

          
(steht erschrocken auf)

          
S'Bleiwiss isch mr nab gfalle.

        
",45,kettner-uff-dr-hochzittsreis,14,2,0.0,0.14285714285714285
91,comedy,Dominik,M,inn_attendant,service_and_sales,lower_class,"
          
Dominik:

          
Ja, .. diss sinn jo zwei anderi. 
          
(zu Alfons)
 Höere, sinn d'andere nimmi do?

        
",45,kettner-uff-dr-hochzittsreis,23,1,0.0,0.043478260869565216
94,comedy,Alfons Lieblich,M,writer,professionals_scientific_technical,lower_middle_class,"
          
Alfons:

          
Ja sie muehn sich dittlicher üssdrucke. S'Maidel hett uns do in diss Zimmer N° 9 gschickt.

        
",47,kettner-uff-dr-hochzittsreis,22,3,0.0,0.13636363636363635
96,comedy,Alfons Lieblich,M,writer,professionals_scientific_technical,lower_middle_class,"
          
Alfons:

          
Diss isch jetz unangenehm, .... was mache mr jetz. ... Ich bin mit minere Frau uff dr Hochzittsreis
          un hab doch telephoniert an de kalte Jager um e Zimmer.

        
",48,kettner-uff-dr-hochzittsreis,34,5,0.0,0.14705882352941177
97,comedy,Dominik,M,inn_attendant,service_and_sales,lower_class,"
          
Dominik:

          
(für sich)

          
Diss isch e Hochzittsparel, do gitts Trinkgelder. 
          
(laut)
 Bliewe Sie numme do, ich, dr Dominik rangier die Sach schun, mit mir muess mr
          redde. 
          
(hält die Hand hin).

        
",48,kettner-uff-dr-hochzittsreis,45,3,1.492495230299525,0.06666666666666667
98,comedy,Alfons Lieblich,M,writer,professionals_scientific_technical,lower_middle_class,"
          
Alfons:

          
(drückt ihm dieselbe)

          
Mine beschte Dank. — Diss due ich Ihne nie vergässe.

        
",49,kettner-uff-dr-hochzittsreis,19,3,0.0,0.15789473684210525
99,comedy,Dominik,M,inn_attendant,service_and_sales,lower_class,"
          
Dominik:

          
Ich zehl druff ass Sie mirs nitt vergasse. Ich will jetz dere däuwe Gans e Hüffe Söjerej mache, ass
          se dem 
          
alte Gitzkräue diss Zimmer gänn hett. 
          
(abgehend, Mitte)
 Do gitts Tringalder.

        
",49,kettner-uff-dr-hochzittsreis,41,5,0.0,0.12195121951219512
100,comedy,Emma,F,,,,"
          
Emma:

          
O ich bin so unruehich, wenns nurre kenn Unglück gitt. — Diss Pferd wie am Omnibüs gstulpert isch,
          .....

        
",50,kettner-uff-dr-hochzittsreis,24,2,0.8414382064435315,0.08333333333333333
105,comedy,Alfons Lieblich,M,writer,professionals_scientific_technical,lower_middle_class,"
          
Alfons:

          
Vo Herze gern Emmäjele. — 
          
(sucht nervös)
 Wo haw ich ne denn nurre anegsteckt. — 
          
(findet ihn im Giletsäckel).

        
",52,kettner-uff-dr-hochzittsreis,28,3,0.49464772402211965,0.10714285714285714
106,comedy,Emma,F,,,,"
          
Emma:

          
Dü sollsch de Schlüssel immer ins Portemonai stecke, hett dir minni Mama gsaat, erscht dene Morje
          noch. 
          
(weint)
 Oh mini Mamme.

        
",53,kettner-uff-dr-hochzittsreis,29,3,0.0,0.10344827586206896
108,comedy,Emma,F,,,,"
          
Emma:

          
Oh ich bekumm schun widder mini nervöse Kopfschmerze.

        
",54,kettner-uff-dr-hochzittsreis,11,2,0.0,0.18181818181818182
109,comedy,Alfons Lieblich,M,writer,professionals_scientific_technical,lower_middle_class,"
          
Alfons:

          
Wo isch dr Migränstift? 
          
(lässt Emma riechen)
 Es isch doch guet ass ich de Migränstift bie mir hab. 
          
(selig)
 Wie schön de bisch mit Träne in de Auwe. — Emmäjele, derf ich dir jetz dr erschte
          Schmutz gänn?

        
",54,kettner-uff-dr-hochzittsreis,49,6,0.0,0.12244897959183673
110,comedy,Emma,F,,,,"
          
Emma:

          
(zärtlich)

          
Ja dü Plöjgeischt.

        
",55,kettner-uff-dr-hochzittsreis,9,2,0.0,0.2222222222222222
111,comedy,Alfons Lieblich,M,writer,professionals_scientific_technical,lower_middle_class,"
          
Alfons:

          
(will sie küssen)

          
Min Zuckerwäfele! ... 
          
(es klopf)
 Es hett geklopft, .. Herein!

        
",55,kettner-uff-dr-hochzittsreis,22,2,2.28025166616661,0.09090909090909091
112,comedy,Dominik,M,inn_attendant,service_and_sales,lower_class,"
          
Dominik:

          
(für sich)

          
Ich loss-em ken Ruehj, wäje de Trinkgalder. 
          
(laut)
 Exküsiere ass ich Sie derangier, ich hab ejch numme welle s'Bett zäje.

        
",56,kettner-uff-dr-hochzittsreis,33,2,0.0,0.06060606060606061
116,comedy,Emma,F,,,,"
          
Emma:

          
(verwirrt)

          
Nurre eins?

        
",58,kettner-uff-dr-hochzittsreis,8,1,0.0,0.125
117,comedy,Dominik,M,inn_attendant,service_and_sales,lower_class,"
          
Dominik:

          
Eijo dann, nurre eins, awer ihr hann Platz, ass isch zwäischläfrich .... un e ächti
          Sprungfedermatraz. 
          
(hält die Hand hin).

        
",58,kettner-uff-dr-hochzittsreis,29,3,1.492495230299525,0.10344827586206896
119,comedy,Dominik,M,inn_attendant,service_and_sales,lower_class,"
          
Dominik:

          
Ah, ass ich d'Redd nitt vergiss.... Wann welle nr morje früehj geweckt sinn? 
          
(beide stehen ratlos da).

        
",59,kettner-uff-dr-hochzittsreis,26,1,0.0,0.038461538461538464
120,comedy,Emma,F,,,,"
          
Emma:

          
(verlegen)

          
Diss hann mir vergesse fuer d'Mamme ze: fröje.

        
",60,kettner-uff-dr-hochzittsreis,16,3,0.0,0.1875
121,comedy,Alfons Lieblich,M,writer,professionals_scientific_technical,lower_middle_class,"
          
Alfons:

          
Ich, ..ich.. na ja .. ich due ne klingle .. 
          
stelle Sie noch diss Gepäck ins Zimmer.

        
",60,kettner-uff-dr-hochzittsreis,22,2,0.0,0.09090909090909091
122,comedy,Dominik,M,inn_attendant,service_and_sales,lower_class,"
          
Dominik:

          
(barsch)

          
Eijo! ..... 
          
(nimmt den Koffer, im Abgehen nach links)
 Do isch's au Schätte mit Trinkgelder bie dem
          Affedutter.

        
",61,kettner-uff-dr-hochzittsreis,29,1,0.0,0.034482758620689655
123,comedy,Alfons Lieblich,M,writer,professionals_scientific_technical,lower_middle_class,"
          
Alfons:

          
Komm ans Fenschter Emma, dr Owe isch so schön. 
          
(gehen ans Fenster)
 E wunderbare Owe.

        
",61,kettner-uff-dr-hochzittsreis,22,3,0.0,0.13636363636363635
124,comedy,Emma,F,,,,"
          
Emma:

          
Un wie guet dr Holder riecht.

        
",62,kettner-uff-dr-hochzittsreis,9,1,0.0,0.1111111111111111
126,comedy,Emma,F,,,,"
          
Emma:

          
Wie stille isch alles, ... so feierlich.

        
",63,kettner-uff-dr-hochzittsreis,11,2,0.0,0.18181818181818182
127,comedy,Alfons Lieblich,M,writer,professionals_scientific_technical,lower_middle_class,"
          
Alfons:

          
Ja so stimmungsvoll. 
          
(umfasst sie und declamiert :

          

            
«Goldich fahrt dr Sunnewaue,

            
D'Vöjele duen guet Nacht sich saue.

            
Am Himmel wissi Schäfle stehn

            
Un d'Natür will schlofe gehn».

          

          
(zärtlich)
 Welle mir au schlofe gehn?

        
",63,kettner-uff-dr-hochzittsreis,48,5,0.0,0.10416666666666667
128,comedy,Emma,F,,,,"
          
Emma:

          
D'Sunn schickt de letschte Gruess eb se untergeht, no kumme d'Sternle, alles sehnt sich noch Ruehj
          ... d'Blüemle hänke d'Köpfle zamme un schmüse mitnand.

        
",64,kettner-uff-dr-hochzittsreis,33,7,0.0,0.21212121212121213
129,comedy,Alfons Lieblich,M,writer,professionals_scientific_technical,lower_middle_class,"
          
Alfons:

          
Emma welle mir's au so mache wie d'Blüemle?

        
",64,kettner-uff-dr-hochzittsreis,13,1,0.0,0.07692307692307693
130,comedy,Emma,F,,,,"
          
Emma:

          
(entzückt)

          
Ach jetz möcht ich so unter Blueme leje un in e Zauberschlof versinke un träume, ..... ewig traime. 
          
(Die Abendglocke läutet, Emma singt):

          

            
«Wenn lieblig s'Oweglöckel tönt

            
Im küehle Owewind,»

            
Do isch's so heimlig, so schön,

            
|:Daheim bie Frau un Kind :|.

            
Alfons, gib mir jetz e Schmutz.

          

        
",65,kettner-uff-dr-hochzittsreis,69,11,0.18052814972146297,0.15942028985507245
131,comedy,Alfons Lieblich,M,writer,professionals_scientific_technical,lower_middle_class,"
          
Alfons:

          
(glücklich)

          
Der erscht. 
          
(will sie küssen, Felix und Jülie kommen. d. d. Mitte).

        
",65,kettner-uff-dr-hochzittsreis,23,3,0.0,0.13043478260869565
133,comedy,Felix Kächele,M,master_hairdresser,crafts,upper_middle_class,"
          
Felix:

          
Helaba, ... was mache denn die uff unserem Zimmer?

        
",66,kettner-uff-dr-hochzittsreis,13,1,0.0,0.07692307692307693
134,comedy,Alfons Lieblich,M,writer,professionals_scientific_technical,lower_middle_class,"
          
Alfons:

          
Pardon, mit wem haw ich d'Ehr?

        
",67,kettner-uff-dr-hochzittsreis,11,1,0.0,0.09090909090909091
136,comedy,Alfons Lieblich,M,writer,professionals_scientific_technical,lower_middle_class,"
          
Alfons:

          
Wie Sie sehn vun uns.

        
",68,kettner-uff-dr-hochzittsreis,8,1,0.0,0.125
137,comedy,Felix Kächele,M,master_hairdresser,crafts,upper_middle_class,"
          
Felix:

          
Ja, awer vun uns au.

        
",68,kettner-uff-dr-hochzittsreis,9,1,0.0,0.1111111111111111
139,comedy,Felix Kächele,M,master_hairdresser,crafts,upper_middle_class,"
          
Felix:

          
Diss-isch licht ze verstehn. Ich hab mich mit minere Frau vor-ere halwe Stund do inlogiert.

        
",69,kettner-uff-dr-hochzittsreis,19,1,0.0,0.05263157894736842
140,comedy,Alfons Lieblich,M,writer,professionals_scientific_technical,lower_middle_class,"
          
Alfons:

          
Diss isch jetz awer dumm. Ich hab doch telephonisch e Zimmer bstellt un no hett uns s'Maidel diss
          Zimmer gänn.

        
",70,kettner-uff-dr-hochzittsreis,25,3,0.0,0.12
141,comedy,Felix Kächele,M,master_hairdresser,crafts,upper_middle_class,"
          
Felix:

          
Jetz wurd's hell.. Ich hab e Depesch gschickt un bin no direkt in in diss Zimmer. — — Dü Mamme, do
          welle mr halt unser Bimbelebaasch nämme un uff d'Wohnungsjacht gehn.

        
",70,kettner-uff-dr-hochzittsreis,39,5,0.0,0.1282051282051282
142,comedy,Alfons Lieblich,M,writer,professionals_scientific_technical,lower_middle_class,"
          
Alfons:

          
Diss isch mir jetz sehr leid. 
          
(vorstellend)
 Alfons Lieblich, Schriftsteller, ... mini Frau.

        
",71,kettner-uff-dr-hochzittsreis,21,3,0.7958853366434036,0.14285714285714285
143,comedy,Felix Kächele,M,master_hairdresser,crafts,upper_middle_class,"
          
Felix:

          
(mit komischer Gebärde)

          
Felix Kächele, Friseurmeischter, mini Frau Schülli, geboreni Spritzer.

        
",71,kettner-uff-dr-hochzittsreis,19,2,0.0,0.10526315789473684
144,comedy,Emma,F,,,,"
          
Emma:

          
Höer Alfons, diss kenne mir nitt zue gànn, mir Jungi solle do bliewe un die zwei Alte solle gehn? ..
          Nein Alfons.

        
",72,kettner-uff-dr-hochzittsreis,28,3,0.0,0.10714285714285714
145,comedy,Alfons Lieblich,M,writer,professionals_scientific_technical,lower_middle_class,"
          
Alfons:

          
Wenn dü meinsch. Herr Kächele, mini Frau will nitt hann, dass sie so viel Umständ solle hann, ..
          also wäre mir uns e ander Zimmer gänn lonn.

        
",72,kettner-uff-dr-hochzittsreis,34,3,0.8109281476987698,0.08823529411764706
146,comedy,Jülie,F,,,,"
          
Jülie:

          
(zu Emma)

          
Diss isch jo alles racht natt vun Ihne, awer diss könne mir nitt annäme. — Mir Alti muehn de Junge
          Platz mache, diss isch emol eso im Läwe. Wenn ich mich nitt trumbier Madame Lieblich, sinn Sie uff dr
          Hochzittsreis?

        
",73,kettner-uff-dr-hochzittsreis,52,9,0.0,0.17307692307692307
147,comedy,Emma,F,,,,"
          
Emma:

          
(verschämt)

          
Ja Madame Kächele ich un min Mann, ..... hitt isch unser Hochzittsdaa.

        
",73,kettner-uff-dr-hochzittsreis,19,3,0.0,0.15789473684210525
148,comedy,Felix Kächele,M,master_hairdresser,crafts,upper_middle_class,"
          
Felix:

          
(lachend)

          
Unsere au ... gell Frau?

        
",74,kettner-uff-dr-hochzittsreis,11,1,0.0,0.09090909090909091
149,comedy,Emma,F,,,,"
          
Emma:

          
Was... Sie hann hitt au Hochzitt kett?

        
",74,kettner-uff-dr-hochzittsreis,11,2,0.9278966814153429,0.18181818181818182
150,comedy,Felix Kächele,M,master_hairdresser,crafts,upper_middle_class,"
          
Felix:

          
Ja Madamele «hitt» vor 25 Johr.

        
",75,kettner-uff-dr-hochzittsreis,11,1,0.0,0.09090909090909091
151,comedy,Jülie,F,,,,"
          
Jülie:

          
Ja mir fiehre hitt «Silwerni Hochzitt».

        
",75,kettner-uff-dr-hochzittsreis,11,3,0.0,0.2727272727272727
152,comedy,Felix Kächele,M,master_hairdresser,crafts,upper_middle_class,"
          
Felix:

          
Un drum hann mr de «Kalte Jager» widder uffgsuecht, will m'r do s'erschte Mol gschlofe hann, gell
          Mamme.

        
",76,kettner-uff-dr-hochzittsreis,26,3,0.0,0.11538461538461539
153,comedy,Emma,F,,,,"
          
Emma:

          
O wie nett.

        
",76,kettner-uff-dr-hochzittsreis,6,1,0.0,0.16666666666666666
155,comedy,Jülie,F,,,,"
          
Jülie:

          
Au mir wünsche ihne alles Glück.

        
",77,kettner-uff-dr-hochzittsreis,9,2,0.0,0.2222222222222222
157,comedy,Jülie,F,,,,"
          
Jülie:

          
Felix, redd nitt so wüescht.

        
",78,kettner-uff-dr-hochzittsreis,9,1,0.0,0.1111111111111111
158,comedy,Felix Kächele,M,master_hairdresser,crafts,upper_middle_class,"
          
Felix:

          
Was heisst wüescht, bie mir kummt's vun Härze. Dü hesch allewill ebs an mir üsszestze. — Un e Dursch
          haw ich jetz vun dem viele babble. 
          
(schenkt vier Gläser ein)
 Hopp, do here, ... es gilt, Gsundheit! 
          
(trinkt und schenkt sich schenkt sich schnell ein, alle trinken)
 Ja, ihr Jungi do
          betrachte uns Alti, ... un do mini lieb, alt Pflutt, 12 Kinder hett se mir gschenkt.

        
",79,kettner-uff-dr-hochzittsreis,88,10,0.0,0.11363636363636363
159,comedy,Jülie,F,,,,"
          
Jülie:

          
Joo, ... lüj nitt eso, ... nurre 10 Madame.

        
",79,kettner-uff-dr-hochzittsreis,14,1,0.0,0.07142857142857142
160,comedy,Felix Kächele,M,master_hairdresser,crafts,upper_middle_class,"
          
Felix:

          
Poo, es kummt uff zwei nitt an: 
          
(singt)
 «Schön ist die Jugend sie kommt nicht mehr». 
          
(Setzt klopft).

        
",80,kettner-uff-dr-hochzittsreis,30,3,0.0,0.1
165,comedy,Dominik,M,inn_attendant,service_and_sales,lower_class,"
          
Dominik:

          
(d. d. Mitte)

          
Jetz huckt der alt Gitzkräuje au noch do. 
          
(grob zu Felix)
 Höre, diss Zimmer isch bsetzt.

        
",82,kettner-uff-dr-hochzittsreis,28,1,0.0,0.03571428571428571
167,comedy,Dominik,M,inn_attendant,service_and_sales,lower_class,"
          
Dominik:

          
Nix ze Isidor ... Dominik häiss ich als noch verstande?

        
",83,kettner-uff-dr-hochzittsreis,13,2,0.0,0.15384615384615385
168,comedy,Felix Kächele,M,master_hairdresser,crafts,upper_middle_class,"
          
Felix:

          
Mintwäje au Dominik, .. also mir sinn einig.

        
",84,kettner-uff-dr-hochzittsreis,12,1,0.0,0.08333333333333333
169,comedy,Dominik,M,inn_attendant,service_and_sales,lower_class,"
          
Dominik:

          
(zu Felix)

          
Do näme ihr e anderes Zimmer?

        
",84,kettner-uff-dr-hochzittsreis,13,1,0.0,0.07692307692307693
172,comedy,Dominik,M,inn_attendant,service_and_sales,lower_class,"
          
Dominik:

          
(zu Alfons)

          
Ja, welle ihr e anders Zimmer?

        
",86,kettner-uff-dr-hochzittsreis,14,2,0.0,0.14285714285714285
173,comedy,Felix Kächele,M,master_hairdresser,crafts,upper_middle_class,"
          
Felix und Jülie:

          
Nein, nein, diss gänn mir nitt zue.

        
",86,kettner-uff-dr-hochzittsreis,14,1,0.0,0.07142857142857142
174,comedy,Jülie,F,,,,"
          
Felix und Jülie:

          
Nein, nein, diss gänn mir nitt zue.

        
",87,kettner-uff-dr-hochzittsreis,14,1,0.0,0.07142857142857142
175,comedy,Dominik,M,inn_attendant,service_and_sales,lower_class,"
          
Dominik:

          
Ja, do kummt jetz kenn Söj drüss, gschweje ich. Ja welle nr alli vier in diss einte Bett leije?

        
",87,kettner-uff-dr-hochzittsreis,25,3,0.0,0.12
176,comedy,Alfons Lieblich,M,writer,professionals_scientific_technical,lower_middle_class,"
          
Alle:

          
(unter Lachen)

          
Nein, nein!

        
",88,kettner-uff-dr-hochzittsreis,10,2,0.0,0.2
177,comedy,Emma,F,,,,"
          
Alle:

          
(unter Lachen)

          
Nein, nein!

        
",88,kettner-uff-dr-hochzittsreis,10,2,0.0,0.2
178,comedy,Felix Kächele,M,master_hairdresser,crafts,upper_middle_class,"
          
Alle:

          
(unter Lachen)

          
Nein, nein!

        
",89,kettner-uff-dr-hochzittsreis,10,2,0.0,0.2
179,comedy,Jülie,F,,,,"
          
Alle:

          
(unter Lachen)

          
Nein, nein!

        
",89,kettner-uff-dr-hochzittsreis,10,2,0.0,0.2
180,comedy,Felix Kächele,M,master_hairdresser,crafts,upper_middle_class,"
          
Felix:

          
(bestimmt)

          
Gänn uns e ander Zimmer, mir bliewe noch e bissel bienander. Näme unser Gepäck glich mit, gälle
          Hironimus.

        
",90,kettner-uff-dr-hochzittsreis,27,3,0.0,0.1111111111111111
181,comedy,Dominik,M,inn_attendant,service_and_sales,lower_class,"
          
Dominik:

          
(brüllt)

          
Dominik häiss i! 
          
(abgehend)
 Dräkender Möbe .... un kenn Centime Trinkgald. 
          
(ab Mitte).

        
",90,kettner-uff-dr-hochzittsreis,25,1,0.0,0.04
182,comedy,Felix Kächele,M,master_hairdresser,crafts,upper_middle_class,"
          
Felix:

          
(schenkt ein)

          
Also hat Gott die Welt geliebt un ich minni Frau! ... Gsundheit!

        
",91,kettner-uff-dr-hochzittsreis,20,3,0.0,0.15
183,comedy,Emma,F,,,,"
          
Emma:

          
Wenn ich Sie so betracht Madame Kächele muess ich grad an mini Mama denke. — 
          
(weint)
 O mini Mama.

        
",91,kettner-uff-dr-hochzittsreis,25,5,0.0,0.2
188,comedy,Felix Kächele,M,master_hairdresser,crafts,upper_middle_class,"
          
Felix:

          
Joo, es macht jo nitt weh.

        
",94,kettner-uff-dr-hochzittsreis,10,2,1.3779650070678042,0.2
189,comedy,Emma,F,,,,"
          
Emma:

          
Alfons, geh dätsch mir doch e frisch's Mouchoir hole im Koffer.

        
",94,kettner-uff-dr-hochzittsreis,16,1,0.0,0.0625
192,comedy,Felix Kächele,M,master_hairdresser,crafts,upper_middle_class,"
          
Felix:

          
Allons Madame Lieblich, mr grient doch nitt wenn mr uff dr Hochzittsreis isch, do isch mr luschti,
          stosse mr an un trinke, diss gitt Stimmung. Gsundheit! 
          
(sie trinken).

        
",96,kettner-uff-dr-hochzittsreis,39,8,0.06889825035339021,0.20512820512820512
193,comedy,Emma,F,,,,"
          
Emma:

          
Jo Monsieur Kächele, ich bin dr Win nitt gewohnt. uff einmol stejt er mir in de Kopf.

        
",96,kettner-uff-dr-hochzittsreis,22,1,0.0,0.045454545454545456
194,comedy,Felix Kächele,M,master_hairdresser,crafts,upper_middle_class,"
          
Felix:

          
Diss isch jo grad racht am Hochzittsdaa. Un e Frau isch nitt netter, ass wenn se e bissel angspritzt
          isch.

        
",97,kettner-uff-dr-hochzittsreis,25,3,0.0,0.12
195,comedy,Emma,F,,,,"
          
Emma:

          
Ich weiss gar nitt, ich hab so e Angscht uff mir, ich bin hitt zuem ersehte Mol mit mim Mann
          allein.

        
",97,kettner-uff-dr-hochzittsreis,26,4,0.0,0.15384615384615385
196,comedy,Felix Kächele,M,master_hairdresser,crafts,upper_middle_class,"
          
Felix:

          
Zum erschte Mol, ... ja wie lang kenne denn ihr enander?

        
",98,kettner-uff-dr-hochzittsreis,15,2,0.0,0.13333333333333333
197,comedy,Emma,F,,,,"
          
Emma:

          
Zwei Monet. Ich hab mine Alfons lehre kenne im Concert vum Jungfraueverein un will er minere Mama so
          guet gfalle hett, haw ich ne ghirot. Mir kenne uns küm, ich hab-em noch nitt emol e Schmutz gänn.

        
",98,kettner-uff-dr-hochzittsreis,44,7,0.0,0.1590909090909091
198,comedy,Felix Kächele,M,master_hairdresser,crafts,upper_middle_class,"
          
Felix:

          
Joo, diss glauwi jetz doch nitt, er isch doch jetz Ihr Mann.

        
",99,kettner-uff-dr-hochzittsreis,17,2,0.0,0.11764705882352941
199,comedy,Emma,F,,,,"
          
Emma:

          
Ei jeds Mol wenn ich-em e Schmutz hab welle gan isch ebber kumme.

        
",99,kettner-uff-dr-hochzittsreis,16,3,0.0,0.1875
200,comedy,Felix Kächele,M,master_hairdresser,crafts,upper_middle_class,"
          
Felix:

          
Diss isch dumm. Awer wie er jetz kummt no gänn Sie-em e Schmutz, do kann kumme wer will, der Mann
          isch jo ze bedüre.

        
",100,kettner-uff-dr-hochzittsreis,30,6,0.7173236277927435,0.2
201,comedy,Emma,F,,,,"
          
Emma:

          
Un dr Alfons isch doch so guet, so herzensguet geje mich, wenn er nurre so bliet, denn ich hab als
          schun vun mine Kamrädle ghöert, ass d'Männer als andersch wäre, wenn mr e Wiel ghirot isch. Do wär ich
          tiefunglücklich, wenn minner Mann grob geje mich dät wäre. Ich hab ganz vergässe für d'Mamme ze fröje,
          was ich no mache soll, ass er widder guet geje mich isch. Mini guet Mamme, ... ich hätt nitt solle
          hirote.

        
",100,kettner-uff-dr-hochzittsreis,94,15,0.7986333360112124,0.1595744680851064
202,comedy,Felix Kächele,M,master_hairdresser,crafts,upper_middle_class,"
          
Felix:

          
(legt den Arm um sie)

          
Nit verzwiefle Madämele, mir Männer sinn nitt so böes. E jeds Wiewele hett e Mittel um de Mann
          widder guet ze mache, mr mues es nurre wisse anzewände.

        
",101,kettner-uff-dr-hochzittsreis,41,6,0.5002364571813104,0.14634146341463414
203,comedy,Emma,F,,,,"
          
Emma:

          
O saue Sie mir's Monsieur Kächele, ich bin ne arich dankbar defuer.

        
",101,kettner-uff-dr-hochzittsreis,17,1,0.0,0.058823529411764705
204,comedy,Felix Kächele,M,master_hairdresser,crafts,upper_middle_class,"
          
Felix:

          
Vun Härze gärn, worum soll ich denn im e so e liewe, junge Frauele kenn Gfalle mache. Trinke mr noch
          e mol no will ich's ne saue. Uff Ihr Wohl! 
          
(trinken).

        
",102,kettner-uff-dr-hochzittsreis,42,7,0.0,0.16666666666666666
205,comedy,Emma,F,,,,"
          
Emma:

          
Der Win isch awer starik ich bekumm ganz warm devun.

        
",102,kettner-uff-dr-hochzittsreis,13,4,0.0,0.3076923076923077
206,comedy,Felix Kächele,M,master_hairdresser,crafts,upper_middle_class,"
          
Felix:

          
Naja Sie soll jo warm wäre. Awer jetz basst Sie uff. Wenn e Mann emol wuetig isch oder brummig, no
          geht sin Wiewele ane, nimmt ne um de Hals un saat ganz zärtlich: Was hesch denn Männel, alle sej widder
          guet zue dim Fraule, bekummsch e gueter Schmutz. — Do kann kenn Mann widderstehn, er wurd weich wie dr
          Butter in dr Sunn.

        
",103,kettner-uff-dr-hochzittsreis,75,16,0.1524424271487784,0.21333333333333335
207,comedy,Emma,F,,,,"
          
Emma:

          
(freudig)

          
Isch diss sicher wohr?

        
",103,kettner-uff-dr-hochzittsreis,10,3,0.0,0.3
208,comedy,Felix Kächele,M,master_hairdresser,crafts,upper_middle_class,"
          
Felix:

          
Ganz sicher. Jetz browiere mrs emol glich, ass ich sieh ob Sie's au recht kapiert hett. 
          
(steht auf)
 Also ich bin dr Mann un Sie d'Frau un ich hab e Wuet wäje-nem Zmiddaesse.

        
",104,kettner-uff-dr-hochzittsreis,43,5,0.0,0.11627906976744186
210,comedy,Felix Kächele,M,master_hairdresser,crafts,upper_middle_class,"
          
Felix:

          
Allewäj, Sie mues, ass Sie's lehrt, .. es isch jo nurre e Prob, .. es isch jo nitt ernscht.

        
",105,kettner-uff-dr-hochzittsreis,27,1,0.0,0.037037037037037035
211,comedy,Emma,F,,,,"
          
Emma:

          
E Gottsnamme denn, .. ja was soll ich mache?

        
",105,kettner-uff-dr-hochzittsreis,13,1,0.0,0.07692307692307693
212,comedy,Felix Kächele,M,master_hairdresser,crafts,upper_middle_class,"
          
Felix:

          
Also ich bin Ihr Mann un händel mit-ne wäje-nem Esse, will's angebrännt isch. Zerscht will ich noch
          eins trinke, ass ich rächt in de Wuet kumm. — So jetz geht's los. 
          
(schlägt wütend auf den Tisch)
 Dunterwätter noch emol, was isch diss fuer e Esse hitt.
          Diss schmekt angebrännt ..... un ze viel Salz isch au dran. 
          
(trinkt aus dem Glas)
 Pfui Dejfel schmeckt diss. — Jetz redd Sie ebbs.

        
",106,kettner-uff-dr-hochzittsreis,88,8,0.5379927208445576,0.09090909090909091
213,comedy,Emma,F,,,,"
          
Emma:

          
(mitspielend)

          
Jo weisch Mann ich hab grad e Moment nüssgeluejt un do isch's mir angebrännt, awer nurre e bissele,
          mr schmeckt's küm.

        
",106,kettner-uff-dr-hochzittsreis,31,2,0.0,0.06451612903225806
214,comedy,Felix Kächele,M,master_hairdresser,crafts,upper_middle_class,"
          
Felix:

          
Natirli e Uessredd hesch allewill uff dr Pfann. Herrschaft de ganze Daa schafft mr un wenn mr heim
          kummt mit-eme Mordshunger, isch's Esse nix. 
          
(nimmt die Flasche und trinkt)
 Herr, ... e Millione .... 
          
(zu Emma)
 Hopp, jetz fallt Sie m'r um de Hals un gitt Sie mr e Schmutz.

        
",107,kettner-uff-dr-hochzittsreis,63,6,0.06913739979173142,0.09523809523809523
215,comedy,Emma,F,,,,"
          
Emma:

          
(markiert es)

          
Alle Männel sej doch widder guet mit dim Fraule.

        
",107,kettner-uff-dr-hochzittsreis,16,2,0.0,0.125
216,comedy,Felix Kächele,M,master_hairdresser,crafts,upper_middle_class,"
          
Felix:

          
Un e Schmutz jetzt sunsch wurr i nitt guet.

        
",108,kettner-uff-dr-hochzittsreis,12,2,0.0,0.16666666666666666
217,comedy,Emma,F,,,,"
          
Emma:

          
(küsst Felix)

          
Bekumsch au e Schmutz liebs Männel.

        
",108,kettner-uff-dr-hochzittsreis,13,2,0.0,0.15384615384615385
221,comedy,Emma,F,,,,"
          
Beide:

          
(schauen ganz harmlos herum, lassen sich los. Im nachfolgenden Spiel kommen Emma und Alfons nach
          rechts zu stehen, Felix und Jülie nach links).

        
",110,kettner-uff-dr-hochzittsreis,31,4,0.0,0.12903225806451613
222,comedy,Felix Kächele,M,master_hairdresser,crafts,upper_middle_class,"
          
Beide:

          
(schauen ganz harmlos herum, lassen sich los. Im nachfolgenden Spiel kommen Emma und Alfons nach
          rechts zu stehen, Felix und Jülie nach links).

        
",111,kettner-uff-dr-hochzittsreis,31,4,0.0,0.12903225806451613
223,comedy,Emma,F,,,,"
          
Emma:

          
Hesch mir e Mouchoir min liewer ?

        
",111,kettner-uff-dr-hochzittsreis,9,1,0.0,0.1111111111111111
225,comedy,Alfons Lieblich,M,writer,professionals_scientific_technical,lower_middle_class,"
          
Alfons:

          
(vorkommend)

          
Da... jerum jetz haw ich e ...! Na, es macht nix, es isch üss mit uns zwei, dü hesch mir d'Ehe
          gebroche in de Aerm vum e andere Mann. Pfui! 
          
(weint in das Hemd).

        
",112,kettner-uff-dr-hochzittsreis,50,4,0.0,0.08
227,comedy,Alfons Lieblich,M,writer,professionals_scientific_technical,lower_middle_class,"
          
Alfons:

          
Hesch nitt dr Monsieur verschmutzt vor mine Aue. Was wurd do dini Mame saue?

        
",113,kettner-uff-dr-hochzittsreis,18,2,0.0,0.1111111111111111
228,comedy,Jülie,F,,,,"
          
Jülie:

          
Diss isch nitt nowel vun Ihne Madame e-n-alte Mann ze verfüehre. Noch so jung un schun so verdorwe. 
          
(zu Felix)
 So nett kannsch gar nitt zue mir saue: Min goldichs Wiewele. Do hesch nitt an
          d'Kinjelemoor gedänkt.

        
",114,kettner-uff-dr-hochzittsreis,49,6,0.0,0.12244897959183673
229,comedy,Alfons Lieblich,M,writer,professionals_scientific_technical,lower_middle_class,"
          
Alfons:

          
(mit Vorwurf)

          
Sie schiene mir e rächter Kinjelebock ze sinn, Sie .. Pfui!

        
",114,kettner-uff-dr-hochzittsreis,19,3,0.0,0.15789473684210525
230,comedy,Felix Kächele,M,master_hairdresser,crafts,upper_middle_class,"
          
Felix:

          
E Millione Rasiermesser, ich e Kinjelebock? Diss isch ze starik, diss sollsch mir büese! 
          
(will auf Alfons los. Die Frauen halten die Männer zurück. Grosser Tumult).

        
",115,kettner-uff-dr-hochzittsreis,37,4,1.0539966383848418,0.10810810810810811
231,comedy,Dominik,M,inn_attendant,service_and_sales,lower_class,"
          
Dominik:

          
(d. d. Mitte)

          
Was isch denn diss für e Krambol? 
          
(steht zwischen die beiden Paare)
 Do wurd nitt ghän- 
          
delt, ihr sinn do nitt in dr Franzesch Kammer, ihr sinn do im Kalte Jager. Ihr sinn m'r
          noch e Pratik, zerscht trinke nr mitnand un no verhaue nr enander.

        
",115,kettner-uff-dr-hochzittsreis,62,2,0.0,0.03225806451612903
232,comedy,Alfons Lieblich,M,writer,professionals_scientific_technical,lower_middle_class,"
          
Alfons:

          
Bringe Sie mini Köffer ich reis ab.

        
",116,kettner-uff-dr-hochzittsreis,10,1,0.0,0.1
233,comedy,Jülie,F,,,,"
          
Julie:

          
Unser Gepäck au, mir gehn au los.

        
",116,kettner-uff-dr-hochzittsreis,11,1,0.0,0.09090909090909091
234,comedy,Dominik,M,inn_attendant,service_and_sales,lower_class,"
          
Dominik:

          
(frech)

          
Jo mache ass'r los kumme. 
          
(im Abgehen f. s.)
 Sie gänn jo doch kenn Trinkgelder. 
          
(ab Mitte).

        
",117,kettner-uff-dr-hochzittsreis,29,4,0.0,0.13793103448275862
236,comedy,Felix Kächele,M,master_hairdresser,crafts,upper_middle_class,"
          
Felix:

          
Diss isch mir e netti Söjerej un ich hab's so guet gmeint. 
          
(geht zu Jülie, will mit ihr reden, sie wehrt
 ab).

        
",118,kettner-uff-dr-hochzittsreis,31,3,0.0,0.0967741935483871
237,comedy,Alfons Lieblich,M,writer,professionals_scientific_technical,lower_middle_class,"
          
Alfons:

          
Nein so e Hochzittsreis. 
          
(geht wütend auf und ab, schreit)
 Nein ich kenn mi nimi, o jeh, jetz bekumm ich au noch
          Selbstmordgedanke, ich geh ans Wasser un hänk mich uff.

        
",118,kettner-uff-dr-hochzittsreis,41,4,0.0,0.0975609756097561
238,comedy,Emma,F,,,,"
          
Emma:

          
(stösst einen Schrei aus)

          
Alfons!!

        
",119,kettner-uff-dr-hochzittsreis,11,1,0.0,0.09090909090909091
239,comedy,Felix Kächele,M,master_hairdresser,crafts,upper_middle_class,"
          
Felix:

          
(zu Emma)

          
Jetz macht Sie's doch, was ich Sie vori gelehrt hab.

        
",119,kettner-uff-dr-hochzittsreis,19,1,0.0,0.05263157894736842
240,comedy,Emma,F,,,,"
          
Emma:

          
(geht auf Alfons zu nimmt ihn um den Hals, zärtlich)

          
Alfons, Männel, sej doch widder guet zue dim Fraule, .. ich gib dir au e Schmutz, de erschte. — —
          Vun dim Emmäjele wie dich so gern hett. 
          
(küsst ihn).

        
",120,kettner-uff-dr-hochzittsreis,54,5,0.0,0.09259259259259259
241,comedy,Alfons Lieblich,M,writer,professionals_scientific_technical,lower_middle_class,"
          
Alfons:

          
(wird ganz glücklich)

          
Ich kann nimi böes sinn. Min goldichs, herzichs, zuckerichs Emmäjele. 
          
(Umarmung).

        
",120,kettner-uff-dr-hochzittsreis,25,4,0.7503546857719656,0.16
242,comedy,Felix Kächele,M,master_hairdresser,crafts,upper_middle_class,"
          
Felix:

          
Bravo, gell s'hett gholfe, ..... do wurd e jeder Mann weich. Siehsch Schülli ich hab dere junge Frau
          gsaat, sie soll in ihrem Männel nurre e Schmutz gänn wenn'r böes isch, no wurd er grad widder guet.
          Isch's nitt oso gsinn, Madame Lieblich? Mir hann's nurre browiert.

        
",121,kettner-uff-dr-hochzittsreis,61,11,0.27285624937162384,0.18032786885245902
243,comedy,Emma,F,,,,"
          
Emma:

          
Doch so isch's gsinn Madame. — Un dü min büeser Alfons hesch so ebbs wüeschts vun mir gedänkt? Ich
          hab jo nurre dich gern.

        
",121,kettner-uff-dr-hochzittsreis,30,2,0.0,0.06666666666666667
245,comedy,Dominik,M,inn_attendant,service_and_sales,lower_class,"
          
Dominik:

          
(d. d. Mitte)

          
Ejer Gepackdings isch gerüscht, im Hüssgang steht's.

        
",122,kettner-uff-dr-hochzittsreis,17,1,0.0,0.058823529411764705
249,comedy,Dominik,M,inn_attendant,service_and_sales,lower_class,"
          
Dominik:

          
Nix do als nüss, ihr Gitzkräje, nitt emol e Trinkgeld....

        
",124,kettner-uff-dr-hochzittsreis,15,1,2.0171062231120196,0.06666666666666667
250,comedy,Felix Kächele,M,master_hairdresser,crafts,upper_middle_class,"
          
Felix:

          
Ah drumm han ihr mir als d'Hand eso aneghebt. 
          
(Gelächter) Do hann'r 10 Franke (gibt ihm Geld).

        
",125,kettner-uff-dr-hochzittsreis,26,1,0.0,0.038461538461538464
251,comedy,Alfons Lieblich,M,writer,professionals_scientific_technical,lower_middle_class,"
          
Alfons:

          
(gibt ihm auch Geld)

          
Un au von mir.

        
",125,kettner-uff-dr-hochzittsreis,13,1,0.0,0.07692307692307693
252,comedy,Dominik,M,inn_attendant,service_and_sales,lower_class,"
          
Dominik:

          
(äusserst freundlich)

          
Merci ihr Herrschafte, ich habs jo gewüesst, ass ihr nitt so sinn. Wann'r ebs brüche, 
          
saue's nurre im Dominik ich wäiss alles un bsori alle. 
          
(im Abgehen)
20 Fränkle, ass sinn doch anstandigi Litt. 
          
(ab Mitte. Alfons und Emma stehen ganz weltvergessen vorn am Tisch).

        
",126,kettner-uff-dr-hochzittsreis,65,3,0.0,0.046153846153846156
253,comedy,Felix Kächele,M,master_hairdresser,crafts,upper_middle_class,"
          
Felix:

          
(zu Jülie, auf die beiden zeigend)

          
Ich glaub mir kenne abkumme. 
          
(laut)
 Ja kumm Mamme mr welle gehn, ass die Litt ins Bett kumme. Alle guet Nacht
          biesamme! 
          
(Die Frauen umarmen sich, Felix will auch Emma umarmen).

        
",126,kettner-uff-dr-hochzittsreis,52,9,0.0,0.17307692307692307
254,comedy,Jülie,F,,,,"
          
Jülie:

          
(hält ihn zurück)

          
Helaba Alterle, es wurd nimi browiert. Komm jetz. 
          
(sie gehen bis an die Mitteltür, Felix dreht sich herum).

        
",127,kettner-uff-dr-hochzittsreis,32,2,1.3281237195781175,0.0625
255,comedy,Felix Kächele,M,master_hairdresser,crafts,upper_middle_class,"
          
Felix:

          
(mit Humor)

          
Guet Nacht. — Amesiere ejch guet.

        
",127,kettner-uff-dr-hochzittsreis,14,4,0.0,0.2857142857142857
256,comedy,Jülie,F,,,,"
          
Jülie:

          
(hält ihm den Mund zu)

          
Allons — Felix!

        
",128,kettner-uff-dr-hochzittsreis,13,1,2.656247439156235,0.07692307692307693
257,comedy,Felix Kächele,M,master_hairdresser,crafts,upper_middle_class,"
          
Felix:

          
(im Abgehen)

          
Wenn nurre der Lüsangel de Kinjelestall züe macht! 
          
— ENDE —

        
",128,kettner-uff-dr-hochzittsreis,18,1,0.0,0.05555555555555555
