2022-08-20 21:35:11 - valence lexicon length: 7864
2022-08-20 21:35:11 - Number of rows: 446
2022-08-20 21:35:12 - dominance lexicon length: 7864
2022-08-20 21:35:12 - Number of rows: 446
2022-08-20 21:35:12 - arousal lexicon length: 7864
2022-08-20 21:35:12 - Number of rows: 446
2022-08-20 21:35:13 - anger lexicon length: 7864
2022-08-20 21:35:13 - Number of rows: 446
2022-08-20 21:35:14 - anticipation lexicon length: 7864
2022-08-20 21:35:14 - Number of rows: 446
2022-08-20 21:35:14 - disgust lexicon length: 7864
2022-08-20 21:35:14 - Number of rows: 446
2022-08-20 21:35:15 - fear lexicon length: 7864
2022-08-20 21:35:15 - Number of rows: 446
2022-08-20 21:35:16 - joy lexicon length: 7864
2022-08-20 21:35:16 - Number of rows: 446
2022-08-20 21:35:16 - sadness lexicon length: 7864
2022-08-20 21:35:16 - Number of rows: 446
2022-08-20 21:35:17 - surprise lexicon length: 7864
2022-08-20 21:35:17 - Number of rows: 446
2022-08-20 21:35:17 - trust lexicon length: 7864
2022-08-20 21:35:17 - Number of rows: 446
2022-08-24 17:05:48 - valence lexicon length: 7864
2022-08-24 17:05:48 - Number of rows: 446
2022-08-24 17:05:49 - dominance lexicon length: 7864
2022-08-24 17:05:49 - Number of rows: 446
2022-08-24 17:05:50 - arousal lexicon length: 7864
2022-08-24 17:05:50 - Number of rows: 446
2022-08-24 17:05:50 - anger lexicon length: 7864
2022-08-24 17:05:50 - Number of rows: 446
2022-08-24 17:05:51 - anticipation lexicon length: 7864
2022-08-24 17:05:51 - Number of rows: 446
2022-08-24 17:05:51 - disgust lexicon length: 7864
2022-08-24 17:05:51 - Number of rows: 446
2022-08-24 17:05:52 - fear lexicon length: 7864
2022-08-24 17:05:52 - Number of rows: 446
2022-08-24 17:05:52 - joy lexicon length: 7864
2022-08-24 17:05:52 - Number of rows: 446
2022-08-24 17:05:53 - sadness lexicon length: 7864
2022-08-24 17:05:53 - Number of rows: 446
2022-08-24 17:05:53 - surprise lexicon length: 7864
2022-08-24 17:05:53 - Number of rows: 446
2022-08-24 17:05:54 - trust lexicon length: 7864
2022-08-24 17:05:54 - Number of rows: 446
