Unnamed: 0,drama_type,speaker,sex,job,job_category,social_class,text,progress,short_name,numTokens,numLexTokens,avgLexVal,lexRatio
0,drama,Marie Engel,F,,,,"
          
Mutter

          
(steht hinter Berthe und kämmt ihr das Haar):

          
Dis weiß d'r lieb Herrgott, was dü mit dine Hoor machsch. Als widder verstruwwelt und verzüst. For
          dich könnt m'r ellein e Coiffeur anstelle, daß de nit alle-gelde-n-erüslüejsch wie e
          Ziginnersmaidel.

        
",0,greber-lucie,50,3,0.0,0.06
1,drama,Berthe,F,,,,"
          
Berthe :

          
Auah! Auah! De machsch m'r weh, Mamme.

        
",0,greber-lucie,13,2,0.0,0.15384615384615385
2,drama,Marie Engel,F,,,,"
          
Mutter :

          
Halt! e bissele still, daß ich dich strähle kann. Ropfe müeß ich dich halt schun, bisch ganz ellein
          schuld dran. Wo isch din Zopfbendel? Hesch ne 'mol widder verlore?

        
",0,greber-lucie,38,7,0.0,0.18421052631578946
4,drama,Marie Engel,F,,,,"
          
Mutter :

          
Gib here! 
          
(Berthe reicht ihr das Band)
 Dü sottsch viel meh uff dich halte. E Maidel, wo in d'
          Doctrine geht, sott sich viel ze güet sin, for uff d'r Gaß erumzespringe, daß m'r nit weiß, in wem's
          g'hört. Es het nit e jeds die Lehr, wo dü hesch. — Wie stehts mit dine-n-Uffgawe, hesch sie schun
          gemacht?

        
",1,greber-lucie,77,8,0.0,0.1038961038961039
5,drama,Berthe,F,,,,"
          
Berthe :

          
Ich hab sie gemacht, awer 's Lucie müeß mich emol de Katechisme üwwerhöre, ob ich ne au güet kann.
          Wurum kummt's denn so lang nit?

        
",1,greber-lucie,32,3,0.0,0.09375
6,drama,Marie Engel,F,,,,"
          
Mutter :

          
Fröuj's doch selbscht; es saat m'r 's nit, was for Gschäfte 's het.

        
",1,greber-lucie,19,3,0.0,0.15789473684210525
7,drama,Berthe,F,,,,"
          
Berthe :

          
Denk emol, grad ewwe-n-isch e Herr do gsin, un het noch em gfröujt.

        
",1,greber-lucie,20,2,0.0,0.1
9,drama,Berthe,F,,,,"
          
Berthe :

          
Uff d'r Gaß.

        
",2,greber-lucie,6,1,0.0,0.16666666666666666
10,drama,Marie Engel,F,,,,"
          
Mutter :

          
E Herr?

        
",2,greber-lucie,5,1,0.0,0.2
11,drama,Berthe,F,,,,"
          
Berthe :

          
Ja, e schöner großer Herr isch kumme, mit eme schwarze Schnützer un eme goldene pince-nez. Der het
          noch'm Lucie gfröujt. No hawi g'saat: 's isch nit d'heim. No het er gsaat: gell, dü bisch sicherlich 's
          Schweschterle züem. No hawi g'saat: ja. No het er gsaat: dis isch awer schad, ich bin arig pressirt. —
          Un derno isch er widder furt gange.

        
",2,greber-lucie,81,7,0.0,0.08641975308641975
12,drama,Marie Engel,F,,,,"
          
Mutter :

          
's isch güet. Ich saa's im, wenn's heime kummt.

        
",3,greber-lucie,16,1,0.0,0.0625
13,drama,Berthe,F,,,,"
          
Berthe :

          
O jeh, d'r Babbe! Ich glaub, er het schun widder eini.

        
",3,greber-lucie,17,2,0.0,0.11764705882352941
14,drama,Joseph Engel,M,stonemason,crafts,lower_middle_class,"
          
Vater

          
(Trinkergesicht; farbiges Hemd, verschlissene Sammthose, Gurt, abgetragener Rock und hohe Mütze;
          angetrunken, rennt an Berthe an) :

          
Mach, daß de m'r üs de Füeß gehsch, Krott, elendi! Sunsch gitts Schmier! Sacré matin noch emol!

        
",3,greber-lucie,49,4,0.22593175234539023,0.08163265306122448
15,drama,Marie Engel,F,,,,"
          
Mutter :

          
Seij mit dem Kind doch nit so grob. 's het d'r jo nix gemacht.
          
(Zu Berthe.)
 Geh e bissel uff
          
d'Gaß Kind. Din Babbe isch awer au gar ze wüscht mit d'r. 
          
(Berthe rechts ab.)

        
",3,greber-lucie,48,7,0.0,0.14583333333333334
16,drama,Joseph Engel,M,stonemason,crafts,lower_middle_class,"
          
Vater

          
(ruft der Berthe nach):

          
Brüchsch nit vum m'r furtzelaufe, ich biß dich nit. — — 
          
(Zur Mutter)
 Isch's z'Nachtesse gerischt? — — Ich hab Hunger.

        
",4,greber-lucie,37,3,0.0,0.08108108108108109
17,drama,Marie Engel,F,,,,"
          
Mutter :

          
's isch ererscht halwer sechs, m'r esse-n-am siewwene, wie sunscht. So lang kannsch warte, un wenn
          de nit warte witt, ze kannsch gehn, wo de here kumme bisch.

        
",4,greber-lucie,39,4,0.888584053279928,0.10256410256410256
18,drama,Joseph Engel,M,stonemason,crafts,lower_middle_class,"
          
Vater :

          
Es müeß aim währli angscht und bang sin, wenn m'r heime kummt.

        
",4,greber-lucie,16,3,0.0,0.1875
19,drama,Marie Engel,F,,,,"
          
Mutter :

          
Ja, ich meins au!

        
",4,greber-lucie,8,1,0.0,0.125
20,drama,Joseph Engel,M,stonemason,crafts,lower_middle_class,"
          
Vater :

          
Was gitt's ze-n-esse ?

        
",5,greber-lucie,9,1,0.0,0.1111111111111111
22,drama,Joseph Engel,M,stonemason,crafts,lower_middle_class,"
          
Vater :

          
Sunsch nix? Dis Fresse hawi satt!

        
",5,greber-lucie,10,2,0.0,0.2
23,drama,Marie Engel,F,,,,"
          
Mutter :

          
Eh ben, no geh lüeje, wo de-n-ebbs bessers bekummsch. Mir sin d'rmit zefridde.

        
",5,greber-lucie,22,2,0.0,0.09090909090909091
24,drama,Joseph Engel,M,stonemason,crafts,lower_middle_class,"
          
Vater :

          
Elendi Mungedrysselswirtschaft! Do het m'r 's jo besser im Böuj.

        
",6,greber-lucie,14,3,0.0,0.21428571428571427
25,drama,Marie Engel,F,,,,"
          
Mutter :

          
Weje dem kannsch mache, daß de widder anne kummsch, wenns d'r derte so güet gfalle het.

        
",6,greber-lucie,21,2,0.0,0.09523809523809523
26,drama,Joseph Engel,M,stonemason,crafts,lower_middle_class,"
          
Vater :

          
Was saasch?

        
",6,greber-lucie,5,1,0.0,0.2
27,drama,Marie Engel,F,,,,"
          
Mutter :

          
Wenn dü ebbs schaffe dhäddsch , könnt m'r d'r au ebbs Ordentlichs rischte züem z'Nachtesse. Wenn m'r
          awer de ganze Daa in de Bierläde-n-erumkheijt....

        
",6,greber-lucie,31,2,0.0,0.06451612903225806
28,drama,Joseph Engel,M,stonemason,crafts,lower_middle_class,"
          
Vater :

          
Ich schaffe! For denne Hungerslohn, wo m'r kreijt? — — Do kennsch dü mich awer schlecht, wenn de
          meinsch, daß ich dodrum au nurre de kleine Finger rüehr. — — Ja, ja, ich weiß, d'arme Litt sin nur
          Hund, nix andersch sin sie wie Hund — — schaffe solle sie Daa un Nacht, daß d'Riche könne-n-in d'r
          Citadin fahre un sich e dicker Büch pflanze. — Awer 's wurd schun noch andersch kumme, denk dran, m'r
          wäre schun mit denne große Herre dheile, un dis garandier ich dir, daß ich nit d'r letscht bin, wo ebbs
          kreijt.

        
",7,greber-lucie,121,9,0.0,0.0743801652892562
29,drama,Marie Engel,F,,,,"
          
Mutter :

          
Dü hesch's jo güet vor.

        
",7,greber-lucie,9,1,0.0,0.1111111111111111
30,drama,Joseph Engel,M,stonemason,crafts,lower_middle_class,"
          
Vater :

          
Es kummt noch eso, es kummt noch eso, dis kann nit so bliewe. Sie solle schun lüeje, die Herre vun
          Owwe. Die Hungerswirtschaft het e-n-End, un bis dert anne isch's nimmi lang. Ich saa d'r's, un gsaat
          isch gsaat, sie düürt nimmi lang. Verstehsch mi?

        
",7,greber-lucie,62,4,0.0,0.06451612903225806
32,drama,Joseph Engel,M,stonemason,crafts,lower_middle_class,"
          
Vater :

          
Ja, ich hab erecht. Un dü wursch sehn, ich bhalt erecht. Dis wär noch schöner, wenn ich nit erecht
          hätt.
          
(Er fuchtelt mit der Hand in der Luft herum)
 So kann dis Ding nit furtgehn, die Hack müeß
          emol e Stil han. Die Blütsüger sitze-n-im Uewerfluß . . . . un bi uns isch Armüet Trumpf — — nix hinte,
          nix vorne — — nix isch nix und bliet nix. E Kritze-Batteriedeckel soll drin fahre, wenn dis nit e-n-End
          het!

        
",8,greber-lucie,100,8,0.0,0.08
33,drama,Marie Engel,F,,,,"
          
Mutter :

          
Ums Gottswille, brüel nit eso, denk doch e bissel an denne sterweskranke Mann, wo do howe
          leijt....

        
",8,greber-lucie,23,2,0.0,0.08695652173913043
34,drama,Joseph Engel,M,stonemason,crafts,lower_middle_class,"
          
Vater :

          
Sterweskrank ? M'r müen alli emol sterwe. In minere Wohnung derf ich mache was i will. Weje dem hawi
          miner Hüszins bezahlt.

        
",8,greber-lucie,27,2,0.0,0.07407407407407407
35,drama,Marie Engel,F,,,,"
          
Mutter :

          
's Lucie, witt saaue. — — Dü hesch üwerhaupt ken Herz! Wer nur e bissel Mitleid mit sim Newesmensch
          het, der bringt dis nit ferti, was dü gescht ferti gebroocht hesch. D'ganz Noochberschaft het sich
          drüwer uffghalte.

        
",8,greber-lucie,47,4,0.0,0.0851063829787234
36,drama,Joseph Engel,M,stonemason,crafts,lower_middle_class,"
          
Vater :

          
Ich wur doch min anniversaire fiere derfe. Wer will mich dran empeschiere? Fremdi Litt gehn mich nix
          an.

        
",9,greber-lucie,23,1,0.0,0.043478260869565216
37,drama,Marie Engel,F,,,,"
          
Mutter :

          
M'r het's gescht gemerikt, daß de 'mol widder Geld in d'Finger kreijt hesch. 's Lucie isch viel ze
          güet mit d'r. Jede Daa zeh Sü wärd grad genüe. Vun denne zwanzig Mark, wo's d'r gescht het genn, wurd
          noch viel üwrig sin! Zaij emol, was de noch drvun hesch!

        
",9,greber-lucie,63,6,0.0,0.09523809523809523
38,drama,Joseph Engel,M,stonemason,crafts,lower_middle_class,"
          
Vater :

          
Dem hesch du nix nochzefröuje. Dis sin mini Sache.

        
",9,greber-lucie,13,1,0.0,0.07692307692307693
39,drama,Marie Engel,F,,,,"
          
Mutter :

          
Isch's möjli! Zwanzig Mark verbutzt an eim Owe! Un for nix un widder nix! Do könnsch Millionär sin,
          's dhädd d'r nit lange. Wenn de nur soviel verdiene dhäddsch, daß m'r dich nit üszehalte briechd, so e
          großer, starker Mann. So triebsch dich Daa un Nacht in de Bierhieser un sunsch erum — Gott weiß wo — —
          d'aye Doochter müeß dich vun ihrem Verdienscht entreteniere — — un dü schämsch dich nit, sin Geld
          anzenemme.

        
",9,greber-lucie,91,7,0.0,0.07692307692307693
40,drama,Joseph Engel,M,stonemason,crafts,lower_middle_class,"
          
Vater :

          
Redd' m'r doch ken so Gstuß doher. Wenn's Lucie nur e bissel meh üs sich mache dhädd, es könnt grad
          so viel verdiene, wie es wott.

        
",10,greber-lucie,33,3,0.0,0.09090909090909091
41,drama,Marie Engel,F,,,,"
          
Mutter :

          
's isch ganz einerlei, 's isch sin Geld, un 's wär uff jede Fall besser, es dhädds uff d'Sparkass'
          traaue, daß es emol ebbs het, wenn's je hirothe wott. Ich freili bin e-n-alti kranki Frau 
          
(sie hustet),
 wo ihri Glidder nimmi recht gebrüche kann . . . Wenns mir ebbs züekumme
          loßt, wurd's em unser Herrgott danke ..... ich kann jo nimmi schaffe, ich bin elend und schwach, un wur
          im nimmi lang züer Lascht sin. Awer weisch, was dü bisch?
          
(Sie reißt ihre ganze Kraft zusammen.)
 Dü bisch e Verdhüener . . . e drüriger Dropf . . .
          e Schlabbes bisch . . . du dhäddsch mich noch heiße uff d'Britsch gehn wäsche, daß de Geld bekummsch,
          for's mit dine Kamerade ze verklebbere. Ja drüsse bisch schenerös un großarti, do machsch, wie wenn
          di's d'heime hüffeswis leije hättsch . . . wenn sie's nur wüßte . . . wenn sie's nur sehne dhädde . . .
          was dü . . .
          
(sie kann vor Husten nicht weiter reden).

        
",10,greber-lucie,209,24,0.031245880643511418,0.11483253588516747
42,drama,Joseph Engel,M,stonemason,crafts,lower_middle_class,"
          
Vater :

          
Verstick nur an dim böse Mül, alts Ise, das de bisch.

        
",10,greber-lucie,16,4,0.25816969115565475,0.25
43,drama,Marie Engel,F,,,,"
          
Mutter :

          
Wie schön könnte m'r's han, wenn dü nit wärsch! Dini Liederlichkeit het uns um Hab un Güet gebroocht
          un bringt uns noch uff de Gottsacker! Dü ghörtsch noch e paar Johr drucket gsetzt, do hätt m'r doch
          Rüehj vor d'r.

        
",10,greber-lucie,48,5,0.1911887685138785,0.10416666666666667
44,drama,Joseph Engel,M,stonemason,crafts,lower_middle_class,"
          
Vater :

          
Noch e Wort, un i schmiß d'r ebbs an de Kopf, grad was i find!

        
",11,greber-lucie,20,4,0.0,0.2
45,drama,Marie Engel,F,,,,"
          
Mutter :

          
Prowiers nurre! ich wur mich vor dir scheniere, dü Schandfleck dü!

        
",11,greber-lucie,16,1,0.0,0.0625
46,drama,Joseph Engel,M,stonemason,crafts,lower_middle_class,"
          
Vater :

          
Frau, ich saa d'r, ich hau dich noch stiff un lahm, wenn de nit stille bisch.

        
",11,greber-lucie,22,3,0.0,0.13636363636363635
47,drama,Marie Engel,F,,,,"
          
Mutter :

          
Erbärmlicher Tropf, dü!

        
",11,greber-lucie,7,2,0.0,0.2857142857142857
48,drama,Joseph Engel,M,stonemason,crafts,lower_middle_class,"
          
Vater :

          
Bly stille, oder 's gitt e-n-Unglück!

        
",12,greber-lucie,12,3,0.0,0.25
50,drama,Joseph Engel,M,stonemason,crafts,lower_middle_class,"
          
Vater :

          
Dummheit! düürsch mich, arms Wibsbild. — — — Bringsch m'r nix ze-n-esse?

        
",12,greber-lucie,20,3,0.0,0.15
52,drama,Joseph Engel,M,stonemason,crafts,lower_middle_class,"
          
Vater :

          
No gehwi ins Wirtshüs.

        
",13,greber-lucie,7,1,0.0,0.14285714285714285
53,drama,Marie Engel,F,,,,"
          
Mutter :

          
Geh nurre, m'r halte dich nit.

        
",13,greber-lucie,10,1,0.0,0.1
54,drama,Joseph Engel,M,stonemason,crafts,lower_middle_class,"
          
Vater :

          
Ze gib m'r Geld, wenn ich gehn soll.

        
",13,greber-lucie,12,2,0.0,0.16666666666666666
56,drama,Joseph Engel,M,stonemason,crafts,lower_middle_class,"
          
Vater :

          
Geld erüsgewichst, Alti!

        
",14,greber-lucie,7,2,0.0,0.2857142857142857
57,drama,Marie Engel,F,,,,"
          
Mutter :

          
Ich hab keins.
          
(Engel geht auf die Mittelthüre zu.)
 Ja kannsch lang lüeje, 's isch nit dheim.

        
",14,greber-lucie,25,3,0.0,0.12
58,drama,Joseph Engel,M,stonemason,crafts,lower_middle_class,"
          
Vater :

          
(nachdem er sich überzeugt, daß Lucie nicht zu Hause ist)

          
Here mit dem Geld!

        
",14,greber-lucie,20,3,0.0,0.15
60,drama,Joseph Engel,M,stonemason,crafts,lower_middle_class,"
          
Vater :

          
Jetz will ich doch emol sehn, ob ich ken Geld bekumm! Gisch's here oder nit?
          
(Er geht auf Marie los, ringt mit ihr; während des Ringens):
 Ich bekumms schun! ich
          bekumms schun!
          

        
",15,greber-lucie,45,5,0.49194426170625755,0.1111111111111111
61,drama,Marie Engel,F,,,,"
          
Mutter

          
(während des Ringens):

          
Nein, ich gibbs nit! Nein, ich gibbs nit!
          
(Engel entreißt ihr schließlich das Portemonnaie, Marie bekommt einen starken Hustenanfall. Er
          nimmt alles heraus und wirft das leere Portemonnaie auf den Tisch, dann schnell nach rechts
          ab.)

        
",15,greber-lucie,53,5,0.0,0.09433962264150944
62,drama,Marie Engel,F,,,,"
          
Mutter

          
(nachdem der Hustenanfall vorüber ist, nimmt das Porte-monnaie, sieht hinein und fängt an zu
          weinen).

        
",15,greber-lucie,21,1,0.0,0.047619047619047616
63,drama,Lucie,F,,,,"
          
Lucie

          
(auffallend hübsch, sehr elegant gekleidet, feiner Hut, Schleier Mautille, Glacéehandschuhe; von
          rechts):

          
Bonjour Mamme, do bin i widder. Oho, was isch, du grinsch?

        
",15,greber-lucie,37,4,0.0,0.10810810810810811
64,drama,Marie Engel,F,,,,"
          
Mutter :

          
Din Babbe isch widder so arig mit m'r gsin....

        
",16,greber-lucie,12,1,0.0,0.08333333333333333
65,drama,Lucie,F,,,,"
          
Lucie :

          
Un dodrüs machsch d'r ebbs? Dis bisch doch bim gewohnt. 's isch jo allewil 's nämlich. Weje dem
          brüchsch dich doch nit groß ze-n-emotionire!

        
",16,greber-lucie,32,1,0.0,0.03125
66,drama,Marie Engel,F,,,,"
          
Mutter

          
(sich die Thränen auswischend) :

          
Er het m'r all min Geld genumme, wo ich noch hab ghet, un drno isch 'r los. — 's nemmt mich Wunder,
          daß d'ne nit getroffe hesch.

        
",16,greber-lucie,41,4,1.7751929507567819,0.0975609756097561
67,drama,Lucie,F,,,,"
          
Lucie :

          
Grad isch 'r züer Hüsdhier nüs, 'r het mich awer Gottlowwedank nit gsehn. — — Weje dem Geld brüchsch
          d'r ken chagrin ze mache. Do isch Geld genüe. Do gib ich d'r vierzig Mark — — — oder halt, zeh bhalt
          ich for mich) — — ich will m'r e neijer Hüet kaufe.

        
",16,greber-lucie,62,4,0.0,0.06451612903225806
68,drama,Marie Engel,F,,,,"
          
Mutter

          
(heitert sich auf, streicht das Geld ein):

          
O, isch dis viel Geld! Wo bisch gsin?

        
",17,greber-lucie,23,2,0.0,0.08695652173913043
69,drama,Lucie,F,,,,"
          
Lucie :

          
Bim Herr Harter. Gescht sin m'r im Cirque gsin, drno hammer 's Souper im Restaurant genumme
          
- — un drno simmer heim gange. Was der Mann ingericht isch, großarti! Alles mit Debbi
          belajt, Plüschmöwel, Doofle, elektrischs Licht — wenn m'r nur am e Knopf dreijht, isch alles hell wie
          am Daa — einfach großarti !
          
(Legt Mantille, Hut und Schleier ab.)

        
",17,greber-lucie,76,9,0.0,0.11842105263157894
70,drama,Marie Engel,F,,,,"
          
Mutter :

          
Un bisch de ganze Daa bim gebliwwe?

        
",17,greber-lucie,10,1,0.0,0.1
71,drama,Lucie,F,,,,"
          
Lucie :

          
Bis grad jetzt. Er het m'r uff sim Piano Wälzerle gspielt — un het m'r Bilder gezaijt — — un het
          sine Papegei redde mache — e gspässis Vieh, dü lachsch dich halwer dot, wenn d'ne hörsch — — — un
          d'Zitt isch erumgange, ich weiß gar nit wie.

        
",17,greber-lucie,58,4,0.0,0.06896551724137931
72,drama,Marie Engel,F,,,,"
          
Mutter :

          
Ja Kind, du hesch e schöners Lewe als ich. Wenn ich d'r ebbs rote kann, hirot dich ums Gottswille
          nit, no fahrsch nit schlecht.

        
",18,greber-lucie,31,6,0.0,0.1935483870967742
73,drama,Lucie,F,,,,"
          
Lucie :

          
Ich hirot mich nit. Wer möcht denn! Ich hab's jo lang güet eso. — — — Denk nurre, wie ich heim bin
          gange, isch d'r Schakob geje mir kumme. Ich hab grad eweck gelüejt.

        
",18,greber-lucie,44,6,0.0,0.13636363636363635
74,drama,Marie Engel,F,,,,"
          
Mutter :

          
's dhüed m'r leid for denne güete Burscht ; er het dich arig gern ghet.

        
",18,greber-lucie,18,3,0.33708859197226654,0.16666666666666666
75,drama,Lucie,F,,,,"
          
Lucie :

          
Jo jetz! d'r Mann het ken Geld, der kann nix üsgenn. Wenn einer schun eso uff jede Pfenni lüejt,
          isch m'r d'r ganz Mensch verleidt.

        
",18,greber-lucie,32,4,0.0,0.125
77,drama,Lucie,F,,,,"
          
Lucie :

          
Ich kann nix sehn züem esse. Eb daß ich vum Herr Dings furt bin, het 'r noch gschwind e Budell
          Champagner üs em Keller gholt — — un no hammer noch e Gänslewwerpaschtet mit enand verwichst.

        
",19,greber-lucie,41,2,0.0,0.04878048780487805
78,drama,Marie Engel,F,,,,"
          
Mutter :

          
Was dü nit saasch! — — Do fallt m'r grad in, 's het e Herr noch d'r gfröujt.

        
",19,greber-lucie,23,2,0.0,0.08695652173913043
80,drama,Marie Engel,F,,,,"
          
Mutter :

          
's Berthe het mit em geredd. Es het gsaat, 's isch e großer gsin mit eme schwarze Schnüzer — un noch
          ebbs — — halt ja, mit eme goldene pince-nez.

        
",20,greber-lucie,36,3,0.0,0.08333333333333333
81,drama,Lucie,F,,,,"
          
Lucie :

          
Ah so, no weiß ich schun . . . . dis isch sicherlich d'r Dokt'r Bolewski gsin — odder so e Namme — —
          e wirklich schöner Mann, un het Spähne! Hum! — — Ich hab ne vorgescht durich 's Kättel kenne lehre . .
          . . e gfitzter Typ....

        
",20,greber-lucie,57,4,0.0,0.07017543859649122
83,drama,Lucie,F,,,,"
          
Lucie :

          
Was er will? Amesire will er sich!

        
",20,greber-lucie,11,1,0.0,0.09090909090909091
85,drama,Lucie,F,,,,"
          
Lucie :

          
Ja, ich hab hit Owe am nine mit em Fritz e Rendez-vous. No geh i noch vorher gschwind ins Münschter
          in d' ewig Anbetung.

        
",21,greber-lucie,29,3,0.0,0.10344827586206896
88,drama,Berthe,F,,,,"
          
Berthe

          
(von rechts) :

          
Lucie, liebs Lucie!
          
(Springt auf Lucie zu, welche sie herzhaft küßt.)
 Ich hab schun lang gewart uff dich.

        
",22,greber-lucie,31,2,0.0,0.06451612903225806
89,drama,Lucie,F,,,,"
          
Lucie :

          
Min liebs Herzele, kumm gib m'r e Schmutz! Noch einer!

        
",22,greber-lucie,15,2,0.0,0.13333333333333333
90,drama,Marie Engel,F,,,,"
          
Mutter :

          
Hör Lucie, ich geh grad in d' Stadt ebbs hole züem z'Nachtesse.

        
",22,greber-lucie,17,1,0.0,0.058823529411764705
92,drama,Berthe,F,,,,"
          
Berthe :

          
Bring ebbs güets mit, Mamme, ich hab jo arig Hunger.
          
(Mutter rechts ab.)

        
",23,greber-lucie,21,2,0.0,0.09523809523809523
93,drama,Lucie,F,,,,"
          
Lucie :

          
Ah so, dü hesch Hunger? Do will ich d'r glich ebbs gfitzts genn.
          
(Sie zieht eine Schachtel Bonbons hervor und giebt Berthe zu kosten.)
's Mül uff un d'Aue
          züe! — Isch's nit güet?

        
",23,greber-lucie,46,5,0.2065357529245238,0.10869565217391304
95,drama,Lucie,F,,,,"
          
Lucie :

          
Vum e Herr. Sä, ich schenk d'r d' ganz Lad.

        
",23,greber-lucie,15,2,0.0,0.13333333333333333
96,drama,Berthe,F,,,,"
          
Berthe :

          
Merçi; sie sin arig güet. Witt dü keini? Ich heb m'r sie uff un gib im Finnel au drvun. Gell ich
          derf? — — Denk emol, Lucie, m'r müen jetz au schun d'r Catechisme lehre !

        
",24,greber-lucie,45,3,0.0,0.06666666666666667
98,drama,Berthe,F,,,,"
          
Berthe :

          
Ja, d'Mamme het m'r einer kauft. Do hawi ne. Witt dü so güet sin un mich die paar Gsetzle üwwerhöre?
          Siechsch do, uff dere Sitt.

        
",24,greber-lucie,34,6,0.0,0.17647058823529413
101,drama,Lucie,F,,,,"
          
Lucie :

          
Eh ben, güet. Stell dich do anne. ""Wozu ist der Mensch auf Erden?""

        
",25,greber-lucie,21,3,0.0,0.14285714285714285
103,drama,Lucie,F,,,,"
          
Lucie :

          
""Was muß man thun, um sein Seelenheil zu wirken ?""

        
",25,greber-lucie,15,1,0.0,0.06666666666666667
104,drama,Berthe,F,,,,"
          
Berthe :

          
""Man muß Gott dienen und die Religion halten, welche Christus eingesetzt hat.""

        
",26,greber-lucie,18,3,0.0,0.16666666666666666
105,drama,Lucie,F,,,,"
          
Lucie :

          
""Welche Religion hat Christus eingesetzt?""

        
",26,greber-lucie,10,1,0.0,0.1
106,drama,Berthe,F,,,,"
          
Berthe :

          
""Christus hat die christkatholische Religion eingesetzt"".

        
",26,greber-lucie,11,1,0.0,0.09090909090909091
109,drama,Lucie,F,,,,"
          
Lucie :

          
Jetz wart emol, was m'r grad infallt. — — — De Katechisme üwwerhör ich dich später.

        
",27,greber-lucie,21,2,0.0,0.09523809523809523
111,drama,Lucie,F,,,,"
          
Lucie :

          
Awer for gewiß, Berthe.
          
(Sie legt den Katechismus auf den Tisch.)
 Sitz e bissel uff mine Geere. Saa emol, was
          macht d'r Herr Stelzer ?

        
",27,greber-lucie,34,5,0.0,0.14705882352941177
112,drama,Berthe,F,,,,"
          
Berthe :

          
O jeh, der macht arig schlecht. Gescht han sie alle-n-Auesblick gemeint, er will sterwe. Noch am
          Nachts sin zwei Dokter kumme.

        
",28,greber-lucie,30,5,0.0,0.16666666666666666
113,drama,Lucie,F,,,,"
          
Lucie :

          
Er isch noch nit gstorwe?

        
",28,greber-lucie,8,1,0.0,0.125
114,drama,Berthe,F,,,,"
          
Berthe :

          
Nein, awer sie han schun noch em l'abbé gschickt. — Ja denk nurre, was d'r Babbe gemacht het. Gescht
          Owes, wie m'r schun alli im Bett sin gsin, isch er noch kumme mit dreij Mann, un die han Bier getrunke,
          gelärmt un gebrüelt bis geje de zweie. 's isch e wahri Schand gsin. Un ich hab mich eso gfericht.

        
",28,greber-lucie,72,9,0.0,0.125
115,drama,Lucie,F,,,,"
          
Lucie :

          
Was isch denn gescht los gsin?

        
",28,greber-lucie,9,2,1.2298606542656438,0.2222222222222222
117,drama,Lucie,F,,,,"
          
Lucie :

          
's isch doch arig mit dem Mann!

        
",29,greber-lucie,10,1,0.0,0.1
118,drama,Berthe,F,,,,"
          
Berthe :

          
Ja, un ich hab mich eso gfericht. Ich hab ganz ellein in dim Bett gschloofe. Wurum bisch denn
          hinicht nit heime kumme?

        
",29,greber-lucie,28,4,0.0,0.14285714285714285
119,drama,Lucie,F,,,,"
          
Lucie :

          
Ich hab e Visit gemacht bim Josephine, un hab de Hüsschlissel vergesse ghet.

        
",29,greber-lucie,17,2,0.0,0.11764705882352941
120,drama,Berthe,F,,,,"
          
Berthe :

          
Awer nein, Lucie, dü liejsch. Un m'r derf nit lieje, het d'Schweschter gsaat. Ja, m'r derf nit!

        
",30,greber-lucie,27,1,0.0,0.037037037037037035
121,drama,Lucie,F,,,,"
          
Lucie :

          
Ich liej nit, Berthe.

        
",30,greber-lucie,8,1,0.0,0.125
122,drama,Berthe,F,,,,"
          
Berthe :

          
Ich hab doch gsehn, wie dü de Hüsschlissel vum Disch in de Sack hesch gsteckt. Un d'Mamme het d'r ne
          anne geleijt.

        
",30,greber-lucie,28,1,0.0,0.03571428571428571
123,drama,Lucie,F,,,,"
          
Lucie :

          
's isch nit wohr.

        
",30,greber-lucie,7,1,0.0,0.14285714285714285
127,drama,Lucie,F,,,,"
          
Lucie :

          
Jetz blie emol stille, liebs Bibbele.
          
(Gibt ihr einen Kuß)

        
",31,greber-lucie,16,2,0.0,0.125
128,drama,Berthe,F,,,,"
          
Berthe :

          
Hm, was dü güet schmecksch! Gell, dü hesch eau-de-cologne im Nasdüech.

        
",32,greber-lucie,17,1,0.0,0.058823529411764705
130,drama,Berthe,F,,,,"
          
Berthe :

          
Kannsch m'r nit au e bissel d'rvun genn?

        
",32,greber-lucie,12,1,0.0,0.08333333333333333
132,drama,Berthe,F,,,,"
          
Berthe :

          
Wo bisch denn de ganze Daa gsin?

        
",33,greber-lucie,10,1,0.0,0.1
133,drama,Lucie,F,,,,"
          
Lucie :

          
Im Gschäft, du kleins Wunderfitzel.

        
",33,greber-lucie,9,1,0.0,0.1111111111111111
136,drama,Berthe,F,,,,"
          
Berthe :

          
Dis isch widder nit wohr.

        
",34,greber-lucie,8,1,0.0,0.125
138,drama,Berthe,F,,,,"
          
Berthe :

          
's Finnel het m'r gsaat, daß de schun zwei Monat lang nimmi ins Gschäft gehsch.

        
",34,greber-lucie,19,2,0.0,0.10526315789473684
142,drama,Berthe,F,,,,"
          
Berthe :

          
Du hesch e neijs Bröschele-n-an. Awer e schöns! Un e roter Stein in d'r Mittle.

        
",35,greber-lucie,22,2,0.0,0.09090909090909091
144,drama,Berthe,F,,,,"
          
Berthe :

          
Oh, 's isch arig gfitzt. Vun wem hesch's ?

        
",36,greber-lucie,14,1,0.0,0.07142857142857142
145,drama,Lucie,F,,,,"
          
Lucie :

          
Vum e Herr.

        
",36,greber-lucie,6,1,0.0,0.16666666666666666
146,drama,Berthe,F,,,,"
          
Berthe :

          
Vum nämliche, wo d'r d'Bonbons het genn?

        
",36,greber-lucie,12,1,0.0,0.08333333333333333
148,drama,Berthe,F,,,,"
          
Berthe :

          
Hör, jetz müeß ich dich ebbs fröuje. — Gell, d'Herre han dich arig gern?

        
",37,greber-lucie,21,2,0.5056328879583998,0.09523809523809523
149,drama,Lucie,F,,,,"
          
Lucie :

          
Wie kannsch so ebbs fröuje, dumms Kind!

        
",37,greber-lucie,11,1,0.0,0.09090909090909091
150,drama,Berthe,F,,,,"
          
Berthe :

          
Sie schenke dir so viel Saches. Du kreijsch doch alles vun ne, was de witt. Hesch dü d'Herre au so
          gern?

        
",37,greber-lucie,28,2,0.5056328879583998,0.07142857142857142
152,drama,Berthe,F,,,,"
          
Berthe :

          
Gell, mich hesch nit so gern, wie d'Herre?

        
",38,greber-lucie,14,2,0.5056328879583998,0.14285714285714285
153,drama,Lucie,F,,,,"
          
Lucie :

          
O, dich hawi am liebschte uff d'r ganze Welt. Ich könnt dich grad fresse, so gern hawi dich. Isch's
          nit eso?

        
",38,greber-lucie,29,5,0.2022531551833599,0.1724137931034483
155,drama,Lucie,F,,,,"
          
Lucie :

          
M'r saat nit äng-äng, m'r saat nein. Hawi dich nit gern?

        
",38,greber-lucie,16,3,0.33708859197226654,0.1875
158,drama,Berthe,F,,,,"
          
Berthe :

          
Nein. — — Ja doch. Het d'r d'Mamme schun verzählt vun bem Herr . . .
          
(Lucie winkt bejahend.)

          
Un noch ebbs. Denk, gescht isch e Gardeboliß do gsin und het e paar mol noch d'r
          gfröujt.

        
",39,greber-lucie,48,5,0.0,0.10416666666666667
159,drama,Lucie,F,,,,"
          
Lucie :

          
E Gardeboliß?
          
(Erschrickt; läßt Berthe vom Schoße gleiten und steht schnell auf.)

        
",39,greber-lucie,19,2,0.0,0.10526315789473684
160,drama,Berthe,F,,,,"
          
Berthe

          
(verdutzt):

          
's isch awer glauwi weje dem Mann do howwe gsin, wo vum Gerüscht erab gfalle-n-isch.

        
",40,greber-lucie,24,4,0.0,0.16666666666666666
163,drama,Lucie,F,,,,"
          
Lucie :

          
Bsinn dich genau!

        
",40,greber-lucie,6,1,0.0,0.16666666666666666
164,drama,Berthe,F,,,,"
          
Berthe :

          
's isch glauwi . . . weje dem Mann do howwe gsin.

        
",41,greber-lucie,15,2,0.0,0.13333333333333333
166,drama,Berthe,F,,,,"
          
Berthe :

          
Nein, d'r Babbe-n-isch furt gsin un d'Mamme au.

        
",41,greber-lucie,15,2,0.0,0.13333333333333333
169,drama,Lucie,F,,,,"
          
Lucie :

          
Dummheit, was verschreck ich eso. Es kumme jo als viel Gardeboliß ins Hüs. — Hör Berthel, ich will
          mich glauwi e bissel schanschiere; ich geh in mini Stubb. Wenn ebber kumme sott...

        
",42,greber-lucie,41,6,0.7790299849362841,0.14634146341463414
170,drama,Berthe,F,,,,"
          
Berthe :

          
Ja, 's isch güet, ich blie do.
          
(Lucie nach hinten ab.)

        
",42,greber-lucie,19,2,0.0,0.10526315789473684
172,drama,Léon Bajolewski,M,,,,"
          
Bajolewski

          
(feine Reisekleidung, grauer Hut. Schwarzer Schnurrbart, goldener Zwicker. Tritt sehr gewandt
          auf, har feine Manieren und spricht
          
zuweilen mit etwas ausländischem Accent):

          
Sieh da! Da ist ja wieder die Kleine. Guten Tag. Gieb mir mal 'ne Patschhand! So ist's recht. Ist
          deine Schwester jetzt zu Hause?

        
",43,greber-lucie,62,6,0.0,0.0967741935483871
173,drama,Berthe,F,,,,"
          
Berthe :

          
Ja, 's isch wirklich in siner Stubb un dhüed sich andersch an.

        
",43,greber-lucie,16,1,0.0,0.0625
174,drama,Léon Bajolewski,M,,,,"
          
Bajolewski :

          
Da kann ich sie wohl nicht einen Augenblick sprechen ?

        
",43,greber-lucie,12,1,0.0,0.08333333333333333
175,drama,Berthe,F,,,,"
          
Berthe :

          
Ja, doch! ich will im rüefe. — — Oder wisse Sie was, gehn Sie doch selbscht zuem. Kumme Sie. kumme
          Sie.
          
(Sie faßt Bajolewski an der Hand und führt ihn an die Thüre im Hintergrunde.)
 Dis isch
          sini Stubb. 
          
(Klopft.)
 Lucie! Lucie!
          
(zu Bajolewski)
 Gehn Sie nurre-n-erin, Sie brüche sich nit ze scheniere. Lucie!

        
",43,greber-lucie,79,3,0.0,0.0379746835443038
176,drama,Lucie,F,,,,"
          
Lucie

          
(von innen):

          
Was isch denn los? ich hab nit d'r Zitt!

        
",44,greber-lucie,17,2,1.2298606542656438,0.11764705882352941
177,drama,Berthe,F,,,,"
          
Berthe :

          
D'r Herr vun denne Midda isch do. Mach uff, er will züe d'r!

        
",44,greber-lucie,18,2,0.0,0.1111111111111111
178,drama,Léon Bajolewski,M,,,,"
          
Bajolewski :

          
Da kommen wohl öfters Herren zu deiner Schwester ?

        
",44,greber-lucie,11,3,0.0,0.2727272727272727
179,drama,Berthe,F,,,,"
          
Berthe :

          
Früejer het's als Besüech kreijt. Awer d'Mamme will's nimmi han. Sie hat gsaat, es kann so oft furt,
          wie 's will, un d'r Rescht geht sie nix an.

        
",44,greber-lucie,39,2,0.0,0.05128205128205128
180,drama,Léon Bajolewski,M,,,,"
          
Bajolewski :

          
Aha!
          
(für sie)
 Das nennt man Vorsicht.

        
",45,greber-lucie,13,2,0.0,0.15384615384615385
181,drama,Lucie,F,,,,"
          
Lucie

          
(in der Thüre):

          
Ah, d'r Herr Dokt'r!
          
(giebt ihm die Hand)
 Sie sin schun denne Midda . . . .

        
",45,greber-lucie,28,2,0.0,0.07142857142857142
182,drama,Léon Bajolewski,M,,,,"
          
Bajolewski :

          
Ganz recht. Ich wollte Ihnen blos in aller Eile Adieu sagen. Ich reise fort.

        
",45,greber-lucie,19,6,0.0,0.3157894736842105
184,drama,Léon Bajolewski,M,,,,"
          
Bajolewski :

          
Ich habe von meinem Bankhause telegraphische Ordre erhalten, daß ich unverzüglich abreisen muß,
          heute Abend 8 Uhr 31.

        
",46,greber-lucie,22,1,0.0,0.045454545454545456
185,drama,Lucie,F,,,,"
          
Lucie :

          
Dis dhüed m'r awer leid.

        
",46,greber-lucie,8,1,0.0,0.125
186,drama,Léon Bajolewski,M,,,,"
          
Bajolewski :

          
Ja, mir auch, es läßt sich aber nicht ändern.

        
",46,greber-lucie,14,2,0.0,0.14285714285714285
187,drama,Lucie,F,,,,"
          
Lucie :

          
Do kumme Sie so ball nimmi here?

        
",46,greber-lucie,10,1,0.0,0.1
188,drama,Léon Bajolewski,M,,,,"
          
Bajolewski :

          
I Gott bewahre, Kind, das ist eine weite Reise! Das wird so bald nicht mehr der Fall sein.

        
",47,greber-lucie,24,4,0.0,0.16666666666666666
189,drama,Lucie,F,,,,"
          
Lucie :

          
Wo reise Sie denn anne — wenn m'r fröuje derf ?

        
",47,greber-lucie,13,1,0.0,0.07692307692307693
192,drama,Léon Bajolewski,M,,,,"
          
Bajolewski :

          
Ei, liebes Kind, das liegt in Süd-amerika, weit überm großen Wasser.

        
",48,greber-lucie,17,1,0.0,0.058823529411764705
194,drama,Léon Bajolewski,M,,,,"
          
Bajolewski :

          
Natürlih. Vier Wochen lang.

        
",48,greber-lucie,8,1,0.0,0.125
196,drama,Léon Bajolewski,M,,,,"
          
Bajolewski :

          
Ist nicht so schlimm, Frl. Lucie. Das ist eine hochinteressante Reise, da sieht man was von der
          Welt.
          
(Ganz leicht hingeworfen)
 Möchten Sie nicht mitreisen?

        
",49,greber-lucie,35,5,0.0,0.14285714285714285
197,drama,Lucie,F,,,,"
          
Lucie :

          
Gehn Sie! mache Sie doch ken so Plän!

        
",49,greber-lucie,12,1,0.0,0.08333333333333333
198,drama,Léon Bajolewski,M,,,,"
          
Bajolewski :

          
Scherz bei Seite! Warum soll das nicht möglich — — — 
          
(er bemerkt Berthe und hält inne).

        
",49,greber-lucie,23,1,0.0,0.043478260869565216
199,drama,Lucie,F,,,,"
          
Lucie :

          
Berthe, geh doch emol nuff züe d'r Frau Stelzer un hör, was d'r krank Mann macht.
          
(Berthe entfernt sich verlegen.)
 D'Kinder wölle-n-üwwerall ihri Nas vorne dran han, dis
          isch d'r Wunderfitz.

        
",49,greber-lucie,44,6,0.0,0.13636363636363635
201,drama,Lucie,F,,,,"
          
Lucie :

          
Jo, Sie mache sich üwwer mich luschti, Herr Dokter....

        
",50,greber-lucie,14,3,0.0,0.21428571428571427
202,drama,Léon Bajolewski,M,,,,"
          
Bajolewski :

          
Aber ganz und gar nicht. 's ist mein voller Ernst.

        
",50,greber-lucie,14,3,0.0,0.21428571428571427
203,drama,Lucie,F,,,,"
          
Lucie :

          
Was sott ich denn drüwe mache! Hab derte nix verlore.

        
",50,greber-lucie,14,1,0.0,0.07142857142857142
204,drama,Léon Bajolewski,M,,,,"
          
Bajolewski :

          
Das kann ich Ihnen genau erklären. Sie werden drüben in Stellung treten.

        
",51,greber-lucie,16,2,0.0,0.125
206,drama,Léon Bajolewski,M,,,,"
          
Bajolewski :

          
Also hören Sie zu. Das Bankhaus, bei welchem ich beschäftigt bin, ist bei meiner Abreise mit einem
          großen Cafetier in Berbindung getreten und hat demselben eine bedeutende Summe Geldes kreditirt. Da ich
          den Cafetier gut kenne — ein charmanter Mann, ich sehe ihn fast täglich, wenn ich drüben bin — — so hat
          mich derselbe gebeten, ihm, wenn möglich und wenn sich die Gelegenheit bietet, ein paar ordentliche
          Kräfte
          
aus Deutschland herüberzubringen. — — Die Reisekosten trägt natürlich das Geschäft.

        
",51,greber-lucie,93,9,0.0,0.0967741935483871
208,drama,Léon Bajolewski,M,,,,"
          
Bajolewski :

          
Ja, so etwas Ähnliches. Nur feiner, eleganter. Wissen Sie, diese Stellungen sind geradezu großartig
          — — natürlich auch sehr begehrt. Und die Bezahlung! Drüben, wo man so viel Gold hat — -! Da könnten Sie
          einmal steinreich nach Deutschland zurückkehren, das wäre eine Kleinigkeit.

        
",52,greber-lucie,57,6,0.0,0.10526315789473684
210,drama,Léon Bajolewski,M,,,,"
          
Bajolewski :

          
Sehen Sie! — — Das Lokal übrigens, in welchem Sie beschäftigt sind, ist der reine Palast. In Amerika
          kann man sich das leisten. Allzuviel brauchen Sie nicht zu arbeiten — — — vor Mittags 12 Uhr beginnt
          der Dienst nicht. Ist das nicht bequem?

        
",52,greber-lucie,53,6,0.0,0.11320754716981132
212,drama,Léon Bajolewski,M,,,,"
          
Bajolewski :

          
Alle möglichen Sprachen — — — das macht aber nichts — — das werden Sie bald lernen.

        
",53,greber-lucie,20,2,0.0,0.1
213,drama,Lucie,F,,,,"
          
Lucie :

          
Wenn ich awer so ellein do drüwwe mießt sin ..

        
",53,greber-lucie,12,1,0.0,0.08333333333333333
214,drama,Léon Bajolewski,M,,,,"
          
Bajolewski

          
(flüstert):

          
Können Sie reinen Mund behalten, Frl. Lucie?
          
(sie nickt).
 Ich habe schon vier Mädchen aus Straßburg engagiert, die heute mit mir
          fortreisen. Aber — — — !
          
(er legt den Finger auf den Mund).

        
",53,greber-lucie,50,1,0.0,0.02
215,drama,Lucie,F,,,,"
          
Lucie :

          
Ja, isch denn dis so e Gheimnis?

        
",53,greber-lucie,11,2,1.2754728713966712,0.18181818181818182
216,drama,Léon Bajolewski,M,,,,"
          
Bajolewski :

          
's ist wegen der Eltern. — — Die würden die Mädchen nicht fortlassen. Die haben ja kein Verständnis
          dafür, wo das Glück zu finden ist.

        
",54,greber-lucie,31,4,0.0,0.12903225806451613
218,drama,Léon Bajolewski,M,,,,"
          
Bajolewski :

          
Auf keinen Fall, Schon wegen der Abmeldung.

        
",54,greber-lucie,11,2,0.0,0.18181818181818182
219,drama,Lucie,F,,,,"
          
Lucie :

          
Ah so — — ! 's isch jo wohr — — ! Wer geht denn alles mit?

        
",54,greber-lucie,20,1,0.0,0.05
221,drama,Lucie,F,,,,"
          
Lucie :

          
's Meijel? — — — Ja ja, 's isch's, 's het jo d'heime mit de-n-Eldere Händel kreijt un will jez for
          sich gehn.

        
",55,greber-lucie,33,4,0.0,0.12121212121212122
222,drama,Léon Bajolewski,M,,,,"
          
Bajolewski :

          
Da ist ferner Frl. Kättel, welche mir die Ehre verschaffte . . . .

        
",55,greber-lucie,18,1,0.0,0.05555555555555555
224,drama,Léon Bajolewski,M,,,,"
          
Bajolewski :

          
Auf mein Wort. Hier habe ich den Kontrakt.
          
(Er zieht ein Papier heraus.)

        
",56,greber-lucie,20,2,0.0,0.1
225,drama,Lucie,F,,,,"
          
Lucie :

          
Wahrhaftig! — — Halte Sie — — ich glaub, mini Mamme kummt — — dis isch ihri Stimm — — kumme Sie
          gschwind in mini Stubb! Do könne m'r wittersch babble.
          
(Beide nach hinten ab.)

        
",56,greber-lucie,44,5,0.0,0.11363636363636363
226,drama,Marie Engel,F,,,,"
          
Mutter :

          
So, so! gehts Ihrem Mann als noch nit besser, Frau Stelzer?

        
",56,greber-lucie,17,1,0.0,0.058823529411764705
227,drama,Frau Stelzer,F,,,,"
          
Stelzer :

          
Merci, dank d'r Noochfröuj, Frau Engel, awer 's geht arig schlecht. 's wurd nimmi lang düüre no .. .
          .
          
(sie wischt sich die Augen).

        
",56,greber-lucie,34,5,0.0,0.14705882352941177
228,drama,Marie Engel,F,,,,"
          
Mutter :

          
Isch 'r noch nit züe sich kumme?

        
",57,greber-lucie,10,1,0.0,0.1
230,drama,Marie Engel,F,,,,"
          
Mutter :

          
's isch schad, daß 'r nit im Diakonessehüs leijt, do wärd 'r besser bsorjt.

        
",57,greber-lucie,19,1,0.0,0.05263157894736842
231,drama,Frau Stelzer,F,,,,"
          
Stelzer :

          
Ja, die Gschicht isch halt züe merkwürdi gange. Wie 'r vun dem Gerüscht erab isch kheijt, isch em
          zerscht noch ganz güet gsin un er het nit viel gspiert. Awer am Owes — er isch grad heime kumme gsin —
          wurd's dem Mann uff einmol so weh — — — un im nämliche-n-Auesblick kreijt er e Blüetsturz, 's isch
          schrecklich gsin. Ich glaub, d'Lewwer oder d'Lung isch entzunde oder blessirt, oder sunsch so ebbs. —
          Vun dort eweck isch er nimmeh züe sich kumme.

        
",57,greber-lucie,101,13,0.0,0.12871287128712872
232,drama,Marie Engel,F,,,,"
          
Mutter :

          
's isch trürig. Was han die Dokter gsaat?

        
",58,greber-lucie,12,2,0.0,0.16666666666666666
233,drama,Frau Stelzer,F,,,,"
          
Stelzer :

          
d'Dokter saaue eim so güet wie gar nix, dis wisse Sie doch. Un denke Sie, wie er emol for e Minüt
          verwacht isch, no het er mich gar nimmeh gkennt.

        
",58,greber-lucie,38,2,0.0,0.05263157894736842
235,drama,Frau Stelzer,F,,,,"
          
Stelzer :

          
Ja, so e güeter, solider Mann, wo nie krank isch gsin. Un müeß jetz so elend ums Lewe kumme! Ich
          glaub, ich verwinds nit, for ne ze verliere. Un m'r sin so arig güet gsin mit enander! O Gott, ich
          könnt grad sterwe vor Kriz un Elend!
          
(sie weint).

        
",58,greber-lucie,65,14,0.0,0.2153846153846154
237,drama,Frau Stelzer,F,,,,"
          
Stelzer :

          
Der solid Mann! Un het niemols getrunke! D'r brävscht Mann vun d'r Welt! Wenn ich nurre schun uff'm
          Göttsacker leije dhädd!
          
(Weint weiter.)

        
",59,greber-lucie,33,4,0.0,0.12121212121212122
238,drama,Marie Engel,F,,,,"
          
Mutter :

          
Was kann jetz dis Gejomers un Gelametiers groß helfe! Sie wurd sich schun drin finde.

        
",59,greber-lucie,19,2,0.0,0.10526315789473684
239,drama,Frau Stelzer,F,,,,"
          
Stelzer

          
(wird lebendig):

          
Was saat Sie do for Dings? Dis het jetz ken Wert, daß Sie dis rebbediert.

        
",59,greber-lucie,24,1,0.0,0.041666666666666664
240,drama,Marie Engel,F,,,,"
          
Mutter :

          
Üwwer Ine-n-Ihre Mann will ich jo nix saaue. Er het brav gschafft un de Zahldaa heimegebroocht. Awer
          d'ganz Noochberschaft weiß doch, daß Sie schun lang mit em-Andere geht.

        
",60,greber-lucie,37,4,0.0,0.10810810810810811
241,drama,Frau Stelzer,F,,,,"
          
Stelzer :

          
Dis isch jetz awer doch meh wie e Schand! Wie kummt Sie drzüe, mir dis ze saaue?

        
",60,greber-lucie,22,1,0.0,0.045454545454545456
242,drama,Marie Engel,F,,,,"
          
Mutter :

          
Dis kann Sie m'r doch nit eweckdischbediere, daß Sie mit dem Schnider do hüwe Gschäfte het.

        
",60,greber-lucie,20,2,0.0,0.1
243,drama,Frau Stelzer,F,,,,"
          
Stelzer :

          
Oho! — — Dis kummt jo als besser. Frau Engel, so loß ich m'r mine-n-ehrliche Namme nit
          veraffrundiere, versteht Sie dis?

        
",60,greber-lucie,30,3,0.0,0.1
245,drama,Frau Stelzer,F,,,,"
          
Stelzer :

          
Sie, Englere, dhädd bigott güet dran, ganz stille ze sin. Denkt Sie e bissel an Ihri Doochter !
          D'Spatze pfiffe's vun de Dächer.

        
",61,greber-lucie,32,6,0.0,0.1875
247,drama,Frau Stelzer,F,,,,"
          
Stelzer :

          
Ich hab doch wini Kinder rechtschaffe un brav erzöuje — — sie sin jetz ball alli güet ghirot — un
          hab sie vun aller Schlechtigkeit eweck ghalte. Awer Sie! Sie sott sich schämme! Sie wurd schun sehn,
          wie wit daß Sie dodrmit kummt.

        
",61,greber-lucie,50,5,0.0,0.1
248,drama,Marie Engel,F,,,,"
          
Mutter :

          
Ich kann mini Doochter nit hüete wie e kleins Kind. Wenn eins so alt isch, wurd's vun selbscht am
          beschte wisse, was es ze dhüen het.

        
",62,greber-lucie,33,2,0.0,0.06060606060606061
249,drama,Frau Stelzer,F,,,,"
          
Stelzer :

          
Dis geht mich nix an. Ich saa numme, was wohr isch. Ja, schämme sott Sie sich !

        
",62,greber-lucie,23,2,0.0,0.08695652173913043
250,drama,Marie Engel,F,,,,"
          
Mutter :

          
Geht Sie doch nuff, un loßt Sie Ihre kranke Mann nit ellein sterwe, wo Sie ne doch so gern het.

        
",62,greber-lucie,25,4,0.2528164439791999,0.16
251,drama,Frau Stelzer,F,,,,"
          
Stelzer :

          
Un macht Sie kein so Heidespektakel bis nachts am viere, daß m'r saat, was do for Chores im Hüs
          wohnt.

        
",62,greber-lucie,25,3,0.0,0.12
253,drama,Frau Stelzer,F,,,,"
          
Stelzer :

          
D'r Herr l'abbé!
          
(Das Gespräch bricht plötzlich ab, die Frauen bleiben wie versteinert stehen.)

        
",63,greber-lucie,21,3,0.0,0.14285714285714285
254,drama,Marie Engel,F,,,,"
          
Mutter

          
(nach einer Pause, plappert):

          
Loué soit Jésus-Christ, M'r. l'abbé.

        
",63,greber-lucie,17,1,0.0,0.058823529411764705
255,drama,Abbé Mülberg,M,vicar,clergy,lower_middle_class,"
          
Mülberg :

          
In Ewigkeit Amen! Bin ich nicht hier bei Frau Stelzer ?

        
",63,greber-lucie,14,2,0.0,0.14285714285714285
256,drama,Frau Stelzer,F,,,,"
          
Stelzer :

          
Ganz erecht. M'r wohne-n-awer e Stock höcher. Dis isch's logement vun d'r Familli Engel.

        
",64,greber-lucie,22,5,0.7614380759895705,0.22727272727272727
257,drama,Abbé Mülberg,M,vicar,clergy,lower_middle_class,"
          
Mülberg :

          
So — so!
          
(Er blickt auf und nickt langsam Frau Engel zu, die er erkennt ; zu Frau Stelzer)
 Sie
          haben mich rufen lassen.

        
",64,greber-lucie,31,1,0.0,0.03225806451612903
258,drama,Frau Stelzer,F,,,,"
          
Stelzer :

          
Ja denke Sie, Herr l'abbé, min Mann leijt im Sterwe!
          
(Sie fängt wieder an zu weinen.)

        
",64,greber-lucie,24,4,0.0,0.16666666666666666
259,drama,Abbé Mülberg,M,vicar,clergy,lower_middle_class,"
          
Mülberg :

          
Dann wollen wir eilen, damit wir nicht zu spät kommen.
          
(Beide rechts ab.)

        
",64,greber-lucie,20,2,0.0,0.1
260,drama,Léon Bajolewski,M,,,,"
          
Bajolewski :

          
Jetzt müssen Sie sich aber bald entscheiden — — wenn Sie überhaupt Lust dazu haben, Frl. Lucie.

        
",65,greber-lucie,22,1,0.0,0.045454545454545456
262,drama,Léon Bajolewski,M,,,,"
          
Bajolewski :

          
Heute Abend 8 Uhr 31. Station Kehl.

        
",65,greber-lucie,10,1,0.0,0.1
265,drama,Lucie,F,,,,"
          
Lucie :

          
Ja, ja; 's isch besser eso.

        
",66,greber-lucie,11,2,0.0,0.18181818181818182
266,drama,Léon Bajolewski,M,,,,"
          
Bajolewski :

          
Also eingeschlagen Frl. Lucie! Nicht lange gezaudert, die Zeit ist kostbar. Es kann Ihnen ja nichts
          passieren. Ich bin ja bei Ihnen. Und ich versichere Ihnen, ich will wie ein Vater für Sie sorgen.

        
",66,greber-lucie,44,9,0.0,0.20454545454545456
268,drama,Léon Bajolewski,M,,,,"
          
Bajolewski :

          
Also Schatz, gelt ja! Stehn Sie ihrem Glücke nicht im Wege! Und wenn Sie irgend etwas haben, dann
          wenden Sie sich ruhig an mich. — — — 
          
(Schäkernd.)
 Bin ich Ihnen nicht auch etwas wert ?
          
- — Es wäre ja nicht ausgeschlossen, daß wir beide drüben . . . Wir würden wohl gar nicht
          so übel zu einander passen . . .

        
",67,greber-lucie,74,8,0.0,0.10810810810810811
269,drama,Lucie,F,,,,"
          
Lucie :

          
O, sin Sie stille!

        
",67,greber-lucie,8,1,0.0,0.125
270,drama,Léon Bajolewski,M,,,,"
          
Bajolewski :

          
Lucie!
          
(umfaßt sie und giebt ihr einen anscheinend leidenschaftlichen Kuß)
 Lucie! Und jetzt
          sagen Sie ja! — — Immer noch Bedenken ?

        
",67,greber-lucie,29,2,0.0,0.06896551724137931
271,drama,Lucie,F,,,,"
          
Lucie :

          
. . . Ich kann mini Kleider nit so gscchhwind rischte.

        
",67,greber-lucie,14,1,0.0,0.07142857142857142
272,drama,Léon Bajolewski,M,,,,"
          
Bajolewski :

          
Ist's das nur? Sie brauchen überhaupt nichts mitzunehmen, gar nichts. Lassen Sie das meine Sorge
          sein. Und drüben in Buenos-Aires werden Ihnen alle Kleider gestellt.

        
",68,greber-lucie,33,4,0.0,0.12121212121212122
273,drama,Lucie,F,,,,"
          
Lucie :

          
Awer mini Eltere, min liebs Schweschterle !

        
",68,greber-lucie,10,1,0.0,0.1
274,drama,Léon Bajolewski,M,,,,"
          
Bajolewski :

          
Sie können ja von drüben so viel Geld schicken, wie Sie wollen. Die werdens ein oder zwei Jahre auch
          ohne Sie aushalten können. — — Nicht wahr, Sie kommen mit! — — Sie sollen auch auf den Kontrakt gleich
          einen Vorschuß haben. Hier sind hundert Mark 
          
(drückt ihr den Schein in die Hand).
 Machen Sie damit, was Sie wollen.

        
",68,greber-lucie,72,6,0.40058821337835154,0.08333333333333333
275,drama,Lucie,F,,,,"
          
Lucie :

          
Nemme Sie ne widder — — nemme Sie widder die hundert Mark. Ich bitt Sie drum.

        
",68,greber-lucie,20,1,0.0,0.05
276,drama,Léon Bajolewski,M,,,,"
          
Bajolewski :

          
Behalten Sie sie nur.
          
(Berthe von rechts.)
 Auf der Reise werden sie Ihnen sehr zu Statten kommen.

        
",69,greber-lucie,24,3,0.0,0.125
277,drama,Berthe,F,,,,"
          
Berthe :

          
Lucie, was, du witt furtreise von uns! Gell dü gehsch nit vun uns furt! Du müesch bi uns bliewe,
          sunsch bin i d'r ganz bös. — — Un lüej, ich 
          
3

          
hab dich so ari gern!
          
(Sie macht, wie wenn sie Lucie zurückhalten wollte zur Thür hinauszugehn. Lucie küßt sie
          mehrmals ; Berthe weinerlich)
 Nit furt gehn, Lucie, nit furt gehn, Lucie!

        
",69,greber-lucie,80,6,0.16854429598613327,0.075
278,drama,Lucie,F,,,,"
          
Lucie

          
(plötzlich entschieden):

          
Herr Dokt'r — — Gottlob, jetz hab ich mich decidirt. Ich kann nit mit ne reise. — — Sehn Sie, dis
          Kind isch m'r an's Herz gewachse, dis Kind isch min Ein un Alles, for dis Kind dhädd ich min Lewe genn,
          wenn's müeßt sin. Un jetz furt gehn vum — — wo Niemes andersch for's sorjt — — wo ich nit weiß, was ihm
          alles arriwiere kann — — nein! ich kanns nit üwwer mich bringe, ich kanns nit, Herr Dokt'r !!
          
(zu Berthe)
 Brüchsch ken Angscht ze hann, liewer Herzkäfer, 's Lucie geht nit furt vun
          d'r, 's bliet by d'r.
          
(Sie herzt das Kind mit größter Leidenschaft.)

        
",69,greber-lucie,141,17,0.0,0.12056737588652482
279,drama,Léon Bajolewski,M,,,,"
          
Bajolewski

          
(bei Seite):

          
Zu ärgerlich, muß mir auch noch das Gör dazwischen kommen!

        
",69,greber-lucie,18,3,0.0,0.16666666666666666
280,drama,Marie Engel,F,,,,"
          
Mutter

          
(eilt von links auf Berthe zu):

          
Berthe, do hesch dü nix ze schaffe! Mach daß de nüs kummsch!
          
(Mit Berthe rechts ab.)

        
",70,greber-lucie,32,1,0.0,0.03125
281,drama,Lucie,F,,,,"
          
Lucie :

          
's isch mini Mamme, Herr Dokt'r, sie isch manch mol e bissel wunderlich. — Un jetzt nemme Sie dis
          Geld zeruck, — — dhüen Sie mir de Gfalle . . .

        
",70,greber-lucie,37,6,0.0,0.16216216216216217
282,drama,Léon Bajolewski,M,,,,"
          
Bajolewski

          
(wieder der Alte):

          
Ich nehm' es noch nicht an . . . behalten Sie es vorläufig . . . Sie werden sich die Sache sicher
          noch anders überlegen. Sie waren ja so gut wie einverstanden — — das sind doch keine Gründe, die
          einleuchten können — — Ich will Ihnen was sagen: in einer halben Stunde werde ich eine Frau mit einer
          Droschke hierher schicken. Beharren Sie auf
          
ihrer ablehnenden Antwort, dann . . . können Sie der Frau die hundert Mark zurückgeben.
          Sagen Sie aber — wie ich bestimmt hoffe — zu, dann vertrauen Sie sich einfach dieser Person an, sie
          weiß über alles Bescheid. — Und nun adieu, Frl. Lucie. Ich muß fort; es ist die höchste Zeit. Ich sage
          es Ihnen zum letzten Mal: stehen Sie ihrem Glük nicht im Wege! Adieu, Frl. Lucie!

        
",70,greber-lucie,160,16,0.0,0.1
283,drama,Lucie,F,,,,"
          
Lucie :

          
Adieu, Herr Dokt'r, un glücklichi Reis'.

        
",70,greber-lucie,11,5,0.0,0.45454545454545453
284,drama,Marie Engel,F,,,,"
          
Mutter

          
(von rechts, scharf) :

          
Was isch dis jetz widder for e Herr gsin? Du weisch, daß ich dis nit lid.

        
",71,greber-lucie,27,3,1.501938741359899,0.1111111111111111
285,drama,Lucie,F,,,,"
          
Lucie :

          
Ranz mich doch nit so an. Ich hab mit dem Herr ebbs ze redde ghet.

        
",71,greber-lucie,19,1,0.0,0.05263157894736842
286,drama,Marie Engel,F,,,,"
          
Mutter :

          
's isch güet, s' isch güet! Es kummt m'r awer nimmeh vor. Dis isch's letscht Mol gsin!

        
",71,greber-lucie,24,2,0.0,0.08333333333333333
287,drama,Lucie,F,,,,"
          
Lucie

          
(etwas heftig):

          
Mach m'r doch ken Reprosche, eb daß d'ebbs weisch!

        
",71,greber-lucie,18,1,4.505816224079697,0.05555555555555555
288,drama,Marie Engel,F,,,,"
          
Mutter

          
(wieder warm):

          
Jetz Kind, seij doch verständig. So isch die Sach nit gemeint gsin. Weje mir kannsch jo mache was de
          witt, 's isch nurre weije de Noochberslit. Un m'r müeß au de Schin vermide. — — 
          
(Lucie will noch etwas sagen)
 Seij stille! 's kummt ebber.

        
",72,greber-lucie,61,6,0.0,0.09836065573770492
289,drama,Abbé Mülberg,M,vicar,clergy,lower_middle_class,"
          
Mülberg

          
(von rechts):

          
Guten Abend. Störe ich vielleicht ?

        
",72,greber-lucie,13,2,0.0,0.15384615384615385
290,drama,Marie Engel,F,,,,"
          
Mutter :

          
Güete-n-Owe, Herr l'abbé. Sie derangiere uns ganz un gar nit. Im Gejedheil, m'r sin
          
enchantirt vun Ihrer Visit. 's isch e großi Ehr for uns, Herr l'abbe, daß Sie au emol . .
          . .

        
",72,greber-lucie,46,5,0.8011764267567031,0.10869565217391304
291,drama,Abbé Mülberg,M,vicar,clergy,lower_middle_class,"
          
Mülberg :

          
Kann ich einen Augenblick allein mit Ihrer Frl. Tochter sprechen ?

        
",72,greber-lucie,14,2,0.0,0.14285714285714285
294,drama,Marie Engel,F,,,,"
          
Mutter :

          
Awer wurum denn nit, Herr l'abbé? Do nemme Sie denne Stuehl, Herr l'abbé. 's isch d'r bescht, wo m'r
          han, Herr l'abbé. — — — Ja, Herr l'abbé, m'r sin armi Litt, Herr l'abbé. M'r sin durich Krankheite un
          sunschtig misère um unser Sach kumme. Verlycht könnte Sie uns . . . .
          
(sie stockt, weil Lucie sie mit einem ernsten Blick anschaut).
 Ja, m'r sin arig arm. — —
          — Ich will doch 's Fenschter zuemache — — 's isch e schöner Daa gsin, awer 's wurd wirklich e bissel
          küellecht — — ums Erumlüeje het m'r de Schnüppe oder de Rhümatissem. D'r courant d'air macht aim nit
          güet — — — Ich saa als, nurre gsund bliewe, d'r Rescht wurd sich schun finde — — Soll ich Licht mache,
          Herr l'abbé? 's fangt glauwi schun an, dunkel ze wäre. d'Däj sin schun ari kurz worre.

        
",73,greber-lucie,178,22,0.07953496891075634,0.12359550561797752
295,drama,Abbé Mülberg,M,vicar,clergy,lower_middle_class,"
          
Mülberg

          
(lehnt ab):

          
Ich denke bald wieder zu gehen, Frau Engel.

        
",73,greber-lucie,16,1,0.0,0.0625
296,drama,Marie Engel,F,,,,"
          
Mutter :

          
's isch schad, daß es Berthel noch nit do isch, es dhädd sich freie for im Herr l'abbé bonjour ze
          saaue. 's isch drüsse uff der Gaß bi de Kamerädle. — — 's wurd awer glich kumme. Ich geh, Herr l'abbé.
          
(Links ab.)

        
",74,greber-lucie,55,6,0.0,0.10909090909090909
297,drama,Abbé Mülberg,M,vicar,clergy,lower_middle_class,"
          
Mülberg :

          
Ich habe ein ernstes Wort mit Ihnen zu sprechen, Frl. Lucie. Ich hätte es schon längst gerne gethan,
          indeß . . . .

        
",74,greber-lucie,29,2,0.0,0.06896551724137931
299,drama,Abbé Mülberg,M,vicar,clergy,lower_middle_class,"
          
Mülberg :

          
Doch, ja. — — Frl. Lucie, wissen Sie, weshalb ich zu Ihnen komme?

        
",74,greber-lucie,21,2,0.0,0.09523809523809523
300,drama,Lucie,F,,,,"
          
Lucie :

          
Nein, Herr l'abbé, ganz un gar nit. — — 
          
(Pause.)

        
",75,greber-lucie,18,3,0.0,0.16666666666666666
301,drama,Abbé Mülberg,M,vicar,clergy,lower_middle_class,"
          
Mülberg :

          
Soeben habe ich einem Sterbenden die heilige Wegzehrung gereicht und habe ihm die Augen zugedrückt.
          Wie ich nun an Ihrer Wohnung vorbeiging, kam mir der feste Entschluß, nicht eher dieses Haus zu
          verlassen, bis ich versucht habe, einem andern Sterbenden zum neuen Leben verholfen zu haben.

        
",75,greber-lucie,54,4,0.0,0.07407407407407407
303,drama,Abbé Mülberg,M,vicar,clergy,lower_middle_class,"
          
Mülberg :

          
Sie werden mich bald verstehn, Frl. Lucie. Ich meine keine leiblich Sterbende — — — — es giebt auch
          schwere Krankheiten der Seele . . . . Verstehn Sie mich jetzt, Frl. Lucie?

        
",75,greber-lucie,41,5,0.0,0.12195121951219512
304,drama,Lucie,F,,,,"
          
Lucie :

          
Nein, Herr l'abbé.

        
",76,greber-lucie,7,1,0.0,0.14285714285714285
305,drama,Abbé Mülberg,M,vicar,clergy,lower_middle_class,"
          
Mülberg :

          
Nun gut, ich will nicht hinterm Berge halten. Ich möchte eine Frage an Sie richten — — eine Frage,
          von welcher ich glaube, daß ich sie zu stellen berechtigt bin. Habe ich Sie doch zum ersten Male an den
          Tisch des Herrn geführt und Sie seiner Zeit unter die Marienkinder aufgenommen. Ich frage Sie: sind Sie
          ein Marienkind geblieben?

        
",76,greber-lucie,69,7,0.0,0.10144927536231885
306,drama,Lucie,F,,,,"
          
Lucie :

          
Ich weiß nit, wie Sie mich dis fröuje könne. Wenn ich mich nit trumpier, bin ich doch bis
          letschte-n-Ostern fascht jeds Mol in d' Versammlung kumme, Herr l'abbé.

        
",76,greber-lucie,37,4,0.0,0.10810810810810811
307,drama,Abbé Mülberg,M,vicar,clergy,lower_middle_class,"
          
Mülberg :

          
Von letzten Oftern bis heute ist eine lange Zeit, da kann vieles sich verändert haben, wenn nicht
          schon früher . . . .

        
",76,greber-lucie,27,2,0.0,0.07407407407407407
308,drama,Lucie,F,,,,"
          
Lucie :

          
Sie welle mir, glauwi, d'Bicht abnemme, Herr l'abbé. Sin Sie weje dem unbsorjt; wenn ich denk, daß
          es d'r Zitt isch ze bichte, wur ich schun kumme. Un jetz nix for ungüet, Herr l'abbé Mülberg.

        
",77,greber-lucie,48,7,0.4147804815094703,0.14583333333333334
309,drama,Abbé Mülberg,M,vicar,clergy,lower_middle_class,"
          
Mülberg

          
(warm):

          
Sprechen Sie nicht so, Frl. Lucie. Die Kirche drängt ja Niemandem ihre Gnadenmittel auf. Sie werden
          aber doch Ihrem früheren Seelsorger, der Ihnen ein väterlicher Freund war, nich verargen, wenn ihm auch
          jetzt noch das Heil Ihrer Seele warm am Herzen liegt.

        
",77,greber-lucie,55,7,0.0,0.12727272727272726
310,drama,Lucie,F,,,,"
          
Lucie :

          
Vun dem isch ken Redd, Herr l'abbé.

        
",77,greber-lucie,11,1,0.0,0.09090909090909091
311,drama,Abbé Mülberg,M,vicar,clergy,lower_middle_class,"
          
Mülberg :

          
Nicht wahr — — ich wußt' es ja. Wenn man ein Kind, von dem man sich alles Gute versprach, hat
          aufwachsen sehen, dann thut es einem so unendlich weh, wenn man von ihm hören muß, daß es vom Pfade der
          Tugend abgewichen ist — —

        
",77,greber-lucie,53,9,0.0,0.16981132075471697
312,drama,Lucie,F,,,,"
          
Lucie :

          
Wer het ne jetz dis vun mir gsaat? Dis isch awer doch züe arrig. Wenn Sie de Litt glich alles glauwe
          welle — — es wurd viel gebabbelt , wenn d'r Daa lang isch. Un ich weiß au, wer Ine dis gsaat het. Dis
          isch sicher 's Lüwis gsin 
          
(Mülberg macht eine abwehrende Bewegung).
 Mit dem bin i schun lang bös. Es
          
soll sich an sinere Nas hewe. — Awer nein! Isch dis nit awer! — Vum Lüwis könnt ich ne
          Saches verzähle, Herr l'abbé — — awer ich dhüe's nit, lüeje Sie, ich dhüe's nit, 's isch m'r ze dumm un
          ze — — gemein. Isch's nit 's Lüwis gsin?

        
",78,greber-lucie,134,9,0.0,0.06716417910447761
313,drama,Abbé Mülberg,M,vicar,clergy,lower_middle_class,"
          
Mülberg

          
(abwehrend):

          
Frl. Lucie — — — ich kann Ihnen übrigens versichern, daß sie es nicht gewesen ist —

        
",78,greber-lucie,24,1,0.0,0.041666666666666664
314,drama,Lucie,F,,,,"
          
Lucie :

          
Wenn ich's emol triff, wur ich em awer Schand saaue, dem schlechte Ding.

        
",78,greber-lucie,19,2,0.0,0.10526315789473684
315,drama,Abbé Mülberg,M,vicar,clergy,lower_middle_class,"
          
Mülberg :

          
Sie dürfen mir glauben, daß ich eine nicht begründete Verdächtigung für sündhaft halte . . . ich
          denke immer das Beste von den Menschen und möchte Niemandem wehe thun — — doch bei Ihnen, Frl. Lucie,
          ist mein sehnlichster Wunsch: wenn's mit Ihnen nur nicht noch schlimmer steht, als die Leute sagen . .
          . .

        
",78,greber-lucie,65,7,0.0,0.1076923076923077
316,drama,Lucie,F,,,,"
          
Lucie :

          
Herr l'abbé ..... ich saa ne merçi for die güet Meinung, wo Sie vun m'r han.

        
",79,greber-lucie,20,3,0.0,0.15
317,drama,Abbé Mülberg,M,vicar,clergy,lower_middle_class,"
          
Mülberg :

          
Schon lange arbeiten Sie nicht mehr: und gehen doch in Sammt und Seide. Ihre Eltern sind nicht
          reich: und gleichwohl ist Ihre Hand mit kostbaren Ringen geschmückt.

        
",79,greber-lucie,33,5,0.0,0.15151515151515152
318,drama,Lucie,F,,,,"
          
Lucie :

          
Was dis anbetrifft, so gehts nieme nix an. Sie wäre m'r doch glauwe, wenn ich ne saa, daß ich die
          Saches nit gstohle hab?

        
",79,greber-lucie,31,2,0.0,0.06451612903225806
319,drama,Abbé Mülberg,M,vicar,clergy,lower_middle_class,"
          
Mülberg :

          
Das habe ich nicht gesagt; nur meine ich .....

        
",79,greber-lucie,12,1,0.0,0.08333333333333333
320,drama,Lucie,F,,,,"
          
Lucie :

          
Was meine Sie?

        
",80,greber-lucie,6,1,0.0,0.16666666666666666
321,drama,Abbé Mülberg,M,vicar,clergy,lower_middle_class,"
          
Mülberg :

          
Nichts. — — Gar nichts. — 
          
(Pause.)
 Kamen Sie nicht in letzter Zeit öfters zur Frühmesse?

        
",80,greber-lucie,24,4,0.0,0.16666666666666666
322,drama,Lucie,F,,,,"
          
Lucie :

          
Doch, Herr l'abbé.

        
",80,greber-lucie,7,1,0.0,0.14285714285714285
323,drama,Abbé Mülberg,M,vicar,clergy,lower_middle_class,"
          
Mülberg :

          
— — wenn's noch dunkel war und die Laternen noch brannten?

        
",80,greber-lucie,15,2,0.0,0.13333333333333333
324,drama,Lucie,F,,,,"
          
Lucie :

          
Ganz erecht, Herr l'abbé.

        
",81,greber-lucie,8,2,0.0,0.25
325,drama,Abbé Mülberg,M,vicar,clergy,lower_middle_class,"
          
Mülberg :

          
Da knieten Sie mit übernächtigem Auge auf einer der lezten Bänke. Ich aber fragte mich: wo mag sie
          herkommen? Betet sie zu ihrem Heilande, damit er sie für die Arbeit des kommenden Tages stärke ? Und
          weil ich diese Frage nicht bejahen konnte, flehte ich inbrünstig zu Gott: Herr vergieb ihr, denn sie
          weiß nicht, was sie thut.

        
",81,greber-lucie,69,5,0.0,0.07246376811594203
326,drama,Lucie,F,,,,"
          
Lucie :

          
Ja, jetzt saaue Sie doch emol um Gottswille, was dis alles beditte soll.

        
",81,greber-lucie,18,2,0.0,0.1111111111111111
327,drama,Abbé Mülberg,M,vicar,clergy,lower_middle_class,"
          
Mühlberg :

          
Sie sind nicht rein geblieben, Frl. Lucie!

        
",81,greber-lucie,12,1,0.0,0.08333333333333333
328,drama,Lucie,F,,,,"
          
Lucie :

          
Ah, dis meine Sie, daß ich e Schatz hab? Ja, ich hab einer, Herr l'abbé! M'r bliet nit allewyl e
          Kind. d'Mamme het m'r gsaat, daß sie au ihri Schätz het ghet. Mache Sie's doch nit eso gfährlich! Wenn
          m'r nit in d'r Jüged soll e bissel Pläsier han, meine Sie verlicht im Alter ?

        
",82,greber-lucie,70,13,0.0,0.18571428571428572
329,drama,Abbé Mülberg,M,vicar,clergy,lower_middle_class,"
          
Mülberg :

          
Daß Sie einen Mann lieben, vom innersten Grunde Ihres Herzens, wird Ihnen Niemand verargen. Daß sie
          diesem Manne alles geben, das Kostbarste, was Sie besizen — — ohne daß er Ihr rechtmäßig verbundener
          Gatte ist — -, ist sündhaft, wäre aber schließlich nicht so schlimm . . . . . Wenn Sie aber nicht einem
          allein angehören, wenn Sie sogar Ihre sündigen Dienste . . . . .

        
",82,greber-lucie,78,10,0.0,0.1282051282051282
330,drama,Lucie,F,,,,"
          
Lucie :

          
Güet also, Herr l'abbé, wo Sie's doch wisse — — was soll ich's laigle? Ja, — — 's isch wohr — — ich
          bin schlecht gsin — — — un hab mich nit scheniert . .... Geld ze nemme. Awwer wurum, Herr l'abbé,
          wurum? — — Ich hab e Babbe, wo de ganze Daa im Wirtshüs sitzt un verlicht einmol im Monet nüchtere
          heime kummt, mini Mamme het d' Bruschtsucht un kann nit schaffe, un min Schwesterle isch noch e kleins
          Kind. 's einzig, wo Geld verdient, bin ich. Frühjer bin ich im e Gschäft gsin, vun morjes am achte bis
          am Owes am siewwene, halwer bucklicht hawi mich gschafft, un dodrfor hawi drissig Franke Lohn bekumme
          monetlich. Zitter daß awer min Babbe üs em Dhurn widder erüs isch — — — er het vier Johr ze sitze
          kreijt weje Sittlichkeit — — ischs eso nimmeh gange. Mim Babbe will niemes Arweit genn — er dhädd au
          nit schaffe, wenn er bekumme dhädd. Un was sin drissig Franke for vier Litt? For's Berthe müeß ich
          ellein jede Monet sechs Mark Schüelgeld bezahle un vierzeh Mark for Bücher und Kleider, daß es in d'r
          ""doctrine"" bliewe kann by de Schüelschwestere. Un do hamm'r als noch nix ze bisse-n-un ze breche, un
          noch keins von uns dreij het Kleider am Lib un Schüeh an de Fieß. Geld müeß ins Hüs — — Geld — -, daß
          m'r nit im Hunger un Elend umkumme — -, un Geld, Herr l'abbé, kann m'r nit üs em Elleböuje schüttle,
          dis wisse Sie so güet wie ich. Wo soll ichs also hereschaffe ?

        
",82,greber-lucie,309,36,0.0,0.11650485436893204
331,drama,Abbé Mülberg,M,vicar,clergy,lower_middle_class,"
          
Mülberg :

          
. . . Sie hätten wohl auch mildthätige Hände genug gefunden — — es giebt Vereine — —

        
",82,greber-lucie,20,2,0.0,0.1
332,drama,Lucie,F,,,,"
          
Lucie :

          
Wer soll uns ebbs genn? Mit e paar Holz- un Suppekärtle isch uns so güet wie nix gholfe, un d'
          Societäte, wo sich um Litt, wie min Babbe-n-annemme, han schun lang alli Hilf refüsiert.

        
",83,greber-lucie,45,5,0.0,0.1111111111111111
334,drama,Lucie,F,,,,"
          
Lucie :

          
Bettle gehn? Herr l'abbé, 's Lucie geht nit bettle.

        
",83,greber-lucie,14,3,0.0,0.21428571428571427
335,drama,Abbé Mülberg,M,vicar,clergy,lower_middle_class,"
          
Mülberg :

          
Ich will ja nicht über Sie richten, das sei fern von mir. Nur meine ich, daß es besser sei zu
          sterben, als sich so der Sünde hinzugeben.

        
",83,greber-lucie,34,5,0.0,0.14705882352941177
336,drama,Lucie,F,,,,"
          
Lucie :

          
Sie han güet redde, Herr l'abbé . ..

        
",84,greber-lucie,11,2,0.0,0.18181818181818182
337,drama,Abbé Mülberg,M,vicar,clergy,lower_middle_class,"
          
Mülberg :

          
Ich will Ihnen ja gerne zugeben, daß Sie in sehr mißlicher Lage gewesen sind. Dies kann aber nur die
          Sünde mildern, entschuldigen kann sie dieselbe nicht. Gott hat noch keinen Armen im Stich gelassen, und
          wenn es scheint, als ob er seine barmherzige und hilfreiche Hand ganz zurückgezogen hätte, dann sind es
          nur Prüfungen, die er sendet.

        
",84,greber-lucie,68,12,0.0,0.17647058823529413
338,drama,Lucie,F,,,,"
          
Lucie

          
(will reden, Mülberg läßt sie aber nicht zu Worte kommen).

        
",84,greber-lucie,15,2,0.0,0.13333333333333333
339,drama,Abbé Mülberg,M,vicar,clergy,lower_middle_class,"
          
Mülberg :

          
Ich glaube aber, Frl. Lucie, Sie belügen sich selbst. Die Not war es nicht, die Sie in die Sünde
          trieb, es war der Leichtsinn, die Genußsucht — — es war die Fleischeslust. Sie suchte nur in der Not
          ihre Entschuldigung. Oder empfanden Sie irgendwelche Reue, wenn Sie morgens aus dem Arm Ihres Buhlen
          zur Kirche eilten? War das ein wirkliches Gebet? Oder war es nicht vielmehr Selbstbetrug, indem Sie
          sich
          
einbildeten, mit einem Kniefall sei das Geschehene wieder gut gemacht, mit einem Kniefall,
          bei welchem Sie an die Fortsetzung Ihrer Sünde dachten? Das ist nicht Frömmigkeit, das ist
          Gewissensbetäubung. Wer nicht die Lust zu solcher Unlauterkeit in sich fühlt, den wird keine Macht der
          Erde dazu bringen können. Jeder Muskel, jeder Nerv und jeder Blutstropfen wird sich dagegen empören.
          Ist es nicht so?

        
",84,greber-lucie,159,16,0.0,0.10062893081761007
340,drama,Lucie,F,,,,"
          
Lucie :

          
Nein, nein! Herr l'abbé! So schlecht bin ich doch nit! — — Ich versicher Sie, die Not un dis
          Elend....

        
",85,greber-lucie,28,5,0.0,0.17857142857142858
341,drama,Abbé Mülberg,M,vicar,clergy,lower_middle_class,"
          
Mülberg :

          
Mag sein, mag sein! Wie oft aber habe ich Ihnen — — Ihnen allen aus unserer Bruderschaft — — ans
          Herz gelegt, gegen diese Versuchungen standhaft zu sein! Wir hatten uns doch so fest gelobt, der
          Leidenschaft nicht unterliegen zu wollen. Wir wissen es ja: keine der Sünden schmerzt Gott so sehr,
          keine ist ihm so häßlich, wie die Sünden wider das sechste Gebot. Gleichwohl sind Sie uns abtrünnig
          geworden ..... von jeder andern hätte ich es eher erwartet, wie gerade von Ihnen . . . weil ich Ihr
          gutes Herz kenne und Ihre edle Veranlagung . . . jetzt muß ich erfahren, daß ich tauben Ohren gepredigt
          habe . . . und muß sehen, wie Sie dem Abgrund entgegeneilen, aus welchem zu entrinnen ein göttliches
          Wunder wäre — — — 
          
(mit Nachdruch)
 Denn wenn einmal Gericht und Polizei von Ihrem Treiben Kenntnis bekommen
          sollten 
          
(Lucie schauderts),
 dann wären Sie für die Menschheit und für diese Welt verloren.

        
",85,greber-lucie,180,23,0.35198796724655407,0.12777777777777777
342,drama,Lucie,F,,,,"
          
Lucie :

          
O Gott! O Gott! Die Schand dädd ich nit üewwerlewe!

        
",85,greber-lucie,15,3,0.0,0.2
343,drama,Abbé Mülberg,M,vicar,clergy,lower_middle_class,"
          
Mülberg :

          
Dann gäbe es keine Rettung mehr, und nach menschlicher Erfahrung würde auch der Seelsorger an Ihnen
          verzweifeln müssen. Wissen Sie das?
          
(Lucie giebt zerknirscht ihre Zustimmung zu erkennen.)
 — — Und wie unendlich nahe stehen
          Sie dieser Gefahr! Geächtet fürs ganze Leben, krank an Körper und Seele!

        
",85,greber-lucie,58,9,0.2948329250464667,0.15517241379310345
345,drama,Abbé Mülberg,M,vicar,clergy,lower_middle_class,"
          
Mülberg :

          
O kehren Sie um, ehe es zu spät ist! Bedenken Sie, die Gnade Gottes ist ja unendlich groß, seine
          Barmherzigkeit ist unergründlich. Vertrauen Sie Ihrem Erlöser und seiner heiligen Kirche — — wir sind
          ja alle Menschen und können fehlen — — vor Gott ist keine Sünde so groß, daß sie nicht vergeben werden
          könnte. Kehren Sie um, ehe es zu spät ist, ringen Sie sich aus der Dunkelheit wieder empor zum Lichte,
          wo die wahre Glückseligkeit wohnt. Suchen Sie das Kleid der heiligmachenden Gnade, welches Sie am Tage
          Ihrer ersten heiligen Kommunion so herrlich schmückte, wiederzugewinnen und fortan unbefleckt zu
          erhalten. Die Barmherzigkeit Gottes wird alles verzeihen und vergessen . . . oh, eilen Sie Ihrem
          frommen Kinderglauben in die Arme mit dem Troste, daß das Blut Christi, das für uns alle geflossen ist,
          auch Ihrer teilhaftig werde!!

        
",86,greber-lucie,161,28,0.0,0.17391304347826086
346,drama,Lucie,F,,,,"
          
Lucie

          
(wirft sich mit einem lauten Aufschrei auf die Kniee und will ihren Kopf im Schoße Mülbergs
          verbergen).

        
",86,greber-lucie,21,3,1.4549563214741161,0.14285714285714285
347,drama,Abbé Mülberg,M,vicar,clergy,lower_middle_class,"
          
Mülberg

          
(sie sanft abwehrend):

          
Nicht so, Lucie, nicht so! Steh auf! Lucie! Lucie!

        
",86,greber-lucie,22,1,1.2188011001069283,0.045454545454545456
349,drama,Abbé Mülberg,M,vicar,clergy,lower_middle_class,"
          
Mülberg :

          
Ich bitte dich Kind, steh auf! Komm, setze dich hierher, ich will dir etwas erzählen.
          
(Er hebt Lucie auf und setzt sie auf den Stuhl. Lucie sitzt während der folgenden Erzählung
          regungslos am Tische, indem sie das Gesicht mit den Händen bedeckt und zuweilen laut aufschluchzt.
          Mülberg erzählt einfach und schlicht, ohne Affekt.)
 Laß sie nur fließen, die Thränen der Reue,
          sie werden dein Herz erleichtern. — — Sieh, in Westfalen, meiner Heimat, da hatte ich einen
          Jugendfreund, der mir lieb und wert war. Wir verließen zusammen das Gymnasium und kamen auf die
          Universität. Eine Zeit lang lebten wir noch in der alten, ungetrübten Freundschaft miteinander, bis ein
          Ereignis eintrat, welches bald die Ursache unserer Trennung wurde. Da nämlich der Vater meines
          Jugendfreundes starb, erlangte dieser den Besitz und die freie Verfügung über dessen Nachlaß, welcher
          sehr beträchtlich war. Da fing er an zu toben, da fühlte er sich frei! Während früher die strenge
          väterliche Zucht seiner Abenteurerlust und Ausgelassenheit Zügel anlegte, konnte er jetzt das Leben
          nach Herzenslust genießen. Er hat es auch gethan ; bald war ihm nichts mehr heilig; und so verlor er
          den Glauben an die Welt, dann an sich selbst und schließlich an Gott. Ganze Nächte verbrachte er in
          Zechgelagen — an Schmarotzern fehlte es nicht — und er warf sich dem Laster in die Arme. So trieb er es
          zwei Jahre lang: da ward' es aber plötzlich anders. 
          
(Lucie blickt jetzt auf und folgt mit größter Spannung.)

          
Eines Morgens — es war der erste Osterfeiertag — kehrte er in der Frühe nach einer wüst
          verlebten Nacht nach Hause; er sah die Gläubigen zur Kirche eilen und hörte allenthalben die Glocken
          läuten. Kaum hatte er seine Zimmerthür hinter sich zugemacht, als er, wie vom Schlage getroffen,
          bewußtlos zu Boden fiel. Bald darauf stellte sich ein hitziges Fieber bei ihm ein und er mußte
          monatelang im Krankenhause liegen. Immer wieder hörte er im Fiebertraume den ehernen Klang der Glocken
          wie ein warnender Ruf tönten sie ihm ins Ohr — immer wieder sah er die Gläubigen, Gebetbuch und
          Rosenkranz in der Hand, zur Kirche eilen. Da kam die Erleuchtung über ihn! Sobald er wieder Herr seiner
          Sinne war und in seinen abgezehrten Gliedern nur einen Funken neuer Lebenskraft in sich verspürte, da
          richtete er sich in seinem Bette auf, fiel auf die Knie und gelobte mit heiligem Schwur, ein anderer
          Mensch zu werden.

        
",87,greber-lucie,454,53,0.14270010318081652,0.11674008810572688
350,drama,Lucie,F,,,,"
          
Lucie :

          
O Gott! o Gott!

        
",87,greber-lucie,8,2,0.0,0.25
351,drama,Abbé Mülberg,M,vicar,clergy,lower_middle_class,"
          
Mülberg :

          
Was er sich damals vornahm, das hat er auch redlich durchgeführt. Kaum genesen, trat er in einen
          strengen Büßerorden ein, um vor Gott für seine schweren Sünden Gnade zu finden. Für sein bußfertiges
          Leben ist er reichlich belohnt: er ist versöhnt mit seinem Gotte, er lebt für ihn, er lebt in ihm! — —
          Willst du, daß ich dir den Weg eben dahin zeige?

        
",87,greber-lucie,77,9,0.5177380108907761,0.11688311688311688
352,drama,Lucie,F,,,,"
          
Lucie :

          
Dhüen Sie's, Herr l'abbé, dhüen Sie's. Saaue Sie mir, was ich mache soll.

        
",88,greber-lucie,22,1,0.0,0.045454545454545456
353,drama,Abbé Mülberg,M,vicar,clergy,lower_middle_class,"
          
Mülberg :

          
Was du thun sollst? dich losreißen von deiner Vergangenheit und ein neues Leben beginnen.

        
",88,greber-lucie,18,2,0.0,0.1111111111111111
354,drama,Lucie,F,,,,"
          
Lucie :

          
Ja un wie — —

        
",88,greber-lucie,7,1,0.0,0.14285714285714285
355,drama,Abbé Mülberg,M,vicar,clergy,lower_middle_class,"
          
Milberg :

          
Du mußt fort von hier, weit fort, fort aus dieser Atmosphäre, die dein Herz vergiftet hat.

        
",88,greber-lucie,22,2,0.0,0.09090909090909091
357,drama,Abbé Mülberg,M,vicar,clergy,lower_middle_class,"
          
Mülberg :

          
Ja das mußt du, und ich will für dich sorgen. Vor allen Dingen wirft du morgen einem Priester
          reumütig deine Sünden beichten — — ich werde einen Kollegen bitten, auf dem Platze zu sein — — wen du
          zum Beichtvater wünschest. Und damit du dich würdig vorbereitest, wirst du schon heute nicht mehr hier
          verbleiben, sondern dahin gehen, wohin ich dich schicken werde.

        
",89,greber-lucie,73,8,0.68208567583369,0.1095890410958904
359,drama,Abbé Mülberg,M,vicar,clergy,lower_middle_class,"
          
Mülberg :

          
Bei frommen Schwestern wirst du übernachten, die ich benachrichtigen werde. Heute Abend auf dem
          Pfarrhause wird dir der Pförtner die Adresse aushändigen.

        
",89,greber-lucie,27,2,0.0,0.07407407407407407
361,drama,Abbé Mülberg,M,vicar,clergy,lower_middle_class,"
          
Mülberg :

          
Dann wirst du morgen von deinen Angehörigen Abschied nehmen.

        
",90,greber-lucie,12,2,0.0,0.16666666666666666
362,drama,Lucie,F,,,,"
          
Lucie

          
(beginnt wieder zu weinen):

          
Un drno?

        
",90,greber-lucie,11,1,0.0,0.09090909090909091
363,drama,Abbé Mülberg,M,vicar,clergy,lower_middle_class,"
          
Mülberg :

          
Fürchte nicht, daß ich irgend welchen Druck auf dich ausübe, Klosterfrau zu werden. Ich weiß, du
          paßt nicht zur Klosterfrau. Wer solchen Beruf nicht in sich fühlt und dazu gezwungen wird, der kann dem
          heiligen Stande nur schaden, nicht aber ihm nützen. Nach Westfalen werde ich dich schicken, in meine
          Heimat, zu ordentlichen Leuten; dort wirst du gut aufgehoben sein. Niemand soll etwas über deine
          Vergangenheit erfahren.

        
",90,greber-lucie,82,9,0.0,0.10975609756097561
364,drama,Lucie,F,,,,"
          
Lucie :

          
— — — un min Schweschterle un mini Mamme? — — —

        
",91,greber-lucie,15,1,0.0,0.06666666666666667
365,drama,Abbé Mülberg,M,vicar,clergy,lower_middle_class,"
          
Mülberg :

          
Das laß meine Sorge sein. Ich verspreche dir: sie sollen keine Not leiden. Ich bin reich, ich kann
          viel für sie thun. — — Nur mußt du mir geloben, immer brav zu bleiben.

        
",91,greber-lucie,42,6,0.0,0.14285714285714285
366,drama,Lucie,F,,,,"
          
Lucie :

          
Ganz gewiß, Herr l'abbé, ganz gewiß.

        
",91,greber-lucie,11,5,0.0,0.45454545454545453
367,drama,Abbé Mülberg,M,vicar,clergy,lower_middle_class,"
          
Mülberg :

          
Das Leben liegt ja noch vor dir. — — Und wenn einmal dein Herz geläutert ist und du dich
          entschlossen hast, einem Manne als Gattin fürs ganze Leben anzugehören, so wende dich an mich: ich
          werde dir für die Beschaffung deines Hausstandes behülflich sein.

        
",91,greber-lucie,51,6,0.0,0.11764705882352941
368,drama,Lucie,F,,,,"
          
Lucie :

          
Ich verdien's gar nit, daß Sie so güet züe m'r sin, Herr l'abbé.

        
",92,greber-lucie,19,3,0.0,0.15789473684210525
369,drama,Abbé Mülberg,M,vicar,clergy,lower_middle_class,"
          
Mülberg :

          
Nichts davon. — — Und nun geh in dein Kämmerlein , lege dein üppiges , reiches Kleid ab und
          vertausche es mit einem einfachen : ziehe deine kostbaren Ringe aus und laß Gold und Schmuck hinter
          dir. So wirst du Gott gefallen. Und dann komm ins Pfarrhaus, damit ich weiter für dich sorgen kann.

        
",92,greber-lucie,61,6,0.0,0.09836065573770492
370,drama,Joseph Engel,M,stonemason,crafts,lower_middle_class,"
          
Vater

          
(kommt total betranken herein, nachdem man ihn schon eine Zeit lang draußen hat singen hören; in
          der Stube setzt er das Singen fort):

          

            
's isch m'r alles eins, 's isch m'r alles eins,

            
Ob ich Geld hab oder keins!

            
's isch m'r alles eins — —

          

          

          
(Er sieht zunächst Niemanden. Dann stößt er auf Mülberg, bricht den Gesang ab und sieht den
          Vikar mit verglasten Augen an: er lallt)
: Sapristi !
          
- — — Ah — — ! vot' serviteur — m'sieur le curé — — — je vous salue bien — m'sieur le
          curé. Do könne m'r awer — — stolz sin, daß d'Geischtlichkeit au emol züe ess kummt. — — — Jetz möcht
          ich — — halt nur — — au gern wisse, was Sie do süeche — Herr Pfarrer.

        
",92,greber-lucie,153,15,0.0674177183944533,0.09803921568627451
371,drama,Lucie,F,,,,"
          
Lucie :

          
Ich bitt dich, Babbe . . . .

        
",92,greber-lucie,11,2,0.0,0.18181818181818182
372,drama,Joseph Engel,M,stonemason,crafts,lower_middle_class,"
          
Vater :

          
Armi Litt han doch ken Gott — — — 's isch emol eso — — was kann ich drfor — — der isch nurre for
          d'Riche do . . . . die könne au ebbs zahle — — mir armi Litt losse-n-uns awer au nix — — vorkäschperle
          . . . . Uns holt jo doch d'r Deifel . . . . Was leijts mir an!

        
",93,greber-lucie,72,7,0.3004767074209681,0.09722222222222222
373,drama,Abbé Mülberg,M,vicar,clergy,lower_middle_class,"
          
Mühlberg

          
(für sich, Engel hört es jedoch):

          
Pfui !

        
",93,greber-lucie,13,1,0.0,0.07692307692307693
374,drama,Joseph Engel,M,stonemason,crafts,lower_middle_class,"
          
Vater :

          
Nix ze pfui, — — Herr Pfarrer. — Do bin ich Herr im Hüs — — un kann saaue, was mir baßt — — un wenns
          ne nit kunvenirt — — d'rno — — d'rno 
          
(zeigt linkisch auf die Thür),
 Alleh! Lucie, — — hol e Flasch Bier oder e Liter Schnaps.
          — — Ich hab Durscht! — — — Dis gitt andri Gedanke. — — M'r lewe-n-au geischtli, Herr Pfarrer!
          
(Macht die Geberde des Trinkens.)
 Welle Sie nit mithalte ?

        
",93,greber-lucie,103,12,0.0,0.11650485436893204
375,drama,Marie Engel,F,,,,"
          
Mutter

          
(kommt mit einer Unschlittkerze von links):

          
Do bring ich ne Licht, Herr l'abbé; 's isch schun ziemli dunkel worre.
          
(Sie sieht ihren Mann.)
 Jesses Gott, do bisch jo dü — — —

        
",93,greber-lucie,43,7,0.0,0.16279069767441862
376,drama,Joseph Engel,M,stonemason,crafts,lower_middle_class,"
          
Vater :

          
Ja, — — do bin ich — — du hesch doch nix d'rwidder — — hesch dü denne Pfaff ins Hüs gebroocht ?

        
",94,greber-lucie,27,3,0.0,0.1111111111111111
377,drama,Marie Engel,F,,,,"
          
Mutter :

          
Schäm dich do e bissel, so wüscht ze redde. Nemm dich doch zsamme! — — — Lieje Sie, Herr l'abbé, so
          gehts jede Daa, wo d'r lieb Herrgott erschaffe het. — — Der Mann het uns dun ebbs misère gemacht!

        
",94,greber-lucie,50,6,0.0,0.12
379,drama,Joseph Engel,M,stonemason,crafts,lower_middle_class,"
          
Vater :

          
Waas — -? — — ich weiß selbscht — — was ich ze dhüen hab — — do brüch ich Sie nit! — — 
          
(Er sieht den Vikar von oben bis unten an.)
 Lüej do! — — lüej do! — — Do sin Sie jo als
          noch — — Welle Sie verlicht do ümmwer Nacht bliewe — -? Ja ja — — 's Lucie isch e netts Maidel — —
          —

        
",94,greber-lucie,81,5,0.0,0.06172839506172839
380,drama,Lucie,F,,,,"
          
Lucie :

          
Babbe!

        
",95,greber-lucie,4,1,0.0,0.25
381,drama,Abbé Mülberg,M,vicar,clergy,lower_middle_class,"
          
Mülberg :

          
Schweigen Sie, schamloser Mensch! Ihre Familie haben Sie ins Unglück gebracht — — Ihre Tochter haben
          Sie dem sittlichen Verderb preisgegeben — — Ihre armen Angehörigen leben in beständiger Furcht vor
          Ihrer Brutalität — — ich aber stehe Ihnen frei gegenüber. Ihren Zorn fürchte ich nicht. Und so
          schleudere ich Ihnen die Worte ins Gesicht : Sie sind ein Judas! Im Namen des gerechten Gottes: die
          Vergeltung wird Ihnen dereinst nicht erspart bleiben.

        
",95,greber-lucie,82,18,0.0,0.21951219512195122
382,drama,Joseph Engel,M,stonemason,crafts,lower_middle_class,"
          
Vater :

          
Oho — — — ! so kumme Sie mir dohere? — — — Herrgottsakrement noch emol, jetz verzürn ich mich — —
          Wenn Sie nit welle, daß ich mich an Ine vergriffe soll . . . .
          
(geht drohend auf den Vikar zu).

        
",95,greber-lucie,51,3,0.0,0.058823529411764705
383,drama,Marie Engel,F,,,,"
          
Mutter :

          
Mann, du machsch dich unglücklich!
          
(Lucie und Mutter halten ihn zurück.)

        
",95,greber-lucie,18,2,0.0,0.1111111111111111
384,drama,Abbé Mülberg,M,vicar,clergy,lower_middle_class,"
          
Mülberg :

          
Ich gehe schon, Herr Engel, ich gehe schon. Das aber sage ich Ihnen, in Ihrer Todesstunde werden Sie
          noch an mich denken.
          
(Sanft und warm zu Lucie):
 Adieu, Frl. Lucie; leben Sie wohl. Heute Abend auf dem
          Pfarrhause!

        
",96,greber-lucie,53,7,0.17411444287241834,0.1320754716981132
385,drama,Lucie,F,,,,"
          
Lucie

          
(warm und treuherzig, indem sie ihm die Hand reicht):

          
Ja, Herr l'abbé.

        
",96,greber-lucie,19,3,0.0,0.15789473684210525
386,drama,Joseph Engel,M,stonemason,crafts,lower_middle_class,"
          
Vater :

          
Wer het m'r denne Pfaff ins Hüs gebroocht ? — — denne Galjevöujel! — — Schinheiligi Nation! — Wenn
          m'r noch emol einer in d'Stubb kummt, ich verschlaa im's Hirn, so wahr daß ich Schosseff heiß! — — Han
          Ihr mich verstande? — — Was brüch ich e Pfarrer? — — Ich bin min Pfarrer selbscht — — ich brüch ken
          Pfarrer!
          
(Ein Briefträger von rechts. Mit den Worten ""Brief for's Mamsell Lucie Engel"" wirft er einen
          Brief auf den Tisch und geht wieder ab.)

        
",96,greber-lucie,104,10,0.0,0.09615384615384616
387,drama,Lucie,F,,,,"
          
Lucie

          
(erschrickt):

          
E Brief! Ums Gottswille, was isch dis for e Brief? E Brief ohne timbre . . . .

        
",96,greber-lucie,26,1,0.0,0.038461538461538464
388,drama,Marie Engel,F,,,,"
          
Mutter :

          
Was wurd's groß sin, mach ne 'mol uff, no wurrsch schun sehn.

        
",97,greber-lucie,18,2,0.0,0.1111111111111111
389,drama,Lucie,F,,,,"
          
Lucie

          
(zittert wird totenbleich):

          
Ich kann nit! ich kann nit! Mamme, mach dü ne-n-uff, ich bitt dich drum.

        
",97,greber-lucie,28,3,0.0,0.10714285714285714
390,drama,Marie Engel,F,,,,"
          
Mutter

          
(macht ihn auf, murmelt zuerst, dann laut) :

          
. . . ""um als Beschuldigte vernommen zu werden. Die Kaiserliche Staatsanwaltschaft"" . . . .

        
",97,greber-lucie,32,3,0.0,0.09375
392,drama,Joseph Engel,M,stonemason,crafts,lower_middle_class,"
          
Vater :

          
Genn emol de Wisch here, dis versteh ich besser.
          
(Er liest einen Augenbli.)
 Hajo ! — Dis will nix heiße. 's het jo doch emol so kumme
          müesse. Du bisch vor's Gericht gelade.

        
",98,greber-lucie,44,5,0.0,0.11363636363636363
393,drama,Lucie,F,,,,"
          
Lucie :

          
Vor's Gericht !!
          
(Lauter Aufschrei.)

        
",98,greber-lucie,12,2,2.1824344822111743,0.16666666666666666
394,drama,Marie Engel,F,,,,"
          
Mutter :

          
Allmächtiger Himmel, dis Kind wurd ohnmächtig !
          
(Hält Lucie.)

        
",98,greber-lucie,15,5,0.6409411414053624,0.3333333333333333
395,drama,Joseph Engel,M,stonemason,crafts,lower_middle_class,"
          
Vater :

          
's wurd nit so arri sin. — — 's isch halt 's erscht Mol. — M'r gwöhnt sich awer gschwind dran.
          
(Er setzt sich aufs Sopha.)

        
",98,greber-lucie,34,2,0.0,0.058823529411764705
396,drama,Marie Engel,F,,,,"
          
Mutter :

          
Hilf m'r doch, Mann, dis Kind fallt m'r jo anne!

        
",99,greber-lucie,15,2,0.0,0.13333333333333333
398,drama,Marie Engel,F,,,,"
          
Mutter :

          
Min arms Kind!
          
(Hält sie)

        
",99,greber-lucie,10,2,0.0,0.2
399,drama,Joseph Engel,M,stonemason,crafts,lower_middle_class,"
          
Vater :

          
Dummheite — — dis kann jo alles nix nutze — — — de müesch jo doch anne — — do helft d'r ken Gott un
          ken Deifel — — ich kenn dis — — ich habs jo schun meh wie einmol durichgemacht — — Dis het awer ken
          Sach — — de gehsch halt anne — machsch e kleini Strof — sie wäre d'r de Kopf nit abschlaaue — —
          siehsch, un d'rno hesch's gfitzt — — d'rno kannsch mache, was de witt — — 's het d'r ken Mensch meh
          ebbs ze saaue — — ken Mensch — — 
          
(Er schläft ein.)

        
",99,greber-lucie,113,8,0.0,0.07079646017699115
400,drama,Eine Frau,F,,,,"
          
Eine Frau

          
(Verbrechergesicht : Stumpfnase und vorspringender Schädel ; kommt von rechts
          hereingeschlichen):

          
Bonsoir bisamme. Wohnt do verlycht d'Mamsell Lucie Engel?

        
",100,greber-lucie,27,2,0.0,0.07407407407407407
401,drama,Lucie,F,,,,"
          
Lucie

          
(blickt zuerst, wie aus einem Traume erwacht auf, und scheint einen Augenblick nachzusinnen. Man
          sicht, wie sie plötzlich einen Entschluß faßt ; sie geht schnell auf die Frau zu, bleibt aber mitten
          auf dem Wege noch einmal stehen, wie wenn sie umkehren wollte; dann aber eilt sie auf die Frau zu und
          flüstert):

          
Sie kumme vum Herr Dokt'r?

        
",100,greber-lucie,70,9,0.0,0.12857142857142856
402,drama,Frau Stelzer,F,,,,"
          
Frau

          
(flüstert auch):

          
Vum Herr Bajolewski. D'Citadin steht vorne-n-am Eck.

        
",100,greber-lucie,18,1,0.0,0.05555555555555555
403,drama,Lucie,F,,,,"
          
Lucie

          
(überlegt noch einen kurzen Augenblick, dann plötzlich und entschieden, wieder im
          Flüsterton):

          
's isch güet! ich kumm!
          
(Nimmt ihren Hut, der noch auf dem Tische liegt und eilt in ihr Zimmer.)

        
",100,greber-lucie,43,4,0.0,0.09302325581395349
406,drama,Marie Engel,F,,,,"
          
Mutter :

          
Wer het sie dohere geschickt ?

        
",101,greber-lucie,8,1,0.0,0.125
407,drama,Frau Stelzer,F,,,,"
          
Frau

          
(diese und die folgenden Antworten giebt sie stets nach einer Pause, langsam und
          zögernd):

          
Ich hab blos e kleini Kommission üszerichte.

        
",101,greber-lucie,27,4,0.0,0.14814814814814814
409,drama,Frau Stelzer,F,,,,"
          
Frau :

          
's isch vum e Herr.

        
",102,greber-lucie,8,1,0.0,0.125
410,drama,Marie Engel,F,,,,"
          
Mutter :

          
Was for e Kommission, mein ich.

        
",102,greber-lucie,10,1,0.0,0.1
412,drama,Marie Engel,F,,,,"
          
Mutter :

          
Wie heißt denn d'r Herr?

        
",103,greber-lucie,8,1,0.0,0.125
420,drama,Lucie,F,,,,"
          
Lucie :

          
Do bin ich.
          
(Sie geht auf ihre Mutter zu, umarmt sie, giebt ihr einen Kuß.)
 Bonsoir, Mamme, ich müeß
          gschwind
          
furt. Ich derf ken Zitt verliere.
          
(Auf dem Wege kehrt sie noch- mals um, umarmt ihre Mutter und küßt sie nochmals.)
 Adieu,
          Mamme! Loß d'rs güet gehn. Kumme Sie!
          
(Mit der Frau schnell ab.)

        
",105,greber-lucie,79,8,0.0,0.10126582278481013
422,drama,Lucie,F,,,,"
          
Lucie

          
(von draußen):

          
Weiß nit. Adieu!

        
",105,greber-lucie,11,1,0.0,0.09090909090909091
423,drama,Marie Engel,F,,,,"
          
Mutter :

          
Allmächtiger Gott, dis Kind wurd doch nit furtlaufe!
          
(Sie ruft);
 Lucie, Lucie!
          
(Rüttelt ihren Mann)
: Mann, steh doch uff, verwach doch! 's Lucie geht uns furt!

        
",105,greber-lucie,42,7,0.0,0.16666666666666666
424,drama,Joseph Engel,M,stonemason,crafts,lower_middle_class,"
          
Vater

          
(allmählich erwachend):

          
Es wurd schun widderkumme.

        
",106,greber-lucie,11,2,0.0,0.18181818181818182
425,drama,Marie Engel,F,,,,"
          
Mutter :

          
Mann, steh uff un lauf em nooch! Es geht sicher furt!

        
",106,greber-lucie,16,3,0.0,0.1875
426,drama,Joseph Engel,M,stonemason,crafts,lower_middle_class,"
          
Vater

          
(bleibt sitzen):

          
Ja ja! 's isch schun erecchht — —

        
",106,greber-lucie,15,3,0.0,0.2
427,drama,Marie Engel,F,,,,"
          
Mutter :

          
Ich bitt dich, Mann, geh doch, lauf doch! ....

        
",106,greber-lucie,15,2,0.0,0.13333333333333333
428,drama,Joseph Engel,M,stonemason,crafts,lower_middle_class,"
          
Vater :

          
Was isch denn los, daß de so jäscht?

        
",107,greber-lucie,12,3,0.8199071028437626,0.25
430,drama,Joseph Engel,M,stonemason,crafts,lower_middle_class,"
          
Vater :

          
Es weiß jo de Wäij for heim.

        
",107,greber-lucie,10,1,0.0,0.1
431,drama,Berthe,F,,,,"
          
Berthe :

          
Lüej emol, Mamme, was ich grad ewwe vum Finnel hab kriejt. 's het gsaat, 's Lucie het's im for mich
          genn.

        
",107,greber-lucie,29,3,0.0,0.10344827586206896
435,drama,Joseph Engel,M,stonemason,crafts,lower_middle_class,"
          
Vater :

          
Zaij emol 
          
(reißt ihr den Schein aus der Hand).

        
",108,greber-lucie,14,2,0.0,0.14285714285714285
436,drama,Marie Engel,F,,,,"
          
Mutter :

          
Gibsch du denne Schin here!

        
",109,greber-lucie,8,1,0.0,0.125
437,drama,Joseph Engel,M,stonemason,crafts,lower_middle_class,"
          
Vater :

          
Ich hebb ne-n-uff 
          
(steckt ihn ein).

        
",109,greber-lucie,13,2,0.0,0.15384615384615385
439,drama,Marie Engel,F,,,,"
          
Mutter :

          
Noch e Zettel. Do steht ebbs druff. ""Lebt wohl. Ihr seht mich nie wieder. Das Geld ist fürs Berthe.
          Lucie."" Hawichs nit gsaat!
          
(Bricht laut in Weinen aus.)
's Lucie isch furt! Min Kind isch furt!

        
",109,greber-lucie,52,5,0.0,0.09615384615384616
441,drama,Marie Engel,F,,,,"
          
Mutter :

          
Was solle mir armi Litt jetz mache? Jetz ischs ganz mit uns vorbey. Jetz müen mir alli Hungers
          sterwe!

        
",110,greber-lucie,24,2,0.0,0.08333333333333333
442,drama,Joseph Engel,M,stonemason,crafts,lower_middle_class,"
          
Vater :

          
Dis isch d'r Dank, wo m'r vun de Kinder het, daß m'r sie uffzeijt un bsorjt — — do siehsch, was de
          ferti gebroocht hesch — — heschs jo allewyl wölle besser wisse — — -!

        
",110,greber-lucie,42,4,0.0,0.09523809523809523
444,drama,Marie Engel,F,,,,"
          
Mutter :

          
O Gott, was soll üs uns wäre! Jetz simmer bettelarm!

        
",111,greber-lucie,15,1,0.0,0.06666666666666667
445,drama,Joseph Engel,M,stonemason,crafts,lower_middle_class,"
          
Vater :

          
Dummheit! — — Brüchsch nit ze verzwyfle-n-Alti. M'r han jo noch e Doochter.
          
(Er will Berthe an sich ziehen; diese macht sich aber los und läuft weinend zur
          Mutter.)

        
",111,greber-lucie,40,6,0.4099535514218813,0.15
