Unnamed: 0,drama_type,speaker,sex,job,job_category,social_class,text,progress,short_name,numTokens,numLexTokens,avgLexVal,lexRatio
0,comedy,Jules Kleitz,M,,,upper_middle_class,"
          
Jules

          

          
(sitzt auf dem Canapé und liest eine Zeitung — liest laut):
 « Prinz Yo-Yo! Wie eine
          Epidemie hast du die neue und die alte Welt angefallen ! Yo-Yo ist Trumpf !

          
(steht auf und wirft die Zeitung weg).

          
Nit ellein die nej und d'alt Welt het diss verruckte Ding üwerfalle, nein, au in mini ménage het
          sich diss Lumpeding iing'schlieche. Un wer het's eringebrocht ? Mini lieb un herzensgüet Schwejeres !
          Uessgerechent sie prowiert schunzitter 3 Wuche do in minere ménage Yo-Yo! Sie spielt am Morje wenn sie
          uffsteht, am Middaa wärenem Esse, de ganze Middaa, ja viellicht noch sogar z'Nacht-s im Bett. Un do
          solle eim nit d'Nerfe durichgehn ? s'Galee hab ich in minere Wohnung un dis alles numme, will mini lieb
          
          
un herzensgüet Schwejermamme Yo-Yo spiele will. » 
          
(Es klopft.)

        
",0,weber-yo-yo,159,17,0.16453095915681035,0.1069182389937107
2,comedy,Marie,F,domestic_worker,elementary_professions,lower_class,"
          
Marie

          
(kommt hinten herein):

          
« De Herr Dokter Schmitt isch do un will mit Ihne redde. »

        
",0,weber-yo-yo,21,2,0.1596091863222857,0.09523809523809523
3,comedy,Jules Kleitz,M,,,upper_middle_class,"
          
Jules :

          
« Er soll glich do eriin kumme. »

        
",1,weber-yo-yo,11,1,0.0,0.09090909090909091
4,comedy,Marie,F,domestic_worker,elementary_professions,lower_class,"
          
Marie :

          
« Güet Mösjö. » 
          
(hinten ab)

        
",1,weber-yo-yo,11,1,0.0,0.09090909090909091
6,comedy,Jules Kleitz,M,,,upper_middle_class,"
          
Jules :

          
« Roby, düe bisch mini letscht Hoffnung, düe müesch mir helfe. »

        
",2,weber-yo-yo,17,2,0.0,0.11764705882352941
7,comedy,Dokter Robert Schmitt,M,,,,"
          
Robert :

          
« Wo fehlt's denn ? Bisch krank ? »

        
",2,weber-yo-yo,12,2,0.6755139601301587,0.16666666666666666
8,comedy,Jules Kleitz,M,,,upper_middle_class,"
          
Jules :

          
« Krank ? Aba. »

        
",2,weber-yo-yo,8,1,1.3510279202603175,0.125
9,comedy,Dokter Robert Schmitt,M,,,,"
          
Robert :

          
« Ja, was isch denn no los ? »

        
",3,weber-yo-yo,12,2,0.0,0.16666666666666666
14,comedy,Jules Kleitz,M,,,upper_middle_class,"
          
Jules :

          
« Ei diss neuje verruckte Spiel ? »

        
",4,weber-yo-yo,10,2,0.0,0.2
15,comedy,Dokter Robert Schmitt,M,,,,"
          
Robert :

          
« Ich weiss nit was düe meinsch, ich möcht numme gern wisse, werum düe mich rüefe hesch
          lonn. »

        
",5,weber-yo-yo,24,2,0.8292671961722995,0.08333333333333333
16,comedy,Jules Kleitz,M,,,upper_middle_class,"
          
Jules :

          
« Güet, ich will dir's saawe. Roby, liewer Frind, ich bin arich unglücklich. »

        
",5,weber-yo-yo,22,4,0.0,0.18181818181818182
17,comedy,Dokter Robert Schmitt,M,,,,"
          
Robert :

          
« Unglücklich ? Ja werum denn ? »

        
",5,weber-yo-yo,10,2,0.0,0.2
19,comedy,Dokter Robert Schmitt,M,,,,"
          
Robert :

          
« Sie spielt Yo-Yo ? Ja un weje dem losch düe mich hole ? »

        
",6,weber-yo-yo,17,1,0.0,0.058823529411764705
20,comedy,Jules Kleitz,M,,,upper_middle_class,"
          
Jules :

          
« Ja findsch düe, dass diss nix isch, wenn eim jemand de ganze Daa in d'r ménage Yo-Yo spielt ?
          »

        
",6,weber-yo-yo,25,2,0.0,0.08
22,comedy,Jules Kleitz,M,,,upper_middle_class,"
          
Jules :

          
« Diss weisch düe nit ? Ah düe weisch nit was Yo-Yo isch. Glücklicher Mensch ! »

        
",7,weber-yo-yo,20,1,0.0,0.05
24,comedy,Jules Kleitz,M,,,upper_middle_class,"
          
Jules :

          
« D'ganz Welt spielt doch Yo-Yo! Alli Kini un Kaiser, alli Kinostar, alli Köche, alli Kinder,
          alli Kindermaidle un au mini Schwejermamme spielt Yo-Yo! »

        
",8,weber-yo-yo,34,2,0.0,0.058823529411764705
26,comedy,Jules Kleitz,M,,,upper_middle_class,"
          
Jules :

          
« Alli Zytunge schriewe devun un d'Illustrierte bringe Bilder. Yo-Yo isch Trumpf. Yo-Yo isch e
          Epidemie. »

        
",8,weber-yo-yo,23,2,0.0,0.08695652173913043
27,comedy,Dokter Robert Schmitt,M,,,,"
          
Robert :

          
« E Eipidemie ? ? Ja no isch's jo e Krankheit ! »

        
",9,weber-yo-yo,16,3,0.7279440257053237,0.1875
28,comedy,Jules Kleitz,M,,,upper_middle_class,"
          
Jules :

          
« Zäll nit, awer die wo züelüeje kenne krank devun wäre. Es isch e Spiel. »

        
",9,weber-yo-yo,21,3,0.4503426400867725,0.14285714285714285
29,comedy,Dokter Robert Schmitt,M,,,,"
          
Robert :

          
« E Spiel? Wurd's getrette od'r g'stosse ? Isch's e Balle od'r e Art Domino. Od'r setzt m'r
          sich druff un fahrt furt mit ? »

        
",9,weber-yo-yo,32,1,0.0,0.03125
32,comedy,Jules Kleitz,M,,,upper_middle_class,"
          
Jules :

          
« Wenn düe e Schwejeres hättsch, wo au de ganze Daa Yo-Yo spiele dät, no wischt düe's au was es
          isch. »

        
",10,weber-yo-yo,28,2,0.0,0.07142857142857142
33,comedy,Dokter Robert Schmitt,M,,,,"
          
Robert :

          
« Ja no saa mir's doch jetzt emol was es isch. »

        
",11,weber-yo-yo,16,1,0.0,0.0625
35,comedy,Dokter Robert Schmitt,M,,,,"
          
Robert :

          
« Düe hesch jo alli Säck voll! »

        
",11,weber-yo-yo,11,1,0.0,0.09090909090909091
36,comedy,Jules Kleitz,M,,,upper_middle_class,"
          
Jules :

          
« Die hab ich alli minere Schwejeres eweggeputzt, will ich gedänkt hab, sie spielt no nimi. Ja
          do, sie het sich no immer e anders kauft ».

        
",12,weber-yo-yo,34,3,0.0,0.08823529411764706
40,comedy,Jules Kleitz,M,,,upper_middle_class,"
          
Jules :

          
« Sie nit ellein, au mini Frau fangt so langsam aan un s'Dienschtmaidel hett au schun eins
          g'schenkt bekumme. »

        
",13,weber-yo-yo,25,2,0.0,0.08
41,comedy,Dokter Robert Schmitt,M,,,,"
          
Robert :

          
« Ja wie geht denn diss Ding eigentlich ? »

        
",13,weber-yo-yo,12,1,0.0,0.08333333333333333
42,comedy,Jules Kleitz,M,,,upper_middle_class,"
          
Jules

          
(steckt alle Yo-Yo schnell ein) :

          
« Nan, dir zeij ich diss nit.

        
",14,weber-yo-yo,18,1,0.0,0.05555555555555555
43,comedy,Dokter Robert Schmitt,M,,,,"
          
Robert :

          
« Ja un werum denn nit ? »

        
",14,weber-yo-yo,10,1,0.0,0.1
45,comedy,Dokter Robert Schmitt,M,,,,"
          
Robert :

          
« Diss isch doch sicher ebs harmloses. »

        
",15,weber-yo-yo,11,1,0.0,0.09090909090909091
46,comedy,Jules Kleitz,M,,,upper_middle_class,"
          
Jules :

          
« Ebs harmloses ? Eh bien merci. 3 Vase, e Suppeschüssel un 2 Spiejel un sogar min Radio sin
          dodurich kapütt gange. »

        
",15,weber-yo-yo,28,2,1.1524794053559044,0.07142857142857142
49,comedy,Dokter Robert Schmitt,M,,,,"
          
Robert :

          
« Ja isch denn diss Spiel so arich kumpliziert ? »

        
",16,weber-yo-yo,13,2,0.0,0.15384615384615385
52,comedy,Jules Kleitz,M,,,upper_middle_class,"
          
Jules :

          
« Nix ze mache. Es isch e Schnürele dran un mit dem macht m'rs danze. Siehsch eso 
          
(zeigt es).
 Als uff un nab hüpst diss Yo-Yo. »

        
",17,weber-yo-yo,35,3,0.0,0.08571428571428572
53,comedy,Dokter Robert Schmitt,M,,,,"
          
Robert :

          
« Ja un weje dem hesch düe mich rüefe lonn ? »

        
",17,weber-yo-yo,14,2,0.8292671961722995,0.14285714285714285
54,comedy,Jules Kleitz,M,,,upper_middle_class,"
          
Jules :

          
« Ja, denn düe müesch mir helfe mini Schwejeres küriere. Sie müess uffhöre mit 
          
dem Spiel. Am liebschte wär mir's jo wenn sie wieder ganz heime züe sich gehn
          dät. »

        
",18,weber-yo-yo,38,6,0.0,0.15789473684210525
56,comedy,Jules Kleitz,M,,,upper_middle_class,"
          
Jules :

          
« Ich hab jo noch nie ebs degeje g'het, wenn sie kumme isch. Was awer züe viel isch, isch ewe
          züe viel. 's letscht Johr, wo mir doch küm g'hyrot sin g'sin, het sie 14 Daa bliewe wöelle. »

        
",18,weber-yo-yo,48,2,0.0,0.041666666666666664
57,comedy,Dokter Robert Schmitt,M,,,,"
          
Robert :

          
« Ja un? »

        
",19,weber-yo-yo,7,1,0.0,0.14285714285714285
59,comedy,Dokter Robert Schmitt,M,,,,"
          
Robert :

          
« Ja. Allerdings isch diss jo e bissel arich viel g'sinn. »

        
",19,weber-yo-yo,16,1,0.0,0.0625
60,comedy,Jules Kleitz,M,,,upper_middle_class,"
          
Jules :

          
« Güet. Ich hab nix g'saat g'het, will ich gern de Friedde im Hüss hab. Diss Johr isch sie jetzt
          awer au schun wieder fascht 10 Wuche do. Ja un diss nit ellein, sie kummediert hyt schun s'ganze
          Hüss. »

        
",20,weber-yo-yo,49,8,0.0,0.16326530612244897
62,comedy,Jules Kleitz,M,,,upper_middle_class,"
          
Jules :

          
« Ich kann dir e Liedel singe Roby. Ich derf nimmi ellein furt, will sie's nit will han, mir
          müen alli esse was ihre schmeckt, mini Frau het sie geje mich uffg'stupft, sie macht was sie einfach
          will, turnt sogar un spielt jetzt zitter 3 Wuche de ganze liewe lange Daa Yo-Yo. Ah no noch ebs. Sie
          het mini Frau üwerredd sich e nejs Kleid mache zu lonn, wo Yo-Yo heisst. Was saasch düe jetzt do dezüe
          ? »

        
",20,weber-yo-yo,92,9,0.32720530923878866,0.09782608695652174
63,comedy,Dokter Robert Schmitt,M,,,,"
          
Robert :

          
« Armer Jules, ja bisch denn düe mit dinnere belle-mère g'hyrot ? »

        
",21,weber-yo-yo,16,2,0.0,0.125
65,comedy,Dokter Robert Schmitt,M,,,,"
          
Robert :

          
« Na also, redd doch emol e anständigs Wort mit ihre. »

        
",21,weber-yo-yo,16,1,0.0,0.0625
66,comedy,Jules Kleitz,M,,,upper_middle_class,"
          
Jules :

          
« Ich hab schun alles prowiert — im Güete un im Böse — s'nutzt awer alles nix. Sie isch by ihre
          Doochter het sie mir emol frech in's G'sicht niin g'saat. Robert, was ich dir saa, wenn düe je emol
          hyrotsch, no gib vor alle Dinge uff dini zükünftig Schwe- 
          
jeres acht. Wenn die Hoor uff de Zähn het, no hyrot ihri Doochter liewer nit.

        
",22,weber-yo-yo,78,10,0.36837091652705956,0.1282051282051282
67,comedy,Dokter Robert Schmitt,M,,,,"
          
Robert :

          
« 's Bescht wurd sin, m'r hyrot e Waiselmaidel. »

        
",22,weber-yo-yo,14,1,0.0,0.07142857142857142
68,comedy,Jules Kleitz,M,,,upper_middle_class,"
          
Jules :

          
« Awer füer d'Redd nit ze vergesse,dü müesch mir helfe Roby, düe bisch Dokter, düe weisch ganz
          sicher ebs wo zejt, wo m'r mit d'Schwejeres züm Hüss nüss kriejt. »

        
",22,weber-yo-yo,40,6,0.0,0.15
70,comedy,Jules Kleitz,M,,,upper_middle_class,"
          
Jules :

          
« Ja. Gall düe weisch schun ebs ? »

        
",23,weber-yo-yo,12,1,0.0,0.08333333333333333
71,comedy,Dokter Robert Schmitt,M,,,,"
          
Robert :

          
« Ebs wo arich güet zejt isch e Karteblaa. »

        
",23,weber-yo-yo,13,1,0.0,0.07692307692307693
72,comedy,Jules Kleitz,M,,,upper_middle_class,"
          
Jules

          
(verwundert) :

          
« E Karteblaa ? Ja was soll ich denn mit dem ? »

        
",24,weber-yo-yo,18,1,0.0,0.05555555555555555
73,comedy,Dokter Robert Schmitt,M,,,,"
          
Robert

          
(lachend) :

          
« Dü hesch mir doch ebs verlangt wo zejt ? »

        
",24,weber-yo-yo,16,1,0.0,0.0625
74,comedy,Jules Kleitz,M,,,upper_middle_class,"
          
Jules :

          
« So isch diss nit gemeint g'sin. Düe weisch ganz güet was ich mein.

        
",24,weber-yo-yo,18,3,0.0,0.16666666666666666
75,comedy,Dokter Robert Schmitt,M,,,,"
          
Robert :

          
« Ja uff so Sache hab ich nit stüdiert. »

        
",25,weber-yo-yo,13,2,0.0,0.15384615384615385
76,comedy,Jules Kleitz,M,,,upper_middle_class,"
          
Jules :

          
« Awer düe müesch mir einfach helfe, dass mini Schwejermame so bal wie möjlich nimmi vor mine Auwe
          rumyoyotiert.

        
",25,weber-yo-yo,23,3,0.0,0.13043478260869565
77,comedy,Dokter Robert Schmitt,M,,,,"
          
Robert :

          
« Het dich dini Frau gern ? »

        
",25,weber-yo-yo,10,1,0.0,0.1
78,comedy,Jules Kleitz,M,,,upper_middle_class,"
          
Jules :

          
« Wie kannsch düe numme fröje, züem Fresse het sie mich gern. »

        
",26,weber-yo-yo,17,1,0.0,0.058823529411764705
82,comedy,Jules Kleitz,M,,,upper_middle_class,"
          
Jules :

          
« Wie Hund un Katz, un numme dorum, will sie immer ihre Dickkopf durich setze will un au kann. Ich
          glaub sie kann üwerhaupt kan Mann liede. »

        
",27,weber-yo-yo,34,3,1.6677880639711056,0.08823529411764706
83,comedy,Dokter Robert Schmitt,M,,,,"
          
Robert :

          
« No isch die Sach ganz einfach. »

        
",27,weber-yo-yo,11,2,0.0,0.18181818181818182
85,comedy,Dokter Robert Schmitt,M,,,,"
          
Robert :

          
« Einfach. Düe müesch emol dinnere Frau Gelejeheit gänn, dass sie sieht, wie ihri Maman üwer
          dich denkt. »

        
",28,weber-yo-yo,25,2,0.0,0.08
86,comedy,Jules Kleitz,M,,,upper_middle_class,"
          
Jules :

          
« Die Idee isch jo grossartig, awer wie soll ich diss numme mache ? »

        
",28,weber-yo-yo,18,1,0.0,0.05555555555555555
89,comedy,Dokter Robert Schmitt,M,,,,"
          
Robert :

          
« Düe stellsch dich emol füer e Viertel Stündel füer verruckt — ich kumm dezüe un mach de
          Rescht. »

        
",29,weber-yo-yo,23,2,0.0,0.08695652173913043
90,comedy,Jules Kleitz,M,,,upper_middle_class,"
          
Jules :

          
« Dini Roll isch nit schwer, awer wie soll ich denne Verruckte markiere ? »

        
",30,weber-yo-yo,18,2,0.0,0.1111111111111111
91,comedy,Dokter Robert Schmitt,M,,,,"
          
Robert :

          
« Düe spielsch ewe au e Düür Yo-Yo, lachsch un singsch viellicht noch dezüe. Die Sitüation
          müesch düe üssnutze wie sie sich grad dir presentiert. » 
          
(Man hört draussen sprechen.)

        
",30,weber-yo-yo,38,3,0.0,0.07894736842105263
92,comedy,Jules Kleitz,M,,,upper_middle_class,"
          
Jules :

          
« Ich glaub es kummt jemand ! Roby, schnell, versteckel dich. Geh doch do hinter de Paravent,
          es derf dich do niemes sähn. » Robert 
          
(geht schnell hinter den Paravent).

        
",30,weber-yo-yo,40,3,0.0,0.075
95,comedy,Jules Kleitz,M,,,upper_middle_class,"
            
Jules

            
(lieb) :

            
« Nein Liewi. Wie düe awer schun so güet Yo-Yo spiele kannsch ? »

          
",31,weber-yo-yo,20,4,0.0,0.2
96,comedy,Germaine,F,,,,"
            
Germaine

            
(ist schon wieder an der Türe):

            
« D'Maman turnt ganz sicher. 
            
(Kommt wieder zurück).
 Weisch Julot, diss neje Kleid geht mir wunderbar. Ich kumm grad
            vun de erschte Anprob. »

          
",32,weber-yo-yo,42,5,0.0,0.11904761904761904
98,comedy,Germaine,F,,,,"
            
Germarne :

            
« Ei s'Modell YO-YO! D'Maman wurd sicher e Plaisir dran han, gar wo sie mir g'saat het, dass ich's
            nämme soll. Un dir wurd's au sicher g'falle. »

          
",32,weber-yo-yo,39,4,0.0,0.10256410256410256
101,comedy,Jules Kleitz,M,,,upper_middle_class,"
            
Jules :

            
« Ich glaub nit, dass es mir g'falle wurd. »

          
",33,weber-yo-yo,14,2,0.0,0.14285714285714285
102,comedy,Germaine,F,,,,"
            
Germaine :

            
« Ja un werum denn nit ? »

          
",34,weber-yo-yo,10,1,0.0,0.1
104,comedy,Germaine,F,,,,"
            
Germaine :

            
« Ja? »

          
",34,weber-yo-yo,6,1,0.0,0.16666666666666666
105,comedy,Jules Kleitz,M,,,upper_middle_class,"
            
Jules :

            
« Will ich ewe genüej hab, wenn dinni Maman do hinne alles kummediert. Ich hab's satt noch ihre
            Pfiff ze danze. »

          
",35,weber-yo-yo,28,3,0.0,0.10714285714285714
106,comedy,Germaine,F,,,,"
            
Germaine :

            
« Awer d'Maman meint's jo numme güet mit uns. »

          
",35,weber-yo-yo,15,1,0.0,0.06666666666666667
107,comedy,Jules Kleitz,M,,,upper_middle_class,"
            
Jules :

            
« Ah sie meint's au noch güet mit uns ? Ja siehsch düe denn nit, was ich immer füer Wüet schlucke
            müess ? »

          
",35,weber-yo-yo,28,4,0.0,0.14285714285714285
108,comedy,Germaine,F,,,,"
            
Germaine :

            
« Wüet? Ja wie so denn ? »

          
",36,weber-yo-yo,11,2,0.0,0.18181818181818182
109,comedy,Jules Kleitz,M,,,upper_middle_class,"
            
Jules :

            
« Saa Germaine, könne mir zwei do hinne noch mache wie mir wölle, zitter dass dinni Mamman by
            uns isch ? Han mir zwei viellicht eini Minüd im Daa, wo mir saawe könne, sie isch unser ? »

          
",36,weber-yo-yo,44,1,0.0,0.022727272727272728
110,comedy,Germaine,F,,,,"
            
Germaine

            
(weint) :

            
Düe kannsch einfach minni Maman nit liede ! »

          
",36,weber-yo-yo,14,1,0.0,0.07142857142857142
113,comedy,Jules Kleitz,M,,,upper_middle_class,"
            
Jules :

            
« Güet nämme mir aan, ich kann dinni Maman nit liede wie düe saasch. Hesch düe viellicht awer
            schun gemerigt, dass dinni Maman mich güet liede kann ? »

          
",37,weber-yo-yo,34,3,0.0,0.08823529411764706
116,comedy,Germaine,F,,,,"
            
Germaine :

            
« Ja, sie isch au immer mit'm Papa so g'sinn, wo er noch geläbt het. »

          
",38,weber-yo-yo,22,1,0.0,0.045454545454545456
117,comedy,Jules Kleitz,M,,,upper_middle_class,"
            
Jules :

            
« Un wohrschint's vorhere au mit dene andere zwei Männer, wo sie vor dim Papa uff de Gottsacker
            gebrocht het ! »

          
",39,weber-yo-yo,26,3,0.0,0.11538461538461539
120,comedy,Germaine,F,,,,"
            
Germaine :

            
« Ja düe ! » 
            
(Geht schnell hinten ab).

          
",40,weber-yo-yo,14,2,0.0,0.14285714285714285
122,comedy,Dokter Robert Schmitt,M,,,,"
            
Robert

            
(kommt hinter dem Paravent hervor) :

            
« Ja Jules. » 
            
(lacht).

          
",40,weber-yo-yo,18,2,0.0,0.1111111111111111
124,comedy,Dokter Robert Schmitt,M,,,,"
            
Robert :

            
« Düe hesch ewe malchance g'het mit dinnere Schwejermamme. Was! un au schun 3 Männer het sie
            g'het ? »

          
",41,weber-yo-yo,24,1,0.0,0.041666666666666664
125,comedy,Jules Kleitz,M,,,upper_middle_class,"
            
Jules :

            
« Ja denk emol. Ich bin viellicht ihr viert's Opfer. »

          
",41,weber-yo-yo,16,3,0.0,0.1875
126,comedy,Dokter Robert Schmitt,M,,,,"
            
Robert :

            
« Do kann numme e Gewaltkür helfe. »

          
",42,weber-yo-yo,11,1,0.0,0.09090909090909091
127,comedy,Jules Kleitz,M,,,upper_middle_class,"
            
Jules :

            
« Diss isch s'richtige Wort. Ich will jetzt emol die Schwejeres mit Gewalt
            küriere. »

          
",42,weber-yo-yo,20,4,0.0,0.2
128,comedy,Dokter Robert Schmitt,M,,,,"
            
Robert :

            
« No will ich awer schnell verschwinde, denn ich will uff keine Fall Zeje sinn. »

          
",42,weber-yo-yo,20,5,0.0,0.25
130,comedy,Dokter Robert Schmitt,M,,,,"
            
Robert :

            
« Wie lang witt düe die Komedie triewe ? »

          
",43,weber-yo-yo,12,1,0.0,0.08333333333333333
133,comedy,Jules Kleitz,M,,,upper_middle_class,"
            
Jules :

            
« Güet, ze fange mir glich aan, denn weisch es wurd nit lang düüre ze steht sie schun
            do. »

          
",44,weber-yo-yo,25,3,0.0,0.12
134,comedy,Dokter Robert Schmitt,M,,,,"
            
Robert :

            
« Also no bonne chance ! »

          
",44,weber-yo-yo,9,1,0.0,0.1111111111111111
135,comedy,Jules Kleitz,M,,,upper_middle_class,"
            
Jules :

            
« Kumm geh grad durich de Garde, un druck mir de Dümme. »

          
",45,weber-yo-yo,17,4,0.0,0.23529411764705882
138,comedy,Jules Kleitz,M,,,upper_middle_class,"
            
Jules :

            
« Ja, wie fang ich jetzt diss Theäterle aan ? Halt, ich glaub, ich setz mich am beschte nuff
            uff de Tisch. Do kummt sie nit so schnell züe mir 
            
(stellt einen Stuhl auf den Tisch, setzt sich auf diesen Stuhl und beginnt Yo-Yo zu
            spielen)
 Yo-Yo! Ja, jo, jo! So jetzt fehlt numme noch..... aha, ich glaub es kummt
            jemand. »

          
",46,weber-yo-yo,78,10,0.27506358967678785,0.1282051282051282
139,comedy,Henriette Fleischmann,F,,,,"
            
Henriette

            
(draussen) :

            
« Ja, wo steckt er denn ? »

          
",46,weber-yo-yo,14,1,0.0,0.07142857142857142
140,comedy,Henriette Fleischmann,F,,,,"
            
Henriette

            
(kommt hinten herein — spielt während der ganzen Scene Yo-Yo):

            
« Wo isch denn minner Herr Schwejersohn, wo so Sache üwer mich saat ? 
            
(sieht J. auf dem Tisch).
 Ja was sinn denn diss anfangs füer Maniere ? »

          
",46,weber-yo-yo,47,3,0.10640612421485714,0.06382978723404255
142,comedy,Henriette Fleischmann,F,,,,"
            
Henriette :

            
« Müen denn Sie uff de Tisch für Yo-Yo ze spiele ? »

          
",47,weber-yo-yo,15,2,0.0,0.13333333333333333
144,comedy,Henriette Fleischmann,F,,,,"
            
Henriette :

            
« Herr Kleitz, sie brüche nit mit Gewalt die Möwel kapütt ze mache, wo ich minere Doochter
            kauft hab, wo sie Sie g'hyrot het, verstehn Sie mich ? »

          
",48,weber-yo-yo,35,5,0.5248354366712761,0.14285714285714285
145,comedy,Jules Kleitz,M,,,upper_middle_class,"
            
Jules

            
(lacht) :

            
« Yo-Yo! »

          
",48,weber-yo-yo,9,1,0.0,0.1111111111111111
146,comedy,Henriette Fleischmann,F,,,,"
            
Henriette :

            
« Ja sinn Sie denn gebickt ? Mösjö Kleitz, mache Sie, dass Sie sofort do vun dem Stüehl un
            dem Tisch erunter kumme, sunscht hol ich Sie eijehändig erunter, sie Daadieb !! »

          
",48,weber-yo-yo,40,3,0.0,0.075
148,comedy,Henriette Fleischmann,F,,,,"
            
Henriette :

            
« Do hört doch alles uff ! So e Frechheit. » 
            
(Geht nahe an den Tisch heran).

          
",49,weber-yo-yo,23,1,0.0,0.043478260869565216
149,comedy,Jules Kleitz,M,,,upper_middle_class,"
            
Jules :

            
« Yo-Yo ! 
            
(macht das Yo-Yo Henriette direckt vor der Nase herum tanzen).

            
(Lacht)
 « Yo-Yo! »

          
",49,weber-yo-yo,25,3,0.0,0.12
150,comedy,Henriette Fleischmann,F,,,,"
            
Henriette

            
(brüllt) :

            
« Herr... Kleitz !!! » 
            
(reisst das Yo-Yo Jules aus der Hand und geht vom Tisch weg).

          
",50,weber-yo-yo,28,2,0.1596091863222857,0.07142857142857142
151,comedy,Jules Kleitz,M,,,upper_middle_class,"
            
Jules :

            
« Ooooh!! » 
            
(holt ein anderes Yo-Yo aus der Tasche und spielt weiter)
: « Yo-Yo, isch wieder doooo
            ! Bravoooo ! 
            
(lacht)

          
",50,weber-yo-yo,32,2,0.0,0.0625
152,comedy,Henriette Fleischmann,F,,,,"
            
Henriette

            
(sieht nun, dass Jules wieder ein Yo-Yo hat):

            
« Ja was isch denn diss? ? »

          
",50,weber-yo-yo,22,1,0.0,0.045454545454545456
154,comedy,Henriette Fleischmann,F,,,,"
            
Henriette

            
(geht schnell an die Türe hinten).

          
",51,weber-yo-yo,10,1,0.0,0.1
155,comedy,Jules Kleitz,M,,,upper_middle_class,"
            
Jules

            
(für sich) :

            
« Es schinnt ze zeje ! »

          
",51,weber-yo-yo,13,1,0.0,0.07692307692307693
157,comedy,Marie,F,domestic_worker,elementary_professions,lower_class,"
            
Marie

            
(draussen) :

            
« Ja Madame Fleischmann. »

          
",52,weber-yo-yo,11,2,0.0,0.18181818181818182
158,comedy,Henriette Fleischmann,F,,,,"
            
Henriette :

            
« Hole sie emol schnell minni Doochter do here. »

          
",52,weber-yo-yo,13,2,0.0,0.15384615384615385
159,comedy,Marie,F,domestic_worker,elementary_professions,lower_class,"
            
Marie :

            
« Ja Madame Fleischmann. »

          
",53,weber-yo-yo,8,2,0.0,0.25
160,comedy,Henriette Fleischmann,F,,,,"
            
Henriette

            
(kommt wieder nach vorn) :

            
« Un diss will e Mann sinn ? »

          
",53,weber-yo-yo,17,1,0.0,0.058823529411764705
163,comedy,Germaine,F,,,,"
            
Germaine

            
(kommt aufgeregt hinten herein — ohne Hut — hat ein Taschentuch in der Hand — sie hat
            geweint) :

            
Was soll denn sin Maman ? »

          
",54,weber-yo-yo,29,1,0.0,0.034482758620689655
166,comedy,Germaine,F,,,,"
            
Germaine :

            
« Ja was isch denn diss ? »

          
",55,weber-yo-yo,10,1,0.0,0.1
168,comedy,Henriette Fleischmann,F,,,,"
            
Henriette :

            
« Dim Mann isch e Rädel im Kopf luck worre. »

          
",56,weber-yo-yo,14,2,0.0,0.14285714285714285
169,comedy,Germaine,F,,,,"
            
Germaine

            
(am Tisch) :

            
« Ja Jules, was machsch denn do ? »

          
",56,weber-yo-yo,16,1,0.0,0.0625
172,comedy,Henriette Fleischmann,F,,,,"
            
Henriette :

            
« Loss düe ne numme, er wurd schun wieder züe sich kumme. »

          
",57,weber-yo-yo,17,2,0.9255618550333533,0.11764705882352941
173,comedy,Jules Kleitz,M,,,upper_middle_class,"
            
Jules

            
(lacht ganz laut) :

            
« Yo-Yo!! »

          
",57,weber-yo-yo,12,3,0.0,0.25
175,comedy,Jules Kleitz,M,,,upper_middle_class,"
            
Jules

            
(lacht und singt — holt aus seiner Tasche ein weiteres Yo-Yo und spielt nun mit
            beiden).

          
",58,weber-yo-yo,20,1,0.0,0.05
176,comedy,Henriette Fleischmann,F,,,,"
            
Henriette :

            
« Ja was isch denn diss ? Die Yo-Yo sin jo alli mine. Do het sie also d'Katz doch nit verschleift,
            wie's immer g'heisse het. Miner Schwejersohn vergrifft sich also au noch an mim Eijetum ! Es kummt jo
            immer scheener do hinne ! ! ».

          
",58,weber-yo-yo,54,4,0.0,0.07407407407407407
178,comedy,Germaine,F,,,,"
            
Germaine :

            
« Maman, Maman er fallt ganz sicher noch erunter. Mir müen ne erunterhole. »

          
",59,weber-yo-yo,19,2,0.0,0.10526315789473684
179,comedy,Henriette Fleischmann,F,,,,"
            
Henriette :

            
« Los düe numme, wenn sich sini Nerve berüehigt han, no kummt er schun ellein erunter. »

          
",59,weber-yo-yo,22,3,0.0,0.13636363636363635
181,comedy,Germaine,F,,,,"
            
Germaine :

            
« Jules, min liewer Jules, kumm düe doch do erunter. »

          
",60,weber-yo-yo,16,2,0.0,0.125
182,comedy,Henriette Fleischmann,F,,,,"
            
Henriette :

            
« Ja was isch denn diss mit dir Germaine ? Schämmsch düe dich nit so by'm e Mann anzehalte,
            wo nit wert isch, dass m'r numme e Finger wäje ihm rührt ! »

          
",60,weber-yo-yo,38,2,0.0,0.05263157894736842
184,comedy,Henriette Fleischmann,F,,,,"
            
Henriette :

            
« Blie stille! Er isch e Nixnutz, e Füllenzer. E Mann wie sinere lieb Schwejermame ihri Sache
            nimmt isch züe allem fähig. »

          
",61,weber-yo-yo,29,3,0.0,0.10344827586206896
186,comedy,Henriette Fleischmann,F,,,,"
            
Henriette :

            
« Ich bin sicher er markiert numme. »

          
",62,weber-yo-yo,11,1,0.0,0.09090909090909091
187,comedy,Germaine,F,,,,"
            
Germaine :

            
« Un wenn's awer nit wohr wär Maman ? Wenn er awer krank wär ? »

          
",62,weber-yo-yo,19,2,0.6755139601301587,0.10526315789473684
188,comedy,Henriette Fleischmann,F,,,,"
            
Henriette :

            
« Krank ? » 
            
(lacht).
 « Der un krank ? »

          
",62,weber-yo-yo,16,3,1.80137056034709,0.1875
189,comedy,Germaine,F,,,,"
            
Germaine :

            
« So ebs het er doch noch nie gemacht. »

          
",63,weber-yo-yo,13,1,0.0,0.07692307692307693
190,comedy,Henriette Fleischmann,F,,,,"
            
Henriette :

            
« Do isch e kalti Dusch d'allerbescht Medizin füer ihne 
            
(geht an die Türe — öffnet und ruft hinaus)
 Marie,bringe sie emol sofort e Eimer ganz
            kalts Wasser. ».

          
",63,weber-yo-yo,38,3,0.0,0.07894736842105263
198,comedy,Henriette Fleischmann,F,,,,"
            
Henriette :

            
« Was bisch doch düe füer e dumms Kind ! Wenn düe au emol de dritt od'r de viert Mann hesch, no
            wursch düe au andersch mit ne. Die Männer müess m'r immer mit Gewalt in Zucht un Ordnung halte. So
            Plän wie er do macht derf m'r einfach nit uffkumme lonn. Merik düe dir diss, düe Gänsel ! »

          
",66,weber-yo-yo,67,9,0.4899078099013864,0.13432835820895522
200,comedy,Marie,F,domestic_worker,elementary_professions,lower_class,"
            
Marie

            
(kommt mit einem Eimer hinten herein) :

            
So Madame Fleischmann ! 
            
(sieht Jules)
: Oh Jesses, d'r Herr!! »

          
",66,weber-yo-yo,27,3,0.10640612421485714,0.1111111111111111
203,comedy,Germaine,F,,,,"
            
Germaine :

            
« Marie, hole sie sofort e Dokter. »

          
",67,weber-yo-yo,12,1,0.0,0.08333333333333333
205,comedy,Marie,F,domestic_worker,elementary_professions,lower_class,"
            
Marie :

            
« Ja der Herr Dokter Schmitt isch jo schun bym Herr g'sin. »

          
",68,weber-yo-yo,16,4,0.3192183726445714,0.25
206,comedy,Germaine,F,,,,"
            
Germaine :

            
« De Herr Dokter Schmitt ? »

          
",68,weber-yo-yo,9,2,0.1596091863222857,0.2222222222222222
207,comedy,Marie,F,domestic_worker,elementary_professions,lower_class,"
            
Marie :

            
« Ja Madame. »

          
",69,weber-yo-yo,7,2,0.0,0.2857142857142857
208,comedy,Germaine,F,,,,"
            
Germaine :

            
« Sott er am End g'spiert han, dass er krank isch ? »

          
",69,weber-yo-yo,16,1,1.3510279202603175,0.0625
209,comedy,Henriette Fleischmann,F,,,,"
            
Henriette :

            
« Plän vun Paris. Marie hälfe sie mir de Herr do runter hole. »

            
(Es klingelt.)

          
",69,weber-yo-yo,23,3,0.10640612421485714,0.13043478260869565
211,comedy,Henriette Fleischmann,F,,,,"
            
Henriette :

            
« Marie lüeje sie schnell, un lonn sie niemes do eriin. »

          
",70,weber-yo-yo,16,2,0.8292671961722995,0.125
212,comedy,Marie,F,domestic_worker,elementary_professions,lower_class,"
            
Marie :

            
« Güet Madame. »

          
",70,weber-yo-yo,7,2,0.0,0.2857142857142857
213,comedy,Henriette Fleischmann,F,,,,"
            
Henriette :

            
« Madame Fleischmann heiss ich. »

          
",71,weber-yo-yo,9,2,0.0,0.2222222222222222
214,comedy,Marie,F,domestic_worker,elementary_professions,lower_class,"
            
Marie :

            
« Ja Madame Fleischmann. » 
            
(hinten ab).

          
",71,weber-yo-yo,13,2,0.0,0.15384615384615385
216,comedy,Germaine,F,,,,"
            
Germaine

            

            
(am Tisch:)
 « Jules, liewer Jules. Was hesch dü denn? Kumm doch do
            erunter. »

          
",72,weber-yo-yo,23,2,0.0,0.08695652173913043
217,comedy,Henriette Fleischmann,F,,,,"
            
Henriette :

            
« Ich hol ne no schun erunter. Warte sie numme, sie min liewer Schwejersohn. »

          
",72,weber-yo-yo,20,3,0.0,0.15
220,comedy,Henriette Fleischmann,F,,,,"
            
Henriette :

            
« Ich glaub düe hielsch au noch! So einer wie der bekummsch düe immer noch. Ich süech dir
            emol sälwer einer, wenns e so witt isch. »

          
",73,weber-yo-yo,33,2,0.0,0.06060606060606061
224,comedy,Marie,F,domestic_worker,elementary_professions,lower_class,"
            
Marie :

            
« Ei der Herr Dokter Schmitt isch noch emol kumme. »

          
",74,weber-yo-yo,14,3,0.10640612421485714,0.21428571428571427
225,comedy,Germaine,F,,,,"
            
Germaine :

            
« Er soll glich eriinkumme. »

          
",75,weber-yo-yo,9,1,0.0,0.1111111111111111
228,comedy,Marie,F,domestic_worker,elementary_professions,lower_class,"
            
Marie :

            
« Güet Madame. » 
            
(geht hinten ab).

          
",76,weber-yo-yo,13,2,0.0,0.15384615384615385
231,comedy,Marie,F,domestic_worker,elementary_professions,lower_class,"
            
Marie

            
(macht die Türe auf und lässt Robert herein — kommt dann auch herein).

          
",77,weber-yo-yo,17,1,0.0,0.058823529411764705
233,comedy,Germaine,F,,,,"
            
Germaine :

            
« Güet, dass sie kumme sinn Herr Dokter. Minner Mann... o Gott! »

          
",77,weber-yo-yo,19,6,0.05320306210742857,0.3157894736842105
235,comedy,Dokter Robert Schmitt,M,,,,"
            
Robert :

            
« Ich hab's doch vorhin schun gedenkt, wo ich do bin g'sinn. Ich bin dorum au noch emol
            kumme. »

          
",78,weber-yo-yo,26,1,0.0,0.038461538461538464
236,comedy,Germaine,F,,,,"
            
Germaine :

            
« Gälle sie, er isch krank? »

          
",78,weber-yo-yo,11,1,1.3510279202603175,0.09090909090909091
237,comedy,Dokter Robert Schmitt,M,,,,"
            
Robert :

            
« Sicher e schlimmer Fall, Madame Kleitz. »

          
",79,weber-yo-yo,12,4,0.0,0.3333333333333333
238,comedy,Germaine,F,,,,"
            
Germaine :

            
« O Gott! » 
            
(setzt sich weinend auf das Canapé).

          
",79,weber-yo-yo,16,2,0.0,0.125
241,comedy,Dokter Robert Schmitt,M,,,,"
            
Robert :

            
« Kumm doch emol do erunter. »

          
",80,weber-yo-yo,10,1,0.0,0.1
242,comedy,Jules Kleitz,M,,,upper_middle_class,"
            
Jules :

            
« Ja ich kumm glich. Yo-Yo ! 
            
(geht vom Tisch herunter)
 Yo-Yo! »

          
",80,weber-yo-yo,19,2,0.0,0.10526315789473684
243,comedy,Dokter Robert Schmitt,M,,,,"
            
Robert

            
(zu Henriette) :

            
« Mir müen arich vorsichtig mit ihm sinn. »

          
",81,weber-yo-yo,16,1,0.0,0.0625
245,comedy,Dokter Robert Schmitt,M,,,,"
            
Robert

            
(führt Jules an das Canapé — macht ihn sitzen):

            
« Bringe sie mir doch schnell e kalts Tüch füer um de Kopf. »

          
",81,weber-yo-yo,28,2,0.0,0.07142857142857142
246,comedy,Marie,F,domestic_worker,elementary_professions,lower_class,"
            
Marie

            
(holt schnell ein grosses Tuch).

          
",82,weber-yo-yo,9,1,0.0,0.1111111111111111
247,comedy,Dokter Robert Schmitt,M,,,,"
            
Robert

            
(fühlt in der Zwischenzeit den Puls von Jules) :

            
« De Puls isch ganz normal. »

          
",82,weber-yo-yo,20,1,0.0,0.05
248,comedy,Germaine,F,,,,"
            
Germaine :

            
« Isch's denn schlimm, Herr Dokter? »

          
",82,weber-yo-yo,12,3,1.3855833771635693,0.25
254,comedy,Germaine,F,,,,"
            
Germaine

            
(geht zu Robert):

            
« Was meine Sie, Herr Dokter ? »

          
",84,weber-yo-yo,16,3,0.10640612421485714,0.1875
255,comedy,Henriette Fleischmann,F,,,,"
            
Henriette

            
(zu Robert):

            
« Wurd er nimmi güet ? »

          
",85,weber-yo-yo,13,1,0.0,0.07692307692307693
256,comedy,Dokter Robert Schmitt,M,,,,"
            
Robert :

            
« Unter Umstände kann der Züstand lang anhalte. »

          
",85,weber-yo-yo,12,2,0.0,0.16666666666666666
257,comedy,Henriette Fleischmann,F,,,,"
            
Henriette :

            
« No müesch düe dich ewe scheide lonn. Düe kannsch nit din ganze Läwe bym e Narr
            sinn. »

          
",85,weber-yo-yo,23,4,1.4641704654406205,0.17391304347826086
259,comedy,Dokter Robert Schmitt,M,,,,"
            
Robert :

            
« Hett er sich denn in de letschte Zyt viel uffgerejt ? »

          
",86,weber-yo-yo,15,1,0.0,0.06666666666666667
260,comedy,Germaine,F,,,,"
            
Germaine :

            
« Ja manichmol. »

          
",86,weber-yo-yo,7,1,0.0,0.14285714285714285
261,comedy,Henriette Fleischmann,F,,,,"
            
Henriette :

            
« Wie kannsch düe numme so dumm babble. Ich hab mich mit ihm als uffreje müen. Er isch ewe krank.
            Wenn ich nit immer nochgänn hät, ze wär jo nie in dem Hüss Friede g'sinn. »

          
",87,weber-yo-yo,43,4,0.33775698006507937,0.09302325581395349
263,comedy,Dokter Robert Schmitt,M,,,,"
            
Robert :

            
« Um so besser. Ich mach ihne jetzt folgender Vorschlaa. Ich hab doch noch e 
            
Commission un geh no glich bym'e Spezialischt füer Nerve durich. Ich bring ne glich mit.
            Sott sich de Züstand nit bal bessere no mien mir ne in d'Nerveklinik mache. Ich will uff alli Fäll au
            s'Auto b'stelle. »

          
",87,weber-yo-yo,63,5,0.0,0.07936507936507936
264,comedy,Henriette Fleischmann,F,,,,"
            
Henriette :

            
« Zäll wurd üwerhaupt s'beschte sinn. »

          
",88,weber-yo-yo,11,1,0.0,0.09090909090909091
266,comedy,Henriette Fleischmann,F,,,,"
            
Henriette :

            
« So hesch düe müen niinfalle ! Hesch e Mann un doch keiner. S'bescht wär, wenn er bal sterwe
            dät. »

          
",88,weber-yo-yo,27,2,0.0,0.07407407407407407
268,comedy,Henriette Fleischmann,F,,,,"
            
Henriette :

            
« Ja, was witt düe denn mit-eme Mann wo narrisch isch ? »

          
",89,weber-yo-yo,16,3,0.0,0.1875
269,comedy,Germaine,F,,,,"
            
Germaine :

            
« Viellicht wurd er doch wieder guet. »

          
",89,weber-yo-yo,11,2,0.0,0.18181818181818182
270,comedy,Henriette Fleischmann,F,,,,"
            
Henriette :

            
« So Kranki wäre nie wieder ganz guet. 
            
(geht nach hinten)
 Ich hab weijer diss Johr kein scheeni Ferie by dir. » 
            
(hinten ab).

          
",90,weber-yo-yo,33,5,0.0,0.15151515151515152
271,comedy,Germaine,F,,,,"
            
Germaine

            
(geht zu Jules — setzt sich neben ihn) :

            
« Jules min liewer Jules! Un ich hab vorhin au noch wäje de Maman mit dir so dischpetiert ! Was
            isch doch e Mensch ? Eini Minüd isch m-r g'sund un lacht un glich druff kann m'r schwer krank sinn.
            Wie wurd die Krankheit üssgehn. »

            
(nimmt Jules in ihre Arme).

          
",90,weber-yo-yo,69,7,0.5347733179452754,0.10144927536231885
273,comedy,Germaine,F,,,,"
            
Germaine :

            
Un ich hab dich doch so arich gern g'het. 
            
(küsst Jules)
 Min liewer Jules ! 
            
(küsst Jules).

          
",91,weber-yo-yo,25,2,0.0,0.08
275,comedy,Germaine,F,,,,"
            
Germaine :

            
« Er het mir e Schmutz gänn. Isch am End die Krankheit doch nit so schimm wie de Dokter meint
            ? Jules! 
            
(küsst Jules wieder auf den Mund). »

          
",91,weber-yo-yo,36,4,0.0,0.1111111111111111
280,comedy,Jules Kleitz,M,,,upper_middle_class,"
            
Jules :

            
« Ja. » 
            
(macht das Tuch vom Kopfe weg).

          
",93,weber-yo-yo,15,3,0.0,0.2
281,comedy,Germaine,F,,,,"
            
Germaine :

            
« Loss, Jules, loss. »

          
",93,weber-yo-yo,10,2,3.7022474201334132,0.2
283,comedy,Germaine,F,,,,"
            
Germaine :

            
« loss diss Tuech Jules. »

          
",94,weber-yo-yo,9,1,1.8511237100667066,0.1111111111111111
285,comedy,Germaine,F,,,,"
            
Germaine :

            
« Doch Jules, min liewer Jules. »

          
",95,weber-yo-yo,11,1,0.0,0.09090909090909091
286,comedy,Jules Kleitz,M,,,upper_middle_class,"
            
Jules :

            
« Min liebs Germaine, min herzigs Kind. »

          
",95,weber-yo-yo,12,1,0.0,0.08333333333333333
288,comedy,Jules Kleitz,M,,,upper_middle_class,"
            
Jules :

            
« Mir zwei han uns doch gern ? »

          
",96,weber-yo-yo,11,1,0.0,0.09090909090909091
292,comedy,Jules Kleitz,M,,,upper_middle_class,"
            
Jules

            
(sitzt aufrecht) :

            
« Ja Germaine, es isch besser, wenn sie widder geht. Düe wursch doch jetzt au iinsehn wie mich
            dinni Maman liede kann. Hesch düe nit g'hört, was sie alles üwer mich g'saat het ? »

          
",97,weber-yo-yo,46,2,0.0,0.043478260869565216
293,comedy,Germaine,F,,,,"
            
Germaine :

            
« Ja bisch dûe denn nit krank ? »

          
",97,weber-yo-yo,11,2,0.6755139601301587,0.18181818181818182
296,comedy,Jules Kleitz,M,,,upper_middle_class,"
            
Jules :

            
« Jetzt, wo ich weiss, dass düe endlich fescht züe mir haltsch, hab ich kein Angscht meh. Los düe
            sie numme kumme ! Ich saa ihre no schun emol mini Meinung. » 
            
(Beide küssen sich lange.)

          
",98,weber-yo-yo,46,8,0.0,0.17391304347826086
297,comedy,Henriette Fleischmann,F,,,,"
            
Henriette

            
(von hinten — hat Hut auf — ist fertig zum Ausgehen — sieht wie sich Germaine und Jules so
            lange küssen — erstaunt) :

            
Ja was isch denn mit euch zwei do los ? »

          
",99,weber-yo-yo,38,4,0.0,0.10526315789473684
299,comedy,Henriette Fleischmann,F,,,,"
            
Henriette :

            
« Ich will mit inne no in d'Nerveklinik fahre, wenn de Dokter mit-m Auto kummt. »

          
",99,weber-yo-yo,21,1,0.0,0.047619047619047616
300,comedy,Jules Kleitz,M,,,upper_middle_class,"
            
Jules :

            
« Zäll wurd nit notwendig sin, denn ich bin jo gar nit krank. »

          
",100,weber-yo-yo,18,2,0.6755139601301587,0.1111111111111111
302,comedy,Jules Kleitz,M,,,upper_middle_class,"
            
Jules :

            
« Werum denn, Madame Fleischmann ? »

          
",100,weber-yo-yo,10,1,0.0,0.1
303,comedy,Henriette Fleischmann,F,,,,"
            
Henriette :

            
« Düe losch dich scheide Germaine. De Dokter isch dir Zeje, dass er krank isch. So simeliere kann
            kein Mensch. »

          
",101,weber-yo-yo,27,3,0.4503426400867725,0.1111111111111111
304,comedy,Germaine,F,,,,"
            
Germaine :

            
« Nein Maman, diss niemols, ich hab de Jules viel ze gern un er mich jo au. »

          
",101,weber-yo-yo,23,1,0.0,0.043478260869565216
305,comedy,Jules Kleitz,M,,,upper_middle_class,"
            
Jules :

            
« Mit dem Dokter als Zeje han sie kein Chance, liewi Schwejermamme. Er isch minner Frind un
            het alles gewüsst. Sie könne hyt noch lang warte, bis er mit'm Auto kummt. »

          
",101,weber-yo-yo,40,7,0.0,0.175
306,comedy,Henriette Fleischmann,F,,,,"
            
Henriette :

            
« Die ganz Affaire glicht jo ihne emol widder, Mösjö Kleitz. »

          
",102,weber-yo-yo,16,1,0.0,0.0625
308,comedy,Henriette Fleischmann,F,,,,"
            
Henriette

            
« Ja was soll's denn jetzt noch gänn ? »

          
",102,weber-yo-yo,12,2,0.0,0.16666666666666666
309,comedy,Jules Kleitz,M,,,upper_middle_class,"
            
Jules :

            
« Ein Moment, chère Madame Fleischmann. »

          
",103,weber-yo-yo,11,1,0.0,0.09090909090909091
310,comedy,Marie,F,domestic_worker,elementary_professions,lower_class,"
            
Marie

            
(kommt hinten herein) :

            
« Was beliebt Mösjö ? Sinn sie nimmi krank ? »

          
",103,weber-yo-yo,18,2,0.6755139601301587,0.1111111111111111
312,comedy,Marie,F,domestic_worker,elementary_professions,lower_class,"
            
Marie :

            
« Gott sej Dank. »

          
",104,weber-yo-yo,8,2,0.0,0.25
313,comedy,Jules Kleitz,M,,,upper_middle_class,"
            
Jules :

            
« Also Marie, sie packe jetzt sofort alli Köffer vun de Madame Fleischmann. Sie will bis in
            10 Minüde verreise. »

          
",104,weber-yo-yo,26,2,0.0,0.07692307692307693
314,comedy,Marie,F,domestic_worker,elementary_professions,lower_class,"
            
Marie :

            
« Mitem gröschte Vergnüeje. In fünef Minüde bin ich schun ferti. »

          
",104,weber-yo-yo,16,2,0.0,0.125
315,comedy,Jules Kleitz,M,,,upper_middle_class,"
            
Jules :

            
« Je schneller, je liewer. 
            
(holt aus seiner Tasche einige Yo-Yo).
 Un die do packe sie au mit ihn. »

          
",105,weber-yo-yo,28,2,0.0,0.07142857142857142
317,comedy,Jules Kleitz,M,,,upper_middle_class,"
            
Jules :

            
« Ja, ja. Diss sinn de chère Madame Fleischmann ihri Yo-Yo!! »

          
",105,weber-yo-yo,18,3,0.0,0.16666666666666666
