Unnamed: 0,drama_type,speaker,sex,job,job_category,social_class,text,progress,short_name,numTokens,numLexTokens,avgLexVal,lexRatio
0,tale,Dr Grossbabbe,MALE,,,,"
          
Grossbabbe:

          

          
(zehlt wenn dr „Kückück“ rueft)
 Äins, zwäi, drey, vier, fünef, sechs! Schun sechs — Jetz
          isch’s ganz finschter drüsse un der käiwe Xaverel isch noch nitt do. Wie der widder erumspangelt, wann
          ne numme dr Hanstrapp verwitsche dät.

        
",0,clemens-chrischtowe,54,3,0.0,0.05555555555555555
1,tale,Schorschel,MALE,,,,"
          
Schorschel:

          
Grossbabbe, ich bin glich erin wie’s finschter isch worre. Ich hab Angscht dr Hanstrapp kummt.

        
",1,clemens-chrischtowe,21,3,0.0,0.14285714285714285
4,tale,Marikel,FEMALE,,,,"
          
Marikel:

          
Dü wäisch ass d’Hütt füer de Grossbabbe isch.

        
",4,clemens-chrischtowe,12,1,0.0,0.08333333333333333
5,tale,Dr Grossbabbe,MALE,,,,"
          
Grossbabbe:

          
Gib’s em numme wann-r se garn hett — Awer der Bohnekaffe schmeckt so guet, diss esch doch kenn
          Ersatz meh, diss schmeckt ganz andersch ass wie der Wiedegrund.

        
",5,clemens-chrischtowe,34,4,0.0,0.11764705882352941
6,tale,Marikel,FEMALE,,,,"
          
Marikel:

          

          
(fuehrt de Grossbabbe an de Disch)
 Ich hab ne bekumme vun dr Madam Lefèvre, sie hett mr
          äu schöens Wissmahl gann. Ich hab e natt’s Küechel gebache. 
          
(Alli drey drinke Kaffe — s’Marikel schnied Brot)

        
",6,clemens-chrischtowe,46,6,0.4319576049331728,0.13043478260869565
8,tale,Marikel,FEMALE,,,,"
          
Marikel:

          
Näin, näin Buwele — der isch fuer morje. Wäisch morje-n-isch Wihnachte un do hett uns d’Mamme als äu
          Kueche gebache.

        
",8,clemens-chrischtowe,28,4,0.0,0.14285714285714285
9,tale,Schorschel,MALE,,,,"
          
Schorschel:

          
Mäinsch kummt hitt Owe äu s’Chrischtkindel zue uns ? Ich hab alle Nacht gebatt ass-es mir ebs
          Schöens bringe soll.

        
",9,clemens-chrischtowe,24,1,0.0,0.041666666666666664
10,tale,Dr Grossbabbe,MALE,,,,"
          
Grossbabbe:

          
Na, wenn dü brav gebatt hesch no bringt’s dir äu ebs Natt’s — Was wottsch am Liebschte vum
          Chrischtkindel ?

        
",10,clemens-chrischtowe,25,5,0.0,0.2
11,tale,Schorschel,MALE,,,,"
          
Schorschel:

          
Am liebschte wott ich, ass d’Mamme widder kumme dätt — un no e Farwelad — un no sott dr Babbe kumme.
          Wann’s numme boll kumme duet — ich hab kenn Angscht vor-em Hanstrapp. 
          
(Mr höert drüsse boldere)
 U — Marikel! 
          
(versteckelt sich hinterem Marikel)

        
",11,clemens-chrischtowe,56,8,0.0,0.14285714285714285
12,tale,Xaverel,MALE,,,,"
          
Xaverel:

          

          
(höert mr drüsse brüele)
 Kumm numme einer häre wann-r z’Harz hett! 
          
(Kummt erin)
 Denne hawi de Äpfel gedroffe, im Langhalseschüll haw i äini uf d’Nas
          gebämmert un em Stumpevälte haw i e blöj Gückel ghäue, der isch gezäicht uf d’Wihnachte.

        
",12,clemens-chrischtowe,53,7,0.0,0.1320754716981132
13,tale,Dr Grossbabbe,MALE,,,,"
          
Grossbabbe:

          
Was isch dann widder — was isch dann widder ?

        
",13,clemens-chrischtowe,12,1,0.0,0.08333333333333333
14,tale,Xaverel,MALE,,,,"
          
Xaverel:

          
Äi sie ruefe mr alli e Üwername. Dr Schuelmäischter hett mi gfröjt wie „der Ofen“ häisst — no hawi
          gsäit „Furneau“ 
          
(deutsch aussprechend)
 jetz ruefe mr alli „Dr Furneau“ awer ich hab ne de Furneau
          inghäizt !

        
",14,clemens-chrischtowe,48,1,0.0,0.020833333333333332
15,tale,Marikel,FEMALE,,,,"
          
Marikel:

          
Un dü bisch dracket ! 
          
(bürscht na ab)
 Un der hett d’Hosse verisse ! 
          
(ziwelt-em d’Ohre)
 Witt dü ball andersch wäre un brav sinn, hä ?

        
",15,clemens-chrischtowe,35,2,1.1008239169018588,0.05714285714285714
17,tale,Dr Grossbabbe,MALE,,,,"
          
Grossbabbe:

          
Awer Xaverel kannsch denn dü nitt folje un brav sinn. Jetz machsch dim Schweschterle widder Arwäit
          un ass muess schun alles alläin mache, zitter ass d’Mamme dot isch — dü sottsch dich schäme e so böeser
          Bue ze sinn. Duesch a so dinn Verspracha halte, wie de dr Mamme uf-em Dotsbett gann hesch ? Hesch ere
          nitt versproche allewill brav ze sinn un im Marikel an d’Hand ze gehn. Un wann de an de Babbe dänke
          dätsch, wie mr schun vier Johr nix meh vum wisse, ze sottsch di schäme — wär wäis ob-r noch am
          Läwe-n-isch.

        
",17,clemens-chrischtowe,111,15,0.35657726819282537,0.13513513513513514
18,tale,Xaverel,MALE,,,,"
          
Xaverel:

          

          
(hielt)
 Grossbabbe ich will brav sinn, ich will nix meh anstelle ! — — — Un ich hab
          Hunger !

        
",18,clemens-chrischtowe,25,3,0.3643015622346762,0.12
19,tale,Marikel,FEMALE,,,,"
          
Marikel:

          
Do sitz an dine Platz, dir fählt dr Babbe, dass de gezöje dätsch wäre. 
          
(schenkt-em Kaffe in)

        
",19,clemens-chrischtowe,24,2,0.0,0.08333333333333333
20,tale,Schorschel,MALE,,,,"
          
Schorschel:

          
Dät mich dr Babbe äu zeje — Ja mäinsch kummt-er jetz boll?

        
",20,clemens-chrischtowe,15,3,0.0,0.2
21,tale,Xaverel,MALE,,,,"
          
Xaverel:

          
Dr Kaffe isch jo gar nitt süess — denne will ich nitt — 
          
(bätzich)
 Ich will noch Zucker, ich will Zucker.

        
",21,clemens-chrischtowe,27,1,0.0,0.037037037037037035
22,tale,Marikel,FEMALE,,,,"
          
Marikel:

          
Dü hesch Zucker genuej, ich mues spare dran. Dü verdiensch üewerhäubt kenn Zucker, dü Räiwer.

        
",22,clemens-chrischtowe,21,1,0.0,0.047619047619047616
24,tale,Dr Grossbabbe,MALE,,,,"
          
Grossbabbe:

          
Mildebibb noch emol! Witt jetz stille sinn un de Kaffe drinke, dü ungarschticher Bue, dü! Grad
          säisch dü witt brav sinn un jetz fangsch schun widder an —

        
",24,clemens-chrischtowe,34,4,0.0,0.11764705882352941
25,tale,Schorschel,MALE,,,,"
          
Schorschel:

          
Wenn de Hanstrapp kummt, der wurd di fitze mi dere lange Ruet. Ich bin brav ich hab kenn Angscht
          vor-em 
          
(es klopft)
 U — Marikel, es hett geklopft, s’Chrischtkindel kummt! 
          
(versteckelt sich hinterem Marikel)
.

        
",25,clemens-chrischtowe,47,4,0.0,0.0851063829787234
26,tale,Dr Grossbabbe,MALE,,,,"
          
Grossbabbe:

          
Entrez !

        
",26,clemens-chrischtowe,4,1,0.0,0.25
27,tale,Spähnelänz,MALE,,,,"
          
Spähnelänz:

          
Guete-n-Owe biesamme’! 
          
(Alli danke-n-em)
 Wie geht’s wie steht’s ? Drüsse haw i e Wall Holz un e Sack Spähne füer
          ejch, ass macht kalt — ass de fiere kannsch.

        
",27,clemens-chrischtowe,42,5,0.0,0.11904761904761904
28,tale,Marikel,FEMALE,,,,"
          
Marikel:

          
Merci äu Spähnelänz, ihr danke doch als äu noch an uns, ich bin froh no brüch ich nitt in de Wald
          üewer d’Fierdäy.

        
",28,clemens-chrischtowe,29,2,0.738167614463535,0.06896551724137931
29,tale,Spähnelänz,MALE,,,,"
          
Spähnelänz:

          
Joo, ich due allewäj im Voltz-Märtel sini Familie vergasse, ar isch äu e gueter Kärl un hett mir
          viel Gfalle gedoon.

        
",29,clemens-chrischtowe,26,4,0.0,0.15384615384615385
31,tale,Spähnelänz,MALE,,,,"
          
Spähnelänz:

          
Näin, näin, Mäidel, ich hab schun e Schnäpsel gepackt. Awer ich will mich e bissel wärme un e bissel
          babble mit-em Grossvater.

        
",31,clemens-chrischtowe,29,3,0.0,0.10344827586206896
32,tale,Dr Grossbabbe,MALE,,,,"
          
Grossbabbe:

          
Dü besch doch e gueter Kärl, dü luejsch als doch noch uns do hüsse, in unserem Misere.

        
",32,clemens-chrischtowe,22,2,0.0,0.09090909090909091
33,tale,Spähnelänz,MALE,,,,"
          
Spähnelänz:

          
As wurd jetz besser kumme, die Zitte sinn erum. Mer hann doch widder satt ze asse un Wissbrot hann
          mr äu. Morje bring i e Budäll Roter, wäisch, bim e guete Gläsel Win vergisst mr alles Misère. Jetz sott
          noch dr Voltz kumme no war Massel. Ich kanns nitt gläuwe, ass-r nimi läwe sell, ihr wäre sähn, ar steht
          am e schöene Döj do in dr Stubb. Dr Stäinpeterseppel isch gescht äu üss Rüssland kumme, ganz
          unverhofft.

        
",33,clemens-chrischtowe,92,13,0.0,0.14130434782608695
34,tale,Dr Grossbabbe,MALE,,,,"
          
Grossbabbe:

          
E Glüeck war’s jo, wann’s eso kam — awer war wäiss, wär wäiss. Zitter vier Johr hann mr kenn
          Stärweswöertele meh vum g’höert. Alli Brief wie mr gschriewe hann, sinn zeruck kumme, mr hann-em nitt
          kenne schriewe, ass ’s Marie, sini Fräu, krank esch, un wie’s gstorwe isch, hann mr-em kenn Nochricht
          kenne gann. Wie m’r uns anegewend’t hann, isch Bschäid zeruckkumme : Seit dem 24. August 1914 vermisst
          — — ja — ja! 
          
(alles isch e Will still.)

        
",34,clemens-chrischtowe,101,10,0.15486691943508152,0.09900990099009901
35,tale,Spähnelänz,MALE,,,,"
          
Spähnelänz:

          
Na, wann’s awer häisst „vermisst — isch’s als noch kenn Bewies, ass-r nimi läbt, un ihr derfe d’
          Hoffnung nitt uffgänn. Am End bringt ne gar ’s Chrischtkindel mit, ejere Babbe, diss war awer e
          Chrischtowe. — Mäinsch Schorschel, wann dr Babbe hinnicht käm, do datsch lache, hä ?

        
",35,clemens-chrischtowe,64,7,0.33436953925313057,0.109375
36,tale,Schorschel,MALE,,,,"
          
Schorschel:

          
Awer sicher, awer wie sieht dann e Babbe üss ?

        
",36,clemens-chrischtowe,13,2,0.0,0.15384615384615385
37,tale,Spähnelänz,MALE,,,,"
          
Spähnelänz:

          
Ah, jasoo — dü kennsch jo dine Babbe gar nitt, dü bisch noch kenn zwäj Johr alt gewann, wie se ne
          g’holt hann d’ Prejse — un ar isch so ungarn furt von Fräu un Kind.

        
",37,clemens-chrischtowe,42,2,0.0,0.047619047619047616
38,tale,Xaverel,MALE,,,,"
          
Xaverel:

          
Ich wäiss-es noch, wie er furt isch, ar hett uns alli gschmutzt un hett gsäit zue dr Mamme : Marie,
          hiel nitt, ich kumm ball widder. Ar isch awer noch nitt kumme.

        
",38,clemens-chrischtowe,40,3,0.0,0.075
40,tale,Xaverel,MALE,,,,"
          
Xaverel:

          
Waje mir, ich hab ganz Häimweh denoch, im Babbe sini Schmier gspiert mr doch äu. 
          
(Alle lachen.)

        
",40,clemens-chrischtowe,25,5,0.0,0.2
41,tale,Dr Grossbabbe,MALE,,,,"
          
Grossbabbe:

          
Do müess mr noch lache zue allem Misère — un wie wurd’s uns noch gehn ? 
          
(sifzt schwär)
 Mr hann grad ’s Notwandigscht zuem läwe, kenn Gald, ass wie diss bissel
          Unterstützung un wänn’s im Nissmeier infallt uns zuem Hiesel nüsszestelle — was no? No kumme d’ Kinder
          in’s Wäiselhüss un ich noch Strossburri zue de „Kläine Schweschtere“. Ass war glich so kumme, wie ’s
          Marie gstorwe isch gewann, awer ich hab mi mit Hand un Füess gewehrt dergeje, ich hab gsäit, so lang
          wie kenn Nochricht do isch, ass dr Babbe dot isch, gehn mir nitt vonander. —

        
",41,clemens-chrischtowe,119,16,0.02150929436598354,0.13445378151260504
42,tale,Marikel,FEMALE,,,,"
          
Marikel:

          
Grossbabbe, mir bliewe bienander, ich will gare schaffe.

        
",42,clemens-chrischtowe,13,2,0.0,0.15384615384615385
43,tale,Xaverel,MALE,,,,"
          
Xaverel:

          
As sell numme äiner kumme, ich bring ne nüss ! 
          
(holt e Stock hinte vor.)

        
",43,clemens-chrischtowe,21,2,0.0,0.09523809523809523
44,tale,Dr Grossbabbe,MALE,,,,"
          
Grossbabbe:

          
As isch alles racht — wann numme emol e Brief oder e Nochricht vum kam — nurre e Zäiche, ass-r labt,
          sunsch sinn mr verlore. Die arme King düre mich, wäje mir hätt’s jo kenn so Wärt, ich läb doch nimmi
          lang.

        
",44,clemens-chrischtowe,51,6,0.0,0.11764705882352941
45,tale,Marikel,FEMALE,,,,"
          
Marikel:

          
Grossbabbe, dü sollsch noch nitt stärwe, dü sollsch noch lang bie uns bliewe, gar jetz, wie d’
          Franzose do sinn.

        
",45,clemens-chrischtowe,27,2,0.0,0.07407407407407407
46,tale,Schorschel,MALE,,,,"
          
Schorschel:

          
Dü derfsch nitt starwe Grossbabbe, wie de starbsch, bin i böes mit dr.

        
",46,clemens-chrischtowe,17,2,1.497964252892295,0.11764705882352941
47,tale,Spähnelänz,MALE,,,,"
          
Spähnelänz:

          
Ihr wisse wie’s häisst: „Wann d’Not am gröeschte isch, isch Gottes Hilf am nächschte“ Un ihr wäre
          sähne, ar hilft äu bie ejch. Ihr derfe nitt glich ’s Ärigscht danke. Wann halt d’ Mamme noch do wär,
          war’s halt viel besser — die vermaledäit Gripp hett viel Mansche ’s Läwe koscht. 
          
(steht uf)
. Ja — un ich will jetz e-n-attatta gehn, un mich häime züe schaffe, dann ’s
          Chrischtkindel kummt allewäj ball — ass kummt äu do rüss züe ejch un bringt e Dannebäum un schöeni
          Sache, diss häisst, dene wie brav sinn gewann, dann sunsch gitt’s vum Hanstrapp mit dr Ruet. — Alle
          jetz, „Guet Nacht“ bienand un’s Chrischtkindel sell ejch guet bschare.

        
",47,clemens-chrischtowe,145,16,0.9819125781503443,0.1103448275862069
48,tale,alli,UNKNOWN,,,,"
          
Alli:

          
Guet Nacht, Spähnelänz.

        
",48,clemens-chrischtowe,7,1,0.0,0.14285714285714285
49,tale,Marikel,FEMALE,,,,"
          
Marikel:

          
Un äu merci füer’s Holz, un ’s Chrischtkindel sell ejch äu ebs schöen’s bringe.

        
",49,clemens-chrischtowe,20,1,0.0,0.05
50,tale,Spähnelänz,MALE,,,,"
          
Spähnelänz:

          
As sell mr numme e Päckel Düwak bringe, diss isch mr liewer wie alles, ass i kenn Keschteblätter un
          wäiss dr Deifel was füer Mischt räuche muess. — Guet Nacht! 
          
(ab.)

        
",50,clemens-chrischtowe,40,4,0.7655001266805402,0.1
51,tale,Marikel,FEMALE,,,,"
          
Marikel:

          
Ich will de Disch abrümme, un no sitze mr zuem Grossbabbe, un ar verzehlt uns no e schöen’s
          Gschichtel, gall Grossbabbe ?

        
",51,clemens-chrischtowe,28,3,0.0,0.10714285714285714
52,tale,Dr Grossbabbe,MALE,,,,"
          
Grossbabbe:

          
Aijo, ihr Quälgeischter, ass-r zefridde sinn. 
          
(Er geht an de Lehnstüehl. Xaverel un Schorschel stehn äu uf. Dr Xavier hebbt de Schorschel vun
          hinte unter de Ärm un schlenkert ne im Ringel erum un saat dezü :)

        
",52,clemens-chrischtowe,46,5,0.0,0.10869565217391304
53,tale,Xaverel,MALE,,,,"
          
Xaverel:

          
Die Mühle geht langsam, das Rad geht schnell — —

        
",53,clemens-chrischtowe,13,1,0.0,0.07692307692307693
54,tale,Schorschel,MALE,,,,"
          
Schorschel:

          

          
(brüelt)
 Grossbabbe — Marikel ! ! !

        
",54,clemens-chrischtowe,11,1,0.0,0.09090909090909091
55,tale,Dr Grossbabbe,MALE,,,,"
          
Grossbabbe:

          
Xaverel, witt de ruejh sinn! 
          
(Xaverel stellt ne anne.)

        
",55,clemens-chrischtowe,16,2,0.0,0.125
56,tale,Xaverel,MALE,,,,"
          
Xaverel:

          

          
(düermelt erum)
 Jooo, jetz bin i ganz durmelich.

        
",56,clemens-chrischtowe,14,1,0.0,0.07142857142857142
57,tale,Marikel,FEMALE,,,,"
          
Marikel:

          

          
(nimmt de Martinné)
 Wart, ich will dr halfe, ehnder duesch doch nitt guet, dü müesch alle
          Döj dini Wichs hann. 
          
(haut ne)
.

        
",57,clemens-chrischtowe,33,3,0.0,0.09090909090909091
58,tale,Xaverel,MALE,,,,"
          
Xaverel:

          
Autsch — autsch — ich bin brav, Schweschterle, halt jetz — autsch, es langt — gisch mr dr Räscht
          e-n-ander Mol !

        
",58,clemens-chrischtowe,29,2,1.2103719280498593,0.06896551724137931
59,tale,Marikel,FEMALE,,,,"
          
Marikel:

          
So, un jetz do hare gsasse uf de Schämel un nimm gemückst. 
          
(Beidi sitze uf de Schemel zuem Grossbabbe. ’s Marikel nimmt e Kaffeeschüssel, geht an d’ Düer
          un lockt im Kätzel „bsssw“ — mr höert e Katz drüsse „miau“ brüele. — ’s Marikel macht no Düer
          zü)
.

        
",59,clemens-chrischtowe,62,5,0.0,0.08064516129032258
60,tale,Schorschel,MALE,,,,"
          
Schorschel:

          
Grossbabbe, ich kann äu schun eb’s natt’s ufsäue, höer emol Grossbabbe :

          
„Bin e kläiner Stumpe,

          
Steckt mr in de Lumpe,

          
Dr Lumpe isch ze kläin,

          
Mr steckt ne in e Stein ;

          
Dr Stäin isch ze kalt,

          
Mr steckt ne in e Wald,

          
Dr Wald isch ze finschter,

          
Mr steckt ne ins Münschter,

          
’s Münschter isch ze hoch,

          
Mr steckt ne in e Rohr,

          
’s Rohr isch ze äng,

          
Mr steckt ne in d’ Budäll,

          
d’ Budäll läuft üss,

          
D’r Stumpe blitzt erüss.“

        
",60,clemens-chrischtowe,105,9,0.14156575566070492,0.08571428571428572
62,tale,Dr Grossbabbe,MALE,,,,"
          
Grossbabbe:

          
Stille bisch — diss isch ganz ebs schöen’s Schorschel ! Ar isch numme schallü, will ar nix kann.

        
",62,clemens-chrischtowe,23,4,0.0,0.17391304347826086
63,tale,Marikel,FEMALE,,,,"
          
Marikel:

          

          
(isch ferti mit-em Disch, nimmt e Stricket un setzt sich zue de andere.)
 So, jetz bin i
          ferdi — Grossbabbe, alle verzehl jetz e Gschichtel !

        
",63,clemens-chrischtowe,34,1,0.0,0.029411764705882353
64,tale,Dr Grossbabbe,MALE,,,,"
          
Grossbabbe:

          
Glich — e Momant noch, ich bin so rüch im Hals. 
          
(nimmt üss-em Sack e Lädel mit Pastille.)

        
",64,clemens-chrischtowe,25,1,0.0,0.04
66,tale,Marikel,FEMALE,,,,"
          
Marikel:

          

          
(haut-em eini rab)
 Do hesch e Paschtill vum Dokter Scholli. — Dr Grossbabbe muess d’
          Paschtille spare füer sich, dr Harr Pfarrer hett’s em gann füer de Hueschte !

        
",66,clemens-chrischtowe,36,5,0.0,0.1388888888888889
67,tale,Dr Grossbabbe,MALE,,,,"
          
Grossbabbe:

          

          
(macht Gspass)
 Also basse uff;

          
As isch emol gewänn,

          
E Stackel un e Spähn.

          
As isch emol gsinn.....

        
",67,clemens-chrischtowe,26,4,0.0,0.15384615384615385
68,tale,Marikel,FEMALE,,,,"
          
Alli drej:

          
Jooo, Grossbabbe, nitt eso — —

        
",68,clemens-chrischtowe,11,1,0.0,0.09090909090909091
69,tale,Schorschel,MALE,,,,"
          
Alli drej:

          
Jooo, Grossbabbe, nitt eso — —

        
",69,clemens-chrischtowe,11,1,0.0,0.09090909090909091
70,tale,Xaverel,MALE,,,,"
          
Alli drej:

          
Jooo, Grossbabbe, nitt eso — —

        
",70,clemens-chrischtowe,11,1,0.0,0.09090909090909091
72,tale,Marikel,FEMALE,,,,"
          
Marikel:

          
Wann dü nitt miesli stille bisch —

        
",72,clemens-chrischtowe,9,1,0.0,0.1111111111111111
73,tale,Schorschel,MALE,,,,"
          
Schorschel:

          

          
(fladdiert)
 Grossbabbe, ich druckt di äu lieb — awer no muesch äu e natt’s verzehle —
          wäisch diss vum Katzemisel. 
          
(druckt de Grossbabbe.)

        
",73,clemens-chrischtowe,33,4,0.0,0.12121212121212122
74,tale,Dr Grossbabbe,MALE,,,,"
          
Grossbabbe:

          

          
(verzehlt)
 Es isch emol e armi alti Fräu gewann und die isch ganz witt vom Dorf ewäck
          gewohnt, mittles im e finschtere Dannewald. Die alt Fräu , sie hett Philome ghäisse, hett e kläins
          Katzemiesel ghett, diss isch ihr alles gewann, sie hett de letschte Bisse mit-em gedäilt un hett’s
          bsorit wie e liewer gueter Friend. Diss isch so langi Johr gange, bis am e Owe, do hett’s Katzemiesel
          ganz biezitte sinn Läujer hinterm Häerd ufgsuecht un hett ganz jämmerli gebrüelt : „Miau, miau“. Die
          arm Philome isch in grosser Angscht un Sorje gewann un hett-em glich häissi Millich mit Wecke gemacht,
          awer ’s Katzemiesel hett nix angerüehrt — awer zuem grosse Stüne vun dr Philome fangt’s an ze redde un
          säit: Liewi Philome, ich bin arich krank, ich gspier’s, ich muess starwe, dü hesch mich awer immer in
          trejer Lieb gepfläjt, diss will ich dir belohne. Drüsse im Garte, unterm Holderbäum, haw ich e Schatz
          begrawe, der soll dini sinn, muesch mr awer verspreche, d’ Hälft devun in dem arme blinde Mann im Dorf
          ze gänn.

          

          
D’ arm Philome hett versproche, alles wohl üsszerichte, un no isch’s Katzemiesel gstorwe. Sie hett’s
          im Garte, grad vor ihrem Fanschter begrawe un isch glich ane gange un hett e Stächschar genumme un hett
          anfange unterem Holderbäum ze dälwe un ze sähne, obs Katzemiesel d’ Wohret gsäit hett. Sie hett
          tatsächli äu e grosser Hüffe Gold un Silwer gfunde, awer biem Anblick vun dam viele Gold isch äu glich
          d’ Habsucht un dr Giz in ihr Härz ingezöje, un sie hett ihr Verspreche vergässe, wie se im Katzemiesel
          gemacht hett un hett alles füer sich gepalte. Sie hett’s im Commode inbschlosse un hett dem blinde Mann
          nix devun gann vun dam viele Gold un Silwer.

          
Uf-em Grab vum Katzemiesel isch e Quätschelbäum gewachse, d’ Philome isch als alle Öwe unter dene
          Quätschelbäum gsässe, un emol, wie er ganz voll Quatschle isch g’hänkt, hett se alli Fräid ghett,
          ass-se so viel Quätschle bekummt, isch’s grad gsinn, ass wann se e häimlichs Rüsche in de Äscht höere
          dat un wie e Stimm säit :

          
War von sinem Üewerfluss

          
Un Richtum vollem Säje

          
E armer Blinder darwe losst,

          
Dam bringt’s kenn Glüeck, ar hett Verdruss.

          
Do isch d’ Philome bläich worre wie e Suppedaller, sie isch in d’ Stubb nin, hett’s Commode
          ufgerisse un da — ihr Schatz isch nimmi do gewann, alles Gold un Silwer futsch. Do isch se bedrüebt un
          voll Kummer un Anleje unter de Quätschelbäum gsässe un hett gejommert: „O ich armi Fräu, worum bin ich
          so harthärzi un gizich gewänn. Von was sell ich armi, alti Fräu jetz läwe, jetz muess i vor Hunger
          stärwe.“

          
Do hett’s widder anfange ze rüsche in de Äscht, e paar Quätschle sinn erab kejt un die Stimm hett
          gsäit: Äimol noch soll dr gholfe ware, hebb die Quätschle uf, sie sinn von pürem Gold, die sinn dine,
          awer ’s erscht arm Kind wie zue dr kummt, dem
          
müesch d’ Hälft devun gann. Diss hett d’ Philome ganz glüeckli gemacht, sie hett die
          goldene Quätschle ufghebbt ins Füerdi un wie se in d’ Höeh geluejt hett, isch e arm’s Mäidele vor-ere
          gstande, ganz in Lumpe gekläid’t un bättelt um e Almose. Awer d’ Habsucht un dr Giz hann schun widder
          d’ Macht üewer d’ Philome ghett, ihr Härz isch zue Stäin worre, sie hett gedankt, was sell ich vun
          danne paar Quätschle d’ Hälft hare gann — no haw ich jo nix meh, un sie hett dem arme Kind e Stüeck
          Brot gänn, diss isch so drucket gewänn, e Wolf hätt sich d’ Zähn dran erüssgebisse. Sie hett noch
          wundersch was gemäint, was se Guets gemacht hett. Wie se awer in d’ Stubb isch kumme un hett die
          goldiche Quätschle üss-em Füerdi welle namme, ze sinn’s ganz gewöehnlichi Quätschle gsinn.

          
Vor Scham un Ärjer, ass se widder e Dummhäit gemacht hett, isch se nüss geloffe in de Hoft un hett
          sich uf d’ Bank unter de Quätschlebäum gsetzt, un wie se nuff lüejt, ob kenn goldichi Quätschle meh
          drowe hänke, ze sieht se e schöener Vöjel drowe sitze mit-ere Goldkron uf-em Kopf, un dar hett no
          gsunge :

          
„Dü hesch nitt ghöert uf gueti Wort,

          
Drum isch din Gold un Richtum furt.“

          
„O dü liewer Vöjel“, hett d’ Philome gejommert, „datsch mr nurre noch emol halfe, ich will garn
          alles mache, was de mr säisch un nie widder gizich ware.“

          
Do hett der Vöjel e Fader keje lonn, die hett so geglänzt, ass dr Philome d’ Aue weh gedon hann, un
          wie se geluejt hett, isch se vun pürem Gold gsinn. Dr Vöjel hett awer gsäit: „Nimm die Fäder un steck
          se in de Bodde, do wie ’s Katzemiesel begrawe lejt, no wurd üewer Nacht e Bluemestock wachse, wie ganz
          von Gold isch, un do briechsch jede Owe e Blatt ab un dü wursch rich un glüeckli ware, nurre vergiss im
          Glück d’ Arme nitt.“

          
Do drüwer hett d’ Philome e grossi Fräid ghett un in ihrem Härze isch awer glich widder d’ Habsucht
          un dr Giz kumme un sie hett sich in Gedanke
          
schun widder vorgenumme, ass se alles füer sich will b’halte un sich nätti Kläider un
          Staat un gueti Sache käufe will, Küm awer hett se d’ Fäder in de Bodde gsteckt, ze isch e grossi Flamm
          üss-em Bodde erüss gschläue un hett d’ Philome un ihr Hüss mit Hab un Guet verbrännt. So isch däre
          giziche Philome gange — un jetz isch üss, dert läuft e Müs, fang se un mach dir e schöeni Pelzkapp
          drüss.

        
",74,clemens-chrischtowe,1063,123,0.3123560470407345,0.11571025399811853
75,tale,Schorschel,MALE,,,,"
          
Schorschel:

          
Diss esch e natti Gschicht gewann — dare „Fillemej“ gschied’s ganz eracht, ass se verbrännt
          isch.

        
",75,clemens-chrischtowe,23,3,0.0,0.13043478260869565
76,tale,Marikel,FEMALE,,,,"
          
Marikel:

          
So köennt ich schun nitt sinn, ich dat de letschte Mumpfel häre gänn. 
          
(Es schlaat uf dr Ühr siewe Mol „Kückück“.)

        
",76,clemens-chrischtowe,30,3,0.0,0.1
77,tale,Dr Grossbabbe,MALE,,,,"
          
Grossbabbe:

          

          
(zehlt)
 Äins, zwäi, drej, vier, fünef, sechs, siewe. Was schun siewe !

        
",77,clemens-chrischtowe,23,1,0.0,0.043478260869565216
80,tale,Schorschel,MALE,,,,"
          
Schorschel:

          
Er stupft mich! — Wart dr Hanstrapp muess die fitze.

        
",80,clemens-chrischtowe,14,1,0.0,0.07142857142857142
81,tale,Marikel,FEMALE,,,,"
          
Marikel:

          
Xaverel, losch dene Bue gehn ! Noch e Wort, no muesch ins Bett.

        
",81,clemens-chrischtowe,18,1,0.0,0.05555555555555555
82,tale,Schorschel,MALE,,,,"
          
Schorschel:

          
Kummt jetz ’s Chrischtkindel ball? 
          
(es klopft)
 U — ’s Chrischtkindel! 
          
(versteckelt sich hinterem Marikel)
.

        
",82,clemens-chrischtowe,24,1,0.0,0.041666666666666664
83,tale,Dr Grossbabbe,MALE,,,,"
          
Grossbabbe:

          
Entrez! 
          
(es klopft widder)
 Entrez — numme erin !

        
",83,clemens-chrischtowe,14,1,0.0,0.07142857142857142
84,tale,Xaverel,MALE,,,,"
          
Xaverel:

          

          
(macht d’ Düer uf)
 O jeh, diss isch mr e natt’s Chrischtkindel !

        
",84,clemens-chrischtowe,19,3,0.0,0.15789473684210525
85,tale,Nissmeier,MALE,,,,"
          
Niessmeier:

          

          
(kummt erin)
 Guete-n-Owe. Isch will nitt lang stöere, isch hab numme welle sehne ob-r
          schun Nochricht vum Voltz hann grejt — wisse-n-er, ich kennt diss Baräckel günschtich verkaafe, un wenn
          dr Voltz doch nimi kommt — — no müen-r halt nüss. Es sinn jetzert vier Termin verfalle un dr Kriej isch
          erum, jetz müen-r halt bezahle oder ’s Baräckel leer mache, also mache-n-ejch gfasst druff, dü reste
          —

        
",85,clemens-chrischtowe,86,11,0.8802704931271704,0.12790697674418605
86,tale,Dr Grossbabbe,MALE,,,,"
          
Grossbabbe:

          
Awer Nissmeier, jetz mitte im Winter wotte ihr uns nüss stelle ? Bedänke doch, was diss füer uns
          wär, warte doch noch e bissel, hann noch e weni Geduld, mr hoffe alle Döj druff, ass dr Voltz widder
          kummt, no wurd’r jo alles bezahle,

        
",86,clemens-chrischtowe,54,4,0.0,0.07407407407407407
87,tale,Nissmeier,MALE,,,,"
          
Nissmeier:

          
Ja, mit Versprechunge kann isch awer nitt inkaafe, un ob de Voltz kummt, diss isch e anderi
          Fröj.

        
",87,clemens-chrischtowe,24,3,0.0,0.125
88,tale,Xaverel,MALE,,,,"
          
Xaverel:

          
Awer sicher kummt-r.

        
",88,clemens-chrischtowe,6,1,0.0,0.16666666666666666
89,tale,Dr Grossbabbe,MALE,,,,"
          
Grossbabbe:

          
Na, awer gedulde ejch doch noch. Ihr hann jo ze läwe un sinn jetz nitt grad angewiese uf die paar
          hundert Livres. Ihr sinn doch e richer Mann. —

        
",89,clemens-chrischtowe,35,5,0.0,0.14285714285714285
90,tale,Nissmeier,MALE,,,,"
          
Nissmeier:

          
Was heisst e richer Mann ? Du reste, ich müess au lueje, ass ich durichkumm, isch hab nix eweck ze
          schmisse un wenn de Voltz als weniger geblosse hätt, wär’s Baräckel längscht bezahlt.

        
",90,clemens-chrischtowe,41,1,0.0,0.024390243902439025
91,tale,Xaverel,MALE,,,,"
          
Xaverel:

          
Was säit dar ? Unsere Babbe hett geblose ! 
          
(langt de Stock, geht uf de Nissmeier los)
 Jetz awer nix wie nüss, Niesskräue ass-r sinn
          — ah ihr mache mine Babbe schlächt.

        
",91,clemens-chrischtowe,39,8,0.0,0.20512820512820512
92,tale,Nissmeier,MALE,,,,"
          
Nissmeier:

          

          
(risst-em de Stock üss de Händ)
 Was dü Lüsangel, witt uf e Mann los gehn. 
          
(geht-em noch)
.

        
",92,clemens-chrischtowe,26,4,0.0,0.15384615384615385
93,tale,alli,UNKNOWN,,,,"
          
Alli:

          

          
(ruefe durich-e-n-ander)
 Welle ne gehn lonn! Ruehj do hinne ! 
          
(üewer dem geht d’ Düer uf un dr Voltz kummt erin)
.

        
",93,clemens-chrischtowe,31,3,0.5335012086023182,0.0967741935483871
95,tale,alli,UNKNOWN,,,,"
          
Alli:

          

          
(üsser Nissm. un Schorschel)
 Dr Babbe!!

        
",95,clemens-chrischtowe,13,1,0.0,0.07692307692307693
96,tale,Voltz Martin,MALE,,,,"
          
Voltz:

          

          
(risst Nissm. zeruck)
 Zeruck vun dam Bue — was hann ihr in dere Stubb ze sueche am e so e
          Owe?

        
",96,clemens-chrischtowe,27,1,0.0,0.037037037037037035
98,tale,Voltz Martin,MALE,,,,"
          
Voltz:

          
Soo — diss isch dr Dank von dere Sort Litt, ass mr 5 Johr lang sini Knoche ze Märik getraue hett un
          sie sinn d’häime hinterem warme Offe ghuckt. ’s isch guet Nissmeier — Ihr bekumme ejer Gald,
          
ich kumm morje un bezahl ejch mit Zins un Zinseszins. 
          
(klopft uf Dasch)
 Do isch Gald! Awer jetz mache, ass-r häime kumme.

        
",98,clemens-chrischtowe,72,12,0.22089055336410757,0.16666666666666666
99,tale,Nissmeier,MALE,,,,"
          
Nissmeier:

          
Non, monsieur Voltz, ’s isch nitt so böes gemaant gewäse — Ich tröj eich jo — ihr brüche nitt glich
          morje ze kumme. — Ich waas jo, ihr sinn e braver rechtschaffener Mann — isch hab numme welle lueje, was
          d’ Familie macht, wie’s geht dene Kinder, ich bin nurre froh, ass isch nix Böeses üewer ejch gsaat hab.
          — Adje, un amesiere-n-ejch guet! 
          
(geht ab)
.

        
",99,clemens-chrischtowe,85,12,0.372688644559305,0.1411764705882353
100,tale,Voltz Martin,MALE,,,,"
          
Voltz:

          
Kinder — Vater — Gott-lowe-dank d’häime ! —

        
",100,clemens-chrischtowe,11,2,0.0,0.18181818181818182
101,tale,Marikel,FEMALE,,,,"
          
Marikel un Xavier:

          
Babbe, liewer Babbe — jetz bliesch awer do, gall ?

        
",101,clemens-chrischtowe,16,3,0.0,0.1875
102,tale,Xaverel,MALE,,,,"
          
Marikel un Xavier:

          
Babbe, liewer Babbe — jetz bliesch awer do, gall ?

        
",102,clemens-chrischtowe,16,3,0.0,0.1875
103,tale,Voltz Martin,MALE,,,,"
          
Voltz:

          
Wie isch d’ Mamme ? Ruefe d’ Mamme, saue de Babbe isch do! 
          
(Alli stehn ganz verdattert do — kenns dröjt ne anlueje.)

        
",103,clemens-chrischtowe,30,4,0.0,0.13333333333333333
104,tale,Voltz Martin,MALE,,,,"
          
Voltz:

          
Ja, wie gemahnt mich diss ? Wie isch d’ Mamme? 
          
(Paus)
.

        
",104,clemens-chrischtowe,18,3,0.0,0.16666666666666666
105,tale,Schorschel,MALE,,,,"
          
Schorschel:

          
Unseri Mamme isch nitt do — sie isch gstorwe !

        
",105,clemens-chrischtowe,12,2,0.0,0.16666666666666666
106,tale,Voltz Martin,MALE,,,,"
          
Voltz:

          

          
(sinkt uf e Stuehl am Disch, hielt)
 D’ Mamme dot ! Au diss Unglüeck noch, nitt genuej,
          ass ich so viel durich gemacht hab — äu noch d’ Fräu verlore ! 
          
(lejt de Kopf uf de Disch un hielt arich.)

        
",106,clemens-chrischtowe,50,7,0.0,0.14
107,tale,Dr Grossbabbe,MALE,,,,"
          
Grossbabbe:

          
Martin — verzwiefel nitt, ass isch jo hart, was dich getroffe hett — awer luej, dü muesch’s ze
          üewerwinde sueche, dü muesch jetz starik sin ! — Ja, ’s Marie hett müen starwe, d’ Gripp hett’s
          mitgenumme, wie noch so viel — awer do hesch dini Kinder, unschuldichi Tröepfle, wie mit Schmarze uf de
          Babbe gewart hann un de Glauwe nitt verlore hann, ass de widder kummsch, un ihrer Glauwe hett se nitt
          im Stich gelonn, dü bisch widderkumme. — Diss isch doch au e Droscht füer di un soll dr Kraft gann äu
          diss ze üewerwinde — — un am Schicksal kenne mr nix ändere, ass hett so selle sinn.

        
",107,clemens-chrischtowe,130,19,0.32300033027377495,0.14615384615384616
108,tale,Schorschel,MALE,,,,"
          
Schorschel:

          

          
(zum Grossbabbe)
 Grossbabbe — war isch dar Mann ? Waje was hielt-r dann.

        
",108,clemens-chrischtowe,18,3,0.0,0.16666666666666666
109,tale,Dr Grossbabbe,MALE,,,,"
          
Grossbabbe:

          
Schorschel, diss isch jetz dr Babbe — wie de als gebatt hesch ass-r ball kumme sell.

        
",109,clemens-chrischtowe,20,4,0.0,0.2
110,tale,Schorschel,MALE,,,,"
          
Schorschel:

          

          
(geht an de Disch zuem Babbe, lehnt sich an-ne)
 Babbe! — Babbe, luej mich doch an! 
          
(schlingt de Arm um de Hals)
 Babbe, luej, so garn haw i dich, un da hesch e Schmutz, dann
          d’ Mamme hett gsäit, wann dr Babbe kummt sell ich em glich e Schmutz gann un sell dir viel Grüess
          üssrichte vun-ere, höersch Babbe ?

        
",110,clemens-chrischtowe,76,13,0.0,0.17105263157894737
111,tale,Voltz Martin,MALE,,,,"
          
Voltz:

          

          
(luejt de Schorschel an)
 Jaa — gall diss isch jo dr Schorschel ? Gott, bisch dü awer
          gross worre un e natter Bue ! Wie ich furt bin, bisch so gross gsinn un hesch als zue mr gsäit :
          „Babbe, mach mr e Fiff !“ Wäisch’s noch ? 
          
(schmutz ne)
 Un do isch jo dr Xaverel, dü bisch jo e läids Burscht worre — un ’s Marikel
          — dü hesch d’ Mamme müen spiele, dü arm’s Mäide. 
          
(alle stehn um de Babbe erum)
 Dü wursch awer d’ ähnli Mamme, je älter ass de wursch.

        
",111,clemens-chrischtowe,114,15,0.917360030722248,0.13157894736842105
112,tale,Marikel,FEMALE,,,,"
          
Marikel:

          
Babbe, hesch kenn Hunger — ich hab e Kueche gebache füer morje, awer mr asse ne jetz.

        
",112,clemens-chrischtowe,22,3,0.3643015622346762,0.13636363636363635
113,tale,Voltz Martin,MALE,,,,"
          
Voltz:

          
Loss numme, Kind, ich hab gueti Sache mitgebrocht, Asse un Trinke. 
          
(macht de Koffer uf)
 Do isch e Budäll Bordeaux, er hett füer d’ Mamme selle sinn, do e
          Budäll Malaga füer de Grossbabbe, un do isch Wurscht, Chambon, Sardinle, Mehl, Gries un do
          Chocolade.

        
",113,clemens-chrischtowe,61,7,0.2627210266201075,0.11475409836065574
114,tale,Schorschel,MALE,,,,"
          
Schorschel:

          
Uuh — Schocola ! Babbe, gab mr e Stüekkel 
          
(gibt alle Chocolade.)

        
",114,clemens-chrischtowe,18,2,0.0,0.1111111111111111
115,tale,Marikel,FEMALE,,,,"
          
Marikel:

          
Babbe, worum hesch dann so lang nix von dr höere lonn ? Vier Iohr lang ohne e Zäiche vun dr.

        
",115,clemens-chrischtowe,23,5,0.3201007251613909,0.21739130434782608
116,tale,Dr Grossbabbe,MALE,,,,"
          
Grossbabbe:

          
Ja, Martin, mr hann in Angscht um dich gelabt. Dü hesch allewäj viel ze verzehle.

        
",116,clemens-chrischtowe,21,3,0.0,0.14285714285714285
117,tale,Voltz Martin,MALE,,,,"
          
Voltz:

          
Ich möecht am liebschte nim dran dänke, gschweje devun redde. Am 24. August 1914 bin ich an dr
          Oschtfront biem e Vormarsch nitt witt vun Allenstein gfange genumme worre. Bis noch Sibirien
          
bin i kumme, emol isch’s schlächt, emol guet gange, no bin ich schwär krank worre un bin
          bis vor drej Monet im Lazarett geläje, ich hab nimi gedänkt, ass ich noch häime kumm, so eland bin i
          geläje. Ich bin fascht narrächt worre, vier Johr vun aller Welt abgschnitte, von nieme e Brief, kenn
          Nochricht vun Fräu un Kind. Do hann mr in’s Lazarett e nejer Docter bekumme, e Amerikaner, un do hett
          sich’s erüssgstellt, ass-es e Sohn isch gewänn vum Unkel Jacques, wie vor Johre üssgewandert isch. Er
          häisst Edgar, un ich sell ejch alli vum grüesse un bsunders ejch, Vater.

        
",117,clemens-chrischtowe,161,14,0.11061922816791536,0.08695652173913043
118,tale,Dr Grossbabbe,MALE,,,,"
          
Grossvater:

          
Diss war im Jacques sinner Bue. Wie geht’s em dann in Amerika ?

        
",118,clemens-chrischtowe,17,1,0.0,0.058823529411764705
119,tale,Voltz Martin,MALE,,,,"
          
Voltz:

          
Ar hat e grossi Holzhandlung un verdient viel Gald, ar isch e gemachter Mann. Ar hett mr Gald gann,
          e so viel, ass ich kann säue, mr sinn so gstellt, ass mr e äjes Hiesel un e sorjeloses Läwe hann. Ar
          hett äu gemacht, ass ich jetz schun d’häime bin, ich hab üewer Frankrich kenne räise, in Lyon haw i die
          Kleider bekumme, un mit-em erschte Transport bin i abgfahre ins Elsass. Ich war erscht morje kumme, es
          fahrt hinnicht kenn Bähnel meh, awer ich hab de Wäj nitt gschejt un bin üwer de Barri rüewer geloffe,
          ich hab doch am Chrischtowe d’häime welle sinn bie minere Familie.

        
",119,clemens-chrischtowe,128,14,0.09832820281592476,0.109375
120,tale,Marikel,FEMALE,,,,"
          
Marikel un Xavier:

          
Gott-lowe-dank, ass mr die widder hann, dü bisch widder bie uns, jetz isch alles vergasse.

        
",120,clemens-chrischtowe,23,1,0.0,0.043478260869565216
121,tale,Xaverel,MALE,,,,"
          
Marikel un Xavier:

          
Gott-lowe-dank, ass mr die widder hann, dü bisch widder bie uns, jetz isch alles vergasse.

        
",121,clemens-chrischtowe,23,1,0.0,0.043478260869565216
122,tale,Voltz Martin,MALE,,,,"
          
Voltz:

          
Numme d’Mamme sott noch do sinn.

        
",122,clemens-chrischtowe,10,1,0.0,0.1
123,tale,Dr Grossbabbe,MALE,,,,"
          
Grossbabbe:

          
Die isch im Himmel und fräit sich jetz mit uns, ass dr Babbe widder do isch.

        
",123,clemens-chrischtowe,20,4,0.0,0.2
124,tale,Schorschel,MALE,,,,"
          
Schorschel:

          

          
(ganz verschmiert vom Chocolade)
 Babbe, nim mich e bissel ! 
          
(Voltz setzt-ne uf de Gehre.)

        
",124,clemens-chrischtowe,23,3,0.0,0.13043478260869565
125,tale,Voltz Martin,MALE,,,,"
          
Voltz:

          
Xaverel, lang emol de Kuffer, ich hab ejch ebs mitgebrocht üss Rüssland. E Halstuech fürs Marikel, e
          Pelzkapp füer de Xaverel un e Mutze füer de Schorschele. 
          
(Alli drej verschmutze ne.)

        
",125,clemens-chrischtowe,41,2,0.0,0.04878048780487805
126,tale,Dr Grossbabbe,MALE,,,,"
          
Grossbabbe:

          
Martin, siehsch, wo so viel Lieb isch, do isch äu e Glüeck.

        
",126,clemens-chrischtowe,18,3,0.0,0.16666666666666666
127,tale,Voltz Martin,MALE,,,,"
          
Voltz:

          
Noch d’ Mamme — noch war min Glüeck vollkomme. 
          
(Paus — mr höert klingle von wittem, es kommt als nähter.)

        
",127,clemens-chrischtowe,27,3,0.0,0.1111111111111111
128,tale,Schorschel,MALE,,,,"
          
Schorschel:

          
’s Chrischtkindel kummt — ’s Chrischtkindel kummt ! 
          
(Xaverel schlupft schnell unter de Disch.)

        
",128,clemens-chrischtowe,19,2,0.0,0.10526315789473684
129,tale,Marikel,FEMALE,,,,"
          
Marikel:

          
Kumm Schorschel, ich will dr ’s Müll abbutze, sunsch bekummts jo Angscht. 
          
(Alli lueje gespannt uf Düer, erin kummt ’s Chrischtkindel mit-eme Dannebaum un dr
          Hanstrapp.)

        
",129,clemens-chrischtowe,35,5,0.0,0.14285714285714285
130,tale,’s Chrischtkindel,UNKNOWN,,,,"
          
Chrischtkindel:

          
Ehre sei Gott in der Höhe und Friede den Menschen, die eines guten Willens sind.

        
",130,clemens-chrischtowe,19,5,0.32691812876995346,0.2631578947368421
131,tale,Dr Hanstrapp,MALE,,,,"
          
Hanstrapp:

          
Millionesternschnüppe ! — Jetz emol do häre un gsunge „O Tannenbaum“. — Ja, do fehlt jo einer, wo
          stackt dann der ? Aha, der hett e böeses Gewisse, der hett Angscht vor-em Hanstrapp. 
          
(nimmt d’ Ruet un haut ne unterem Disch vor.)
 Als vor dü Galjestrick un versproche ass de
          brav witt sinn.

        
",131,clemens-chrischtowe,67,6,0.0,0.08955223880597014
132,tale,Xaverel,MALE,,,,"
          
Xaverel:

          

          
(knejt ane)
 Liewer Hanstrapp, ich will brav sinn !

        
",132,clemens-chrischtowe,14,2,0.0,0.14285714285714285
133,tale,Dr Hanstrapp,MALE,,,,"
          
Hanstrapp:

          
Un ihr zwei, sinn ihr brav, oder müen ihr äu Wichs hann ?

        
",133,clemens-chrischtowe,17,1,0.0,0.058823529411764705
134,tale,’s Chrischtkindel,UNKNOWN,,,,"
          
Chrischtkindel:

          
Halt — liewer Hanstrapp. Ich bitt füer die Kinder, sie hann in dene vier Johr genuej liede müen un
          hann kenn Mamme meh. —

        
",134,clemens-chrischtowe,29,5,0.4841487712199437,0.1724137931034483
135,tale,Marikel,FEMALE,,,,"
          
Alli drej Kinder:

          
Liebs Chrischtkindel, mr welle allewill brav un folgsam sinn.

        
",135,clemens-chrischtowe,15,4,0.0,0.26666666666666666
136,tale,Schorschel,MALE,,,,"
          
Alli drej Kinder:

          
Liebs Chrischtkindel, mr welle allewill brav un folgsam sinn.

        
",136,clemens-chrischtowe,15,4,0.0,0.26666666666666666
137,tale,Xaverel,MALE,,,,"
          
Alli drej Kinder:

          
Liebs Chrischtkindel, mr welle allewill brav un folgsam sinn.

        
",137,clemens-chrischtowe,15,4,0.0,0.26666666666666666
138,tale,Dr Hanstrapp,MALE,,,,"
          
Hanstrapp:

          

          
(zuem Chrischtkindel)
 Dü mit dim weiche Härz duesch mr alli Freid verderwe, widder nix ze
          fitze, Millionesternschnüppe noch emol. Jetz singe „O Tannenbaum“.

        
",138,clemens-chrischtowe,33,5,0.0,0.15151515151515152
139,tale,alli,UNKNOWN,,,,"
          
Alli

          
(singe:)

          
„O Tannenbaum, o Tannenbaum, wie grün sind deine Blätter“ usw.

        
",139,clemens-chrischtowe,20,2,0.8172953219248836,0.1
140,tale,Dr Hanstrapp,MALE,,,,"
          
Hanstrapp:

          
Guet so gsinn. Do häre, jetz gitts Äpfel un Nusse un nitt züe knapp, Millionesternschnüppe ! 
          
(deilt Äpfel un Nusse üss)
 Wer kann jetz noch ebs ufsaue vum Chrischtkindel, der bekummt
          noch diss schöen Lebkuchehärz !

        
",140,clemens-chrischtowe,44,3,0.0,0.06818181818181818
142,tale,Dr Hanstrapp,MALE,,,,"
          
Hanstrapp:

          
Dü ? Zej emol, angfange — wann’s nix isch no rauchts 
          
(fuchtelt mit dr Ruet)
 — ffft ! Millionesternschnüppe !

        
",142,clemens-chrischtowe,26,1,0.0,0.038461538461538464
143,tale,Xaverel,MALE,,,,"
          
Xaverel:

          
(saat uf :)

          

            
’s Chrischtkindel.

          

          
De brave Kinder ihri Zitt,

          
Ruckt nähter als dezü.

          
Dr Chrischtdaa isch jetz gar nim witt,

          
Do gitt’s Pläsir genuej.

          
’s Chrischtkindel kummt,

          
Isch diss e Läwe.

          
Was wurd’s do füer Presantle gäwe.

          
Sie höere in Gedanke schun

          
Sin Glöeckel silwerhäll,

          
Mr säit sie draime gar devun,

          
Der geht gewiss nitt fahl.

          
Na, nurr Geduld, nim lang soll’s wäre,

          
’s Chrischtkind wurd ejch brachti b’schäre.

          
Do gitt’s füer Mäidle Küechegschirr

          
Un Puppe, natt un fin.

          
Mit Lockehoor, mr meint jo schier,

          
Dass sie natirlich sinn.

          
Zuem koche Äpfel, Bonbons, Tarte,

          
Füer ihre Puppe uffzewarte.

          
Füer Büewe gitt’s e Stäckepferd,

          
E Trumm un e Trumbeet,

          
E Flint un gar au noch e Schwärt,

          
Soldate gar ze natt.

          

          
Do kenne se als exerziere

          
Un mitnander blinde Schlachte füere.

          
Diss war füer die, wo brav als sinn,

          
De Eltere folje schöen,

          
Wo d’ Lehrer niemols strofe müen

          
Un gärn in d’ Schuel au gehn.

          
Füer d’ Böese, wie stets brumme

          
Wurd mit dr Ruet dr Hanstrapp kumme.

          
Drum liewi Kinder uffgebasst

          
Un seje brav un guet,

          
Dr Hanstrapp hett noch niemols gspasst,

          
Er hett e dicki Ruet.

          
I mein, er wurd im Eck dort sitze

          
Füer böese Kinder scharf ze fitze.

        
",143,clemens-chrischtowe,252,42,0.31626018757701513,0.16666666666666666
144,tale,Dr Hanstrapp,MALE,,,,"
          
Hanstrapp:

          
Guet gemacht — do hesch’s Härz un sej vun jetz ab brav, sunsch butterts, wänn i widder kumm.

        
",144,clemens-chrischtowe,24,5,0.0,0.20833333333333334
145,tale,’s Chrischtkindel,UNKNOWN,,,,"
          
Chrischtkindel:

          
Awer der Klein do muess au e Lebkuechehärz hann.

        
",145,clemens-chrischtowe,12,1,0.0,0.08333333333333333
147,tale,Schorschel,MALE,,,,"
          
Schorschel:

          

          
(saat uf)
 Min Harz isch kläin, min Harz isch räin, derf niemes drinne wohne, wie’s
          Chrischtkindel alläin.

        
",147,clemens-chrischtowe,26,5,0.0,0.19230769230769232
148,tale,Dr Hanstrapp,MALE,,,,"
          
Hanstrapp:

          
Diss isch kläin, awer fein! do hesch e Härz.

        
",148,clemens-chrischtowe,14,2,0.0,0.14285714285714285
149,tale,’s Chrischtkindel,UNKNOWN,,,,"
          
Chrischtkindel:

          
Diss isch lieb vun dir un au im Maidel muesch e Härz gänn 
          
(Hanstrapp gibt im Marikel au eins)
.

        
",149,clemens-chrischtowe,24,4,0.0,0.16666666666666666
150,tale,Dr Hanstrapp,MALE,,,,"
          
Hanstrapp:

          
Do wurr ich alli Härzer los, Millionesternschnüppe, un mr hann noch meh Kinder ze bschäre.

        
",150,clemens-chrischtowe,20,3,0.0,0.15
151,tale,’s Chrischtkindel,UNKNOWN,,,,"
          
Chrischtkindel:

          
Ihr liewi Kinder, ich hab gsähn ass ihr alli brav sinn, un de brave Kinder duet’s Chrischtkindel
          allewill helfe un biestehn. Denn durch diss ass ihr zuem Chrischtkindel immer gebett hänn,
          
hett’s ejch de Babbe widder gebrocht un Glüeck un Säje wurd vun jetz an in ejerem Hiesel
          herrsche, bliewe allewil brav un folgsam, un ’s Chrischtkindel wurd ejch nie verlonn. Jetz singe mr
          noch: „Stille Nacht, heilige Nacht.“

        
",151,clemens-chrischtowe,85,19,0.0,0.2235294117647059
152,tale,alli,UNKNOWN,,,,"
          
Alli:

          

          
(singe)
 Stille Nacht, heilige Nacht, alles schläft, einsam wacht usw. 
          
(Noch-em erschte Vers fallt dr Rideau.)
.

        
",152,clemens-chrischtowe,28,5,0.11649495819641031,0.17857142857142858
