Unnamed: 0,drama_type,speaker,sex,job,job_category,social_class,text,progress,short_name,numTokens,numLexTokens,avgLexVal,lexRatio
0,comedy,Frisch,M,office_worker,intermediate_professionals,lower_class,"
            
Frisch :

            
(liest Zeitung)

          
",0,kuehne-bureaukrate,6,1,0.0,0.16666666666666666
1,comedy,Dindeschlecker,M,office_worker,intermediate_professionals,lower_middle_class,"
            
Dindeschlecker :

            
(rechnet eifrig.)

          
",0,kuehne-bureaukrate,7,1,0.0,0.14285714285714285
2,comedy,Frei,M,office_worker,intermediate_professionals,lower_class,"
            
Frei :

            
(starrt in die Luft und trämut ; das Schweigen dauert etwa eine Minute, fällt schliesslich
            Frei auf ; er beugt den Kopf leicht um den Aufsatz seines Pultes herum, gewahrt das Idyll, nimmt eine
            Zitronen- oder Orangenschale und wirft sie über das Pult Dindeschleckers hinweg, auf Frisch's
            Zeitung. Worauf er eifriges Schreiben markiert.)

          
",1,kuehne-bureaukrate,65,6,0.0,0.09230769230769231
3,comedy,Frisch,M,office_worker,intermediate_professionals,lower_class,"
            
Frisch :

            
(fährt auf)

            
Ninevierzig noch emol ! Jetz stecke mr emol die Fisik uff, Babbe Dindeschlecker ! Nit emol riehwig
            sinne Zitung lase ka mr im Dienscht ! 
            
(nimmt die Schale und wirft sie über den Aufsatz Dindeschleckers hinweg, diesem gerade auf
            seine Arbeit.)

          
",1,kuehne-bureaukrate,52,6,0.0,0.11538461538461539
4,comedy,Dindeschlecker,M,office_worker,intermediate_professionals,lower_middle_class,"
            
Dindeschlecker :

            
(gemütlich)

            
Allons, allons ! 
            
(wirft die Schale in den Papierkorb.)

          
",2,kuehne-bureaukrate,18,1,0.0,0.05555555555555555
5,comedy,Frei,M,office_worker,intermediate_professionals,lower_class,"
            
Frei :

            
(nimmt eine weitere Schale und wirft sie an die Zimmerdecke, derart, dass sie zurückfallend
            auf Dindeschleckers Arbeit fällt.)

          
",2,kuehne-bureaukrate,25,2,0.0,0.08
6,comedy,Dindeschlecker,M,office_worker,intermediate_professionals,lower_middle_class,"
            
Dindeschlecker :

            
(gemütlich)

            
Allons, allons, Herr Frisch, wenn Sie's salwer nit verputze kenne, wurum warfe Sie mir so Dings a!
            
            
(wirft die Schale weg.)

          
",3,kuehne-bureaukrate,35,5,0.6731951673008072,0.14285714285714285
7,comedy,Frisch,M,office_worker,intermediate_professionals,lower_class,"
            
Frisch :

            
Was? Ich?

          
",3,kuehne-bureaukrate,6,1,0.0,0.16666666666666666
9,comedy,Frei,M,office_worker,intermediate_professionals,lower_class,"
            
Frei :

            
Am And gar ich, hm ?

          
",4,kuehne-bureaukrate,9,1,0.0,0.1111111111111111
10,comedy,Frisch,M,office_worker,intermediate_professionals,lower_class,"
            
Frisch :

            
Egal wer ! Ich will minne Rüehj ha! Einer von Euich isch's sicher, wu so Fisik tribt ; wenn's jetz
            nit uffheert, pack i eifach dr eint un verhaui dr ander drmit, drno isch dr Richtig scho drbi, soviel
            weiss i drno wenigschtens.

          
",5,kuehne-bureaukrate,53,6,0.0,0.11320754716981132
11,comedy,Frei,M,office_worker,intermediate_professionals,lower_class,"
            
Frei :

            
Dü verstehsch awer o gar kä Spass !

          
",5,kuehne-bureaukrate,10,2,0.0,0.2
12,comedy,Frisch,M,office_worker,intermediate_professionals,lower_class,"
            
Frisch :

            
Spass hin, Spass har! Ich bin gwis e dummer Teuifel, awer alles wird eim emol z'güet - halt nei: E
            gueter Teuifel awer alles wird eim z'dumm mit dr Zit : Wenn i schaff, hann i nix drgege, wenn
            Dummheite g'macht ware, awer wenn i Zittung lies, drno mecht i minne Rüehj ha!

          
",6,kuehne-bureaukrate,66,16,0.1744608583790721,0.24242424242424243
13,comedy,Hasepfeffer,M,office_helper,intermediate_professionals,lower_class,"
            
Hasepfeffer :

            
(tritt ein)

            
Messieurs, jetz awer gmietlig, dr Alt müess glich kumme, ich mein, ich heer ne scho !

          
",6,kuehne-bureaukrate,26,3,0.0,0.11538461538461539
14,comedy,Fröhlich,M,office_worker,intermediate_professionals,lower_class,"
            
Fröhlich :

            
( im leichten Staubmantel, tritt ein, bleibt jedoch hinter der geöffneten Tür stehen. Im
            Tonfalle Linsespalter's :)

            
Bonjour Messieurs ! Tout le monde est là, personne ne manque ?

          
",7,kuehne-bureaukrate,37,1,0.0,0.02702702702702703
15,comedy,Frisch,M,office_worker,intermediate_professionals,lower_class,"
            
Frisch :

            
(wirft schnell die Zeitung in den Papierkorb ; Hasepfeffer kichernd ab.)

          
",7,kuehne-bureaukrate,16,3,0.0,0.1875
17,comedy,Fröhlich,M,office_worker,intermediate_professionals,lower_class,"
            
Fröhlich :

            
(tritt lachend vollends herein)

          
",8,kuehne-bureaukrate,8,2,0.0,0.25
18,comedy,alle,M,,,,"
            
Alle :

            
(durcheinander)

            
So ne Hanswurscht ! E so ne Kamel ! Alle Morge d'gliche Fisik im Schadel.

          
",9,kuehne-bureaukrate,22,2,0.0,0.09090909090909091
19,comedy,Fröhlich,M,office_worker,intermediate_professionals,lower_class,"
            
Fröhlich :

            
(mit seiner wirklichen Stimme)

            
Un alle Morge falle Ihr prompt uff dr gliche Schwindel inne ! 
            
(auf seinen Platz deutend, im Tonfall Linsespalters)
 C'est vraiment étonnant ! Toujours
            quand je suis là, il n'est pas ici et quand je suis ici, il n'est pas là ! 
            
(die andern lachen)
 C'est pourtant déjà 8 heures 40 !

          
",9,kuehne-bureaukrate,69,6,0.0,0.08695652173913043
20,comedy,Hasepfeffer,M,office_helper,intermediate_professionals,lower_class,"
            
Hasepfeffer :

            
(tritt hastig ein)

            
Achtung, Ihr Herre! Jetz kummtr wirklig!

          
",10,kuehne-bureaukrate,16,3,0.0,0.1875
21,comedy,Linsenspalter,M,office_manager,intermediate_professionals,lower_middle_class,"
            
Linsespalter :

            
(tritt schnell ein)

            
Bonjour, Messieurs ! Tout le monde est là, personne ne manque ?

          
",10,kuehne-bureaukrate,21,1,0.0,0.047619047619047616
22,comedy,alle,M,,,,"
            
Alle :

            
(während Fröhlich eiligst den Hut; an den Nagel hängt, sich auf den leeren Platz setzt und die
            Feder zur Hand nimmt)

            
Bonjour Monsieur Linsespalter !

          
",11,kuehne-bureaukrate,31,2,0.0,0.06451612903225806
23,comedy,Linsenspalter,M,office_manager,intermediate_professionals,lower_middle_class,"
            
Linsespalter :

            
(will in sein Zimmer gehen, stutzt)

            
Sie hann jo dr Mantel noch a, Monsieur Fröhlich? Sinn Sie jetzt erscht kumme ?

          
",11,kuehne-bureaukrate,28,2,0.0,0.07142857142857142
24,comedy,Fröhlich,M,office_worker,intermediate_professionals,lower_class,"
            
Fröhlich :

            
Nei, nei, Monsieur Linsespalter, ich bin scho sitter am achte do! S'isch m'r numme e bizzi
            z'frisch gsi, do inne !

          
",12,kuehne-bureaukrate,30,2,0.0,0.06666666666666667
26,comedy,Fröhlich,M,office_worker,intermediate_professionals,lower_class,"
            
Fröhlich :

            
Doch, doch, s'isch so ! Lüege Se, ich schrieb jo scho'ne ganze Zit lang ! 
            
(er kritzelt schnell einige Buchstaben auf's Papier und zeigt es Linsespalter)
 S'isch
            jo noch nass, sahn Se ! 
            
(wischt mit der Hand darüber)

          
",13,kuehne-bureaukrate,51,5,0.0,0.09803921568627451
27,comedy,Linsenspalter,M,office_manager,intermediate_professionals,lower_middle_class,"
            
Linsespalter :

            
(streng)

            
Ich weiss Bscheid! Sage Sie mir kurz un bindig, worum Sie hit scho widder 3/4 Stund z'spot sinn
            !

          
",13,kuehne-bureaukrate,27,2,0.0,0.07407407407407407
28,comedy,Fröhlich,M,office_worker,intermediate_professionals,lower_class,"
            
Fröhlich :

            
Après vous M. le Chef !

          
",14,kuehne-bureaukrate,8,2,0.0,0.25
29,comedy,Linsenspalter,M,office_manager,intermediate_professionals,lower_middle_class,"
            
Linsespalter :

            
Reschpektiere Sie mi Grad !

          
",14,kuehne-bureaukrate,7,1,0.0,0.14285714285714285
30,comedy,Fröhlich,M,office_worker,intermediate_professionals,lower_class,"
            
Fröhlich :

            
Garn !

            
(einlenkend)

            
Awer sahn Sie, Monsieur Linsespalter, das mien Sie doch versteh kenne, dass mr sich emol
            vrschloft, bsundersch, wenn mr e so ne unriehwige Nacht g'ha hat wie ich! Minne Fraui hat hinicht e
            Kindbett g'ha!

          
",15,kuehne-bureaukrate,49,4,0.0,0.08163265306122448
32,comedy,Fröhlich,M,office_worker,intermediate_professionals,lower_class,"
            
Fröhlich :

            
(trocken)

            
O, quant à cela ! Ich dank, das se noch mankmol eins wird ha ..... Vor 3 Wuche hat se sich erscht
            als Hewamm etabliert.

          
",16,kuehne-bureaukrate,33,3,0.0,0.09090909090909091
33,comedy,Linsenspalter,M,office_manager,intermediate_professionals,lower_middle_class,"
            
Linsespalter :

            
Uff alle Fall därf das kä Grund si fir Sie, alle Tag z'spot z'ku ! Vous rattraperez le temps ... 
            
(ab nach links)

          
",16,kuehne-bureaukrate,30,5,0.0,0.16666666666666666
34,comedy,Fröhlich,M,office_worker,intermediate_professionals,lower_class,"
            
Fröhlich :

            
Oui, Monsieur ! 
            
(leiser)
... le 31 février !

          
",17,kuehne-bureaukrate,14,1,0.0,0.07142857142857142
35,comedy,Hasepfeffer,M,office_helper,intermediate_professionals,lower_class,"
            
Hasepfeffer :

            
Ja, ja, die güete, alte Zitte. Zu minnre Zit, do isch's noch gmietliger gsi, do isch's noch
            gmietliger zuegange uff dr Administration ! Wu'n ich noch in Paris gsi bin, uff'm ministère des
            décorations, do sinn die Herre kumme un gange, wie se hann welle un kä Mensch hat e Starweswärtle
            drzüe gsait! Awer hit-ze-tags ! .....

          
",17,kuehne-bureaukrate,72,10,0.0,0.1388888888888889
39,comedy,Fröhlich,M,office_worker,intermediate_professionals,lower_class,"
            
Fröhlich :

            
..... Un g'schafft dr zehnte Teil drvu !

          
",19,kuehne-bureaukrate,10,2,0.0,0.2
40,comedy,Linsenspalter,M,office_manager,intermediate_professionals,lower_middle_class,"
            
Linsespalter :

            
(dringender, immer aus seinem Bureau)

            
Hasepfeffer ! ! Ha-se-pfeffer ! ! !

          
",20,kuehne-bureaukrate,17,1,0.0,0.058823529411764705
41,comedy,Hasepfeffer,M,office_helper,intermediate_professionals,lower_class,"
            
Hasepfeffer :

            
Ha jo ! Ich kumm scho ! 
            
(will links ab)

          
",20,kuehne-bureaukrate,14,1,0.0,0.07142857142857142
42,comedy,Linsenspalter,M,office_manager,intermediate_professionals,lower_middle_class,"
            
Linsespalter :

            
(erscheint unter seiner Tür wütend)

            
Hasepfeffer, wurum kumme Sie eigetlig nit glich, wenn i rief ?

          
",21,kuehne-bureaukrate,22,3,0.0,0.13636363636363635
43,comedy,Hasepfeffer,M,office_helper,intermediate_professionals,lower_class,"
            
Hasepfeffer :

            
Awer Monsieur le Chef, ich kumm jo scho ! Wu'n ich noch in Paris uff'm ministère des décorations
            gsi bin, do....

          
",21,kuehne-bureaukrate,27,3,0.0,0.1111111111111111
44,comedy,Linsenspalter,M,office_manager,intermediate_professionals,lower_middle_class,"
            
Linsespalter :

            
(kurz)

            
Ich kenn das ! .. Do isch's ewe gmietliger züegange! Awer bi uns geht's ewe nit gmietlig züe! Do
            gehl's sogar arg ungmietlig züe ! Merke Sie sich das !

          
",22,kuehne-bureaukrate,40,2,0.0,0.05
45,comedy,Hasepfeffer,M,office_helper,intermediate_professionals,lower_class,"
            
Hasepfeffer :

            
Oui, Monsieur le Chef !

          
",22,kuehne-bureaukrate,8,1,0.0,0.125
48,comedy,Linsenspalter,M,office_manager,intermediate_professionals,lower_middle_class,"
            
Linsespalter :

            
Wurum Sie bi mir dr Bode nit gfajt hann ? — Un sage Sie nit « hä » zue ihrem Chef !

          
",24,kuehne-bureaukrate,24,1,0.0,0.041666666666666664
49,comedy,Hasepfeffer,M,office_helper,intermediate_professionals,lower_class,"
            
Hasepfeffer :

            
Oui, Monsieur le Chef !

          
",24,kuehne-bureaukrate,8,1,0.0,0.125
51,comedy,Hasepfeffer,M,office_helper,intermediate_professionals,lower_class,"
            
Hasepfeffer :

            
Oui, Monsieur le Chef .....

          
",25,kuehne-bureaukrate,8,1,0.0,0.125
53,comedy,Hasepfeffer,M,office_helper,intermediate_professionals,lower_class,"
            
Hasepfeffer :

            
Oui, Monsieur le Chef !

          
",26,kuehne-bureaukrate,8,1,0.0,0.125
54,comedy,Linsenspalter,M,office_manager,intermediate_professionals,lower_middle_class,"
            
Linsespalter :

            
Un putze mir dr Bode uff !

          
",27,kuehne-bureaukrate,9,2,0.0,0.2222222222222222
55,comedy,Hasepfeffer,M,office_helper,intermediate_professionals,lower_class,"
            
Hasepfeffer :

            
Oui, Monsieur le Chef !

          
",27,kuehne-bureaukrate,8,1,0.0,0.125
56,comedy,Linsenspalter,M,office_manager,intermediate_professionals,lower_middle_class,"
            
Linsespalter :

            
(aufgebracht)

            
Sage Sie nit immer « Oui, Monsieur le Chef! »

          
",28,kuehne-bureaukrate,17,1,0.0,0.058823529411764705
57,comedy,Hasepfeffer,M,office_helper,intermediate_professionals,lower_class,"
            
Hasepfeffer :

            
Non, Monsieur le Chef !

          
",28,kuehne-bureaukrate,8,1,0.0,0.125
58,comedy,Linsenspalter,M,office_manager,intermediate_professionals,lower_middle_class,"
            
Linsespalter :

            
..... un mache sie ringer Ihre Arbeit besser ! 
            
(ab)

          
",29,kuehne-bureaukrate,14,1,0.0,0.07142857142857142
59,comedy,Hasepfeffer,M,office_helper,intermediate_professionals,lower_class,"
            
Hasepfeffer :

            
Non, Monsieur le Chef! ..... Eh... eh ... Oui Monsieur le Chef ! ..... Nundebibbl noch emol, isch
            das e Behandlung, wu m'r im e alte, im Dienscht graui gwordene Beamte z'Teil warde losst? ! Züe
            minnre Zit, wu'n ich noch in Paris gsi bin, am ministère des décorations .....

          
",29,kuehne-bureaukrate,62,8,0.0,0.12903225806451613
60,comedy,Dindeschlecker,M,office_worker,intermediate_professionals,lower_middle_class,"
            
Dindeschlecker :

            
(klopft ihm begütigend auf die Schultern)

            
Ja, ja, Hasepfeffer, do isch's noch gmietliger zuegange ! Zu minnre Zit ewefalls ! Ich bsinn mi
            noch ganz guet ! Sallemols, wu'n ich als junger Dachs in das bâtiment kumme bin, hat mich mi Chef ab
            d'Sitte gnumme un hat gsait : « Dindeschlecker, » hat'r gsait, sait'r, « merke Euich eins güet :
            Rachts wenn'r üs'm Kaschte kumme, isch e Wirtschaft, dert git's 'sbeschte Bier un vis-à-vis in sallre
            Metzge d'beschte Groschewirschtle ! Merke Euich das güet, schriewe's Euich hinter d'Ohre, sodass'r 's
            z'Nacht, wenn mr Euich üs'm tiefschte Schlof tat schittle, fählerlos harsage kennte - grad wie's
            Vaterunser ! S'andre lehre-n-Ihr drno alles naweszue mit dr Zit! » Un eso, Hasepfeffer, isch's
            g'halte worde, ich ha alles andre no-z'no o kapiert un bin uff die Art e brüchbarer Beamter worde
            !

          
",30,kuehne-bureaukrate,177,20,0.0,0.11299435028248588
61,comedy,Hasepfeffer,M,office_helper,intermediate_professionals,lower_class,"
            
Hasepfeffer :

            
So isch's, Herr Dindeschlecker ! Mir Alte, mir kenne ebbs vrzehle, awer do, die junge Litt, die
            meine, 's müess alles trapp-trapp gschah, die meine, unsereins hätt vier Hand un an jedre zeh Finger
            !

          
",30,kuehne-bureaukrate,46,6,0.0,0.13043478260869565
62,comedy,Dindeschlecker,M,office_worker,intermediate_professionals,lower_middle_class,"
            
Dindeschlecker :

            
Un was nutzt's? Dr Amtsschimmel galoppiert doch nit schnaller ! Immer langsam vora .....

          
",31,kuehne-bureaukrate,18,1,0.0,0.05555555555555555
63,comedy,Hasepfeffer,M,office_helper,intermediate_professionals,lower_class,"
            
Hasepfeffer :

            
..... So kummt m'r am wittschte ! 
            
(zieht hinter dem Ofen Schaufel und Besen hervor, die er jedoch sofort hinter seinem Rücken
            versteckt, wie er hört, dass Linsespalter's Tür geht.)

          
",31,kuehne-bureaukrate,39,2,0.0,0.05128205128205128
65,comedy,Hasepfeffer,M,office_helper,intermediate_professionals,lower_class,"
            
Hasepfeffer :

            
(indem er sich umwendet und gegen die Tür rechts geht, Besen und Schaufel aber so hält, dass
            Linsespalter sie nicht sieht)

            
Oui, oui, Monsieur le Chef, ich kumm glich, grad hann i gmerkt, dass i Base un Schüfel noch unte
            an dr Porte hann — ich kumm glich ! 
            
(rechts ab.)

          
",32,kuehne-bureaukrate,65,7,0.0,0.1076923076923077
66,comedy,Linsenspalter,M,office_manager,intermediate_professionals,lower_middle_class,"
            
Linsespalter :

            
Monsieur Frisch, voilà encore une affaire que vous avez mal traitée! C'est pourtant un cas
            intéressant!

          
",33,kuehne-bureaukrate,21,1,0.0,0.047619047619047616
67,comedy,Frisch,M,office_worker,intermediate_professionals,lower_class,"
            
Frisch :

            
Soll m'r denn dam alte Invalid d'augmentation vu sinnre Rante nit bewillige ?

          
",33,kuehne-bureaukrate,16,2,0.0,0.125
68,comedy,Linsenspalter,M,office_manager,intermediate_professionals,lower_middle_class,"
            
Linsespalter :

            
Mais bien sûr! Nadirlig soll mr's ihm bewillige, mais dans la forme prescrite, eso wie's
            d'Dienschtvorschrifte vorschriewe ! Namme Sie emol Ihre Dienschtvorschrifte mit heim z'nacht un
            stecke Sie d'Nas dri statt Dummheite z'mache ! Wu'n ich noch jung gsi bin wie Sie, wisse Sie, was ich
            do gmacht hann ?

          
",34,kuehne-bureaukrate,64,3,0.0,0.046875
69,comedy,Frisch,M,office_worker,intermediate_professionals,lower_class,"
            
Frisch :

            
(ironisch)

            
Nei !

          
",34,kuehne-bureaukrate,7,1,0.0,0.14285714285714285
70,comedy,Linsenspalter,M,office_manager,intermediate_professionals,lower_middle_class,"
            
Linsespalter :

            
Uff eigne Koschte, mit minne erschte ersparte Sü hann i mr se alle agschafft ! Fir dass i se immer
            d'heim hann un se nit brüch uff's Bureau z'ruckbringe am e Morge ! Un am e Sunntig z'mittag, do isch
            gebiffelt worde, statt Schnackedanz im Kopf z'ha !

          
",35,kuehne-bureaukrate,58,5,0.0,0.08620689655172414
71,comedy,Frisch,M,office_worker,intermediate_professionals,lower_class,"
            
Frisch :

            
Ja, was isch denn do latz an dare ordre ?

          
",35,kuehne-bureaukrate,13,3,0.0,0.23076923076923078
72,comedy,Linsenspalter,M,office_manager,intermediate_professionals,lower_middle_class,"
            
Linsespalter :

            
Was latz isch? Alles! Sie schriewe do ganz eifach, dass d'augmentation vu 75 uff 80 Franke im
            Monet bewilligt isch ! Mais ce n'est pas exact! Ce n'est pas exact ! Wisse Sie denn nit, was in dr
            Dienschtvorschrift 1279 § 715 bis Absatz 25 steht? Erscht isch d'jetzige Rante ganz z'striche un drno
            erscht d'neije z'beantrage.

          
",36,kuehne-bureaukrate,73,6,0.0,0.0821917808219178
73,comedy,Frisch,M,office_worker,intermediate_professionals,lower_class,"
            
Frisch :

            
Wenn awer da Invalid in dr Zwischezit vrhungert, ich mein in dr Zit zwische dr Strichung un dr
            Neuibewilligung ?

          
",36,kuehne-bureaukrate,23,3,0.0,0.13043478260869565
74,comedy,Linsenspalter,M,office_manager,intermediate_professionals,lower_middle_class,"
            
Linsespalter :

            
Ganz egal! D'Dienschtvorschrifte welle's eso ha un eso wird's gmacht !

          
",37,kuehne-bureaukrate,17,2,0.0,0.11764705882352941
75,comedy,Frisch,M,office_worker,intermediate_professionals,lower_class,"
            
Frisch :

            
Drno kummt's awer doch uff eins üsse !

          
",37,kuehne-bureaukrate,11,2,0.0,0.18181818181818182
76,comedy,Linsenspalter,M,office_manager,intermediate_professionals,lower_middle_class,"
            
Linsespalter :

            
Hann Sie sich um das z'bekimmere ? Um d'Dienschtvorschrifte hann Sie sich z'bekimmere, voilà tout!
            Un jetz kumme Sie emol mit m'r ! 
            
(im Abgehen)
 as intéres sant, un cas vraiment intéressant, e enorm interessanter Fall !
            
            
(mit Frisch links ab)

          
",38,kuehne-bureaukrate,54,4,0.0,0.07407407407407407
77,comedy,Fröhlich,M,office_worker,intermediate_professionals,lower_class,"
            
Fröhlich :

            
(ironisch)

            
Hann'r 's g'heert, Babbe Dindeschlecker, was fir interessante Fall bi uns vorkumme, hann'r 's
            g'hert ?

          
",38,kuehne-bureaukrate,24,4,0.0,0.16666666666666666
78,comedy,Dindeschlecker,M,office_worker,intermediate_professionals,lower_middle_class,"
            
Dindeschlecker :

            
Ar isch, glauib, güet g'lünt, hit dr Chef ! Wohrschints isch'r mit'm linke Bei z'erscht uffgstande
            !

          
",39,kuehne-bureaukrate,23,4,0.0,0.17391304347826086
79,comedy,Fröhlich,M,office_worker,intermediate_professionals,lower_class,"
            
Fröhlich :

            
Wisse-n-Ihr awer o, Babbe Dindeschlecker, wels dr interessanteschte, m'r möcht sage, dr einzig
            interessante Fall isch in re Verwaltung ?

          
",39,kuehne-bureaukrate,28,4,0.0,0.14285714285714285
81,comedy,Fröhlich,M,office_worker,intermediate_professionals,lower_class,"
            
Fröhlich :

            
Ich will's Euich verrote, vu allei kumme Ihr doch nit druff! Das isch, wenn dr quatorze juillet
            uff e Fritig oder uff e Zischtig fallt !

          
",40,kuehne-bureaukrate,32,7,0.4462931413461075,0.21875
82,comedy,Dindeschlecker,M,office_worker,intermediate_professionals,lower_middle_class,"
            
Dindeschlecker :

            
... Ihr meine?...

          
",41,kuehne-bureaukrate,7,1,0.0,0.14285714285714285
83,comedy,Fröhlich,M,office_worker,intermediate_professionals,lower_class,"
            
Fröhlich :

            
Denn drno wird vum Fritig uff dr Sunndig oder vum Sunndig uff dr Zischtig dr « pont » gmacht !

          
",41,kuehne-bureaukrate,22,5,0.0,0.22727272727272727
84,comedy,Dindeschlecker,M,office_worker,intermediate_professionals,lower_middle_class,"
            
Dindeschlecker :

            
(lacht)

            
Was Ihr allewil fir Plan im Schadel hann ! Ihr sinn immer dr glich, Herr Fröhlich !

          
",42,kuehne-bureaukrate,23,6,0.0,0.2608695652173913
85,comedy,Frisch,M,office_worker,intermediate_professionals,lower_class,"
            
Frisch :

            
(kommt kopfschüttelnd aus Linsespalters Bureau)

            
Do lüeg emol einer da Kitt a! Ich ha gschriewe : « Je vous envoie », dr Herr Sous-Inspecteur
            schickt's zuruck, 's miesst heisse : « Je vous transmets. » Heiliger Bürokratius, erbarme di ! Isch
            denn das nit g'hoppst wie gsprun-ge : « je vous envoie » un « je vous transmets ! »

          
",42,kuehne-bureaukrate,70,4,0.0,0.05714285714285714
86,comedy,Hasepfeffer,M,office_helper,intermediate_professionals,lower_class,"
            
Hasepfeffer :

            
(kommt schnaubend von rechts)

            
Messieurs, do unte isch e Obstkarre mit Orange ! Scheene guldegale, sechs Stick fir e Franke ! 
            
(geht in Linsespalters Zimmer, ab)
 Fröhlich — Frei : Uh, Juhu ! Ju ! 
            
(eilen lärmend rechts ab.)

          
",43,kuehne-bureaukrate,52,7,0.0,0.1346153846153846
87,comedy,Dindeschlecker,M,office_worker,intermediate_professionals,lower_middle_class,"
            
Dindeschlecker :

            
(kopfschüttelnd)

            
Junge Lit, junge Lit! D'Jugend will üstowe, was will mr mache drgege ? Am beschte : Nix ! So lang
            as 's Asah vu dr Vrwaltung nit gschadigt wird, so lang ass noch Reschpakt do isch vor dr Owrigkeit,
            solle se ihre Freid un Luscht ha, so viel ass's uff mich akummt! 
            
(den andern nach, ab.)

          
",43,kuehne-bureaukrate,74,10,0.0,0.13513513513513514
88,comedy,Frisch,M,office_worker,intermediate_professionals,lower_class,"
            
Frisch :

            
So, jetz isch's changiert ! Jetz han i « transmets » gsetzt fir « envoie. » Jetz bin i gspannt,
            was dr Herr Inspecteur drzüe sait, dr Herr Sous-Inspecteur isch z'friedegstellt. Awer 1000 :1 will i
            wette, dass dr Herr Inspecteur noch emol e Anderung vornimmt ! 
            
(ebenfalls rechts ab.)

          
",44,kuehne-bureaukrate,63,7,0.0,0.1111111111111111
89,comedy,Hasepfeffer,M,office_helper,intermediate_professionals,lower_class,"
            
Hasepfeffer :

            
(kommt aus Linsespalters Zimmer, geht zum Ofen und zieht dort einen Eimer hervor,
            kopfschüttelnd)

            
Dr Kalander hann i ihm vrgasse abz'risse, m'r wird halt schwach im Kopf im Alter! Awer das hätt'r
            schliesslig salwer merke solle, dass hit nimm Sundig isch ! 
            
(ab in Linsespalters Zimmer. Die Bühne bleibt einige Augenblicke leer, dann steckt Walfisch
            den Kopf zur Tür rechts herein.)

          
",44,kuehne-bureaukrate,75,6,0.0,0.08
90,comedy,Löb Walfisch,M,law_advisor,professionals_scientific_technical,upper_middle_class,"
            
Löb Walfisch :

            
Nu, das heisst jetz à Vrwaltung ! Löb, wie wird dr ! Kei Mensch weit, kei Mensch breit ! A
            Stilleben, à Stilleben, à Maler könnt dran han seine Freid ! Grad wie an dr Poscht, grad wie an dr
            Bahn : 36 Schalter un uff 35 steht : « Fermé. » Nu komme Se halt herein, Herr Löb Walfisch — nei Löb
            Walfisch — selig ! 
            
(tritt ein)
 S'isch halt à Vrwaltung, à Ad-mi-ni-stra-ti-on, was will mr meh! Bi mir im
            Geschäft wär sowas nit vorkumme, trotzdem isch's Geschäftlich gegange pleite ! 
            
(geht an den ersten Tisch rechts, setzt sich und frägt ins Leere)
 Nu, wer sinn Sie, was
            welle Sie? 
            
(steht auf, stellt sich vor den Tisch hin und spricht zu diesem hin)
 Nu, ich möcht halt
            rede mit'm Monsieur le Chef de Bureau ! 
            
(setzt sich wieder wie vorhin)
 Dr Herr Chef de Bureau isch no nit do ! 
            
(steht auf, wie oben)
 Nu, wie heisst, ich kann warte ! 
            
(setzt sich wieder, etc. wie oben)
 So, setze Sie sich derwilsch ! 
            
(steht auf etc. wie oben, mit höflicher Verbeugung gegen den leeren Platz)
 Merci,
            vielmols, Ihr Herre ! Das isch emol e heeflige Vrwaltung, so wird mr nit empfange iwerall ! 
            
(mit Verbeugung)
 Ich bin so frech ! 
            
(setzt sich in der Nähe der Tür Linsespalters auf einen Stuhl, zieht ein Zeitungsblatt aus der
            Tasche, entfaltet es bedachtsam und liest in ruhigem Tonfall)
 « Statt besonderer Anzeige ! » «
            Heute entriss uns der Tod unsern innigstgeliebten Löb Walfisch » 
            
(zum Publikum, auf sich deutend)
 Das bin ich! .... « in der Blüte seiner Jahre, auf dem
            Höhepunkt seines Schaf-fens..... 
            
(er lässt das Blatt sinken und wiederholt leise)
 « in der Blüte seiner Jahre, auf dem
            Höhepunkt seines Schaffens ! » ..... Isch das scheen, isch das scheen ! Grad hile kennt mr, grad
            hile, so scheen isch's — wenn m'r 
            
(er spricht « wennémr)
 da Schwindel nit hätt' gemacht salwer ins Blättle ! Awer was
            will mr 
            
(willémr)
 mache ? Was will mr mache ? Was will mr mache, wenn mr 
            
(wennémr)
 hat gsteckt dem Mündel sei Geld in sei eiges Gschäftlich, wo 
            
das Gschäftelich hat gemächt pleite? Was wit mache, Löb Walfisch, jetzt wo dr Windmacher
            isch gekomme heim — unverhofft — unerwarte — dod geglauibt un dod erklärt vor 3 Wuche -, wo dr
            Windmacher isch gekomme heim, e Sportsgrösse, e ge'achter, grausser, amerikanischer Boxer, ä
            Boxprofesser! Was willsch do mache, Löb Walfisch, sag, was kannsch do mache, wenn'r reklamiert sei
            Geld ? Dei' eigne Todesannonce in 's Blättelich setze, still wie de Nacht iwer's Bächle schwimme un
            schaue, wie de's witterscht tribsch ! 
            
(weiter lesend)
 « Alle, die ihn kannten, werden unsern Schmerz zu würdigen wissen » 
            
(für sich)
 am meischte dr Windmacher ! 
            
(lesend)
 « Das Leichenbegängnis findet nicht hier statt. » 
            
(für sich)
 Das vrsteht sich! 
            
(lesend)
 « Blumenund Kranzspenden dankend verbeten. » 
            
(mit leisem Lachen)
 Das hätt ich eigetlig nit solle setze ins Blättle, mr hätt gsah,
            wer noch ahanglig isch an so me arme bankrotte Walfisch ! 
            
(Die Tür links wird aufgestossen und der fegende Hasepfeffer jagt Walfisch eine ganze Ladung
            Staub auf Gesicht und Kleidung)
 Au weih gschrie! Wos ä Untat, was ä Untat! Die ganz Wüste
            Saharah jagt mir dr Herr uff d'Kleider !

          
",45,kuehne-bureaukrate,665,58,0.6897823281106334,0.08721804511278196
91,comedy,Hasepfeffer,M,office_helper,intermediate_professionals,lower_class,"
            
Hasepfeffer :

            
Ach, Pardon Monsieur, awer wie kumme Sie denn do inne, sage Se emol !

          
",45,kuehne-bureaukrate,19,1,0.0,0.05263157894736842
92,comedy,Löb Walfisch,M,law_advisor,professionals_scientific_technical,upper_middle_class,"
            
Löb Walfisch :

            
Nu, Herr Amtsvorstand, wie wir ich kumme si do inne ? Dur das Tirelich, wu sunscht ?

          
",46,kuehne-bureaukrate,23,2,0.0,0.08695652173913043
93,comedy,Frei,M,office_worker,intermediate_professionals,lower_class,"
            
Frei :

            
(mit Dindeschlecker und Fröhlich von rechts)

            
E wunderscheener Summermorge hit! Un mir arme Süschriewer, mir Unglickswirmer mien in da Stall
            hocke — acht Stunde lang, Tag fir Tag !

          
",46,kuehne-bureaukrate,36,5,0.0,0.1388888888888889
94,comedy,Dindeschlecker,M,office_worker,intermediate_professionals,lower_middle_class,"
            
Dindeschlecker :

            
S'isch unser Los, was welle-n-r ?

          
",47,kuehne-bureaukrate,12,1,0.0,0.08333333333333333
95,comedy,Fröhlich,M,office_worker,intermediate_professionals,lower_class,"
            
Fröhlich :

            
Allez, Kinder, grine nit drwage ! Hit isch jo scho Mantig un iwer — iwer — iwer — iwer — iwer-morn
            scho widder Sunntig !

          
",47,kuehne-bureaukrate,29,3,0.0,0.10344827586206896
96,comedy,Hasepfeffer,M,office_helper,intermediate_professionals,lower_class,"
            
Hasepfeffer :

            
Ssst! Ssst! Ihr Herre! Dr Alt isch ferchterlig bees g'lünt hit !

          
",48,kuehne-bureaukrate,17,3,0.0,0.17647058823529413
97,comedy,Frisch,M,office_worker,intermediate_professionals,lower_class,"
            
Frisch :

            
(eintretend, hat die letzten Worte gehört ; eifrig)

            
Drno schitte nüumme Oel uffs Fir ! Hasepfeffer, bringe-n ihm schnall das Gsudels wieder zruck un
            sage'n'm, dr Herr Inspecteur isch nit d'accord mit'm Herr Sous-Inspecteur un losst sage, das war
            miserabel Franzeesch, s'miesst heisse: « Veuillez trouver ci-inclus ..... »

          
",48,kuehne-bureaukrate,63,9,0.0,0.14285714285714285
98,comedy,Hasepfeffer,M,office_helper,intermediate_professionals,lower_class,"
            
Hasepfeffer :

            
Bon! Do vrplatzt'r vor Wuet, dr Alt!

          
",49,kuehne-bureaukrate,12,1,0.0,0.08333333333333333
99,comedy,Frisch,M,office_worker,intermediate_professionals,lower_class,"
            
Frisch:

            
Sage awer racht ditlig : « Miserawel ! »

          
",49,kuehne-bureaukrate,11,4,0.950057612663231,0.36363636363636365
100,comedy,Hasepfeffer,M,office_helper,intermediate_professionals,lower_class,"
            
Hasepfeffer :

            
Très bien, 's wird bsorgt !

          
",50,kuehne-bureaukrate,9,1,0.0,0.1111111111111111
101,comedy,Frisch,M,office_worker,intermediate_professionals,lower_class,"
            
Frisch :

            
Un dr ganz Kitt soll neij gschriewe warde, — s' isch jetz scho zwei Mol radiert - nochhar direkt
            im Herr Inspecteur divisionnaire vorz'lege !

          
",50,kuehne-bureaukrate,28,4,0.0,0.14285714285714285
103,comedy,Frei,M,office_worker,intermediate_professionals,lower_class,"
            
Frei :

            
Was hann Sie welle, Monsieur ?

          
",51,kuehne-bureaukrate,9,1,0.0,0.1111111111111111
104,comedy,Hasepfeffer,M,office_helper,intermediate_professionals,lower_class,"
            
Hasepfeffer :

            
Mit'm Chef rede will dr Herr !

          
",52,kuehne-bureaukrate,10,2,0.0,0.2
105,comedy,Dindeschlecker,M,office_worker,intermediate_professionals,lower_middle_class,"
            
Dindeschlecker :

            
Namme grad dr Herr mit inne !

          
",52,kuehne-bureaukrate,9,2,0.0,0.2222222222222222
106,comedy,Fred Windmacher,M,,,,"
            
Fred Windmacher :

            
(klopft kräftig an ; es erfolgt keine Antwort. Er klopft noch einmal und tritt dann
            energischen Schrittes ein. Er trägt ein Lederköfferchen in der Hand, welches er im Ver- lauf der
            folgenden Scène in der Nähe des Ofens absetzt.)

            
Bonjour Messieurs !

          
",53,kuehne-bureaukrate,52,4,0.0,0.07692307692307693
107,comedy,die_andern,M,,,,"
            
Die Andern :

            
(antworten nicht ; alle schreiben eifrig. Einer knurrt eine unverständliche Antwort.)

          
",53,kuehne-bureaukrate,18,2,0.0,0.1111111111111111
108,comedy,Fred Windmacher,M,,,,"
            
Fred Windmacher :

            
(lauter)

            
Bonjour Messieurs !

          
",54,kuehne-bureaukrate,9,1,0.0,0.1111111111111111
110,comedy,Fred Windmacher,M,,,,"
            
Fred Windmacher :

            
(betrachtet sie eine Weile mit verschränkten Armen, dann tritt er heftig gegen den Ofenschirm
            ; schreit)

            
Bonjour Messieurs ! !

          
",55,kuehne-bureaukrate,26,3,0.0,0.11538461538461539
111,comedy,Dindeschlecker,M,office_worker,intermediate_professionals,lower_middle_class,"
            
Dindeschlecker :

            
(voller Würde)

            
Sie brüche sich do nit eso uffz'fiehre, Sie solle wisse, wie m'r sich in re Vrwaltung gegeniwer
            benimmt !

          
",55,kuehne-bureaukrate,27,1,0.0,0.037037037037037035
112,comedy,Frisch,M,office_worker,intermediate_professionals,lower_class,"
            
Frisch :

            
Was welle Sie eigetlig ?

          
",56,kuehne-bureaukrate,7,1,0.0,0.14285714285714285
113,comedy,Fred Windmacher,M,,,,"
            
Fred Windmacher :

            
Mi Namme isch Windmaker 
            
(spr. Ueindmeker)
 Fred Windmaker, Professeur de Boxe in Michigan U. S. A. !

          
",56,kuehne-bureaukrate,24,2,0.0,0.08333333333333333
114,comedy,Frei,M,office_worker,intermediate_professionals,lower_class,"
            
Frei :

            
Hahaha ! Nit schlacht! Sie sinn dr Windmacher Freddy üs Pfatzehüsse ?

          
",57,kuehne-bureaukrate,15,2,0.0,0.13333333333333333
115,comedy,Fred Windmacher,M,,,,"
            
Fred Windmacher :

            
So isch's ! Was isch do lacherligs drbi ?

          
",57,kuehne-bureaukrate,13,1,0.0,0.07692307692307693
116,comedy,Fröhlich,M,office_worker,intermediate_professionals,lower_class,"
            
Fröhlich :

            
(lachend und mit abwehrender Gebärde)

            
Drno gehn Se numme glich widder uff Michigan U. S. A. Sie sinn dod!

          
",58,kuehne-bureaukrate,24,3,0.0,0.125
118,comedy,Dindeschlecker,M,office_worker,intermediate_professionals,lower_middle_class,"
            
Dindeschlecker :

            
Sie sinn dod fir uns !

          
",59,kuehne-bureaukrate,8,1,0.0,0.125
119,comedy,Fred Windmacher,M,,,,"
            
Fred Windmacher :

            
(stellt sich breitspurig vor Dindeschlecker hin)

            
Oho, ich bin dod !

          
",59,kuehne-bureaukrate,17,1,2.7913737340651537,0.058823529411764705
120,comedy,Frei,M,office_worker,intermediate_professionals,lower_class,"
            
Frei :

            
Vor 3 Wuche erscht sinn Sie fir dod erklärt worde !

          
",60,kuehne-bureaukrate,13,2,0.0,0.15384615384615385
121,comedy,Fröhlich,M,office_worker,intermediate_professionals,lower_class,"
            
Fröhlich :

            
Drum gehn Se ringer glich widder, nit dass Se noch mit'm Staalsanwalt in Konflikt kumme !

          
",60,kuehne-bureaukrate,20,3,0.8925898881384948,0.15
122,comedy,Fred Windmacher,M,,,,"
            
Fred Windmacher :

            
Nit iwel ! Un drbi bin i fidel un munter wie ne Fisch im Wasser !

          
",61,kuehne-bureaukrate,19,2,0.0,0.10526315789473684
123,comedy,Frisch,M,office_worker,intermediate_professionals,lower_class,"
            
Frisch :

            
Gehn Se, Mann, gehn Se! Ich rot Ihne numme güet ! Gehn Se !

          
",61,kuehne-bureaukrate,19,4,0.0,0.21052631578947367
125,comedy,Fröhlich,M,office_worker,intermediate_professionals,lower_class,"
            
Fröhlich :

            
Fir uns sinn Se dod !

          
",62,kuehne-bureaukrate,8,2,0.0,0.25
126,comedy,Frei,M,office_worker,intermediate_professionals,lower_class,"
            
Frei :

            
Müsdod !

          
",63,kuehne-bureaukrate,4,1,0.0,0.25
127,comedy,Dindeschlecker,M,office_worker,intermediate_professionals,lower_middle_class,"
            
Dindeschlecker :

            
Do steht's schwarz uff wiss in unsre Akte ! Vor 6 Monet scho hat m'r Sie in de hiesige Zittungen
            uffgebotte ; worum hann Sie sich nit g'malde, wenn Se noch am Lawe sinn ?

          
",63,kuehne-bureaukrate,39,3,0.0,0.07692307692307693
128,comedy,Fred Windmacher,M,,,,"
            
Fred Windmacher :

            
Was Sie sich ibilde! Glauiwe Sie villicht, ich lies driwe in Amerika Euire Kasblättle ? Awer,
            schliesslig, — was gehn mich Euire Bürokratefisik a! Me voilà gsund un lawandig ! Mir-a kenne Ihr
            Euich danke, ich seig widder ufferstande !

          
",64,kuehne-bureaukrate,49,6,0.0,0.12244897959183673
129,comedy,Dindeschlecker,M,office_worker,intermediate_professionals,lower_middle_class,"
            
Dindeschlecker :

            
Fir uns sinn un bliwe Sie dod !

          
",64,kuehne-bureaukrate,10,1,0.0,0.1
130,comedy,Fred Windmacher,M,,,,"
            
Fred Windmacher :

            
(drohend)

            
Herr! 
            
(krempelt die Aermel auf und packt Dindeschlecker am Kragen)
 Herr ! Noch ei Wort un Sie
            bekumme eine g'langt — von're Dodehand — dass Se noch 6 Wuche dra danke !

          
",65,kuehne-bureaukrate,41,6,0.0,0.14634146341463414
131,comedy,alle,M,,,,"
            
Alle :

            
(durcheinander)

            
Das isch Beamtebeleidigung — Körperverletzung — Drohung. — M'r verklage Sie !

          
",65,kuehne-bureaukrate,18,1,0.0,0.05555555555555555
132,comedy,Fred Windmacher,M,,,,"
            
Fred Windmacher :

            
Was isch das? Vrklage welle Ihr mich? Très bien! Z'erscht heisst's, ich seig dod un jetz welle Ihr
            dà dode Mann o noch vrklage ! Nit schlacht, nit iwel ! 
            
(einlen- kend)
 Nei, Ihr Herre ! Spass apartig ! Ich ha o Vrstandnis fir Humor, awer was
            mich do anefiehrt, das isch e hocharnschte Sach ! Mi Vrmöge will i widder, mi Eige- tum, wu ne
            gwisser Walfisch, Löb Walfisch, vrwalte hat, un — wie'n ich erfahre hann - schlacht vrwalte, pour
            ainsi dire : unterschlage hat ! Un jetz lehn Se mich zu Ihrem Chef inne, do isch dankwohl d'Tire ! 
            
(will links ab).

          
",66,kuehne-bureaukrate,132,13,0.0,0.09848484848484848
133,comedy,alle,M,,,,"
            
Alle :

            
(ihn zurückhaltend)

            
Grad isch e Herr drinne bim Chef ! Sie derfe jetz nit inne. — Warte Sie noch e Rung !

          
",66,kuehne-bureaukrate,27,5,0.0,0.18518518518518517
134,comedy,Fred Windmacher,M,,,,"
            
Fred Windmacher :

            
Bon! Ich bin kä Unmensch ! Ich kann warte — awer nit länger als 5 Minüte wart i! 
            
(Auf und ab)
 Do drinn ka's e gsunder Mensch gar nit üshalte ; e Luft, e Luft —
            s'reinschte Bazilleheim ! 
            
(will rechts ab ; bleibt an der Tür stehen, zieht aus einem Aktenschrank ein Bündel Akten
            heraus, die, Staub aufwirbelnd, zu Boden fallen)
 A propos, was hann'r denn do fir Gekrizels —
            das Dings isch jo ganz fattig — stauiwig, vrschmiert un vrschimmelt !

          
",67,kuehne-bureaukrate,101,10,0.11590346308664039,0.09900990099009901
135,comedy,Frisch,M,office_worker,intermediate_professionals,lower_class,"
            
Frisch :

            
(aufgebracht)

            
Monsieur ! Das sinn Akte ! Lehn Se do d'Finger drvu !

          
",67,kuehne-bureaukrate,18,1,0.0,0.05555555555555555
136,comedy,Fred Windmacher,M,,,,"
            
Fred Windmacher :

            
(lachend)

            
Soo ! Akte ! Wisse Sie was, jeune homme de bonne famille ? Warfe Sie emol e Hand voll « Akte » in
            kochig Wasser, das git e prima Fleischsupp ! 
            
(ab)

          
",68,kuehne-bureaukrate,42,6,0.0,0.14285714285714285
137,comedy,Frei,M,office_worker,intermediate_professionals,lower_class,"
            
Frei:

            
Monsieur, Ihre Koffer !

          
",68,kuehne-bureaukrate,7,1,0.0,0.14285714285714285
138,comedy,Fred Windmacher,M,,,,"
            
Fred Windmacher :

            
(zurückrufend)

            
Lehn Se ne numme steh', villicht hat'r Junge, bis i zruckkumm ! 
            
(Linsespalter kommt mit Walfisch aus seinem Bureau heraus.)

          
",69,kuehne-bureaukrate,31,2,0.0,0.06451612903225806
139,comedy,Linsenspalter,M,office_manager,intermediate_professionals,lower_middle_class,"
            
Linsespalter :

            
D'Vrwaltung nimmt jo harzlig, racht harzlig Ateil an dam schware Vrluscht, wu Sie dur dr Dod vu
            Ihrem .....

          
",69,kuehne-bureaukrate,24,5,0.0,0.20833333333333334
141,comedy,Linsenspalter,M,office_manager,intermediate_professionals,lower_middle_class,"
            
Linsespalter :

            
... vu Ihrem Cousin Walfisch erlitte hann. Dr Vrwaltung kann jo viel — g'wisse Lit sage, kei Ding
            seig're unmeglig — awer alles ka se doch no nit un so isch's're leider nit gà, da arme Mann widder
            züem Lawe z'erwecke !

          
",70,kuehne-bureaukrate,49,6,1.1341894844240379,0.12244897959183673
142,comedy,Löb Walfisch,M,law_advisor,professionals_scientific_technical,upper_middle_class,"
            
Löb Walfisch :

            
(während er sein Taschentuch zieht und dureh Gebärdenspiel Leid auszudrücken sucht ; für
            sich)

            
Nu, wenn de tätsch wisse !

          
",71,kuehne-bureaukrate,26,1,2.9812221283612095,0.038461538461538464
143,comedy,Linsenspalter,M,office_manager,intermediate_professionals,lower_middle_class,"
            
Linsespalter :

            
Un drno wage dare Vrmögensvrwaltung vu Ihrem vrstorwene Cousin — wisse Sie, fir dane vrschollene
            —

          
",71,kuehne-bureaukrate,19,1,0.0,0.05263157894736842
144,comedy,Löb Walfisch,M,law_advisor,professionals_scientific_technical,upper_middle_class,"
            
Löb Walfisch :

            
— fir « dod » erklärte —

          
",72,kuehne-bureaukrate,10,1,0.0,0.1
145,comedy,Linsenspalter,M,office_manager,intermediate_professionals,lower_middle_class,"
            
Linsespalter :

            
Ja, fir dane « dod » erklärte Fred Windmacher, do wird Sie d'Vrwaltung emol bstelle - so in e paar
            Wuche — zur Abrachnung !

          
",72,kuehne-bureaukrate,30,2,0.0,0.06666666666666667
146,comedy,Löb Walfisch,M,law_advisor,professionals_scientific_technical,upper_middle_class,"
            
Löb Walfisch :

            
Non, non, non! Ich will nit! Ich will mitm Gschäftlich vom selige Walfisch nix hawe ze tüen ! Nix,
            gar nix !

          
",73,kuehne-bureaukrate,30,1,0.0,0.03333333333333333
148,comedy,Löb Walfisch,M,law_advisor,professionals_scientific_technical,upper_middle_class,"
            
Löb Walfisch :

            
Wie heisst « Cousin » ? Ich schlag se üs die Erbschaft, ich schlag se üs ! Wie heisst Cousin ? A
            cousin, wu mr nit hat gegriesst, wenn m'r 
            
(wennémr)
 ne hat gsah! 
            
A cousin, wu m'r sich hat scheniert ze sage, mr isch in dr Verwandtschaft ! A cousin, wu
            hat — mit eim Wort — gsteckt das Geld vum Windmacher in sei Gschäftelich, wo gegange isch pleite
            !

          
",74,kuehne-bureaukrate,84,7,0.4248569448807543,0.08333333333333333
149,comedy,Linsenspalter,M,office_manager,intermediate_professionals,lower_middle_class,"
            
Linsespalter :

            
Was heer ich do ? Dr Walfisch hat im Windmacher si Vrmöge unterschlage ! 
            
(schreiend)
 Das isch unerheert, das isch — do steht jo Zuchthüs druff !

          
",74,kuehne-bureaukrate,32,2,0.0,0.0625
150,comedy,Löb Walfisch,M,law_advisor,professionals_scientific_technical,upper_middle_class,"
            
Löb Walfisch :

            
(ruhig)

            
Nu, Herr Linsepalter, was schreie Se denn eso mit mir? Bin ich dr Löb Walfisch oder bin ich nit dr
            Walfisch Löb ?

          
",75,kuehne-bureaukrate,32,2,0.0,0.0625
151,comedy,Linsenspalter,M,office_manager,intermediate_professionals,lower_middle_class,"
            
Linsespalter :

            
Gwiss, gwiss ! Sie sinn ne nit, dr Löb Walfisch !

          
",75,kuehne-bureaukrate,15,2,0.0,0.13333333333333333
152,comedy,Löb Walfisch,M,law_advisor,professionals_scientific_technical,upper_middle_class,"
            
Löb Walfisch :

            
Nu also! 
            
(triumphierend)
 Wenn Sie's salwer sage, ich bin nit dr Walfisch Löb !

          
",76,kuehne-bureaukrate,22,1,0.0,0.045454545454545456
153,comedy,Linsenspalter,M,office_manager,intermediate_professionals,lower_middle_class,"
            
Linsespalter :

            
Awer unerheert, schandlig, strofbar isch's doch !

          
",76,kuehne-bureaukrate,12,1,0.0,0.08333333333333333
155,comedy,Linsenspalter,M,office_manager,intermediate_professionals,lower_middle_class,"
            
Linsespalter :

            
Gwiss, gwiss, z'mache isch nix meh ! Awer dr Staatsanwalt müess doch preweniert warde, ich will's
            glich bsorge! Au revoir, Monsieur ! 
            
(will ab in sein Zimmer, unter der Tür)
 Monsieur Fröhlich !

          
",77,kuehne-bureaukrate,45,6,0.0,0.13333333333333333
156,comedy,Fröhlich,M,office_worker,intermediate_professionals,lower_class,"
            
Fröhlich :

            
Herr Linsespalter ?

          
",78,kuehne-bureaukrate,5,2,0.0,0.4
157,comedy,Linsenspalter,M,office_manager,intermediate_professionals,lower_middle_class,"
            
Linsespalter :

            
Dr Herr Inspecteur divisionnaire will nit ha, dass mr schribt « Veuillez trouver ci-inclus » 's
            muess kurz un bindig heisse : « Je vous communique. » Andere Sie das Schriwe entsprachend ab, Sie
            wisse doch — ?

          
",78,kuehne-bureaukrate,43,3,0.0,0.06976744186046512
158,comedy,Fröhlich,M,office_worker,intermediate_professionals,lower_class,"
            
Fröhlich :

            
Ja, ja, ich weiss, das wu m'r scho X-Mol umg'andert hann !

          
",79,kuehne-bureaukrate,17,3,0.0,0.17647058823529413
160,comedy,Löb Walfisch,M,law_advisor,professionals_scientific_technical,upper_middle_class,"
            
Löb Walfisch :

            
Jetz, Walfisch, los ! Jetz schwimm iwers Bachle ! 
            
(gewahrt den Koffer Windmachers)
 Au weih gschrie — sei Koffer! Das isch sei Koffer !
            Jetz awer los !

          
",80,kuehne-bureaukrate,36,3,0.0,0.08333333333333333
161,comedy,Fred Windmacher,M,,,,"
            
Fred Windmacher :

            
(öffnet die Tür ein wenig, steckt den Kopf durch den Spalt, zu Frisch)

            
Ich'r jetz allei, Euier Chef ?

          
",80,kuehne-bureaukrate,27,4,0.7810129973556881,0.14814814814814814
162,comedy,Löb Walfisch,M,law_advisor,professionals_scientific_technical,upper_middle_class,"
            
Löb Walfisch :

            
(leise)

            
Au weih! Au weih! Ar salwer ! 
            
(springt hinter den Ofenschirm, wo er — dem Publikum sichtbar, aber unsichtbar für Windmacher
            — sich einen Trauerflor umbindet. Fröhlich, mit einem Schreiben in der Hand rechts ab.)

          
",81,kuehne-bureaukrate,50,1,0.0,0.02
163,comedy,Frisch,M,office_worker,intermediate_professionals,lower_class,"
            
Frisch :

            
(zu Windmacher)

            
Ja, Monsieur, jetz isch'r do ! Gehn Se grad inne !

          
",81,kuehne-bureaukrate,19,3,0.0,0.15789473684210525
165,comedy,Linsenspalter,M,office_manager,intermediate_professionals,lower_middle_class,"
            
Linsespalter :

            
(von drinnen, scharf)

            
Entrez sans frapper ! !

          
",82,kuehne-bureaukrate,13,1,0.0,0.07692307692307693
166,comedy,Fred Windmacher,M,,,,"
            
Fred Windmacher :

            
(trocken)

            
Merci fir d'Belehrung ! 
            
(tritt ein, ab).

          
",83,kuehne-bureaukrate,18,1,0.0,0.05555555555555555
167,comedy,Löb Walfisch,M,law_advisor,professionals_scientific_technical,upper_middle_class,"
            
Löb Walfisch :

            
(leise)

            
Gott der Gerechte! Jetz hann i gelosse drinne dr Hüet! Was mache? Ohne Hüet kann i nit furt! Do
            fall i glich uff an dr Brucke !

          
",83,kuehne-bureaukrate,37,4,0.0,0.10810810810810811
168,comedy,Hasepfeffer,M,office_helper,intermediate_professionals,lower_class,"
            
Hasepfeffer :

            
(kommt aus Linsespalters Zimmer)

            
Ssst! Ssst! Herr Dindeschlecker !

          
",84,kuehne-bureaukrate,15,1,0.0,0.06666666666666667
170,comedy,Hasepfeffer,M,office_helper,intermediate_professionals,lower_class,"
            
Hasepfeffer :

            
Dr Alt hat d'Antwort drinn uff Ihre Demande fir Ghaltsuffbesserung ! Ich ha se g'lase !

          
",85,kuehne-bureaukrate,19,2,0.0,0.10526315789473684
172,comedy,Löb Walfisch,M,law_advisor,professionals_scientific_technical,upper_middle_class,"
            
Löb Walfisch :

            
(leise)

            
Was fir glickliche Leit ! Allewil G'haltsuffbesserung, allewil Teuerungszuelag !

          
",86,kuehne-bureaukrate,17,4,0.0,0.23529411764705882
173,comedy,Hasepfeffer,M,office_helper,intermediate_professionals,lower_class,"
            
Hasepfeffer :

            
(geheimnisvoll)

            
S'steht drin. dass dr Vrwaltung leider kä Kredit mehr offe steh hat. fir in dam p. Dindeschlecker
            e Uffbesserung züekumme z'losse .....

          
",86,kuehne-bureaukrate,31,6,1.1932464622242798,0.1935483870967742
174,comedy,alle,M,,,,"
            
Alle :

            
(enttäuscht)

            
Oh ! Oh!

          
",87,kuehne-bureaukrate,9,1,3.6312612080346445,0.1111111111111111
175,comedy,Hasepfeffer,M,office_helper,intermediate_professionals,lower_class,"
            
Hasepfeffer :

            
..... dass se awer, als Bewis vu Ihrem « Wohlwolle », im Personal geseniwer, bschlosse hat 
            
(zitierend)
 « die von dem p. Dindeschlecker innegehabte Dienstwohnung, bisher zu 450
            Francs veranschlagt, vom 1. 8. a. c. ab mit 900 Francs zu veranschlagen, was gewissermassen » — 's
            steht so drinn, wortwörtlig — « was gewissermassen einer Erhöhung seiner Bezüre um 450 Francs
            gleichkommt! »

          
",87,kuehne-bureaukrate,75,3,0.0,0.04
176,comedy,alle,M,,,,"
            
Alle :

            
(geben Zeichen ihrer grossen Enttäuschung)

          
",88,kuehne-bureaukrate,9,2,1.695730469789763,0.2222222222222222
177,comedy,Dindeschlecker,M,office_worker,intermediate_professionals,lower_middle_class,"
            
Dindeschlecker :

            
(erblassend)

            
O, Malheur ! Do bikumm ich jo gar nix, im Gegeteil : Ich müess noch 450 Franes mehr vrstire !

          
",88,kuehne-bureaukrate,27,2,0.0,0.07407407407407407
178,comedy,Frisch,M,office_worker,intermediate_professionals,lower_class,"
            
Frisch :

            
Was hann i gsait! Hätte Ihr numme das Gsüech nit gmacht, sallemols !

          
",89,kuehne-bureaukrate,17,2,0.0,0.11764705882352941
179,comedy,Hasepfeffer,M,office_helper,intermediate_professionals,lower_class,"
            
Hasepfeffer :

            
So isch's! Ich hann Euich ewefalls abg'rote ! Ich kenn mi üs! Wu'n i noch in Paris gsi bin, am
            ministère des décorations — 
            
(eilt rechts ab, da Windmacher und Linsespalter aus des letzteren Zimmer heraustreten, beide
            lebhaft gestikulierend und sprechend).

          
",89,kuehne-bureaukrate,52,2,0.0,0.038461538461538464
180,comedy,Linsenspalter,M,office_manager,intermediate_professionals,lower_middle_class,"
            
Linsespalter :

            
Babberlababb ! Fir d'Vrwaltung sinn Sie — dod !

          
",90,kuehne-bureaukrate,12,1,0.0,0.08333333333333333
181,comedy,Fred Windmacher,M,,,,"
            
Fred Windmacher :

            
Awer Monsieur, ich stand doch vor Ihne, « en chair et en os »! Ich vrsicher Sie : Fred Windmacher
            üs Pfatzehüse, Professeur de Boxe in Michigan U. S. A.

          
",90,kuehne-bureaukrate,37,3,0.0,0.08108108108108109
182,comedy,Linsenspalter,M,office_manager,intermediate_professionals,lower_middle_class,"
            
Linsespalter :

            
So ka ne jeder kumme ! isch Ihre Todeserklärung !

          
",91,kuehne-bureaukrate,12,1,0.0,0.08333333333333333
188,comedy,Linsenspalter,M,office_manager,intermediate_professionals,lower_middle_class,"
            
Linsespalter :

            
(scharf)

            
Das müess d'Vrwaltung besser wisse als Sie!

          
",94,kuehne-bureaukrate,14,1,0.0,0.07142857142857142
189,comedy,Fred Windmacher,M,,,,"
            
Fred Windmacher :

            
Jetz heert awer alles uff ! Jetz hann i gnüe ! 
            
(zieht den Rock aus, eilt an den Koffer, entnimmt ihm ein paar Boxhandschuhe und macht. sich
            zum Boxen fertig.)

          
",94,kuehne-bureaukrate,39,4,0.0,0.10256410256410256
190,comedy,Linsenspalter,M,office_manager,intermediate_professionals,lower_middle_class,"
            
Linsespalter :

            
(ängstlich schreiend)

            
Herr Frei, Herr Frisch ! Alarmiere Sie d'Polizei, ar wird aggressiv! Ar wird handgriflig ! Ich
            teleponier in dr Staatsanwaltschaft ! 
            
(in sein Zimmer, ab : er schliesst hörbar die Tür hinter sich zu, Frei und Frisch nach rechts
            ab ; Dindeschlecker einige Male 
            
ängstlich um den sich fertig machenden Windmacher herumhüpfend, eilt, einem plötzlichen
            Gedanken folgend, hinter den Ofenschirm, zu dem sich angswoll zusammendrückenden Walfisch. Beide
            zittern.)

          
",95,kuehne-bureaukrate,88,14,0.0,0.1590909090909091
191,comedy,Fred Windmacher,M,,,,"
            
Fred Windmacher :

            
(mit derbem Lachen)

            
Ja, wu sinn se jetzt die Gselle ! Wu stacke se, unsre Bureaukrate ? Allons, Messieurs, uff dr «
            Ring » ! Alle mitenander, wennr welle! « Premier round ! »

          
",95,kuehne-bureaukrate,45,4,0.0,0.08888888888888889
192,comedy,Linsenspalter,M,office_manager,intermediate_professionals,lower_middle_class,"
            
Linsespalter :

            
(in seinem Zimmer)

            
Ich mach Sie druff uffmerksam ! Das isch Bedrohung vu Beamte im Dienscht ! Dienscht- vorschrift
            273 e § 88, Absatz A, alinéa 2 ff. — Sie kumme ins Gfangnis, ich telefonier in dr Staatsanwaltschaft
            !

          
",96,kuehne-bureaukrate,48,5,0.0,0.10416666666666667
193,comedy,Fred Windmacher,M,,,,"
            
Fred Windmacher :

            
Quatsch, mi Liewer ! Ich bin jo dod! Sie wisse's jo besser als ich! Jetz muess i doch lüege, ob
            d'bewaffnete Macht boll aruckt ! 
            
(lachend rechts ab).

          
",96,kuehne-bureaukrate,40,4,0.0,0.1
194,comedy,Löb Walfisch,M,law_advisor,professionals_scientific_technical,upper_middle_class,"
            
Löb Walfisch :

            
(kommt mit Dindeschlecker hinter dem Ofen hervor. An der Tür links)

            
Monsieur, gann Sie mir mi Hüet, wenn's b'liebt! Sinn Se so güet, gann Sie mir mi Hüet ! 
            
(er horcht an der Tür links, wobei er öfters bittend « Monsieur » sagt.)

          
",97,kuehne-bureaukrate,58,4,0.0,0.06896551724137931
195,comedy,Ein Inspecteur de la Sureté,M,policeman,government_executive_officials,upper_middle_class,"
            
Der Inspecteur de la Sureté :

            
Ja, ja, mi liewer Windmacher, Dü mach'sch dr kä Begriff, wie mich das freit, e alter,
            Schüelkamerad widder az'traffe ! Voyons! Wit hasch's brocht, viel witerscht as ich! Bisch e grosser,
            geachteter Sportsmann worde, bi mir hats numme zuem bessre Schutzmann g'langt !

          
",97,kuehne-bureaukrate,61,6,0.0,0.09836065573770492
198,comedy,Fred Windmacher,M,,,,"
            
Fred Windmacher :

            
Wahrhaftig, ar isch's !

          
",99,kuehne-bureaukrate,9,1,0.0,0.1111111111111111
199,comedy,Ein Inspecteur de la Sureté,M,policeman,government_executive_officials,upper_middle_class,"
            
Der Inspecteur de la Sureté :

            
(jüdelnd, aber freundlich)

            
Ja, kleiner Walfisch, ich ha g'meint, dü bisch gstorwe ! S'steht doch so scheen in dr Zitung :
            ..... « In der Blüte seiner Jahre, auf dem Höhepunkt seines Schaffens ! » .....

          
",99,kuehne-bureaukrate,50,6,0.0,0.12
201,comedy,Ein Inspecteur de la Sureté,M,policeman,government_executive_officials,upper_middle_class,"
            
Der Inspecteur de la Sureté:

            
Wie reimt sich denn das zamme, sag, Alterle ?

          
",100,kuehne-bureaukrate,17,1,0.0,0.058823529411764705
203,comedy,Ein Inspecteur de la Sureté,M,policeman,government_executive_officials,upper_middle_class,"
            
Der Inspecteur de la Sureté :

            
Nu, weischte was, kleiner Walfisch, schwimm mit mr, saisch im Untersüechungsrichter, was ze sage
            isch ! 
            
(er nimmt den ganz Verzweifellen am Gelenk ; im Abgehen)
 A tout à l'heure, mon ami ! A
            tout à l'heure ! 
            
(mit Walfisch ab.)

          
",101,kuehne-bureaukrate,58,3,0.0,0.05172413793103448
205,comedy,Fred Windmacher,M,,,,"
            
Fred Windmacher :

            
Kumm inne, edle Akteseele, ich mach dr nix ! Grad hann se ne Doder zuem Lawe erweckt, villicht
            kumm o ich emol an d'Reih'! Einschtwile, au revoir — Sie Kaffer !

          
",102,kuehne-bureaukrate,40,5,0.0,0.125
206,comedy,Linsenspalter,M,office_manager,intermediate_professionals,lower_middle_class,"
            
Linsespalter :

            
Oh ! Ich bin Chef !

          
",103,kuehne-bureaukrate,8,1,0.0,0.125
207,comedy,Fred Windmacher,M,,,,"
            
Fred Windmacher :

            
« Chef » isch d'Mehrzahl vu « Schaf ! »

          
",103,kuehne-bureaukrate,14,1,0.0,0.07142857142857142
208,comedy,Linsenspalter,M,office_manager,intermediate_professionals,lower_middle_class,"
            
Linsespalter :

            
Das isch Beleidigung, ich zeig Se a!

          
",104,kuehne-bureaukrate,11,1,0.0,0.09090909090909091
209,comedy,Fred Windmacher,M,,,,"
            
Fred Windmacher :

            
O racht, — Sie Kaffer ! 
            
(ab !)

          
",104,kuehne-bureaukrate,14,1,0.0,0.07142857142857142
211,comedy,Fröhlich,M,office_worker,intermediate_professionals,lower_class,"
            
Fröhlich :

            
(eiligst von rechts herein)

            
Herr Linsespalter, Herr Linsespalter !

          
",105,kuehne-bureaukrate,14,3,0.0,0.21428571428571427
212,comedy,Linsenspalter,M,office_manager,intermediate_professionals,lower_middle_class,"
            
Linsespalter :

            
Was gits, Herr Fröhlich, was bringe Sie ?

          
",106,kuehne-bureaukrate,12,2,0.0,0.16666666666666666
213,comedy,Fröhlich,M,office_worker,intermediate_professionals,lower_class,"
            
Fröhlich :

            
Dr Herr Inspecteur en Chef kocht vor Wüet. S'därf nit heisse : « je vous transmets », wie's dr
            Herr Sous-Inspecteur gsait hat, un nit « Veuillez trouver ci-inclus », wie's dr Herr Inspecteur hat
            welle ha, un o nit « je vous communique », wie dr Herr Inspecteur divisionnaire g'meint hat un nit «
            je vous adresse », wie's dr Herr Inspecteur principal adjoint a git un o nit: « Jai l'honneur de vous
            faire parvenir », wie's dr Herr Inspecteur principal salwer anegesetzt hat! Dr Herr Inspecteur en
            Chef will's anderscht ha!

          
",106,kuehne-bureaukrate,113,14,0.0,0.12389380530973451
216,comedy,Fröhlich,M,office_worker,intermediate_professionals,lower_class,"
            
Fröhlich :

            
— dass me schribt: Je vous envoie ! »

          
",108,kuehne-bureaukrate,12,1,0.0,0.08333333333333333
217,comedy,Linsenspalter,M,office_manager,intermediate_professionals,lower_middle_class,"
            
Linsespalter :

            
Ja, un was hann Sie denn z'erscht gschriwwe g'ha ?

          
",108,kuehne-bureaukrate,13,1,0.0,0.07692307692307693
218,comedy,Fröhlich,M,office_worker,intermediate_professionals,lower_class,"
            
Fröhlich :

            
« Je vous envoie ! »

          
",109,kuehne-bureaukrate,8,1,0.0,0.125
219,comedy,Linsenspalter,M,office_manager,intermediate_professionals,lower_middle_class,"
            
Linsespalter :

            
Drno hann mir's jo racht g'ha ! Sag i's nit immer: E Bürokrat trifft allewil dr Nagel uff dr Kopf
            !

          
",109,kuehne-bureaukrate,26,3,0.0,0.11538461538461539
220,comedy,Hasepfeffer,M,office_helper,intermediate_professionals,lower_class,"
            
Hasepfeffer :

            
(eintretend, breit)

            
Wurum denn ebbis eifach mache, wenn's kompliziert so scheen geht ? !

          
",110,kuehne-bureaukrate,21,2,0.0,0.09523809523809523
