2022-08-20 21:32:39 - valence lexicon length: 7864
2022-08-20 21:32:39 - Number of rows: 71
2022-08-20 21:32:39 - dominance lexicon length: 7864
2022-08-20 21:32:39 - Number of rows: 71
2022-08-20 21:32:40 - arousal lexicon length: 7864
2022-08-20 21:32:40 - Number of rows: 71
2022-08-20 21:32:40 - anger lexicon length: 7864
2022-08-20 21:32:40 - Number of rows: 71
2022-08-20 21:32:40 - anticipation lexicon length: 7864
2022-08-20 21:32:40 - Number of rows: 71
2022-08-20 21:32:40 - disgust lexicon length: 7864
2022-08-20 21:32:40 - Number of rows: 71
2022-08-20 21:32:40 - fear lexicon length: 7864
2022-08-20 21:32:40 - Number of rows: 71
2022-08-20 21:32:40 - joy lexicon length: 7864
2022-08-20 21:32:40 - Number of rows: 71
2022-08-20 21:32:40 - sadness lexicon length: 7864
2022-08-20 21:32:40 - Number of rows: 71
2022-08-20 21:32:41 - surprise lexicon length: 7864
2022-08-20 21:32:41 - Number of rows: 71
2022-08-20 21:32:41 - trust lexicon length: 7864
2022-08-20 21:32:41 - Number of rows: 71
2022-08-24 17:01:45 - valence lexicon length: 7864
2022-08-24 17:01:45 - Number of rows: 71
2022-08-24 17:01:46 - dominance lexicon length: 7864
2022-08-24 17:01:46 - Number of rows: 71
2022-08-24 17:01:46 - arousal lexicon length: 7864
2022-08-24 17:01:46 - Number of rows: 71
2022-08-24 17:01:46 - anger lexicon length: 7864
2022-08-24 17:01:46 - Number of rows: 71
2022-08-24 17:01:46 - anticipation lexicon length: 7864
2022-08-24 17:01:46 - Number of rows: 71
2022-08-24 17:01:46 - disgust lexicon length: 7864
2022-08-24 17:01:46 - Number of rows: 71
2022-08-24 17:01:46 - fear lexicon length: 7864
2022-08-24 17:01:46 - Number of rows: 71
2022-08-24 17:01:46 - joy lexicon length: 7864
2022-08-24 17:01:46 - Number of rows: 71
2022-08-24 17:01:46 - sadness lexicon length: 7864
2022-08-24 17:01:46 - Number of rows: 71
2022-08-24 17:01:47 - surprise lexicon length: 7864
2022-08-24 17:01:47 - Number of rows: 71
2022-08-24 17:01:47 - trust lexicon length: 7864
2022-08-24 17:01:47 - Number of rows: 71
