Unnamed: 0,drama_type,speaker,sex,job,job_category,social_class,text,progress,short_name,numTokens,numLexTokens,avgLexVal,lexRatio
3,comedy,Addes,M,shoemaker_apprentice,crafts,lower_class,"
            
ADDES:

            
Nit zuem Beschte. Sie het starik gebrenzelt.

          
",1,bastian-dr-maischter-hett-gewunne,11,1,0.0,0.09090909090909091
5,comedy,Addes,M,shoemaker_apprentice,crafts,lower_class,"
            
ADDES:

            
Dis hab ich nit gschbanne. Pfüi Deifel.

          
",2,bastian-dr-maischter-hett-gewunne,11,2,0.0,0.18181818181818182
6,comedy,Eddes,M,shoemaker_apprentice,crafts,lower_class,"
            
EDDES:

            
D'r Maischter hett sichs gemüetlich uff d'r Deller g'schöpft. No maant'r annoch: Agath, ich glaub
            dü hesch Gänsgries kocht? Haha, ich hab dich jo gschtupft mit-em Fuess, awer...

          
",3,bastian-dr-maischter-hett-gewunne,37,4,0.0,0.10810810810810811
7,comedy,Addes,M,shoemaker_apprentice,crafts,lower_class,"
            
ADDES:

            
Wenn's an's Esse geht, kenn ich nix. Ja zuem Dunder, d' Maischtere isch doch als Junggsel Köche
            gsin uff 'me grosse Herrschaftsguet.

          
",3,bastian-dr-maischter-hett-gewunne,30,2,0.0,0.06666666666666667
8,comedy,Eddes,M,shoemaker_apprentice,crafts,lower_class,"
            
EDDES

            
(zündet eine Zigarette an):

            
Jo siewe Johr hett sie de Söüi kocht, awer nit in d'r Herrschaft.

          
",4,bastian-dr-maischter-hett-gewunne,23,2,0.0,0.08695652173913043
10,comedy,Eddes,M,shoemaker_apprentice,crafts,lower_class,"
            
EDDES:

            
Jo, d'r Maischter isch e patentierter Simpel.

          
",5,bastian-dr-maischter-hett-gewunne,11,2,0.0,0.18181818181818182
12,comedy,Eddes,M,shoemaker_apprentice,crafts,lower_class,"
            
EDDES:

            
Allez, am heilige Mondaa! Do macht er e Bierreisel, Commissiönle, kauft Loterieloos mit Zahle wo
            gewinne könnte, waisch so Loos mit 3, 5, 7, 9. Der verspielt noch d' ganz Büdik.

          
",6,bastian-dr-maischter-hett-gewunne,42,7,0.5610698115811246,0.16666666666666666
13,comedy,Addes,M,shoemaker_apprentice,crafts,lower_class,"
            
ADDES:

            
Wenn'r nume sini Alt zerscht verspiele dät, diss alt Rabbyse. Zaj loss mich au e bissel fümme.

          
",6,bastian-dr-maischter-hett-gewunne,22,1,1.8520113856954468,0.045454545454545456
14,comedy,Eddes,M,shoemaker_apprentice,crafts,lower_class,"
            
EDDES:

            
Wart noch e Schluck — dä. Dü, Addes, gescht bin ich uff-em Messti gsin un hab gedanzt wie e Lumpe
            am Stecke. Dü, ächt mit e're gfitzte Schäftelmachere, waisch aani vun unsere Branche. Die soll mich
            nit gschlüdert han, e Dielewelter nochemol. Un wie der Walzer gschbielt isch worre: « O Susanna, wie
            bist du doch so schön », waisch so mit, so ebbs for 's Herz, mit Schwung 
            
(will's vormachen)
 ah, au! 
            
(Hält sich die Seiten.)

          
",7,bastian-dr-maischter-hett-gewunne,101,9,0.17426871666867305,0.0891089108910891
16,comedy,Eddes,M,shoemaker_apprentice,crafts,lower_class,"
            
EDDES:

            
Un wie mir so im siewete Himmel erumbamble, stellt mir so e Canaille d'r Fuess, mir burzle anne,
            ich schlaa d'r Schmecker uff d'r Bodde, dass ich d'r Himmel for e Laischte angsehne hab.

          
",8,bastian-dr-maischter-hett-gewunne,41,6,0.0,0.14634146341463414
17,comedy,Addes,M,shoemaker_apprentice,crafts,lower_class,"
            
ADDES:

            
Haha, gelunge. Do hesch awer gelinzt, hä?

          
",8,bastian-dr-maischter-hett-gewunne,13,1,0.0,0.07692307692307693
18,comedy,Eddes,M,shoemaker_apprentice,crafts,lower_class,"
            
EDDES:

            
Un uewerdäm plumpse noch drej Päärle uff uns. D'r Seilschbanner wo grad kummt mit e me
            laidsmässige Schbrenzelhafe, wurd au mitgerisse, un in dem Moment bruehlt mini Dülcine Mordio, un der
            Schbrenzelhafe fallt e're mit-em Spitze direkt in's Müül; sie fangt aan ze gurigle un wär fascht
            versoffe, wenn sie ken so gueter Zugg hätt ghett.

          
",9,bastian-dr-maischter-hett-gewunne,66,5,0.6825208988441119,0.07575757575757576
20,comedy,Eddes,M,shoemaker_apprentice,crafts,lower_class,"
            
EDDES:

            
Annoch! Wie der Klumpe luefti isch worre, hab ich mini Dänzere uff d' Baan gschtellt wie e
            Holzbubb, un üewerdem verliert sie e paar falschi Locke. Ich muess halt lache wie verruckt un wie ich
            ihri wiss Blouse: betracht, muess ich noch meh lache.

          
",10,bastian-dr-maischter-hett-gewunne,53,9,0.1652866430732341,0.16981132075471697
21,comedy,Addes,M,shoemaker_apprentice,crafts,lower_class,"
            
ADDES:

            
Worum? — Pfüi isch der bout räs. 
            
(Wirft die Zigarette fort.)

          
",10,bastian-dr-maischter-hett-gewunne,18,1,5.142854843044668,0.05555555555555555
22,comedy,Eddes,M,shoemaker_apprentice,crafts,lower_class,"
            
EDDES:

            
Ei ihri Blouse isch rot gedüepfelt gsin, vun minere bluetige Nas, un wie ich so lach, bekumm ich
            vun dere Jumpfer aani an de Backe, dass mir d' Scharnierle krache. Aa so, saa ich: Dü cheval de
            carosse, un hab e're e feschti in 's Gnick g'schlawe. No hättsch awer sotte sehne 
            
(markierend)
 Sechs Händ gschbier ich am Hals, es räjt Füschte- 
            
paschtete, Tritt, Tüer uff — üewer d' Stross gflöüje saa ich dir, mit-em. Kopf zwische
            zwai Gartelatte nyngfahre, isch eins gsin, un als uff mich los gebengelt; ich hab e Fackelzugg im
            Schwarzwald gsehne. — O mini Ribbe, un, un — der do hinte duet mer so weh. Mim Lebdesdaa geh ich uff
            kene Danz meh.

          
",11,bastian-dr-maischter-hett-gewunne,145,14,0.15867578624992038,0.09655172413793103
24,comedy,Eddes,M,shoemaker_apprentice,crafts,lower_class,"
            
EDDES:

            
Zipfel, was lachsch so dumm?

          
",12,bastian-dr-maischter-hett-gewunne,9,1,0.0,0.1111111111111111
25,comedy,Addes,M,shoemaker_apprentice,crafts,lower_class,"
            
ADDES:

            
Bie so e're Fuehr hielt mer nit.

          
",12,bastian-dr-maischter-hett-gewunne,10,1,0.0,0.1
26,comedy,Eddes,M,shoemaker_apprentice,crafts,lower_class,"
            
EDDES:

            
Dü üewerzweriger Stuehlhooger, ich find nix lächerlichs d'rbie.

          
",13,bastian-dr-maischter-hett-gewunne,13,2,1.6823541453964515,0.15384615384615385
27,comedy,Addes,M,shoemaker_apprentice,crafts,lower_class,"
            
ADDES:

            
Dich han sie doppelt gsohlt, gerüeschtert un vorgschueht in aam Düür. Jaja, Eddes, « die Liebe,
            die Liebe hat manches schon getan ». Haha.

          
",13,bastian-dr-maischter-hett-gewunne,33,2,0.0,0.06060606060606061
29,comedy,Addes,M,shoemaker_apprentice,crafts,lower_class,"
            
ADDES:

            
Geh, mit dir nämm ich's noch uff.

          
",14,bastian-dr-maischter-hett-gewunne,12,1,0.0,0.08333333333333333
30,comedy,Eddes,M,shoemaker_apprentice,crafts,lower_class,"
            
EDDES:

            
Was, dü Häriseel. Dich pack ich wie e Pfund Lumpe.

          
",15,bastian-dr-maischter-hett-gewunne,15,1,0.0,0.06666666666666667
31,comedy,Addes,M,shoemaker_apprentice,crafts,lower_class,"
            
ADDES

            
(steht auf):

            
Kumm here, kumm, box, caune, chauson. 
            
(Packt ihn.)

          
",15,bastian-dr-maischter-hett-gewunne,22,3,0.0,0.13636363636363635
32,comedy,Eddes,M,shoemaker_apprentice,crafts,lower_class,"
            
EDDES:

            
Au, halt!

          
",16,bastian-dr-maischter-hett-gewunne,6,1,1.4875797876591068,0.16666666666666666
33,comedy,Addes,M,shoemaker_apprentice,crafts,lower_class,"
            
ADDES:

            
Gell Männel! Was Güxels, was hesch, haha, het der Mensch e Kisse hinte angebunde. Aha, ich versteh
            — es isch wäje dere Glanzwichs.

          
",16,bastian-dr-maischter-hett-gewunne,32,1,0.0,0.03125
35,comedy,Addes,M,shoemaker_apprentice,crafts,lower_class,"
            
ADDES:

            
Bscht! Es kummt ebber. 
            
(Beide arbeiten schnell weiter.)

          
",17,bastian-dr-maischter-hett-gewunne,15,2,0.0,0.13333333333333333
36,comedy,Schakob,M,farmer,agriculture,lower_class,"
            
SCHAKOB:

            
Buschur biesamme. Schaköbel wie sööt mer?

          
",18,bastian-dr-maischter-hett-gewunne,10,2,0.0,0.2
37,comedy,Schaköbel,M,,,,"
            
SCHAKOEBEL:

            
Buschur ihr Härre.

          
",18,bastian-dr-maischter-hett-gewunne,6,2,0.0,0.3333333333333333
40,comedy,Eddes,M,shoemaker_apprentice,crafts,lower_class,"
            
EDDES:

            
Brüche mir e Maischter wenn mir gsund sin?

          
",20,bastian-dr-maischter-hett-gewunne,11,2,0.0,0.18181818181818182
41,comedy,Schakob,M,farmer,agriculture,lower_class,"
            
SCHAKOB:

            
Do hab ech miner Bueä. D' Miaädder isch om Zischdi schun dogewänn. Er will pardü
            Schuehmachermäischter wäre.

          
",20,bastian-dr-maischter-hett-gewunne,22,1,0.0,0.045454545454545456
42,comedy,Eddes,M,shoemaker_apprentice,crafts,lower_class,"
            
EDDES:

            
Soso! Na, diss kan'r bie uns wäre. Wie haisch denn Männel?

          
",21,bastian-dr-maischter-hett-gewunne,17,1,0.0,0.058823529411764705
44,comedy,Eddes,M,shoemaker_apprentice,crafts,lower_class,"
            
EDDES:

            
So isch erächt. Nume nit verschrocke.

          
",22,bastian-dr-maischter-hett-gewunne,10,1,0.0,0.1
46,comedy,Addes,M,shoemaker_apprentice,crafts,lower_class,"
            
ADDES:

            
Mer sieht's-em aan, dass'r e gscheider Vadder het.

          
",23,bastian-dr-maischter-hett-gewunne,14,1,0.0,0.07142857142857142
47,comedy,Schakob,M,farmer,agriculture,lower_class,"
            
SCHAKOB:

            
Diss will ich määne. Ech bin in d'r Schuel allewiel in d'r erschte Bank gsässe.

          
",23,bastian-dr-maischter-hett-gewunne,19,2,0.0,0.10526315789473684
51,comedy,Schakob,M,farmer,agriculture,lower_class,"
            
SCHAKOB:

            
Zäll will ich määne.

          
",25,bastian-dr-maischter-hett-gewunne,7,1,0.0,0.14285714285714285
52,comedy,Eddes,M,shoemaker_apprentice,crafts,lower_class,"
            
EDDES:

            
Vadder Schakob, Ihr könne Euch druff verlonn, Euerer Schaköbel wurd e Schuehküenschtler Nummer
            pfiff.

          
",26,bastian-dr-maischter-hett-gewunne,19,3,0.0,0.15789473684210525
54,comedy,Eddes,M,shoemaker_apprentice,crafts,lower_class,"
            
EDDES:

            
's wurd bsorjt, ken Angscht. Un wisse n'r, dass d'r Schaköbel besser lehrt, schicke als ebbs vun
            e're Söüi — e Schambingel, odder e Köjelhupf, verstehn'r?

          
",27,bastian-dr-maischter-hett-gewunne,35,2,0.0,0.05714285714285714
56,comedy,Eddes,M,shoemaker_apprentice,crafts,lower_class,"
            
EDDES:

            
Ich garantier Euch d'rfor, er wurd guet. — Noch ebbs. Sehn'r, so e Ding wie ich aan hab, muehn'r
            im Schaköbel kaufe. Wisse n'r, es isch wäje de Kräjenaue. 
            
(Stiehlt Aepfel aus dem Korb.)

          
",28,bastian-dr-maischter-hett-gewunne,48,2,0.0,0.041666666666666664
58,comedy,Schakob,M,farmer,agriculture,lower_class,"
            
SCHAKOB:

            
Stille! Was galt so e Sitz?

          
",29,bastian-dr-maischter-hett-gewunne,10,1,0.0,0.1
61,comedy,Schakob,M,farmer,agriculture,lower_class,"
            
SCHAKOB:

            
Sei nit so vorwitzig. Was galt so e Sitz?

          
",30,bastian-dr-maischter-hett-gewunne,13,1,0.0,0.07692307692307693
62,comedy,Eddes,M,shoemaker_apprentice,crafts,lower_class,"
            
EDDES:

            
Ho, 's isch unterschiedlich. Der kummt direkt vun Paris. Awer wil Ihr's sin, na zwanzig
            Franke.

          
",31,bastian-dr-maischter-hett-gewunne,24,1,0.0,0.041666666666666664
63,comedy,Schakob,M,farmer,agriculture,lower_class,"
            
SCHAKOB:

            
Könne Ihr's nit billiger gänn?

          
",31,bastian-dr-maischter-hett-gewunne,9,1,0.0,0.1111111111111111
64,comedy,Eddes,M,shoemaker_apprentice,crafts,lower_class,"
            
EDDES:

            
Leider nit min Liewer. Prix fixe!

          
",32,bastian-dr-maischter-hett-gewunne,10,2,1.6602311216460983,0.2
65,comedy,Schakob,M,farmer,agriculture,lower_class,"
            
SCHAKOB:

            
Ech mään d'r Schaköbel bringt's ellään ferdig mit sim Sitzlädder. Ja, ech will jetz gehn. Sei
            brov, Schaköbel, am nächschte Friddi kumm ech widder.

          
",32,bastian-dr-maischter-hett-gewunne,33,3,0.0,0.09090909090909091
66,comedy,Schaköbel,M,,,,"
            
SCHAKOEBEL

            
(weinend):

            
Jo Vodder, d' Mieäder sell ö mitkumme, galle.

          
",33,bastian-dr-maischter-hett-gewunne,16,2,0.0,0.125
67,comedy,Schakob,M,farmer,agriculture,lower_class,"
            
SCHAKOB:

            
Jo dänn. Adje Schaköbel. Adje Ihr Harre. 
            
(Mitteltüre ab.)

          
",33,bastian-dr-maischter-hett-gewunne,17,3,0.0,0.17647058823529413
68,comedy,Eddes,M,shoemaker_apprentice,crafts,lower_class,"
            
EDDES:

            
Was hesch ze suttere? Diner Vadder geht zue d'r Mieädder. — Dü, Addes, er het nit angebisse.

          
",34,bastian-dr-maischter-hett-gewunne,24,2,0.0,0.08333333333333333
69,comedy,Addes,M,shoemaker_apprentice,crafts,lower_class,"
            
ADDES:

            
Schad! Der Büür schient nit vun Dummkirich ze sin. Awer sini Aepfel han mer-em geraant.

          
",34,bastian-dr-maischter-hett-gewunne,20,1,0.0,0.05
70,comedy,Eddes,M,shoemaker_apprentice,crafts,lower_class,"
            
EDDES:

            
Schaköbel, setz dich do here un klopf mer diss Rossledder waich. Siehsch so wurd's gemacht. —
            Kannsch au Kartes spiele?

          
",35,bastian-dr-maischter-hett-gewunne,27,4,0.0,0.14814814814814814
72,comedy,Addes,M,shoemaker_apprentice,crafts,lower_class,"
            
ADDES:

            
Ha, saftigi Renette. — Schaköbel, klopf, klopf! 
            
(Macht sich sachte an Eddes heran, und stiehlt ihm vorsichtig einen Apfel aus der
            Tasche.).
 Saftigi Renette.

          
",36,bastian-dr-maischter-hett-gewunne,37,6,0.0,0.16216216216216217
74,comedy,Eddes,M,shoemaker_apprentice,crafts,lower_class,"
            
EDDES:

            
Werum lachsch denn so dumm? 
            
(Erwischt die Hand Addes.)
 Ei gück do, der Apfeldieb. Addes, gib denne Apfel her. Ich
            saa dir's in Güetem.

          
",37,bastian-dr-maischter-hett-gewunne,36,1,0.0,0.027777777777777776
77,comedy,Eddes,M,shoemaker_apprentice,crafts,lower_class,"
            
EDDES:

            
Na wart, dich box ich zamme, das dir Höre un Sehn vergeht. 
            
(Schlüpft mit den Händen in ein Paar alte Schuhe.)

          
",38,bastian-dr-maischter-hett-gewunne,29,5,0.0,0.1724137931034483
78,comedy,Addes,M,shoemaker_apprentice,crafts,lower_class,"
            
ADDES:

            
Ah, dü witt mich zammeboxe! 
            
(Macht dasselbe wie Eddes.)
 Kumm here, ich bin gerüescht.

          
",39,bastian-dr-maischter-hett-gewunne,23,2,0.0,0.08695652173913043
79,comedy,Eddes,M,shoemaker_apprentice,crafts,lower_class,"
            
EDDES:

            
Schaköbel bass uff, do kannsch ebbs lehre. Wenn d'r Addes bluetig uff-em Bodde lejt, no zählsch
            langsam bis uff zehn, un wenn'r nimmi uffsteht, ischr knock-out.

          
",39,bastian-dr-maischter-hett-gewunne,34,4,0.9570794339152436,0.11764705882352941
80,comedy,Schaköbel,M,,,,"
            
SCHAKOEBEL:

            
Ja isch'r derno füddi?

          
",40,bastian-dr-maischter-hett-gewunne,7,1,0.0,0.14285714285714285
81,comedy,Eddes,M,shoemaker_apprentice,crafts,lower_class,"
            
EDDES:

            
Numme halwer. Er hat 's Nasebaan gebroche, sechs Zähn fehle n'em, un het e verheiti Kinnlad.

          
",40,bastian-dr-maischter-hett-gewunne,23,2,0.0,0.08695652173913043
83,comedy,Addes,M,shoemaker_apprentice,crafts,lower_class,"
            
ADDES:

            
Kumm numme her dü Grossmüül, dich will ich kinnlade. 
            
(Beide beginnen einen kurzen Boxkampf.)

          
",41,bastian-dr-maischter-hett-gewunne,21,2,0.0,0.09523809523809523
87,comedy,Eddes,M,shoemaker_apprentice,crafts,lower_class,"
            
EDDES:

            
Un die saftig Renette schlucksch. Bing! 
            
(Es klopft heftig.) (Beide springen hastig an die Arbeit und pfeifen: « Guter Mond du gehst so
            stille ».)

          
",43,bastian-dr-maischter-hett-gewunne,36,5,0.0,0.1388888888888889
88,comedy,Mirliton,M,,,,"
            
MIRLITON:

            
Bonjour Messieurs, 
            
(Kleine Pause.)

          
",44,bastian-dr-maischter-hett-gewunne,10,2,0.0,0.2
90,comedy,Addes,M,shoemaker_apprentice,crafts,lower_class,"
            
ADDES:

            
Loss 'ne stehn.

          
",45,bastian-dr-maischter-hett-gewunne,6,1,1.8520113856954468,0.16666666666666666
92,comedy,Eddes,M,shoemaker_apprentice,crafts,lower_class,"
            
EDDES:

            
A, bonjour im Herre. Mit was könnt mer Ihne diene? MIRLITON 
            
(stellt sich vor):
 Xavier Mirliton, rentier. Ich hab g'hört, dass bie Ihne elegant
            gschafft wurd.

          
",46,bastian-dr-maischter-hett-gewunne,38,2,0.0,0.05263157894736842
93,comedy,Eddes,M,shoemaker_apprentice,crafts,lower_class,"
            
EDDES:

            
Hors concour, Monsieur. Sechs goldigi Medaille.

          
",46,bastian-dr-maischter-hett-gewunne,11,1,0.0,0.09090909090909091
97,comedy,Eddes,M,shoemaker_apprentice,crafts,lower_class,"
            
EDDES:

            
Schaköbel, lang e Stuehl here. Hucke Sie do anne, Monsieur Dürlüdü. Ich will 'ne glich 's Mess
            näme, Schaköbel, hol zell Büechel uff d'r Werikbank, dass d' ebbs lehrsch, un zeihj dem Herr d'r
            Bodin üss, awer sachte. Schick dich e bissele, leste.

          
",48,bastian-dr-maischter-hett-gewunne,57,5,0.1154039765836189,0.08771929824561403
98,comedy,Schaköbel,M,,,,"
            
SCHAKOEBEL:

            
Eju dann. 
            
(Hält den Fuss hoch.)

          
",49,bastian-dr-maischter-hett-gewunne,12,2,0.7842092250090287,0.16666666666666666
99,comedy,Mirliton,M,,,,"
            
MIRLITON:

            
Gänn Sie doch acht jeune homme, ich bin arig dificile.

          
",49,bastian-dr-maischter-hett-gewunne,14,1,0.0,0.07142857142857142
100,comedy,Eddes,M,shoemaker_apprentice,crafts,lower_class,"
            
EDDES:

            
Dü maansch glab hebsch e 'n Ochs am Hinterfüess, dü Dollweck.

          
",50,bastian-dr-maischter-hett-gewunne,15,1,0.0,0.06666666666666667
102,comedy,Eddes,M,shoemaker_apprentice,crafts,lower_class,"
            
EDDES

            
(fasst Schaköbel an den Ohren):

            
Pack dich. Denne Dirmel kann mer for nix brüche. 
            
(Zieht den Schuh aus.)
 Hesch 's Büechel? Schrieb uff was ich dir saa, 
            
(Nimmt Mass mit Bendelmeter.)
 O was han Sie e nätts Füessel, Monsieur, grad wie e
            Hewammehändel. Schaköbel schrieb: 45 — un 30 üewer d'r Reje, un 25 — un 12 — un 10 — halt nit 10 —
            13. So, Monsieur, 's isch g'schehne.

          
",51,bastian-dr-maischter-hett-gewunne,93,5,0.29751595753182136,0.053763440860215055
103,comedy,Mirliton,M,,,,"
            
MIRLITON:

            
Wenn kann ich uff d' Lifferung zähle?

          
",51,bastian-dr-maischter-hett-gewunne,10,3,0.0,0.3
104,comedy,Eddes,M,shoemaker_apprentice,crafts,lower_class,"
            
EDDES:

            
So ball wie möjlich. Schaköbel, helf dem Herr d'r Schueh anduehn.

          
",52,bastian-dr-maischter-hett-gewunne,16,2,0.28850994145904724,0.125
105,comedy,Mirliton,M,,,,"
            
MIRLITON:

            
Merci, 's geht besser ellaan. Eh bien, in acht Daa denk ich.

          
",52,bastian-dr-maischter-hett-gewunne,18,1,0.0,0.05555555555555555
110,comedy,Eddes,M,shoemaker_apprentice,crafts,lower_class,"
            
EDDES:

            
Schaköbel, diss Büechel here. — Wie, ja — dich solle d' Ente vertrette, dü hesch jo gar nix
            gschriewe! Hab ich dir nit gsaat dü — e fitzekapores! Ja kannsch denn dü nit schriewe?

          
",55,bastian-dr-maischter-hett-gewunne,43,3,0.0,0.06976744186046512
114,comedy,Addes,M,shoemaker_apprentice,crafts,lower_class,"
            
ADDES:

            
Haha, der isch sicher d' Schuld, dass d' Frösch ken Wäddel han.

          
",57,bastian-dr-maischter-hett-gewunne,17,2,0.0,0.11764705882352941
115,comedy,Eddes,M,shoemaker_apprentice,crafts,lower_class,"
            
EDDES:

            
Witt dü schnell dem Herrn noochlaufe! Saasch er het ebbs vergesse. — Dü lauf'sch noch nit. — Bisch
            noch nit drüsse? Zaj Addes, lang mer d'r Knejrieme. Witt dü mache dass...

          
",57,bastian-dr-maischter-hett-gewunne,40,3,0.0,0.075
116,comedy,Schaköbel,M,,,,"
            
SCHAKOEBEL:

            
O liever Harr Schuehmochersgsell, ech, ech — Harr Düderlüdu 
            
(ab Mitteltüre)
 horche, horche!

          
",58,bastian-dr-maischter-hett-gewunne,21,1,0.0,0.047619047619047616
117,comedy,Eddes,M,shoemaker_apprentice,crafts,lower_class,"
            
EDDES:

            
So e Rejementsdirmel! Wart dü wursch noch dressiert.

          
",58,bastian-dr-maischter-hett-gewunne,12,1,0.0,0.08333333333333333
118,comedy,Addes,M,shoemaker_apprentice,crafts,lower_class,"
            
ADDES:

            
D'r Deifel het alles wölle wäre nume nit Lehrbue.

          
",59,bastian-dr-maischter-hett-gewunne,12,1,0.0,0.08333333333333333
119,comedy,Eddes,M,shoemaker_apprentice,crafts,lower_class,"
            
EDDES:

            
Drum isch'r au glich Maischter worre. Enfin...

          
",59,bastian-dr-maischter-hett-gewunne,11,1,0.0,0.09090909090909091
120,comedy,Addes,M,shoemaker_apprentice,crafts,lower_class,"
            
ADDES:

            
Sin ken Bäre. Jetz kummt mer ebbs yn. Han mer nit im Dorel, im Liebschter vun d'r
            Bodinmachermaischtersdoochter, uff hit sini gsohlte Schueh versproche?

          
",60,bastian-dr-maischter-hett-gewunne,31,4,0.0,0.12903225806451613
121,comedy,Eddes,M,shoemaker_apprentice,crafts,lower_class,"
            
EDDES:

            
Minsex! Awer jetz kummt mir au ebbs yn, 
            
(Nachdenklich.)
 Ich maan als, ich maan — morje, morje...

          
",60,bastian-dr-maischter-hett-gewunne,27,3,0.0,0.1111111111111111
122,comedy,Addes,M,shoemaker_apprentice,crafts,lower_class,"
            
ADDES:

            
Was morje?

          
",61,bastian-dr-maischter-hett-gewunne,5,1,0.0,0.2
123,comedy,Eddes,M,shoemaker_apprentice,crafts,lower_class,"
            
EDDES:

            
Grad rechel ich nooch. 
            
(Springt auf, reisst das Sitzkissen ab.)
 Morje hab ich üssgelehrt, uff d'r Daa. Gsell,
            Gsell! Addes Gsell!

          
",61,bastian-dr-maischter-hett-gewunne,33,3,0.0,0.09090909090909091
124,comedy,Addes,M,shoemaker_apprentice,crafts,lower_class,"
            
ADDES:

            
Was? E Nundebuckel, un diss kummt dir jetz ererscht yn? Dü sollsch blöuj wäre, Was zahlsch? Der
            Gsell wurd yngewaicht.

          
",62,bastian-dr-maischter-hett-gewunne,28,1,0.0,0.03571428571428571
125,comedy,Eddes,M,shoemaker_apprentice,crafts,lower_class,"
            
EDDES:

            
Gsell! Ich möcht mir fasch d' Hand drucke for Gruenz. Haha, was koscht 's Elsass un noch e paar
            Dörfer? Addes, denne Owe trinke mer küewelswies.

          
",62,bastian-dr-maischter-hett-gewunne,34,1,0.0,0.029411764705882353
126,comedy,Addes,M,shoemaker_apprentice,crafts,lower_class,"
            
ADDES:

            
Bravo, diss isch e Mannswort. Vive Eddes. Hoch soll'r läwe, drej Käs hoch, vive! 
            
(Beide tanzen und singen):
 Maidele, butz dich, wäsch dich, Strähl dich schön, Derfsch
            mit mir uff d'r Polka gehn. Hopsa Lissele, danz e bissele...

          
",63,bastian-dr-maischter-hett-gewunne,56,10,0.0,0.17857142857142858
127,comedy,Dorel,M,upholsterer,crafts,lower_middle_class,"
            
DOREL:

            
Was isch denn diss for e Spektakel? Danze die Lüüser gemüetlich e Polonaise à la cordonnier. Isch
            diss amend gschafft? Was mache mini Schueh?

          
",63,bastian-dr-maischter-hett-gewunne,30,3,0.0,0.1
128,comedy,Eddes,M,shoemaker_apprentice,crafts,lower_class,"
            
EDDES:

            
Herr Dorel, mir sin grad dran.

          
",64,bastian-dr-maischter-hett-gewunne,10,2,0.28850994145904724,0.2
129,comedy,Dorel,M,upholsterer,crafts,lower_middle_class,"
            
DOREL:

            
Ich sieh's. Awer horche, saaue emol, was isch denn mit minere Hochzittere Petronelle, un minere
            zuekuenftige Schwejeres los?

          
",64,bastian-dr-maischter-hett-gewunne,26,2,0.0,0.07692307692307693
131,comedy,Dorel,M,upholsterer,crafts,lower_middle_class,"
            
DOREL:

            
Halt din daub Müül. Treff ich die zwei Wiebszimmer im Magmod aan, un wie sie mich sehne, stelle
            sie d' Nase hoch, un mache so als ob sie mich noch nie gekennt hätte.

          
",65,bastian-dr-maischter-hett-gewunne,40,5,0.29751595753182136,0.125
134,comedy,Addes,M,shoemaker_apprentice,crafts,lower_class,"
            
ADDES:

            
Ei, Herr Dorel, Sie könne's jo noch noochhole.

          
",67,bastian-dr-maischter-hett-gewunne,14,1,0.5770198829180945,0.07142857142857142
135,comedy,Dorel,M,upholsterer,crafts,lower_middle_class,"
            
DOREL:

            
Wurr ich au, un nit ze knapp.

          
",67,bastian-dr-maischter-hett-gewunne,11,1,0.0,0.09090909090909091
136,comedy,Eddes,M,shoemaker_apprentice,crafts,lower_class,"
            
EDDES:

            
Awer saftig. Herr Hochzitter, je saftiger, deschto besser.

          
",68,bastian-dr-maischter-hett-gewunne,14,3,0.19233996097269815,0.21428571428571427
140,comedy,Addes,M,shoemaker_apprentice,crafts,lower_class,"
            
ADDES:

            
Luej do miner Kolleg.

          
",70,bastian-dr-maischter-hett-gewunne,7,1,0.0,0.14285714285714285
141,comedy,Eddes,M,shoemaker_apprentice,crafts,lower_class,"
            
EDDES:

            
Wo bisch denn so lang gschteckt? Ich hab gemaant dü bisch zue dinere Mieädder geloffe. — Wo hesch
            denn 's Mess?

          
",70,bastian-dr-maischter-hett-gewunne,26,3,0.0,0.11538461538461539
143,comedy,Eddes,M,shoemaker_apprentice,crafts,lower_class,"
            
EDDES:

            
Addes, lang d'r Tröschter. Dich will ich messe lehre.

          
",71,bastian-dr-maischter-hett-gewunne,14,4,0.0,0.2857142857142857
144,comedy,Schaköbel,M,,,,"
            
SCHAKOEBEL:

            
Ojemer, ojemer. Ech will brov sin. 
            
(Drohtspitz hinter der Szene, laut rufend):
 Edwar! Adolph! Diuhe! Diuhu!

          
",72,bastian-dr-maischter-hett-gewunne,29,1,0.0,0.034482758620689655
145,comedy,Eddes,M,shoemaker_apprentice,crafts,lower_class,"
            
EDDES:

            
E Glüeck fer dich, dass d'r Alt kummt, sunscht hätt's Fetze gänn.

          
",72,bastian-dr-maischter-hett-gewunne,18,2,0.0,0.1111111111111111
146,comedy,Addes,M,shoemaker_apprentice,crafts,lower_class,"
            
ADDES:

            
Ich glaab d'r Maischter het e g'hörige Well.

          
",73,bastian-dr-maischter-hett-gewunne,11,1,0.0,0.09090909090909091
149,comedy,Drohtspitz,M,master_shoemaker,crafts,lower_middle_class,"
            
DROHTSPITZ:

            
Wenn ich saa, es wurd nimi gschafft, wurd nimmi gschafft. 
            
(Geht stolz hin und her, und pafft):
 Ich hab drei Millione gewunne.

          
",74,bastian-dr-maischter-hett-gewunne,32,3,0.0,0.09375
150,comedy,Addes,M,shoemaker_apprentice,crafts,lower_class,"
            
ADDES:

            
D'r Maischter het gewunne!

          
",75,bastian-dr-maischter-hett-gewunne,7,2,0.0,0.2857142857142857
151,comedy,Eddes,M,shoemaker_apprentice,crafts,lower_class,"
            
EDDES:

            
Jo Plän vun Paris.

          
",75,bastian-dr-maischter-hett-gewunne,7,1,0.0,0.14285714285714285
152,comedy,Drohtspitz,M,master_shoemaker,crafts,lower_middle_class,"
            
DROHTSPITZ:

            
So wohr ich Drohtspitz haiss. Drei Millione! D' Frau un Doochter hab ich unterwäjs angetroffe un
            hab ne die Nuwell bruehjwarm nuewergschtellt. Umarmt han sie mich, verschmutzt wie narrächt; d' Litt
            sin stehn gebliewe, un han Müül un Nas uffgschberrt.

          
",76,bastian-dr-maischter-hett-gewunne,49,4,0.0,0.08163265306122448
154,comedy,Eddes,M,shoemaker_apprentice,crafts,lower_class,"
            
EDDES:

            
Millione un 's Wetter. Addes, d' Karte her, dass mer e Tournee erüssklopfe, uff denne Stoss.
            Addes, dü gibsch.

          
",77,bastian-dr-maischter-hett-gewunne,28,2,1.1225672678357104,0.07142857142857142
155,comedy,Drohtspitz,M,master_shoemaker,crafts,lower_middle_class,"
            
DROHTSPITZ:

            
Ja ihr Buewe, Numero 128.697 isch e Glückszahl, un die isch uff mich gfalle.

          
",77,bastian-dr-maischter-hett-gewunne,19,3,0.0,0.15789473684210525
156,comedy,Eddes,M,shoemaker_apprentice,crafts,lower_class,"
            
EDDES:

            
Mäischter, ich gratülier zue dem söuimässige Glück. ADDES 
            
(schüttelt Drohtspitz die Hand):
 Un ich au, dunderwischbel.

          
",78,bastian-dr-maischter-hett-gewunne,25,1,0.0,0.04
160,comedy,Drohtspitz,M,master_shoemaker,crafts,lower_middle_class,"
            
DROHTSPITZ:

            
Ah dü bisch d'r Schaköbel! — Na, kannsch dich vun dim Vadder widder hole lonn. Saasch bisch do
            gsin. Es wurd nimi gschuehschtert bie mir. Diss isch guet for armi Peches. Furt mit dem Pechstuehl,
            furt mit-em Knibbe, Klopfstaan, Rieme. Alles nüss, nüss. 
            
(Wirft alles durcheinander.)

          
",80,bastian-dr-maischter-hett-gewunne,63,5,0.3365029795584284,0.07936507936507936
162,comedy,Drohtspitz,M,master_shoemaker,crafts,lower_middle_class,"
            
DROHTSPITZ:

            
Naan, noch nit. Hitt fyre mir e grosses Fescht. Un wenn dü mir nochemol Maischter saasch, zinkier
            ich dir aani, dass dü erumsurrsch wie e Propeller.

          
",81,bastian-dr-maischter-hett-gewunne,34,2,0.0,0.058823529411764705
163,comedy,Eddes,M,shoemaker_apprentice,crafts,lower_class,"
            
EDDES:

            
Schübbe isch Trumpf. Addes, hopp, e Kart odder e Stück Holz.

          
",81,bastian-dr-maischter-hett-gewunne,17,1,0.0,0.058823529411764705
165,comedy,Drohtspitz,M,master_shoemaker,crafts,lower_middle_class,"
            
DROHTSPITZ:

            
He, was hab ich gsaat? Do hinne wurd nimmi gschafft. Adolph, hol mir im Schlofzimmer d'r
            Fodell.

          
",82,bastian-dr-maischter-hett-gewunne,24,1,0.0,0.041666666666666664
166,comedy,Addes,M,shoemaker_apprentice,crafts,lower_class,"
            
ADDES:

            
Ja Maischler — ä Herr Millionär. 
            
(Ab links.)

          
",83,bastian-dr-maischter-hett-gewunne,14,2,0.28850994145904724,0.14285714285714285
167,comedy,Drohtspitz,M,master_shoemaker,crafts,lower_middle_class,"
            
DROHTSPITZ:

            
Voilà. Diss isch 's richtig Wort.

          
",83,bastian-dr-maischter-hett-gewunne,10,2,0.0,0.2
168,comedy,Eddes,M,shoemaker_apprentice,crafts,lower_class,"
            
EDDES:

            
Was ich noch saaue will, Maischter, ä Herr von Drohtspitz, vun morje ab bin ich Gsell.

          
",84,bastian-dr-maischter-hett-gewunne,22,3,0.19233996097269815,0.13636363636363635
169,comedy,Drohtspitz,M,master_shoemaker,crafts,lower_middle_class,"
            
DROHTSPITZ:

            
Armer Wurm. He, wo bliebt miner Fodell?

          
",84,bastian-dr-maischter-hett-gewunne,12,3,0.0,0.25
170,comedy,Addes,M,shoemaker_apprentice,crafts,lower_class,"
            
ADDES:

            
Do isch'r. Ich hab noch schnell e paar Spinnhuddle abgschtaibt. Voilà, Herr.

          
",85,bastian-dr-maischter-hett-gewunne,18,2,0.28850994145904724,0.1111111111111111
171,comedy,Drohtspitz,M,master_shoemaker,crafts,lower_middle_class,"
            
DROHTSPITZ

            
(setzt sich bequem, Beine übereinander):

            
Merci.

          
",85,bastian-dr-maischter-hett-gewunne,12,1,0.0,0.08333333333333333
172,comedy,Addes,M,shoemaker_apprentice,crafts,lower_class,"
            
ADDES:

            
Bie de nächschte Wahle kenn ich aaner wo im Gemaanrot sitzt. No haisst's: Monsieur Drohtspitz
            hinte, un Herr Drohtspitz vorne. Wie geht's, Herr Drohtspitz, alles gsund, was macht d' Madam un d'
            Mamsell Doochter, ça va bien, wie stehn d' Aktie? Do fliehje d' Hüet, bonjour, bonjour, sehn'r n'e
            d'r stolz Stadtvadder? D'r Kirichrot bliebt au nit üss, d'r Armeinspektertitel kummt vun aase.

          
",86,bastian-dr-maischter-hett-gewunne,83,9,0.2564532812969309,0.10843373493975904
174,comedy,Eddes,M,shoemaker_apprentice,crafts,lower_class,"
            
EDDES:

            
D'r Herr Drohtspitz verkehrt nume mit vornehme Herrschafte. Par exemple mit-em Préfet, Députés,
            Sénateurs, Minischter.

          
",87,bastian-dr-maischter-hett-gewunne,22,3,0.19233996097269815,0.13636363636363635
175,comedy,Drohtspitz,M,master_shoemaker,crafts,lower_middle_class,"
            
DROHTSPITZ:

            
Wills starik hoffe.

          
",87,bastian-dr-maischter-hett-gewunne,6,2,0.0,0.3333333333333333
177,comedy,Drohtspitz,M,master_shoemaker,crafts,lower_middle_class,"
            
DROHTSPITZ:

            
Un nit weni Männel.

          
",88,bastian-dr-maischter-hett-gewunne,7,1,0.0,0.14285714285714285
178,comedy,Eddes,M,shoemaker_apprentice,crafts,lower_class,"
            
EDDES:

            
D'r chevalier de la Landwirtschaft isch sicher. Un d' Bankier laufe Ihne nooch, wie d' Mies
            nooch-em Speck.

          
",89,bastian-dr-maischter-hett-gewunne,23,2,0.0,0.08695652173913043
179,comedy,Drohtspitz,M,master_shoemaker,crafts,lower_middle_class,"
            
DROHTSPITZ:

            
Wo numme mini Frau bliebt un d' Petronelle? Ah, die kaufe jo yn. No fahre sie im Taxi zuem
            Zahnarzt. Sie wölle sich goldeni Zähn mache lonn.

          
",89,bastian-dr-maischter-hett-gewunne,34,1,1.682514897792142,0.029411764705882353
180,comedy,Addes,M,shoemaker_apprentice,crafts,lower_class,"
            
ADDES:

            
Wenn's grad emol an Muenz fehle dät, könnte die Dame jo e Zahn uff d'r Tisch laje.

          
",90,bastian-dr-maischter-hett-gewunne,22,4,0.0,0.18181818181818182
181,comedy,Drohtspitz,M,master_shoemaker,crafts,lower_middle_class,"
            
DROHTSPITZ

            
(lacht):

            
Kaiwe Bue. E gueter Witz, haha! Dü, Edwar, wie dü morje doch üssgelehrt hesch, defsch mini Cigar
            wittersch rauche.

          
",90,bastian-dr-maischter-hett-gewunne,31,4,0.0,0.12903225806451613
182,comedy,Eddes,M,shoemaker_apprentice,crafts,lower_class,"
            
EDDES:

            
Merci, Herr.

          
",91,bastian-dr-maischter-hett-gewunne,6,1,0.5770198829180945,0.16666666666666666
183,comedy,Drohtspitz,M,master_shoemaker,crafts,lower_middle_class,"
            
DROHTSPITZ:

            
Un derno kannsch miner ganz Grümbel han, mit zamt d'r Pratik. Sogar 's Todedräjerämtel gib ich dir
            au ab.

          
",91,bastian-dr-maischter-hett-gewunne,24,2,0.0,0.08333333333333333
184,comedy,Eddes,M,shoemaker_apprentice,crafts,lower_class,"
            
EDDES:

            
Merci, Herr. Könnte Sie mir sunscht noch so e bissel, Sie wisse jo wie ich's maan. 
            
(Mimik vom Geldzählen.)

          
",92,bastian-dr-maischter-hett-gewunne,29,1,0.5770198829180945,0.034482758620689655
185,comedy,Drohtspitz,M,master_shoemaker,crafts,lower_middle_class,"
            
DROHTSPITZ:

            
Aha, dü winksch mit-em Holzschläjel. Na, es kummt mer minsex uff e paar Döusig nit aan.

          
",92,bastian-dr-maischter-hett-gewunne,22,1,0.0,0.045454545454545456
186,comedy,Eddes,M,shoemaker_apprentice,crafts,lower_class,"
            
EDDES:

            
Könnt ich's nit schriftlich han? E rächter Gschäftsmann geht hitt am Daa numme uff Schriewes.

          
",93,bastian-dr-maischter-hett-gewunne,20,2,0.0,0.1
187,comedy,Addes,M,shoemaker_apprentice,crafts,lower_class,"
            
ADDES:

            
Guet gänn.

          
",93,bastian-dr-maischter-hett-gewunne,5,2,0.0,0.4
188,comedy,Drohtspitz,M,master_shoemaker,crafts,lower_middle_class,"
            
DROHTSPITZ:

            
Oho, e Mann, e Wort! Sollsch zehndöusig Liwerle han. Pah! Ja 's Geld macht d'r Mann. Haha!

          
",94,bastian-dr-maischter-hett-gewunne,26,6,0.0,0.23076923076923078
189,comedy,Eddes,M,shoemaker_apprentice,crafts,lower_class,"
            
EDDES:

            
Merci, Herr Millionär. 
            
(Umarmt ihn.)
 Ich wurr e moderns Gschäft installiere, wo uff wisseschaftlichem Gebiet
            fundamentiert isch.

          
",94,bastian-dr-maischter-hett-gewunne,26,3,0.19233996097269815,0.11538461538461539
191,comedy,Eddes,M,shoemaker_apprentice,crafts,lower_class,"
            
EDDES:

            
Diss Gschäft wurd in drei Spezialitäte yngedailt.

          
",95,bastian-dr-maischter-hett-gewunne,10,1,0.0,0.1
193,comedy,Eddes,M,shoemaker_apprentice,crafts,lower_class,"
            
EDDES:

            
Erschtens in e orthopädischi Abteilung for verkrüppelti Fuess. Zwaitens in e Pantoffelakademie, un
            drittens in e Kinderschueh-Klinik.

          
",96,bastian-dr-maischter-hett-gewunne,22,1,0.0,0.045454545454545456
194,comedy,Addes,M,shoemaker_apprentice,crafts,lower_class,"
            
ADDES:

            
Guet gänn. Kohl wittersch.

          
",97,bastian-dr-maischter-hett-gewunne,8,2,0.0,0.25
196,comedy,Eddes,M,shoemaker_apprentice,crafts,lower_class,"
            
EDDES:

            
No schaff ich mir e amerikanischi Maschin aan, wo ich in e're Uesstellung gsehne hab; e Maschin,
            die in kurzer Zitt e Vermöje abwerft.

          
",98,bastian-dr-maischter-hett-gewunne,30,2,0.0,0.06666666666666667
197,comedy,Drohtspitz,M,master_shoemaker,crafts,lower_middle_class,"
            
DROHTSPITZ:

            
Edwar, Edwar, dü machsch jo e Möwelwaaue lache.

          
",98,bastian-dr-maischter-hett-gewunne,13,1,0.0,0.07692307692307693
199,comedy,Eddes,M,shoemaker_apprentice,crafts,lower_class,"
            
EDDES:

            
Dere Maschin wurd vun vorne Rossledder nynspediert, un hinte kumme Bodin in box-calf fix un ferdig
            erüss.

          
",99,bastian-dr-maischter-hett-gewunne,21,1,0.0,0.047619047619047616
200,comedy,Addes,M,shoemaker_apprentice,crafts,lower_class,"
            
ADDES:

            
Grossartig!

          
",100,bastian-dr-maischter-hett-gewunne,4,1,0.0,0.25
201,comedy,Drohtspitz,M,master_shoemaker,crafts,lower_middle_class,"
            
DROHTSPITZ:

            
Horich Edwar, als gewöhnlicher Schuehmacher dät ich mich verzüerne. Awer als Millionär bin ich ze
            nowel. Verstehsch, dü Lüüser!

          
",100,bastian-dr-maischter-hett-gewunne,26,1,0.0,0.038461538461538464
202,comedy,Addes,M,shoemaker_apprentice,crafts,lower_class,"
            
ADDES:

            
Nowel geht d' Welt zegrund. Ja Herr Millionär, was ich fröuje möcht, was mach ich denn?

          
",101,bastian-dr-maischter-hett-gewunne,22,2,0.28850994145904724,0.09090909090909091
203,comedy,Drohtspitz,M,master_shoemaker,crafts,lower_middle_class,"
            
DROHTSPITZ:

            
Dü, dü schnüüfsch dass d' nit verschticksch. Awer halt! Ich schaff mer e Vierspänner aan, mit
            Arawerhengscht, odder englisch Vollbluet, un derno kannsch Kütscher bie mir wäre.

          
",101,bastian-dr-maischter-hett-gewunne,36,1,1.4875797876591068,0.027777777777777776
204,comedy,Addes,M,shoemaker_apprentice,crafts,lower_class,"
            
ADDES:

            
Bravo! Diss dät mer basse. 
            
(Holt einen Stuhl, setzt sich in Reitsitz, schnalzt.)
 Allez! Allez César, allez! EDDES 
            
(macht Addes nach):
 Allez Coquette, allez Favorit. 
            
(Sie reiten um Drohtspitz herum.)

          
",102,bastian-dr-maischter-hett-gewunne,50,2,0.0,0.04
205,comedy,Schaköbel,M,,,,"
            
SCHAKOEBEL

            
(lauft hinten nach):

            
Hohü, hischterum, öööh Schimmel.

          
",102,bastian-dr-maischter-hett-gewunne,14,1,3.7418908927857015,0.07142857142857142
206,comedy,Drohtspitz,M,master_shoemaker,crafts,lower_middle_class,"
            
DROHTSPITZ

            
(lacht unbändig, schlägt sich aufs Knie).

          
",103,bastian-dr-maischter-hett-gewunne,11,1,0.0,0.09090909090909091
207,comedy,Dorel,M,upholsterer,crafts,lower_middle_class,"
            
DOREL:

            
Oho! 
            
(Bleibt an der Türe stehen.)
 Was isch denn los?

          
",103,bastian-dr-maischter-hett-gewunne,17,1,0.0,0.058823529411764705
208,comedy,Drohtspitz,M,master_shoemaker,crafts,lower_middle_class,"
            
DROHTSPITZ

            
(steht auf, kehrt Dorel den Rücken, geht dann aufgeblasen hin und her).

          
",104,bastian-dr-maischter-hett-gewunne,18,1,0.0,0.05555555555555555
209,comedy,Dorel,M,upholsterer,crafts,lower_middle_class,"
            
DOREL:

            
Was Deifels, bisch bös, Schwejerbabbe? Sin mini Schuch gsohlt? Guete Daa Schwejeres, wo isch denn
            's Petronelle, dis lieb Schätzel? — Ken Antwort.

          
",104,bastian-dr-maischter-hett-gewunne,33,3,1.1866992871108548,0.09090909090909091
210,comedy,Eddes,M,shoemaker_apprentice,crafts,lower_class,"
            
EDDES:

            
Er het drei Millione gewunne. Sie muehn-em Herr Millionär saawe.

          
",105,bastian-dr-maischter-hett-gewunne,14,2,0.28850994145904724,0.14285714285714285
213,comedy,Drohtspitz,M,master_shoemaker,crafts,lower_middle_class,"
            
DROHTSPITZ:

            
Edwar, dü gehsch nab zuem Photograph am Eck, er soll glich kumme.

          
",106,bastian-dr-maischter-hett-gewunne,17,1,0.0,0.058823529411764705
214,comedy,Eddes,M,shoemaker_apprentice,crafts,lower_class,"
            
EDDES:

            
Wäre mir photographiert, Herr Drohtspitz?

          
",107,bastian-dr-maischter-hett-gewunne,9,1,0.5770198829180945,0.1111111111111111
215,comedy,Drohtspitz,M,master_shoemaker,crafts,lower_middle_class,"
            
DROHTSPITZ:

            
Ja, in Läwesgrösse.

          
",107,bastian-dr-maischter-hett-gewunne,7,1,0.0,0.14285714285714285
218,comedy,Drohtspitz,M,master_shoemaker,crafts,lower_middle_class,"
            
DROHTSPITZ:

            
Awer d' beschte wo'r hett. Saasch er soll e 'n Andenke gänn.

          
",109,bastian-dr-maischter-hett-gewunne,16,2,0.0,0.125
220,comedy,Drohtspitz,M,master_shoemaker,crafts,lower_middle_class,"
            
DROHTSPITZ:

            
Un dü, Adolph, bschtellsch mer glich e Fass Champagner, verschtande?

          
",110,bastian-dr-maischter-hett-gewunne,16,2,0.0,0.125
221,comedy,Dorel,M,upholsterer,crafts,lower_middle_class,"
            
DOREL:

            
Haha, e Fass Champagner. Dem isch 's Pech in de Kopf gschtöje.

          
",110,bastian-dr-maischter-hett-gewunne,17,1,0.0,0.058823529411764705
222,comedy,Drohtspitz,M,master_shoemaker,crafts,lower_middle_class,"
            
DROHTSPITZ:

            
Halt, Adolph! Z'erscht gehsch in de Keller, an de Gänsstall, nämsch d'r Knibbe mit un murigsch
            alli Gäns ab. Schaköbel, dü helfsch-em. D' Madam Drohtspitz hett's 
            
nimi notwendig Gäns ze stopfe, diss isch guet for Proletarier.

          
",111,bastian-dr-maischter-hett-gewunne,48,3,0.4958599292197023,0.0625
223,comedy,Addes,M,shoemaker_apprentice,crafts,lower_class,"
            
ADDES:

            
Gibts hitt noch e Fricot, Herr Drohtspitz?

          
",111,bastian-dr-maischter-hett-gewunne,11,1,0.5770198829180945,0.09090909090909091
225,comedy,Addes,M,shoemaker_apprentice,crafts,lower_class,"
            
ADDES:

            
Ha, ich frai mich jetz schun druff. Herr Dorl, vergesse Sie Ihri Redd nit. Schaköbel, kumm. 
            
(Beide Mitteltüre ab.)

          
",112,bastian-dr-maischter-hett-gewunne,30,3,0.19233996097269815,0.1
226,comedy,Dorel,M,upholsterer,crafts,lower_middle_class,"
            
DOREL:

            
Herr Drohtspitz! Herr Schwejeres, ich möcht...

          
",113,bastian-dr-maischter-hett-gewunne,11,2,1.154039765836189,0.18181818181818182
227,comedy,Drohtspitz,M,master_shoemaker,crafts,lower_middle_class,"
            
DROHTSPITZ:

            
Ja sin denn Sie als noch do?

          
",113,bastian-dr-maischter-hett-gewunne,10,1,0.0,0.1
229,comedy,Drohtspitz,M,master_shoemaker,crafts,lower_middle_class,"
            
DROHTSPITZ:

            
Los, üss-em Staub, Sunscht hebb ich d' Tüer üss.

          
",114,bastian-dr-maischter-hett-gewunne,14,1,0.0,0.07142857142857142
230,comedy,Dorel,M,upholsterer,crafts,lower_middle_class,"
            
DOREL:

            
Soll mich e Esel trette. Ja, was glauwe denn...

          
",115,bastian-dr-maischter-hett-gewunne,14,3,0.0,0.21428571428571427
231,comedy,Drohtspitz,M,master_shoemaker,crafts,lower_middle_class,"
            
DROHTSPITZ:

            
Jaja, 's isch Ernscht, Herr Bäbbkessel. Gehn Sie numme. Ich verbiet Ihne ein for allemol in unseri
            Villa ze kumme.

          
",115,bastian-dr-maischter-hett-gewunne,27,4,0.14425497072952362,0.14814814814814814
233,comedy,Drohtspitz,M,master_shoemaker,crafts,lower_middle_class,"
            
DROHTSPITZ:

            
Dabbezierersknecht, wurr nit frech, sunscht könntsch 's Fliehje lehre.

          
",116,bastian-dr-maischter-hett-gewunne,14,2,0.0,0.14285714285714285
234,comedy,Dorel,M,upholsterer,crafts,lower_middle_class,"
            
DOREL:

            
Jetz krej ich doch ball e Wuet. Saa mol, was isch denn in dich nyngfahre, dass dü so Käschperles
            mit mir schbielsch?

          
",117,bastian-dr-maischter-hett-gewunne,28,2,0.0,0.07142857142857142
237,comedy,Drohtspitz,M,master_shoemaker,crafts,lower_middle_class,"
            
DROHTSPITZ:

            
Bin ich au, sogar e dreifacher. 's Nümero 128.697 het Glüeck gebrocht. Mit minere Doochter isch
            üss, sie kann schwasiere. Wenn ich Ihne emol ebbs ze verdiene kann gänn, ganz gern. Miner valet de
            chambre wurd Ihne geläjetlich Ordre zuekumme lonn. Un jetz wölle Sie so friendlich sin, un d' Stubb
            süüfer mache.

          
",118,bastian-dr-maischter-hett-gewunne,65,11,0.15295589979928564,0.16923076923076924
238,comedy,Dorel,M,upholsterer,crafts,lower_middle_class,"
            
DOREL:

            
A so raucht's! Ihr wölle mich nimi kenne? Ja wer hett denn Euch eueri Büdik frisch gedabeziert?
            Wer het 
            
denn eueri Wendelmatratze nej üewerzöüje un euere Flohzirik üssgeraichert? — Wer, fröüj
            ich? Ich hab's gemacht, ich! Un noch umesunscht, ja! Ihr kumme mer gschliche wie gedrabbt, ihr
            Pecheschores.

          
",119,bastian-dr-maischter-hett-gewunne,64,7,0.0,0.109375
239,comedy,Drohtspitz,M,master_shoemaker,crafts,lower_middle_class,"
            
DROHTSPITZ

            
(steht rasch auf, reisst Dorel die Mülze vom Kopf, wirft sie zur Türe hinaus, die er offen
            lässt):

            
Herr Prolet, han Sie gsehne, wie Ihri Proletarierskabb nüssgflöüje isch? Na, so kann's Ihne gehn,
            awer Kopf unte un d' Baan owe.

          
",119,bastian-dr-maischter-hett-gewunne,54,3,0.19233996097269815,0.05555555555555555
240,comedy,Dorel,M,upholsterer,crafts,lower_middle_class,"
            
DOREL:

            
Ich geh vun ase, Herr Millionär. D'r Dorel bliebt d'r Dorel, un d'r Dorel pfifft uff d' Mamsell
            Drohtspitz. Ihr denke noch an denne arme Bäbbkessel, wo richer isch, als ihr allizamme. 
            
(Ab.)

          
",120,bastian-dr-maischter-hett-gewunne,45,2,0.28850994145904724,0.044444444444444446
241,comedy,Drohtspitz,M,master_shoemaker,crafts,lower_middle_class,"
            
DROHTSPITZ:

            
Armer Windbittel, düürsch mich. 
            
(Man hôrt weitlos Gänsegeschrei.)

          
",120,bastian-dr-maischter-hett-gewunne,15,2,0.0,0.13333333333333333
244,comedy,Linser,M,photographer,intermediate_professionals,lower_middle_class,"
            
LINSER:

            
Bonjour, Herr Drohtspitz. Sie wüensche in corpore uffgenumme ze wäre. Grossartigi Idee, als ewigs
            Andenke. Famoser Gedanke. Diss Bild wurd in alle Zittunge e kollosaler Effekt mache. Wüensch Ihne au
            viel Glüeck zu dem enorme Geld. Drei Milliönle wie ich ghört hab. Ken Klaanigkeit.

          
",122,bastian-dr-maischter-hett-gewunne,56,7,0.08243141184544207,0.125
246,comedy,Linser,M,photographer,intermediate_professionals,lower_middle_class,"
            
LINSER:

            
So, d'r Apparat het glich die gross Ehr in Funktion ze trette. — Awer vorerscht möcht ich doch die
            Herrschafte bitte 's Gsicht un d' Händ ze wäsche, denn mini Platte sin arig empfindlich.

          
",123,bastian-dr-maischter-hett-gewunne,40,7,0.3694103801610888,0.175
247,comedy,Drohtspitz,M,master_shoemaker,crafts,lower_middle_class,"
            
DROHTSPITZ:

            
Zell isch awer num. Sie sotte vor lütter Gruenz nit wisse, was Sie mache wölle, dass Sie miner
            Hofphotograph wäre. Uewerhaupt hab ich noch nie e Schuehmacher mit 'me Cylinder un Glacéhändschi
            uff-em Pechstuehl sitze sehn.

          
",123,bastian-dr-maischter-hett-gewunne,43,3,1.1075997042645678,0.06976744186046512
248,comedy,Addes,M,shoemaker_apprentice,crafts,lower_class,"
            
ADDES

            
(von draussen):

            
Ja, ja. D'r Schaköbel hielt wäje de

          
",124,bastian-dr-maischter-hett-gewunne,15,2,0.0,0.13333333333333333
249,comedy,Eddes,M,shoemaker_apprentice,crafts,lower_class,"
            
EDDES:

            
Hä, do linse Sie, Herr Linser.

          
",124,bastian-dr-maischter-hett-gewunne,11,1,0.5770198829180945,0.09090909090909091
250,comedy,Linser,M,photographer,intermediate_professionals,lower_middle_class,"
            
LINSER:

            
Wie Sie wüensche, Herr Drohtspitz. Also verehrti Herrschafte...

          
",125,bastian-dr-maischter-hett-gewunne,13,3,0.19233996097269815,0.23076923076923078
251,comedy,Eddes,M,shoemaker_apprentice,crafts,lower_class,"
            
EDDES:

            
Halt! D'r Addes un dr Schaköbel fehle noch.

          
",125,bastian-dr-maischter-hett-gewunne,12,2,0.7437898938295534,0.16666666666666666
253,comedy,Eddes,M,shoemaker_apprentice,crafts,lower_class,"
            
EDDES

            
(hinausrufend):

            
Addes, Schaköbel, ihr solle kumme! Gäns. Mir kumme! Mir kumme!

          
",126,bastian-dr-maischter-hett-gewunne,21,3,0.0,0.14285714285714285
254,comedy,Linser,M,photographer,intermediate_professionals,lower_middle_class,"
            
LINSER:

            
So, jetz kann's losgehn.

          
",127,bastian-dr-maischter-hett-gewunne,9,1,0.0,0.1111111111111111
255,comedy,Drohtspitz,M,master_shoemaker,crafts,lower_middle_class,"
            
DROHTSPITZ:

            
Haha, luej die zwei. Mer maant sie han e Bataille mitgemacht. Betrachte die Gänsmetzjer wie die
            drinsehn.

          
",127,bastian-dr-maischter-hett-gewunne,23,1,0.0,0.043478260869565216
256,comedy,Linser,M,photographer,intermediate_professionals,lower_middle_class,"
            
LINSER:

            
Also mini Herrschafte, bilde Sie e schöni Grupp. D'r Herr Drohtspitz in d' Mittle, die junge Herre
            rächts un links.

          
",128,bastian-dr-maischter-hett-gewunne,26,7,0.8117197088168063,0.2692307692307692
260,comedy,Addes,M,shoemaker_apprentice,crafts,lower_class,"
            
ADDES:

            
Maischter, ich will links...

          
",130,bastian-dr-maischter-hett-gewunne,8,1,0.0,0.125
261,comedy,Drohtspitz,M,master_shoemaker,crafts,lower_middle_class,"
            
DROHTSPITZ:

            
Maischter!? Do hesch links. 
            
(Gibt ihm eine Ohrfeige.)

          
",130,bastian-dr-maischter-hett-gewunne,16,2,0.0,0.125
262,comedy,Eddes,M,shoemaker_apprentice,crafts,lower_class,"
            
EDDES:

            
Bisch jetz zefridde?

          
",131,bastian-dr-maischter-hett-gewunne,6,1,0.0,0.16666666666666666
263,comedy,Linser,M,photographer,intermediate_professionals,lower_middle_class,"
            
LINSER:

            
So. D'r Klaan do, der setzt sich vor d'r Herr Drohtspitz uff dr Bodde, C'est ça! Awer Herr
            Drohtspitz, lueje Sie doch friendlicher, ja. Ja so! Uff đe Gsichter muess mer e Glanz sehn, als hätt
            e Maiedaa mit sim Früehjrot druffgezunde un es dät Knackwuerscht räje.

          
",131,bastian-dr-maischter-hett-gewunne,59,10,0.2308079531672378,0.1694915254237288
264,comedy,Drohtspitz,M,master_shoemaker,crafts,lower_middle_class,"
            
DROHTSPITZ:

            
Was Knackwuerscht? Paschtete, wenn's beliebt.

          
",132,bastian-dr-maischter-hett-gewunne,11,1,0.0,0.09090909090909091
266,comedy,Addes,M,shoemaker_apprentice,crafts,lower_class,"
            
ADDES:

            
Guet gänn, hahaha.

          
",133,bastian-dr-maischter-hett-gewunne,7,2,0.0,0.2857142857142857
267,comedy,Linser,M,photographer,intermediate_professionals,lower_middle_class,"
            
LINSER:

            
So isch erächt, ja. Herr Drohtspitz, e bissel süesser lächle, noch süesser, so — awer d' Nas nit
            so hoch. 
            
(Setzt ihn in bessere Haltung.)
 Sie, junger Herr, lonn Sie d' Finger üss d'r Nas.

          
",133,bastian-dr-maischter-hett-gewunne,49,8,0.49882430368306496,0.16326530612244897
269,comedy,Drohtspitz,M,master_shoemaker,crafts,lower_middle_class,"
            
DROHTSPITZ:

            
Herrschaft düürt dis e Ewigkeit. Aa — Herr Linser, han Sie au die neje Strahle mitgebrocht?

          
",134,bastian-dr-maischter-hett-gewunne,21,4,0.14425497072952362,0.19047619047619047
270,comedy,Linser,M,photographer,intermediate_professionals,lower_middle_class,"
            
LINSER:

            
Bedüür arig. Sie sin uff Schuehmacher nit verwendbar.

          
",135,bastian-dr-maischter-hett-gewunne,12,2,0.0,0.16666666666666666
271,comedy,Drohtspitz,M,master_shoemaker,crafts,lower_middle_class,"
            
DROHTSPITZ:

            
Au Schwindel.

          
",135,bastian-dr-maischter-hett-gewunne,5,1,0.0,0.2
272,comedy,Linser,M,photographer,intermediate_professionals,lower_middle_class,"
            
LINSER:

            
Jetz uffgebasst. Silence! 
            
(Schlüpft unter das Tuch.)

          
",136,bastian-dr-maischter-hett-gewunne,14,1,0.0,0.07142857142857142
275,comedy,Linser,M,photographer,intermediate_professionals,lower_middle_class,"
            
LINSER:

            
Ganz ruehig wenn's beliebt. He, der ganz klaan Herr do vorne, der macht jo e Buckel wie e Katz
            wenn's blitzt.

          
",137,bastian-dr-maischter-hett-gewunne,29,6,0.09616998048634907,0.20689655172413793
276,comedy,Schaköbel,M,,,,"
            
SCHAKOEBEL:

            
Harr Telegraph, ech mään — ech mään as düat weh.

          
",138,bastian-dr-maischter-hett-gewunne,14,1,2.221461007498885,0.07142857142857142
277,comedy,Linser,M,photographer,intermediate_professionals,lower_middle_class,"
            
LINSER:

            
Dummer Bue.

          
",138,bastian-dr-maischter-hett-gewunne,5,1,0.0,0.2
280,comedy,Dorel,M,upholsterer,crafts,lower_middle_class,"
            
DOREL:

            
Herr Drohtspitz, wisse Sie schun?

          
",140,bastian-dr-maischter-hett-gewunne,9,1,0.5770198829180945,0.1111111111111111
282,comedy,Dorel,M,upholsterer,crafts,lower_middle_class,"
            
DOREL:

            
Herr Millionär, wisse Sie schun?

          
",141,bastian-dr-maischter-hett-gewunne,9,1,0.5770198829180945,0.1111111111111111
284,comedy,Dorel,M,upholsterer,crafts,lower_middle_class,"
            
DOREL:

            
Dass Sie nix gewunne han? Do steht's in der Zittung. E Druckfehler het sich yngschliche. 
            
(Ueberreicht Drohtspitz eine Zeitung.)
 Voilà, Monsieur. Gewunne het nit 128.697, awer
            128,698. Aans ze weny! 
            
(Stellt den Zeigefinger.)

          
",142,bastian-dr-maischter-hett-gewunne,51,2,0.0,0.0392156862745098
285,comedy,Drohtspitz,M,master_shoemaker,crafts,lower_middle_class,"
            
DROHTSPITZ

            
(stiert auf die Zeitung, lässt sie fallen):

            
Nix gewunne! Nix ge... Jesses, jetz, jetz... 
            
(Alle stürzen vor Schrecken zu Boden.)

          
",142,bastian-dr-maischter-hett-gewunne,33,5,0.0,0.15151515151515152
286,comedy,Linser,M,photographer,intermediate_professionals,lower_middle_class,"
            
LINSER:

            
Oho, die ganz Gsellschaft isch jo verschwunde. Do soll doch glich 
            
(unter dem Tuch hervor.)
 Do hett's e Erdbewe gänn.

          
",143,bastian-dr-maischter-hett-gewunne,29,5,0.0,0.1724137931034483
289,comedy,Addes,M,shoemaker_apprentice,crafts,lower_class,"
            
ADDES:

            
Der guet Fricot!

          
",144,bastian-dr-maischter-hett-gewunne,6,1,0.0,0.16666666666666666
290,comedy,Schaköbel,M,,,,"
            
SCHAKOEBEL:

            
Oo, Mieädder, hole mich!

          
",145,bastian-dr-maischter-hett-gewunne,9,1,0.0,0.1111111111111111
291,comedy,Dorel,M,upholsterer,crafts,lower_middle_class,"
            
DOREL:

            
Do, Herr Drohtspitz, hesch dini Millionärskabb. 
(Setzt ihm den Kessel auf. Rasch ab.)

              
(Alle lachen. Rideau.)

            

          
",145,bastian-dr-maischter-hett-gewunne,29,2,0.28850994145904724,0.06896551724137931
