2022-08-20 21:34:05 - valence lexicon length: 7864
2022-08-20 21:34:05 - Number of rows: 292
2022-08-20 21:34:06 - dominance lexicon length: 7864
2022-08-20 21:34:06 - Number of rows: 292
2022-08-20 21:34:06 - arousal lexicon length: 7864
2022-08-20 21:34:06 - Number of rows: 292
2022-08-20 21:34:06 - anger lexicon length: 7864
2022-08-20 21:34:06 - Number of rows: 292
2022-08-20 21:34:06 - anticipation lexicon length: 7864
2022-08-20 21:34:06 - Number of rows: 292
2022-08-20 21:34:07 - disgust lexicon length: 7864
2022-08-20 21:34:07 - Number of rows: 292
2022-08-20 21:34:07 - fear lexicon length: 7864
2022-08-20 21:34:07 - Number of rows: 292
2022-08-20 21:34:07 - joy lexicon length: 7864
2022-08-20 21:34:07 - Number of rows: 292
2022-08-20 21:34:08 - sadness lexicon length: 7864
2022-08-20 21:34:08 - Number of rows: 292
2022-08-20 21:34:08 - surprise lexicon length: 7864
2022-08-20 21:34:08 - Number of rows: 292
2022-08-20 21:34:08 - trust lexicon length: 7864
2022-08-20 21:34:08 - Number of rows: 292
2022-08-24 17:04:50 - valence lexicon length: 7864
2022-08-24 17:04:50 - Number of rows: 292
2022-08-24 17:04:50 - dominance lexicon length: 7864
2022-08-24 17:04:50 - Number of rows: 292
2022-08-24 17:04:51 - arousal lexicon length: 7864
2022-08-24 17:04:51 - Number of rows: 292
2022-08-24 17:04:51 - anger lexicon length: 7864
2022-08-24 17:04:51 - Number of rows: 292
2022-08-24 17:04:51 - anticipation lexicon length: 7864
2022-08-24 17:04:51 - Number of rows: 292
2022-08-24 17:04:51 - disgust lexicon length: 7864
2022-08-24 17:04:51 - Number of rows: 292
2022-08-24 17:04:52 - fear lexicon length: 7864
2022-08-24 17:04:52 - Number of rows: 292
2022-08-24 17:04:52 - joy lexicon length: 7864
2022-08-24 17:04:52 - Number of rows: 292
2022-08-24 17:04:52 - sadness lexicon length: 7864
2022-08-24 17:04:52 - Number of rows: 292
2022-08-24 17:04:52 - surprise lexicon length: 7864
2022-08-24 17:04:52 - Number of rows: 292
2022-08-24 17:04:53 - trust lexicon length: 7864
2022-08-24 17:04:53 - Number of rows: 292
