drama_type,speaker,sex,job,job_category,social_class,text,progress,short_name,numTokens,numLexTokens,lexRatio,anger_roll_mean,anticipation_roll_mean,arousal_roll_mean,disgust_roll_mean,dominance_roll_mean,fear_roll_mean,joy_roll_mean,sadness_roll_mean,surprise_roll_mean,trust_roll_mean,valence_roll_mean
comedy,Addes,M,shoemaker_apprentice,crafts,lower_class,"
            
ADDES:

            
Nit zuem Beschte. Sie het starik gebrenzelt.

          
",1,bastian-dr-maischter-hett-gewunne,11,1,0.0909090909090909,,,,,,,,,,,
comedy,Addes,M,shoemaker_apprentice,crafts,lower_class,"
            
ADDES:

            
Dis hab ich nit gschbanne. Pfüi Deifel.

          
",2,bastian-dr-maischter-hett-gewunne,11,2,0.1818181818181818,,,,,,,,,,,
comedy,Eddes,M,shoemaker_apprentice,crafts,lower_class,"
            
EDDES:

            
D'r Maischter hett sichs gemüetlich uff d'r Deller g'schöpft. No maant'r annoch: Agath, ich glaub
            dü hesch Gänsgries kocht? Haha, ich hab dich jo gschtupft mit-em Fuess, awer...

          
",3,bastian-dr-maischter-hett-gewunne,37,4,0.1081081081081081,,,,,,,,,,,
comedy,Addes,M,shoemaker_apprentice,crafts,lower_class,"
            
ADDES:

            
Wenn's an's Esse geht, kenn ich nix. Ja zuem Dunder, d' Maischtere isch doch als Junggsel Köche
            gsin uff 'me grosse Herrschaftsguet.

          
",3,bastian-dr-maischter-hett-gewunne,30,2,0.0666666666666666,,,,,,,,,,,
comedy,Eddes,M,shoemaker_apprentice,crafts,lower_class,"
            
EDDES

            
(zündet eine Zigarette an):

            
Jo siewe Johr hett sie de Söüi kocht, awer nit in d'r Herrschaft.

          
",4,bastian-dr-maischter-hett-gewunne,23,2,0.0869565217391304,0.0,0.0,0.6003575720228684,0.0,0.6929127363643135,0.0,0.7188348171973498,0.0,0.0,0.0,0.8530026544309912
comedy,Eddes,M,shoemaker_apprentice,crafts,lower_class,"
            
EDDES:

            
Jo, d'r Maischter isch e patentierter Simpel.

          
",5,bastian-dr-maischter-hett-gewunne,11,2,0.1818181818181818,0.0,0.0,0.6003575720228684,0.0,0.6929127363643135,0.0,0.7188348171973498,0.0,0.0,0.0,0.8530026544309912
comedy,Eddes,M,shoemaker_apprentice,crafts,lower_class,"
            
EDDES:

            
Allez, am heilige Mondaa! Do macht er e Bierreisel, Commissiönle, kauft Loterieloos mit Zahle wo
            gewinne könnte, waisch so Loos mit 3, 5, 7, 9. Der verspielt noch d' ganz Büdik.

          
",6,bastian-dr-maischter-hett-gewunne,42,7,0.1666666666666666,0.0,0.08873360496385459,1.0053895490651035,0.11221396231622491,1.1608193225758825,0.08279200878209277,0.8725846052662745,0.0,0.0,0.2597633612380197,1.2998663991023534
comedy,Addes,M,shoemaker_apprentice,crafts,lower_class,"
            
ADDES:

            
Wenn'r nume sini Alt zerscht verspiele dät, diss alt Rabbyse. Zaj loss mich au e bissel fümme.

          
",6,bastian-dr-maischter-hett-gewunne,22,1,0.0454545454545454,0.3841738982692321,0.873500986004918,1.418538559028557,0.48261623945531423,1.3221861361544536,0.7103903895396753,0.7277970351862867,0.6274360054772908,0.36633323445483007,0.4863747102441874,1.4210061832637455
comedy,Eddes,M,shoemaker_apprentice,crafts,lower_class,"
            
EDDES:

            
Wart noch e Schluck — dä. Dü, Addes, gescht bin ich uff-em Messti gsin un hab gedanzt wie e Lumpe
            am Stecke. Dü, ächt mit e're gfitzte Schäftelmachere, waisch aani vun unsere Branche. Die soll mich
            nit gschlüdert han, e Dielewelter nochemol. Un wie der Walzer gschbielt isch worre: « O Susanna, wie
            bist du doch so schön », waisch so mit, so ebbs for 's Herz, mit Schwung 
            
(will's vormachen)
 ah, au! 
            
(Hält sich die Seiten.)

          
",7,bastian-dr-maischter-hett-gewunne,101,9,0.0891089108910891,0.4403616054940782,1.1058146122773658,1.1947747727808902,0.5174699827890489,1.061442382146854,0.7278792785434354,0.24230200810786168,0.6284947811268703,0.4058658791666776,0.6144773086013917,1.0266866523697282
comedy,Eddes,M,shoemaker_apprentice,crafts,lower_class,"
            
EDDES:

            
Un wie mir so im siewete Himmel erumbamble, stellt mir so e Canaille d'r Fuess, mir burzle anne,
            ich schlaa d'r Schmecker uff d'r Bodde, dass ich d'r Himmel for e Laischte angsehne hab.

          
",8,bastian-dr-maischter-hett-gewunne,41,6,0.1463414634146341,0.4403616054940782,1.1058146122773658,1.746101180963717,0.5174699827890489,1.8206271119443236,0.7278792785434354,1.057237543982051,0.7168741535097777,0.4058658791666776,1.0383587089361561,2.020186890992996
comedy,Addes,M,shoemaker_apprentice,crafts,lower_class,"
            
ADDES:

            
Haha, gelunge. Do hesch awer gelinzt, hä?

          
",8,bastian-dr-maischter-hett-gewunne,13,1,0.0769230769230769,0.4403616054940782,1.1058146122773658,1.746101180963717,0.5174699827890489,1.8206271119443236,0.7278792785434354,1.057237543982051,0.7168741535097777,0.4058658791666776,1.0383587089361561,2.020186890992996
comedy,Eddes,M,shoemaker_apprentice,crafts,lower_class,"
            
EDDES:

            
Un uewerdäm plumpse noch drej Päärle uff uns. D'r Seilschbanner wo grad kummt mit e me
            laidsmässige Schbrenzelhafe, wurd au mitgerisse, un in dem Moment bruehlt mini Dülcine Mordio, un der
            Schbrenzelhafe fallt e're mit-em Spitze direkt in's Müül; sie fangt aan ze gurigle un wär fascht
            versoffe, wenn sie ken so gueter Zugg hätt ghett.

          
",9,bastian-dr-maischter-hett-gewunne,66,5,0.0757575757575757,0.4403616054940782,1.0170810073135113,1.6596734568060316,0.5417602002416463,1.7523805453070307,0.6450872697613426,1.0193178119771167,0.7168741535097777,0.4058658791666776,0.9170153756040651,1.9276836571620184
comedy,Eddes,M,shoemaker_apprentice,crafts,lower_class,"
            
EDDES:

            
Annoch! Wie der Klumpe luefti isch worre, hab ich mini Dänzere uff d' Baan gschtellt wie e
            Holzbubb, un üewerdem verliert sie e paar falschi Locke. Ich muess halt lache wie verruckt un wie ich
            ihri wiss Blouse: betracht, muess ich noch meh lache.

          
",10,bastian-dr-maischter-hett-gewunne,53,9,0.1698113207547169,0.10947941492034441,0.4225225188909376,1.4954037775578792,0.20441525171720382,1.786167045377471,0.017488889003760062,1.4037656649875352,0.08943814803248679,0.14266961353000882,0.9078903566387687,2.1416779012402447
comedy,Addes,M,shoemaker_apprentice,crafts,lower_class,"
            
ADDES:

            
Worum? — Pfüi isch der bout räs. 
            
(Wirft die Zigarette fort.)

          
",10,bastian-dr-maischter-hett-gewunne,18,1,0.0555555555555555,0.053291707695498236,0.19020889261848997,1.7755697007956428,1.1981324769924027,1.784146651802144,0.0,1.3152134449485982,0.08837937238290736,0.10313696881816133,0.7797877582815644,2.058781424521062
comedy,Eddes,M,shoemaker_apprentice,crafts,lower_class,"
            
EDDES:

            
Ei ihri Blouse isch rot gedüepfelt gsin, vun minere bluetige Nas, un wie ich so lach, bekumm ich
            vun dere Jumpfer aani an de Backe, dass mir d' Scharnierle krache. Aa so, saa ich: Dü cheval de
            carosse, un hab e're e feschti in 's Gnick g'schlawe. No hättsch awer sotte sehne 
            
(markierend)
 Sechs Händ gschbier ich am Hals, es räjt Füschte- 
            
paschtete, Tritt, Tüer uff — üewer d' Stross gflöüje saa ich dir, mit-em. Kopf zwische
            zwai Gartelatte nyngfahre, isch eins gsin, un als uff mich los gebengelt; ich hab e Fackelzugg im
            Schwarzwald gsehne. — O mini Ribbe, un, un — der do hinte duet mer so weh. Mim Lebdesdaa geh ich uff
            kene Danz meh.

          
",11,bastian-dr-maischter-hett-gewunne,145,14,0.096551724137931,0.11283436356844034,0.3042055642382242,1.8598872543297347,1.2298676342423867,1.806659239482079,0.0396249226942405,0.9630559699590693,0.052723735085050336,0.13644801264215217,0.5132221524137274,1.9029307461219152
comedy,Eddes,M,shoemaker_apprentice,crafts,lower_class,"
            
EDDES:

            
Zipfel, was lachsch so dumm?

          
",12,bastian-dr-maischter-hett-gewunne,9,1,0.1111111111111111,0.11283436356844034,0.3042055642382242,1.8598872543297347,1.2298676342423867,1.806659239482079,0.0396249226942405,0.9630559699590693,0.052723735085050336,0.13644801264215217,0.5132221524137274,1.9029307461219152
comedy,Addes,M,shoemaker_apprentice,crafts,lower_class,"
            
ADDES:

            
Bie so e're Fuehr hielt mer nit.

          
",12,bastian-dr-maischter-hett-gewunne,10,1,0.1,0.11283436356844034,0.3042055642382242,2.165695235167232,1.0933634544735642,2.081870441852792,0.0396249226942405,0.847225913895079,0.052723735085050336,0.13644801264215217,1.0573230233519106,2.1670044128317563
comedy,Eddes,M,shoemaker_apprentice,crafts,lower_class,"
            
EDDES:

            
Dü üewerzweriger Stuehlhooger, ich find nix lächerlichs d'rbie.

          
",13,bastian-dr-maischter-hett-gewunne,13,2,0.1538461538461538,0.396906445654838,0.11399667161973422,2.284504542652968,1.396776954938208,2.030451092391477,0.40531359164014696,0.46277806088466045,0.052723735085050336,0.03331104382399084,0.8398366933110392,1.7061545195460415
comedy,Addes,M,shoemaker_apprentice,crafts,lower_class,"
            
ADDES:

            
Dich han sie doppelt gsohlt, gerüeschtert un vorgschueht in aam Düür. Jaja, Eddes, « die Liebe,
            die Liebe hat manches schon getan ». Haha.

          
",13,bastian-dr-maischter-hett-gewunne,33,2,0.0606060606060606,0.396906445654838,0.11399667161973422,1.7444748490061357,0.36820598632927437,1.774206404053512,0.40531359164014696,0.46277806088466045,0.052723735085050336,0.03331104382399084,0.8398366933110392,1.5193593261781793
comedy,Addes,M,shoemaker_apprentice,crafts,lower_class,"
            
ADDES:

            
Geh, mit dir nämm ich's noch uff.

          
",14,bastian-dr-maischter-hett-gewunne,12,1,0.0833333333333333,0.3373637897818959,0.0,1.5757509487537482,0.33647082907929027,1.6881246883497965,0.3656886689459064,0.5791502803199512,0.0,0.0,0.682520898844112,1.4376755797537755
comedy,Eddes,M,shoemaker_apprentice,crafts,lower_class,"
            
EDDES:

            
Was, dü Häriseel. Dich pack ich wie e Pfund Lumpe.

          
",15,bastian-dr-maischter-hett-gewunne,15,1,0.0666666666666666,0.9133156359994711,0.0,1.9792764626317585,0.33647082907929027,2.2185751413110975,0.3656886689459064,0.5791502803199512,0.0,0.0,0.682520898844112,2.1201964785978875
comedy,Addes,M,shoemaker_apprentice,crafts,lower_class,"
            
ADDES

            
(steht auf):

            
Kumm here, kumm, box, caune, chauson. 
            
(Packt ihn.)

          
",15,bastian-dr-maischter-hett-gewunne,22,3,0.1363636363636363,1.046506934029717,0.0,1.5931135853303942,0.33647082907929027,1.7473662991432313,0.3656886689459064,0.5791502803199512,0.0,0.0,0.0,1.6521086126845794
comedy,Eddes,M,shoemaker_apprentice,crafts,lower_class,"
            
EDDES:

            
Au, halt!

          
",16,bastian-dr-maischter-hett-gewunne,6,1,0.1666666666666666,1.1887685135073052,0.0,1.5644155548135772,0.29751595753182136,1.8117100318533954,0.0,0.5791502803199512,0.0,0.0,0.0,1.9182250740740767
comedy,Addes,M,shoemaker_apprentice,crafts,lower_class,"
            
ADDES:

            
Gell Männel! Was Güxels, was hesch, haha, het der Mensch e Kisse hinte angebunde. Aha, ich versteh
            — es isch wäje dere Glanzwichs.

          
",16,bastian-dr-maischter-hett-gewunne,32,1,0.03125,1.1887685135073052,0.0,1.5644155548135772,0.29751595753182136,1.8117100318533954,0.0,0.5791502803199512,0.0,0.0,0.0,1.9182250740740767
comedy,Addes,M,shoemaker_apprentice,crafts,lower_class,"
            
ADDES:

            
Bscht! Es kummt ebber. 
            
(Beide arbeiten schnell weiter.)

          
",17,bastian-dr-maischter-hett-gewunne,15,2,0.1333333333333333,1.1887685135073052,0.0,1.0974954933490462,0.29751595753182136,1.1160944300797062,0.0,0.0,0.0,0.0,0.0,1.1622592602743598
comedy,Schakob,M,farmer,agriculture,lower_class,"
            
SCHAKOB:

            
Buschur biesamme. Schaköbel wie sööt mer?

          
",18,bastian-dr-maischter-hett-gewunne,10,2,0.2,0.6128166672897302,0.0,0.9512799102391233,0.29751595753182136,0.8937461068016678,0.0,0.305311349523088,0.0,0.0,0.0,0.994358222966422
comedy,Schaköbel,M,,,,"
            
SCHAKOEBEL:

            
Buschur ihr Härre.

          
",18,bastian-dr-maischter-hett-gewunne,6,2,0.3333333333333333,0.4796253692594842,0.0,0.9703404845865269,0.29751595753182136,0.9981858567078076,0.0,0.610622699046176,0.0,0.0,0.0,1.3586317728656778
comedy,Eddes,M,shoemaker_apprentice,crafts,lower_class,"
            
EDDES:

            
Brüche mir e Maischter wenn mir gsund sin?

          
",20,bastian-dr-maischter-hett-gewunne,11,2,0.1818181818181818,0.0,0.0,0.5146198615361739,0.0,0.616204259366525,0.0,0.610622699046176,0.0,0.0,0.0,1.0292397230723478
comedy,Schakob,M,farmer,agriculture,lower_class,"
            
SCHAKOB:

            
Do hab ech miner Bueä. D' Miaädder isch om Zischdi schun dogewänn. Er will pardü
            Schuehmachermäischter wäre.

          
",20,bastian-dr-maischter-hett-gewunne,22,1,0.0454545454545454,0.0,0.0,1.0960549311388263,0.0,1.434748743210128,0.0,0.610622699046176,0.0,0.0,0.8705134972976657,1.888331685064088
comedy,Eddes,M,shoemaker_apprentice,crafts,lower_class,"
            
EDDES:

            
Soso! Na, diss kan'r bie uns wäre. Wie haisch denn Männel?

          
",21,bastian-dr-maischter-hett-gewunne,17,1,0.0588235294117647,0.0,0.0,1.0960549311388263,0.0,1.434748743210128,0.0,0.610622699046176,0.0,0.0,0.8705134972976657,1.888331685064088
comedy,Eddes,M,shoemaker_apprentice,crafts,lower_class,"
            
EDDES:

            
So isch erächt. Nume nit verschrocke.

          
",22,bastian-dr-maischter-hett-gewunne,10,1,0.1,0.0,0.0,0.8387450003707393,0.0,1.1266466135268656,0.0,0.305311349523088,0.0,0.0,0.8705134972976657,1.373711823527914
comedy,Addes,M,shoemaker_apprentice,crafts,lower_class,"
            
ADDES:

            
Mer sieht's-em aan, dass'r e gscheider Vadder het.

          
",23,bastian-dr-maischter-hett-gewunne,14,1,0.0714285714285714,0.0,0.0,0.9306943656286194,0.0,1.622273728547744,0.0,0.0,0.0,0.0,1.4648036037371894,1.672917899266531
comedy,Schakob,M,farmer,agriculture,lower_class,"
            
SCHAKOB:

            
Diss will ich määne. Ech bin in d'r Schuel allewiel in d'r erschte Bank gsässe.

          
",23,bastian-dr-maischter-hett-gewunne,19,2,0.1052631578947368,0.0,0.0,0.9306943656286194,0.0,1.622273728547744,0.0,0.0,0.0,0.0,1.4648036037371894,1.672917899266531
comedy,Schakob,M,farmer,agriculture,lower_class,"
            
SCHAKOB:

            
Zäll will ich määne.

          
",25,bastian-dr-maischter-hett-gewunne,7,1,0.1428571428571428,0.0,0.0,0.94000688759713,0.0,1.3399763613435156,0.8046562175846373,0.0,0.0,0.0,0.5942901064395237,1.3096106328202024
comedy,Eddes,M,shoemaker_apprentice,crafts,lower_class,"
            
EDDES:

            
Vadder Schakob, Ihr könne Euch druff verlonn, Euerer Schaköbel wurd e Schuehküenschtler Nummer
            pfiff.

          
",26,bastian-dr-maischter-hett-gewunne,19,3,0.1578947368421052,0.0,0.0,1.0564266529391189,0.0,1.6078861095782293,0.8046562175846373,0.0,0.0,0.0,0.7923868085860317,1.5808859452451327
comedy,Eddes,M,shoemaker_apprentice,crafts,lower_class,"
            
EDDES:

            
's wurd bsorjt, ken Angscht. Un wisse n'r, dass d'r Schaköbel besser lehrt, schicke als ebbs vun
            e're Söüi — e Schambingel, odder e Köjelhupf, verstehn'r?

          
",27,bastian-dr-maischter-hett-gewunne,35,2,0.0571428571428571,0.0,0.0,1.0564266529391189,0.0,1.6078861095782293,0.8046562175846373,0.0,0.0,0.0,0.7923868085860317,1.5808859452451327
comedy,Eddes,M,shoemaker_apprentice,crafts,lower_class,"
            
EDDES:

            
Ich garantier Euch d'rfor, er wurd guet. — Noch ebbs. Sehn'r, so e Ding wie ich aan hab, muehn'r
            im Schaköbel kaufe. Wisse n'r, es isch wäje de Kräjenaue. 
            
(Stiehlt Aepfel aus dem Korb.)

          
",28,bastian-dr-maischter-hett-gewunne,48,2,0.0416666666666666,0.0,0.0,0.7071673569131518,0.0,0.8041568648740884,0.8046562175846373,0.0,0.0,0.0,0.19809670214650793,0.7670600079703418
comedy,Schakob,M,farmer,agriculture,lower_class,"
            
SCHAKOB:

            
Stille! Was galt so e Sitz?

          
",29,bastian-dr-maischter-hett-gewunne,10,1,0.1,0.0,0.0,0.7071673569131519,0.0,0.8041568648740884,0.8046562175846373,0.0,0.0,0.0,0.19809670214650793,0.7670600079703418
comedy,Schakob,M,farmer,agriculture,lower_class,"
            
SCHAKOB:

            
Sei nit so vorwitzig. Was galt so e Sitz?

          
",30,bastian-dr-maischter-hett-gewunne,13,1,0.0769230769230769,0.0,0.0,0.11641976534198901,0.0,0.2679097482347137,0.0,0.0,0.0,0.0,0.19809670214650793,0.2712753124249303
comedy,Eddes,M,shoemaker_apprentice,crafts,lower_class,"
            
EDDES:

            
Ho, 's isch unterschiedlich. Der kummt direkt vun Paris. Awer wil Ihr's sin, na zwanzig
            Franke.

          
",31,bastian-dr-maischter-hett-gewunne,24,1,0.0416666666666666,0.0,0.6178610242167751,0.3659127010853046,0.0,0.7022907520142179,0.0,0.0,0.0,0.0,0.0,0.6871378200237765
comedy,Schakob,M,farmer,agriculture,lower_class,"
            
SCHAKOB:

            
Könne Ihr's nit billiger gänn?

          
",31,bastian-dr-maischter-hett-gewunne,9,1,0.1111111111111111,0.0,1.1135867296930249,0.8199799652864135,0.0,1.4726046293320458,0.0,0.0,0.0,0.0,0.5866829780488565,1.323146132678132
comedy,Eddes,M,shoemaker_apprentice,crafts,lower_class,"
            
EDDES:

            
Leider nit min Liewer. Prix fixe!

          
",32,bastian-dr-maischter-hett-gewunne,10,2,0.2,0.22872834481666776,1.1135867296930249,1.088762413209801,0.33204622432921965,1.6152297879249395,0.309925684726563,0.0,0.44590283184900387,0.0,0.5866829780488565,1.3903881349073957
comedy,Schakob,M,farmer,agriculture,lower_class,"
            
SCHAKOB:

            
Ech mään d'r Schaköbel bringt's ellään ferdig mit sim Sitzlädder. Ja, ech will jetz gehn. Sei
            brov, Schaköbel, am nächschte Friddi kumm ech widder.

          
",32,bastian-dr-maischter-hett-gewunne,33,3,0.0909090909090909,0.22872834481666776,1.1135867296930249,1.2555407638261147,0.33204622432921965,1.7293638112809706,0.309925684726563,0.18964807130492425,0.44590283184900387,0.0,0.5866829780488565,1.5810736642948648
comedy,Schaköbel,M,,,,"
            
SCHAKOEBEL

            
(weinend):

            
Jo Vodder, d' Mieäder sell ö mitkumme, galle.

          
",33,bastian-dr-maischter-hett-gewunne,16,2,0.125,0.22872834481666776,1.1135867296930249,1.667448113303965,0.33204622432921965,1.8299458384790501,0.309925684726563,0.18964807130492425,0.9823403102387619,0.0,0.5866829780488565,1.630167272808213
comedy,Schakob,M,farmer,agriculture,lower_class,"
            
SCHAKOB:

            
Jo dänn. Adje Schaköbel. Adje Ihr Harre. 
            
(Mitteltüre ab.)

          
",33,bastian-dr-maischter-hett-gewunne,17,3,0.1764705882352941,0.22872834481666776,0.4957257054762497,2.1080229849251078,0.33204622432921965,1.91932582347115,0.309925684726563,0.18964807130492425,1.648087934495465,0.0,0.5866829780488565,1.2284300280743772
comedy,Eddes,M,shoemaker_apprentice,crafts,lower_class,"
            
EDDES:

            
Was hesch ze suttere? Diner Vadder geht zue d'r Mieädder. — Dü, Addes, er het nit angebisse.

          
",34,bastian-dr-maischter-hett-gewunne,24,2,0.0833333333333333,0.22872834481666776,0.0,1.828585368736982,0.33204622432921965,1.5508765685053927,0.309925684726563,0.18964807130492425,1.648087934495465,0.0,0.29714505321976187,0.9993346840574173
comedy,Addes,M,shoemaker_apprentice,crafts,lower_class,"
            
ADDES:

            
Schad! Der Büür schient nit vun Dummkirich ze sin. Awer sini Aepfel han mer-em geraant.

          
",34,bastian-dr-maischter-hett-gewunne,20,1,0.05,0.0,0.0,1.5598029208135944,0.0,1.4082514099124992,0.0,0.18964807130492425,1.2021851026464614,0.0,0.29714505321976187,0.9320926818281535
comedy,Eddes,M,shoemaker_apprentice,crafts,lower_class,"
            
EDDES:

            
Schaköbel, setz dich do here un klopf mer diss Rossledder waich. Siehsch so wurd's gemacht. —
            Kannsch au Kartes spiele?

          
",35,bastian-dr-maischter-hett-gewunne,27,4,0.1481481481481481,0.21705414189954375,0.0,1.5749980081001689,0.0,1.4441419695430988,0.15103990243380225,0.0,1.3390445582285972,0.16812182104513942,0.29714505321976187,0.831818705206668
comedy,Addes,M,shoemaker_apprentice,crafts,lower_class,"
            
ADDES:

            
Ha, saftigi Renette. — Schaköbel, klopf, klopf! 
            
(Macht sich sachte an Eddes heran, und stiehlt ihm vorsichtig einen Apfel aus der
            Tasche.).
 Saftigi Renette.

          
",36,bastian-dr-maischter-hett-gewunne,37,6,0.1621621621621621,0.7958651869649938,0.093597164198213,1.8267723827938198,0.0,1.99689821037028,0.6098914471038233,0.0,1.1675656280578677,0.6164466771655113,0.5034836503229416,1.2527347352603293
comedy,Eddes,M,shoemaker_apprentice,crafts,lower_class,"
            
EDDES:

            
Werum lachsch denn so dumm? 
            
(Erwischt die Hand Addes.)
 Ei gück do, der Apfeldieb. Addes, gib denne Apfel her. Ich
            saa dir's in Güetem.

          
",37,bastian-dr-maischter-hett-gewunne,36,1,0.0277777777777777,0.7958651869649938,0.093597164198213,1.0202848100873723,0.0,1.2052274733639619,0.6098914471038233,0.0,0.5018180038011644,0.6164466771655113,0.5034836503229416,0.9673341599703889
comedy,Eddes,M,shoemaker_apprentice,crafts,lower_class,"
            
EDDES:

            
Na wart, dich box ich zamme, das dir Höre un Sehn vergeht. 
            
(Schlüpft mit den Händen in ein Paar alte Schuhe.)

          
",38,bastian-dr-maischter-hett-gewunne,29,5,0.1724137931034483,0.8757799657831413,0.35961832551617234,1.261730133665245,0.0,1.3074518519372211,0.6413714473105914,0.09435552075248425,0.5018180038011644,0.6494895142619771,0.31283476801543786,1.1002981805703658
comedy,Addes,M,shoemaker_apprentice,crafts,lower_class,"
            
ADDES:

            
Ah, dü witt mich zammeboxe! 
            
(Macht dasselbe wie Eddes.)
 Kumm here, ich bin gerüescht.

          
",39,bastian-dr-maischter-hett-gewunne,23,2,0.0869565217391304,0.8757799657831413,0.35961832551617234,1.5469624242661177,0.0,1.73570716102832,0.6413714473105914,0.09435552075248425,0.5018180038011644,0.6494895142619771,0.6183233108866302,1.4148953702045493
comedy,Eddes,M,shoemaker_apprentice,crafts,lower_class,"
            
EDDES:

            
Schaköbel bass uff, do kannsch ebbs lehre. Wenn d'r Addes bluetig uff-em Bodde lejt, no zählsch
            langsam bis uff zehn, un wenn'r nimmi uffsteht, ischr knock-out.

          
",39,bastian-dr-maischter-hett-gewunne,34,4,0.1176470588235294,0.8484285637587344,0.35961832551617234,2.0786382864329673,0.19141588678304872,2.410354384805716,0.6954723596351595,0.6735058010724354,0.5714248752509372,0.48136769321683764,0.6183233108866302,2.102002825873309
comedy,Schaköbel,M,,,,"
            
SCHAKOEBEL:

            
Ja isch'r derno füddi?

          
",40,bastian-dr-maischter-hett-gewunne,7,1,0.1428571428571428,0.2696175186932844,0.26602116131795933,1.9152916141104064,0.19141588678304872,2.0994181868485486,0.23662081496513845,1.2424500149872082,0.20646632703190854,0.03304283709646582,0.4119847137834503,2.2040497754687065
comedy,Eddes,M,shoemaker_apprentice,crafts,lower_class,"
            
EDDES:

            
Numme halwer. Er hat 's Nasebaan gebroche, sechs Zähn fehle n'em, un het e verheiti Kinnlad.

          
",40,bastian-dr-maischter-hett-gewunne,23,2,0.0869565217391304,0.2696175186932844,0.26602116131795933,2.246329642514652,0.19141588678304872,2.3521224801278158,0.23662081496513845,1.2424500149872082,0.581698082748631,0.03304283709646582,0.4119847137834503,2.3361631932696025
comedy,Addes,M,shoemaker_apprentice,crafts,lower_class,"
            
ADDES:

            
Kumm numme her dü Grossmüül, dich will ich kinnlade. 
            
(Beide beginnen einen kurzen Boxkampf.)

          
",41,bastian-dr-maischter-hett-gewunne,21,2,0.0952380952380952,0.1897027398751368,0.0,1.8302546709237961,0.19141588678304872,1.8480334792024862,0.20514081475837034,1.148094494234724,0.581698082748631,0.0,0.30548854287119226,1.79628620403223
comedy,Eddes,M,shoemaker_apprentice,crafts,lower_class,"
            
EDDES:

            
Un die saftig Renette schlucksch. Bing! 
            
(Es klopft heftig.) (Beide springen hastig an die Arbeit und pfeifen: « Guter Mond du gehst so
            stille ».)

          
",43,bastian-dr-maischter-hett-gewunne,36,5,0.1388888888888889,0.1897027398751368,0.0,1.7406342948057614,0.19141588678304872,1.5645061167592424,0.20514081475837034,1.148094494234724,0.581698082748631,0.16835515504821424,0.0,1.5793869570454862
comedy,Mirliton,M,,,,"
            
MIRLITON:

            
Bonjour Messieurs, 
            
(Kleine Pause.)

          
",44,bastian-dr-maischter-hett-gewunne,10,2,0.2,0.0,0.0,1.0269849947360241,0.0,0.7398343099952156,0.0,0.5689442139147728,0.3752317557167224,0.16835515504821424,0.0,0.8018679486107425
comedy,Addes,M,shoemaker_apprentice,crafts,lower_class,"
            
ADDES:

            
Loss 'ne stehn.

          
",45,bastian-dr-maischter-hett-gewunne,6,1,0.1666666666666666,0.3841738982692321,0.7847673810410634,1.0565289682166699,0.37040227713908935,0.7327029539491156,0.6275983807575825,0.0,1.0026677611940134,0.5346883895030443,0.2266113490061677,0.5399425980596565
comedy,Eddes,M,shoemaker_apprentice,crafts,lower_class,"
            
EDDES:

            
A, bonjour im Herre. Mit was könnt mer Ihne diene? MIRLITON 
            
(stellt sich vor):
 Xavier Mirliton, rentier. Ich hab g'hört, dass bie Ihne elegant
            gschafft wurd.

          
",46,bastian-dr-maischter-hett-gewunne,38,2,0.0526315789473684,0.3841738982692321,0.7847673810410634,0.7254909398124243,0.37040227713908935,0.4799986606698484,0.6275983807575825,0.0,0.6274360054772908,0.5346883895030443,0.2266113490061677,0.4078291802587607
comedy,Eddes,M,shoemaker_apprentice,crafts,lower_class,"
            
EDDES:

            
Hors concour, Monsieur. Sechs goldigi Medaille.

          
",46,bastian-dr-maischter-hett-gewunne,11,1,0.0909090909090909,0.3841738982692321,0.7847673810410634,0.7254909398124243,0.37040227713908935,0.4799986606698484,0.6275983807575825,0.0,0.6274360054772908,0.5346883895030443,0.2266113490061677,0.4078291802587607
comedy,Eddes,M,shoemaker_apprentice,crafts,lower_class,"
            
EDDES:

            
Schaköbel, lang e Stuehl here. Hucke Sie do anne, Monsieur Dürlüdü. Ich will 'ne glich 's Mess
            näme, Schaköbel, hol zell Büechel uff d'r Werikbank, dass d' ebbs lehrsch, un zeihj dem Herr d'r
            Bodin üss, awer sachte. Schick dich e bissele, leste.

          
",48,bastian-dr-maischter-hett-gewunne,57,5,0.087719298245614,0.3935044325462055,0.7847673810410634,0.673406740046782,0.39348307245581315,0.5514277071110966,0.6449089772451253,0.11583005606399024,0.6274360054772908,0.36633323445483007,0.2266113490061677,0.5323726071026658
comedy,Schaköbel,M,,,,"
            
SCHAKOEBEL:

            
Eju dann. 
            
(Hält den Fuss hoch.)

          
",49,bastian-dr-maischter-hett-gewunne,12,2,0.1666666666666666,0.9738394059946177,0.7847673810410634,1.2764911539132562,0.5503249174576188,1.1287972572800822,0.9161212291542329,0.11583005606399024,0.6274360054772908,0.7219625449051831,0.2266113490061677,1.0123977364684162
comedy,Mirliton,M,,,,"
            
MIRLITON:

            
Gänn Sie doch acht jeune homme, ich bin arig dificile.

          
",49,bastian-dr-maischter-hett-gewunne,14,1,0.0714285714285714,0.5896655077253857,0.4957257054762497,1.2006793927847788,0.1799226403185295,1.5638404205759169,0.2885228483966504,0.11583005606399024,0.0,0.35562931045035306,0.5866829780488565,1.3382748115114502
comedy,Eddes,M,shoemaker_apprentice,crafts,lower_class,"
            
EDDES:

            
Dü maansch glab hebsch e 'n Ochs am Hinterfüess, dü Dollweck.

          
",50,bastian-dr-maischter-hett-gewunne,15,1,0.0666666666666666,0.5896655077253857,0.4957257054762497,1.2006793927847788,0.1799226403185295,1.5638404205759169,0.2885228483966504,0.11583005606399024,0.0,0.35562931045035306,0.5866829780488565,1.3382748115114502
comedy,Eddes,M,shoemaker_apprentice,crafts,lower_class,"
            
EDDES

            
(fasst Schaköbel an den Ohren):

            
Pack dich. Denne Dirmel kann mer for nix brüche. 
            
(Zieht den Schuh aus.)
 Hesch 's Büechel? Schrieb uff was ich dir saa, 
            
(Nimmt Mass mit Bendelmeter.)
 O was han Sie e nätts Füessel, Monsieur, grad wie e
            Hewammehändel. Schaköbel schrieb: 45 — un 30 üewer d'r Reje, un 25 — un 12 — un 10 — halt nit 10 —
            13. So, Monsieur, 's isch g'schehne.

          
",51,bastian-dr-maischter-hett-gewunne,93,5,0.053763440860215,0.6855905815772826,0.4957257054762497,1.479910615939034,0.23942583182489377,1.9354830361461572,0.2885228483966504,0.2316601121279805,0.0,0.35562931045035306,0.7251030059547852,1.7228310607568964
comedy,Mirliton,M,,,,"
            
MIRLITON:

            
Wenn kann ich uff d' Lifferung zähle?

          
",51,bastian-dr-maischter-hett-gewunne,10,3,0.3,0.6762600473003092,0.4957257054762497,1.4920229217100154,0.21634503650817,1.9511979103149504,0.2712122519091076,0.30888014950397397,0.0,0.35562931045035306,0.7251030059547852,1.7525782958654574
comedy,Eddes,M,shoemaker_apprentice,crafts,lower_class,"
            
EDDES:

            
So ball wie möjlich. Schaköbel, helf dem Herr d'r Schueh anduehn.

          
",52,bastian-dr-maischter-hett-gewunne,16,2,0.125,0.11925140954433042,0.4957257054762497,1.0142977639042647,0.11720517979817369,1.5664130419818787,0.043276491218857085,0.30888014950397397,0.0,0.0,0.7251030059547852,1.4501736833282095
comedy,Mirliton,M,,,,"
            
MIRLITON:

            
Merci, 's geht besser ellaan. Eh bien, in acht Daa denk ich.

          
",52,bastian-dr-maischter-hett-gewunne,18,1,0.0555555555555555,0.11925140954433042,0.0,0.5602304997031561,0.11720517979817369,0.7960991646640505,0.043276491218857085,0.30888014950397397,0.0,0.0,0.1384200279059287,0.8141653706738541
comedy,Eddes,M,shoemaker_apprentice,crafts,lower_class,"
            
EDDES:

            
Schaköbel, diss Büechel here. — Wie, ja — dich solle d' Ente vertrette, dü hesch jo gar nix
            gschriewe! Hab ich dir nit gsaat dü — e fitzekapores! Ja kannsch denn dü nit schriewe?

          
",55,bastian-dr-maischter-hett-gewunne,43,3,0.0697674418604651,0.11925140954433042,0.0,1.2273439021684098,0.11720517979817369,1.252635258088175,0.043276491218857085,1.067472434723671,0.0,0.0,0.1384200279059287,1.5769074882237306
comedy,Addes,M,shoemaker_apprentice,crafts,lower_class,"
            
ADDES:

            
Haha, der isch sicher d' Schuld, dass d' Frösch ken Wäddel han.

          
",57,bastian-dr-maischter-hett-gewunne,17,2,0.1176470588235294,0.0233263356924336,0.0,0.9481126790141545,0.05770198829180943,0.8809926425179345,0.043276491218857085,0.9516423786596807,0.0,0.0,0.0,1.1923512389782847
comedy,Eddes,M,shoemaker_apprentice,crafts,lower_class,"
            
EDDES:

            
Witt dü schnell dem Herrn noochlaufe! Saasch er het ebbs vergesse. — Dü lauf'sch noch nit. — Bisch
            noch nit drüsse? Zaj Addes, lang mer d'r Knejrieme. Witt dü mache dass...

          
",57,bastian-dr-maischter-hett-gewunne,40,3,0.075,0.0233263356924336,0.0,0.7924726585259776,0.05770198829180943,0.6491207752600382,0.043276491218857085,0.758592285219697,0.0,0.0,0.0,0.9403626343783789
comedy,Schaköbel,M,,,,"
            
SCHAKOEBEL:

            
O liever Harr Schuehmochersgsell, ech, ech — Harr Düderlüdu 
            
(ab Mitteltüre)
 horche, horche!

          
",58,bastian-dr-maischter-hett-gewunne,21,1,0.0476190476190476,0.0,0.0,0.6671134024652539,0.0,0.45653609342412443,0.0,0.7585922852196969,0.0,0.0,0.0,0.7627421175498765
comedy,Eddes,M,shoemaker_apprentice,crafts,lower_class,"
            
EDDES:

            
So e Rejementsdirmel! Wart dü wursch noch dressiert.

          
",58,bastian-dr-maischter-hett-gewunne,12,1,0.0833333333333333,0.0,0.7919435300347362,1.1747748388275525,0.0,1.0117406612133526,0.1574000010338406,0.7585922852196969,0.0,0.16521418548232913,0.5324808545612905,1.3251381408559237
comedy,Addes,M,shoemaker_apprentice,crafts,lower_class,"
            
ADDES:

            
D'r Deifel het alles wölle wäre nume nit Lehrbue.

          
",59,bastian-dr-maischter-hett-gewunne,12,1,0.0833333333333333,0.0,0.7919435300347362,0.5076614363622987,0.0,0.5552045677892281,0.1574000010338406,0.0,0.0,0.16521418548232913,0.5324808545612905,0.5623960233060473
comedy,Eddes,M,shoemaker_apprentice,crafts,lower_class,"
            
EDDES:

            
Drum isch'r au glich Maischter worre. Enfin...

          
",59,bastian-dr-maischter-hett-gewunne,11,1,0.0909090909090909,0.0,0.7919435300347362,0.5076614363622987,0.0,0.5552045677892281,0.1574000010338406,0.0,0.0,0.16521418548232913,0.5324808545612905,0.5623960233060473
comedy,Addes,M,shoemaker_apprentice,crafts,lower_class,"
            
ADDES:

            
Sin ken Bäre. Jetz kummt mer ebbs yn. Han mer nit im Dorel, im Liebschter vun d'r
            Bodinmachermaischtersdoochter, uff hit sini gsohlte Schueh versproche?

          
",60,bastian-dr-maischter-hett-gewunne,31,4,0.1290322580645161,0.0,0.9508990551602727,0.7970321660322156,0.0,0.9345412474950768,0.1574000010338406,0.289972936720073,0.0,0.16521418548232913,0.6986208102009757,1.0029021348071563
comedy,Eddes,M,shoemaker_apprentice,crafts,lower_class,"
            
EDDES:

            
Minsex! Awer jetz kummt mir au ebbs yn, 
            
(Nachdenklich.)
 Ich maan als, ich maan — morje, morje...

          
",60,bastian-dr-maischter-hett-gewunne,27,3,0.1111111111111111,0.0,0.9508990551602727,0.7970321660322156,0.0,0.9345412474950768,0.1574000010338406,0.289972936720073,0.0,0.16521418548232913,0.6986208102009757,1.0029021348071563
comedy,Addes,M,shoemaker_apprentice,crafts,lower_class,"
            
ADDES:

            
Was morje?

          
",61,bastian-dr-maischter-hett-gewunne,5,1,0.2,0.0,0.15895552512553662,0.28937072966991706,0.0,0.3793366797058488,0.0,0.289972936720073,0.0,0.0,0.16613995563968514,0.440506111501109
comedy,Eddes,M,shoemaker_apprentice,crafts,lower_class,"
            
EDDES:

            
Grad rechel ich nooch. 
            
(Springt auf, reisst das Sitzkissen ab.)
 Morje hab ich üssgelehrt, uff d'r Daa. Gsell,
            Gsell! Addes Gsell!

          
",61,bastian-dr-maischter-hett-gewunne,33,3,0.0909090909090909,0.0,0.15895552512553662,0.602849227243558,0.0,0.871413839875822,0.0,0.4830230301600567,0.0,0.0,0.3968400021495663,0.9716358436457424
comedy,Addes,M,shoemaker_apprentice,crafts,lower_class,"
            
ADDES:

            
Was? E Nundebuckel, un diss kummt dir jetz ererscht yn? Dü sollsch blöuj wäre, Was zahlsch? Der
            Gsell wurd yngewaicht.

          
",62,bastian-dr-maischter-hett-gewunne,28,1,0.0357142857142857,1.0704801466081337,0.15895552512553662,1.6087639634587336,0.0,1.5444908569648657,0.0,0.4830230301600567,0.0,0.0,0.3968400021495663,1.2360627252071295
comedy,Eddes,M,shoemaker_apprentice,crafts,lower_class,"
            
EDDES:

            
Gsell! Ich möcht mir fasch d' Hand drucke for Gruenz. Haha, was koscht 's Elsass un noch e paar
            Dörfer? Addes, denne Owe trinke mer küewelswies.

          
",62,bastian-dr-maischter-hett-gewunne,34,1,0.0294117647058823,1.0704801466081337,0.0,1.3193932337888168,0.0,1.165154177259017,0.0,0.19305009343998372,0.0,0.0,0.23070004650988113,0.7955566137060204
comedy,Addes,M,shoemaker_apprentice,crafts,lower_class,"
            
ADDES:

            
Bravo, diss isch e Mannswort. Vive Eddes. Hoch soll'r läwe, drej Käs hoch, vive! 
            
(Beide tanzen und singen):
 Maidele, butz dich, wäsch dich, Strähl dich schön, Derfsch
            mit mir uff d'r Polka gehn. Hopsa Lissele, danz e bissele...

          
",63,bastian-dr-maischter-hett-gewunne,56,10,0.1785714285714285,1.3324723793574174,0.05876204855165866,1.8835813869381048,0.0,1.7334520110615421,0.21696980152728607,0.46668733724156797,0.00095289808462148,0.30356141005271225,0.3357311421515582,1.3928723629734896
comedy,Dorel,M,upholsterer,crafts,lower_middle_class,"
            
DOREL:

            
Was isch denn diss for e Spektakel? Danze die Lüüser gemüetlich e Polonaise à la cordonnier. Isch
            diss amend gschafft? Was mache mini Schueh?

          
",63,bastian-dr-maischter-hett-gewunne,30,3,0.1,1.3324723793574174,0.05876204855165866,1.8835813869381048,0.0,1.7334520110615421,0.21696980152728607,0.46668733724156797,0.00095289808462148,0.30356141005271225,0.3357311421515582,1.3928723629734896
comedy,Eddes,M,shoemaker_apprentice,crafts,lower_class,"
            
EDDES:

            
Herr Dorel, mir sin grad dran.

          
",64,bastian-dr-maischter-hett-gewunne,10,2,0.2,1.355798715049851,0.05876204855165866,1.9322198610533838,0.05770198829180943,1.8242674720955976,0.26024629274614314,0.2736372438015843,0.00095289808462148,0.30356141005271225,0.45108116540649873,1.4580748389744502
comedy,Dorel,M,upholsterer,crafts,lower_middle_class,"
            
DOREL:

            
Ich sieh's. Awer horche, saaue emol, was isch denn mit minere Hochzittere Petronelle, un minere
            zuekuenftige Schwejeres los?

          
",64,bastian-dr-maischter-hett-gewunne,26,2,0.0769230769230769,0.28531856844171727,0.3794419505218179,1.2710925045274308,0.05770198829180943,1.5599192268431736,0.26024629274614314,0.5716840261909557,0.00095289808462148,0.5367387168206481,0.6383073886604178,1.6200682230252532
comedy,Dorel,M,upholsterer,crafts,lower_middle_class,"
            
DOREL:

            
Halt din daub Müül. Treff ich die zwei Wiebszimmer im Magmod aan, un wie sie mich sehne, stelle
            sie d' Nase hoch, un mache so als ob sie mich noch nie gekennt hätte.

          
",65,bastian-dr-maischter-hett-gewunne,40,5,0.125,0.512239758668256,0.49181089664765254,1.5820183928403257,0.11720517979817369,1.9040081662455859,0.36873119350978617,0.5716840261909557,0.00095289808462148,0.6789904410007892,0.6383073886604178,1.956018758480539
comedy,Addes,M,shoemaker_apprentice,crafts,lower_class,"
            
ADDES:

            
Ei, Herr Dorel, Sie könne's jo noch noochhole.

          
",67,bastian-dr-maischter-hett-gewunne,14,1,0.0714285714285714,0.2969001973038395,0.4330488480959939,1.2685487518124856,0.2326091563817926,1.7208796961148884,0.2383143744202143,0.2980467823893715,0.0,0.37542903094807706,0.5332762930187409,1.7139440428700747
comedy,Dorel,M,upholsterer,crafts,lower_middle_class,"
            
DOREL:

            
Wurr ich au, un nit ze knapp.

          
",67,bastian-dr-maischter-hett-gewunne,11,1,0.0909090909090909,0.2969001973038395,0.4330488480959939,1.7059403022922752,0.2326091563817926,2.179554100876545,0.6298658374413101,0.2980467823893715,0.5053049461617811,0.37542903094807706,0.5332762930187409,2.178532139442057
comedy,Eddes,M,shoemaker_apprentice,crafts,lower_class,"
            
EDDES:

            
Awer saftig. Herr Hochzitter, je saftiger, deschto besser.

          
",68,bastian-dr-maischter-hett-gewunne,14,3,0.2142857142857142,0.2891247520730283,0.4330488480959939,1.4273961679771712,0.21337516028452277,1.7250512675631255,0.6154403403683577,0.2980467823893715,0.5053049461617811,0.37542903094807706,0.1872262232539191,1.7006136091821311
comedy,Addes,M,shoemaker_apprentice,crafts,lower_class,"
            
ADDES:

            
Luej do miner Kolleg.

          
",70,bastian-dr-maischter-hett-gewunne,7,1,0.1428571428571428,0.2891247520730283,0.11236894612583463,1.6640438578906003,0.21337516028452277,2.1348669795701087,0.6154403403683577,0.0,0.5053049461617811,0.14225172418014123,0.8705134972976657,2.133285305561681
comedy,Eddes,M,shoemaker_apprentice,crafts,lower_class,"
            
EDDES:

            
Wo bisch denn so lang gschteckt? Ich hab gemaant dü bisch zue dinere Mieädder geloffe. — Wo hesch
            denn 's Mess?

          
",70,bastian-dr-maischter-hett-gewunne,26,3,0.1153846153846153,0.0622035618464896,0.0,1.3531179695777056,0.1538719687781585,1.7907780401676967,0.5069554396047147,0.0,0.5053049461617811,0.0,0.8705134972976657,1.7973347701063953
comedy,Eddes,M,shoemaker_apprentice,crafts,lower_class,"
            
EDDES:

            
Addes, lang d'r Tröschter. Dich will ich messe lehre.

          
",71,bastian-dr-maischter-hett-gewunne,14,4,0.2857142857142857,0.0155508904616224,0.0,1.102399457456258,0.03846799219453964,1.405608676495869,0.42040245716700053,0.0,0.5053049461617811,0.0,0.8705134972976657,1.4420937364493907
comedy,Schaköbel,M,,,,"
            
SCHAKOEBEL:

            
Ojemer, ojemer. Ech will brov sin. 
            
(Drohtspitz hinter der Szene, laut rufend):
 Edwar! Adolph! Diuhe! Diuhu!

          
",72,bastian-dr-maischter-hett-gewunne,29,1,0.0344827586206896,0.0155508904616224,0.0,0.6650079069764683,0.03846799219453964,0.9469342717342123,0.028850994145904717,0.0,0.0,0.0,0.8705134972976657,0.9775056398774085
comedy,Eddes,M,shoemaker_apprentice,crafts,lower_class,"
            
EDDES:

            
E Glüeck fer dich, dass d'r Alt kummt, sunscht hätt's Fetze gänn.

          
",72,bastian-dr-maischter-hett-gewunne,18,2,0.1111111111111111,0.0,0.2478628527381249,1.0712574440189884,2.2204460492503132e-17,1.4899532046121182,0.0,0.0,0.0,0.2616499103436811,1.163854986322094,1.5660335853203786
comedy,Addes,M,shoemaker_apprentice,crafts,lower_class,"
            
ADDES:

            
Ich glaab d'r Maischter het e g'hörige Well.

          
",73,bastian-dr-maischter-hett-gewunne,11,1,0.0909090909090909,0.0,0.2478628527381249,0.4898223744163358,2.2204460492503132e-17,0.6714087207685152,0.0,0.0,0.0,0.2616499103436811,0.29334148902442825,0.7069416233286384
comedy,Drohtspitz,M,master_shoemaker,crafts,lower_middle_class,"
            
DROHTSPITZ:

            
Wenn ich saa, es wurd nimi gschafft, wurd nimmi gschafft. 
            
(Geht stolz hin und her, und pafft):
 Ich hab drei Millione gewunne.

          
",74,bastian-dr-maischter-hett-gewunne,32,3,0.09375,0.15135840390183722,0.2478628527381249,0.6919092629490728,2.2204460492503132e-17,0.7803861933913973,0.17997464830192939,0.0,0.20705783176003104,0.2616499103436811,0.29334148902442825,0.7568872579054277
comedy,Addes,M,shoemaker_apprentice,crafts,lower_class,"
            
ADDES:

            
D'r Maischter het gewunne!

          
",75,bastian-dr-maischter-hett-gewunne,7,2,0.2857142857142857,0.15135840390183722,0.2478628527381249,0.6919092629490728,2.2204460492503132e-17,0.7803861933913973,0.17997464830192939,0.0,0.20705783176003104,0.2616499103436811,0.29334148902442825,0.7568872579054277
comedy,Eddes,M,shoemaker_apprentice,crafts,lower_class,"
            
EDDES:

            
Jo Plän vun Paris.

          
",75,bastian-dr-maischter-hett-gewunne,7,1,0.1428571428571428,0.15135840390183722,0.2478628527381249,0.6919092629490728,2.2204460492503132e-17,0.7803861933913973,0.17997464830192939,0.0,0.20705783176003104,0.2616499103436811,0.29334148902442825,0.7568872579054277
comedy,Drohtspitz,M,master_shoemaker,crafts,lower_middle_class,"
            
DROHTSPITZ:

            
So wohr ich Drohtspitz haiss. Drei Millione! D' Frau un Doochter hab ich unterwäjs angetroffe un
            hab ne die Nuwell bruehjwarm nuewergschtellt. Umarmt han sie mich, verschmutzt wie narrächt; d' Litt
            sin stehn gebliewe, un han Müül un Nas uffgschberrt.

          
",76,bastian-dr-maischter-hett-gewunne,49,4,0.0816326530612244,0.15135840390183722,0.0,0.2020868885327371,2.2204460492503132e-17,0.10897747262288204,0.17997464830192939,0.0,0.20705783176003104,0.0,0.0,0.049945634576789175
comedy,Eddes,M,shoemaker_apprentice,crafts,lower_class,"
            
EDDES:

            
Millione un 's Wetter. Addes, d' Karte her, dass mer e Tournee erüssklopfe, uff denne Stoss.
            Addes, dü gibsch.

          
",77,bastian-dr-maischter-hett-gewunne,28,2,0.0714285714285714,0.47157313509214227,0.0,0.8890294108869797,0.2245134535671421,0.7406162598106742,0.6104417766079965,0.2895751401599756,0.20705783176003104,0.44984640179114554,0.0,0.6101103057535404
comedy,Drohtspitz,M,master_shoemaker,crafts,lower_middle_class,"
            
DROHTSPITZ:

            
Ja ihr Buewe, Numero 128.697 isch e Glückszahl, un die isch uff mich gfalle.

          
",77,bastian-dr-maischter-hett-gewunne,19,3,0.1578947368421052,0.320214731190305,0.0,1.1833588906132249,0.22451345356714209,1.1314054808409986,0.5865289244745161,0.6722733049048836,0.15047390576855565,0.44984640179114554,0.0,1.1793359439685704
comedy,Eddes,M,shoemaker_apprentice,crafts,lower_class,"
            
EDDES:

            
Mäischter, ich gratülier zue dem söuimässige Glück. ADDES 
            
(schüttelt Drohtspitz die Hand):
 Un ich au, dunderwischbel.

          
",78,bastian-dr-maischter-hett-gewunne,25,1,0.04,0.320214731190305,0.0,1.1833588906132249,0.22451345356714209,1.1314054808409986,0.5865289244745161,0.6722733049048836,0.15047390576855565,0.44984640179114554,0.0,1.1793359439685704
comedy,Drohtspitz,M,master_shoemaker,crafts,lower_middle_class,"
            
DROHTSPITZ:

            
Ah dü bisch d'r Schaköbel! — Na, kannsch dich vun dim Vadder widder hole lonn. Saasch bisch do
            gsin. Es wurd nimi gschuehschtert bie mir. Diss isch guet for armi Peches. Furt mit dem Pechstuehl,
            furt mit-em Knibbe, Klopfstaan, Rieme. Alles nüss, nüss. 
            
(Wirft alles durcheinander.)

          
",80,bastian-dr-maischter-hett-gewunne,63,5,0.0793650793650793,0.4771886652095546,0.14258905966791305,1.4293362028305818,0.2918140494788278,1.4693305548992945,0.7642629629146971,0.6722733049048836,0.2644764907181423,0.5164076691016254,0.16003238702415845,1.5276077023978596
comedy,Drohtspitz,M,master_shoemaker,crafts,lower_middle_class,"
            
DROHTSPITZ:

            
Naan, noch nit. Hitt fyre mir e grosses Fescht. Un wenn dü mir nochemol Maischter saasch, zinkier
            ich dir aani, dass dü erumsurrsch wie e Propeller.

          
",81,bastian-dr-maischter-hett-gewunne,34,2,0.0588235294117647,0.4771886652095546,0.14258905966791305,1.7163598506652344,0.2918140494788278,1.9119509428919819,0.7642629629146971,0.6722733049048836,0.2644764907181423,0.5164076691016254,0.4868673024943163,1.9078983266298455
comedy,Eddes,M,shoemaker_apprentice,crafts,lower_class,"
            
EDDES:

            
Schübbe isch Trumpf. Addes, hopp, e Kart odder e Stück Holz.

          
",81,bastian-dr-maischter-hett-gewunne,17,1,0.0588235294117647,0.1569739340192496,0.14258905966791305,1.029417328310992,0.06730059591168568,1.2803121557041899,0.33379583460863005,0.38269816474490803,0.2644764907181423,0.06656126731047976,0.4868673024943163,1.3477336554530943
comedy,Drohtspitz,M,master_shoemaker,crafts,lower_middle_class,"
            
DROHTSPITZ:

            
He, was hab ich gsaat? Do hinne wurd nimmi gschafft. Adolph, hol mir im Schlofzimmer d'r
            Fodell.

          
",82,bastian-dr-maischter-hett-gewunne,24,1,0.0416666666666666,0.1569739340192496,0.14258905966791305,0.5330009600520096,0.06730059591168568,0.7805454620509835,0.17773403844018104,0.0,0.11400258494958662,0.06656126731047976,0.4868673024943163,0.7285623826612749
comedy,Addes,M,shoemaker_apprentice,crafts,lower_class,"
            
ADDES:

            
Ja Maischler — ä Herr Millionär. 
            
(Ab links.)

          
",83,bastian-dr-maischter-hett-gewunne,14,2,0.1428571428571428,0.18030026971168323,0.14258905966791305,0.9085277420372038,0.1250025842034951,1.1443311789209438,0.2210105296590381,0.2844721069573864,0.11400258494958662,0.06656126731047976,0.4868673024943163,1.1922111935709812
comedy,Drohtspitz,M,master_shoemaker,crafts,lower_middle_class,"
            
DROHTSPITZ:

            
Voilà. Diss isch 's richtig Wort.

          
",83,bastian-dr-maischter-hett-gewunne,10,2,0.2,0.0233263356924336,0.0,0.8902086123604501,0.05770198829180943,1.250318237313419,0.043276491218857085,0.48084654101078,0.0,0.0,0.7992112217754247,1.3227590417490156
comedy,Eddes,M,shoemaker_apprentice,crafts,lower_class,"
            
EDDES:

            
Was ich noch saaue will, Maischter, ä Herr von Drohtspitz, vun morje ab bin ich Gsell.

          
",84,bastian-dr-maischter-hett-gewunne,22,3,0.1363636363636363,0.038877226154056,0.0,0.6867578018996131,0.09616998048634906,0.9360876372113409,0.0721274853647618,0.48084654101078,0.0,0.0,0.4723763063052669,1.0608820954026978
comedy,Drohtspitz,M,master_shoemaker,crafts,lower_middle_class,"
            
DROHTSPITZ:

            
Armer Wurm. He, wo bliebt miner Fodell?

          
",84,bastian-dr-maischter-hett-gewunne,12,3,0.25,0.038877226154056,0.08102441079845302,1.0474079337068356,0.09616998048634906,1.2963463697480158,0.0721274853647618,0.48084654101078,0.0,0.021952426571009438,0.7625474720711554,1.3991336364465732
comedy,Addes,M,shoemaker_apprentice,crafts,lower_class,"
            
ADDES:

            
Do isch'r. Ich hab noch schnell e paar Spinnhuddle abgschtaibt. Voilà, Herr.

          
",85,bastian-dr-maischter-hett-gewunne,18,2,0.1111111111111111,0.0622035618464896,0.08102441079845302,1.1727671897675596,0.1538719687781585,1.4889310515839296,0.11540397658361887,0.48084654101078,0.0,0.021952426571009438,0.7625474720711554,1.5767541532750755
comedy,Drohtspitz,M,master_shoemaker,crafts,lower_middle_class,"
            
DROHTSPITZ

            
(setzt sich bequem, Beine übereinander):

            
Merci.

          
",85,bastian-dr-maischter-hett-gewunne,12,1,0.0833333333333333,0.038877226154056,0.08102441079845302,0.7972404077823655,0.09616998048634906,1.125145334713969,0.0721274853647618,0.1963744340533936,0.0,0.021952426571009438,0.7625474720711554,1.1131053423653694
comedy,Addes,M,shoemaker_apprentice,crafts,lower_class,"
            
ADDES:

            
Bie de nächschte Wahle kenn ich aaner wo im Gemaanrot sitzt. No haisst's: Monsieur Drohtspitz
            hinte, un Herr Drohtspitz vorne. Wie geht's, Herr Drohtspitz, alles gsund, was macht d' Madam un d'
            Mamsell Doochter, ça va bien, wie stehn d' Aktie? Do fliehje d' Hüet, bonjour, bonjour, sehn'r n'e
            d'r stolz Stadtvadder? D'r Kirichrot bliebt au nit üss, d'r Armeinspektertitel kummt vun aase.

          
",86,bastian-dr-maischter-hett-gewunne,83,9,0.108433734939759,0.05961174676955252,0.08102441079845302,0.7443976285403775,0.14746063674573523,0.9475874325820322,0.11059547755930141,0.0,0.0,0.021952426571009438,0.3580575086261534,0.8620811261909775
comedy,Eddes,M,shoemaker_apprentice,crafts,lower_class,"
            
EDDES:

            
D'r Herr Drohtspitz verkehrt nume mit vornehme Herrschafte. Par exemple mit-em Préfet, Députés,
            Sénateurs, Minischter.

          
",87,bastian-dr-maischter-hett-gewunne,22,3,0.1363636363636363,0.05961174676955252,0.08102441079845302,0.7443976285403775,0.14746063674573523,0.9475874325820322,0.11059547755930141,0.0,0.0,0.021952426571009438,0.3580575086261534,0.8620811261909775
comedy,Drohtspitz,M,master_shoemaker,crafts,lower_middle_class,"
            
DROHTSPITZ:

            
Wills starik hoffe.

          
",87,bastian-dr-maischter-hett-gewunne,6,2,0.3333333333333333,0.05961174676955252,0.3927488681067872,0.6412910213850885,0.14746063674573523,0.8931969976152763,0.11059547755930141,0.22451345356714209,0.0,0.0,0.3720272346258867,0.8761673948238784
comedy,Drohtspitz,M,master_shoemaker,crafts,lower_middle_class,"
            
DROHTSPITZ:

            
Un nit weni Männel.

          
",88,bastian-dr-maischter-hett-gewunne,7,1,0.1428571428571428,0.036285411077118926,0.3927488681067872,0.5159317653243647,0.08975864845392581,0.7006123157793624,0.06731898634044434,0.22451345356714209,0.0,0.0,0.3720272346258867,0.6985468779953758
comedy,Eddes,M,shoemaker_apprentice,crafts,lower_class,"
            
EDDES:

            
D'r chevalier de la Landwirtschaft isch sicher. Un d' Bankier laufe Ihne nooch, wie d' Mies
            nooch-em Speck.

          
",89,bastian-dr-maischter-hett-gewunne,23,2,0.0869565217391304,0.036285411077118926,0.3927488681067872,0.7656764577536622,0.08975864845392581,1.0189723380929836,0.06731898634044434,0.22451345356714209,0.0,0.0,0.7228669247334741,1.0723288996601048
comedy,Drohtspitz,M,master_shoemaker,crafts,lower_middle_class,"
            
DROHTSPITZ:

            
Wo numme mini Frau bliebt un d' Petronelle? Ah, die kaufe jo yn. No fahre sie im Taxi zuem
            Zahnarzt. Sie wölle sich goldeni Zähn mache lonn.

          
",89,bastian-dr-maischter-hett-gewunne,34,1,0.0294117647058823,0.3645651093661919,1.1056941664463524,1.0722454352588566,0.374970971752968,1.057204772571347,0.5990114335528911,0.22451345356714209,0.5700129247479331,0.33280633655239883,0.8608524105544777,1.1262814680043391
comedy,Addes,M,shoemaker_apprentice,crafts,lower_class,"
            
ADDES:

            
Wenn's grad emol an Muenz fehle dät, könnte die Dame jo e Zahn uff d'r Tisch laje.

          
",90,bastian-dr-maischter-hett-gewunne,22,4,0.1818181818181818,0.3490142189045695,1.1056941664463524,1.2237814710652717,0.3365029795584284,1.2978728548082177,0.5701604394069865,0.36930102364712986,0.5700129247479331,0.33280633655239883,1.0338774454368884,1.4062150892271459
comedy,Drohtspitz,M,master_shoemaker,crafts,lower_middle_class,"
            
DROHTSPITZ

            
(lacht):

            
Kaiwe Bue. E gueter Witz, haha! Dü, Edwar, wie dü morje doch üssgelehrt hesch, defsch mini Cigar
            wittersch rauche.

          
",90,bastian-dr-maischter-hett-gewunne,31,4,0.1290322580645161,0.3490142189045695,0.7129452983395652,1.134601729602266,0.3365029795584284,1.190011193216668,0.5701604394069865,0.2495438750123402,0.5700129247479331,0.33280633655239883,0.9285057978960432,1.29035989755958
comedy,Eddes,M,shoemaker_apprentice,crafts,lower_class,"
            
EDDES:

            
Merci, Herr.

          
",91,bastian-dr-maischter-hett-gewunne,6,1,0.1666666666666666,0.39566689028943675,0.7129452983395652,1.3853202417237136,0.4519069561420473,1.5751805568884953,0.6567134218447006,0.2495438750123402,0.5700129247479331,0.33280633655239883,0.9285057978960432,1.6456009312165851
comedy,Drohtspitz,M,master_shoemaker,crafts,lower_middle_class,"
            
DROHTSPITZ:

            
Un derno kannsch miner ganz Grümbel han, mit zamt d'r Pratik. Sogar 's Todedräjerämtel gib ich dir
            au ab.

          
",91,bastian-dr-maischter-hett-gewunne,24,2,0.0833333333333333,0.39566689028943675,0.7129452983395652,1.6345720762642126,0.4519069561420473,1.9902237919932386,0.6567134218447006,0.44214735272002736,0.5700129247479331,0.33280633655239883,1.0129228564372887,2.0926725886881745
comedy,Eddes,M,shoemaker_apprentice,crafts,lower_class,"
            
EDDES:

            
Merci, Herr. Könnte Sie mir sunscht noch so e bissel, Sie wisse jo wie ich's maan. 
            
(Mimik vom Geldzählen.)

          
",92,bastian-dr-maischter-hett-gewunne,29,1,0.0344827586206896,0.0933053427697344,0.0,1.4039062075818505,0.2308079531672378,2.0708064908678687,0.17310596487542834,0.44214735272002736,0.0,0.0,0.8070510277560203,2.1661656635680133
comedy,Drohtspitz,M,master_shoemaker,crafts,lower_middle_class,"
            
DROHTSPITZ:

            
Aha, dü winksch mit-em Holzschläjel. Na, es kummt mer minsex uff e paar Döusig nit aan.

          
",92,bastian-dr-maischter-hett-gewunne,22,1,0.0454545454545454,0.0933053427697344,0.0,1.6357173958661506,0.2308079531672378,2.3973642225140774,0.17310596487542834,0.8765100629599907,0.0,0.0,0.6340259928736093,2.523784178259255
comedy,Eddes,M,shoemaker_apprentice,crafts,lower_class,"
            
EDDES:

            
Könnt ich's nit schriftlich han? E rächter Gschäftsmann geht hitt am Daa numme uff Schriewes.

          
",93,bastian-dr-maischter-hett-gewunne,20,2,0.1,0.0933053427697344,0.0,1.700813643409488,0.2308079531672378,2.5471653874225533,0.17310596487542834,1.061328898187614,0.0,0.0,0.43525674864883285,2.6652844671499034
comedy,Addes,M,shoemaker_apprentice,crafts,lower_class,"
            
ADDES:

            
Guet gänn.

          
",93,bastian-dr-maischter-hett-gewunne,5,2,0.4,0.0466526713848672,0.2478628527381249,1.6771287633885947,0.1154039765836189,2.5471529624096396,0.08655298243771417,1.061328898187614,0.0,0.0,0.728598237673261,2.6280475898200764
comedy,Drohtspitz,M,master_shoemaker,crafts,lower_middle_class,"
            
DROHTSPITZ:

            
Oho, e Mann, e Wort! Sollsch zehndöusig Liwerle han. Pah! Ja 's Geld macht d'r Mann. Haha!

          
",94,bastian-dr-maischter-hett-gewunne,26,6,0.2307692307692307,0.0466526713848672,0.2478628527381249,1.3565988419272461,0.1154039765836189,2.0135684863663235,0.08655298243771417,0.9635494561323888,0.0,0.0,0.39517100331482563,2.0074024052555535
comedy,Eddes,M,shoemaker_apprentice,crafts,lower_class,"
            
EDDES:

            
Merci, Herr Millionär. 
            
(Umarmt ihn.)
 Ich wurr e moderns Gschäft installiere, wo uff wisseschaftlichem Gebiet
            fundamentiert isch.

          
",94,bastian-dr-maischter-hett-gewunne,26,3,0.1153846153846153,0.0155508904616224,0.2478628527381249,1.3450931876677914,0.03846799219453962,1.9886607778430014,0.028850994145904717,1.1565995495723727,0.0,0.0,0.39517100331482563,2.0225636540841228
comedy,Eddes,M,shoemaker_apprentice,crafts,lower_class,"
            
EDDES:

            
Diss Gschäft wurd in drei Spezialitäte yngedailt.

          
",95,bastian-dr-maischter-hett-gewunne,10,1,0.1,0.0155508904616224,0.2478628527381249,0.8781731262032603,0.03846799219453962,1.2930451760693127,0.028850994145904717,0.5774492692524215,0.0,0.0,0.39517100331482563,1.2665978402844058
comedy,Eddes,M,shoemaker_apprentice,crafts,lower_class,"
            
EDDES:

            
Erschtens in e orthopädischi Abteilung for verkrüppelti Fuess. Zwaitens in e Pantoffelakademie, un
            drittens in e Kinderschueh-Klinik.

          
",96,bastian-dr-maischter-hett-gewunne,22,1,0.0454545454545454,0.0155508904616224,0.2478628527381249,1.121397494011866,0.03846799219453962,1.244250604674682,0.028850994145904717,0.28787412909244586,1.0010306516380307,0.0,0.39517100331482563,0.9974901384036707
comedy,Addes,M,shoemaker_apprentice,crafts,lower_class,"
            
ADDES:

            
Guet gänn. Kohl wittersch.

          
",97,bastian-dr-maischter-hett-gewunne,8,2,0.25,0.0155508904616224,0.2478628527381249,1.121397494011866,0.03846799219453962,1.2442506046746822,0.028850994145904717,0.28787412909244586,1.0010306516380307,0.0,0.39517100331482563,0.9974901384036707
comedy,Eddes,M,shoemaker_apprentice,crafts,lower_class,"
            
EDDES:

            
No schaff ich mir e amerikanischi Maschin aan, wo ich in e're Uesstellung gsehne hab; e Maschin,
            die in kurzer Zitt e Vermöje abwerft.

          
",98,bastian-dr-maischter-hett-gewunne,30,2,0.0666666666666666,0.0155508904616224,0.5567933648465124,1.127035303690652,0.03846799219453962,1.3826004485897712,0.028850994145904717,0.19305009343998375,1.0010306516380307,0.0,0.29334148902442825,1.1269132447042687
comedy,Drohtspitz,M,master_shoemaker,crafts,lower_middle_class,"
            
DROHTSPITZ:

            
Edwar, Edwar, dü machsch jo e Möwelwaaue lache.

          
",98,bastian-dr-maischter-hett-gewunne,13,1,0.0769230769230769,0.0,0.9847633732381148,1.4797833033831644,0.0,1.583318225370499,0.0,0.720220099193454,1.0010306516380307,0.23205817984086297,0.782685731616389,1.6644538301219156
comedy,Eddes,M,shoemaker_apprentice,crafts,lower_class,"
            
EDDES:

            
Dere Maschin wurd vun vorne Rossledder nynspediert, un hinte kumme Bodin in box-calf fix un ferdig
            erüss.

          
",99,bastian-dr-maischter-hett-gewunne,21,1,0.0476190476190476,0.0,1.526899684003402,1.8435592672093413,0.0,1.98567145974793,0.0,0.720220099193454,1.0010306516380307,0.23205817984086297,0.7826857316163891,2.099330760461664
comedy,Addes,M,shoemaker_apprentice,crafts,lower_class,"
            
ADDES:

            
Grossartig!

          
",100,bastian-dr-maischter-hett-gewunne,4,1,0.25,0.0,1.526899684003402,1.36687486866847,0.0,1.6866582302557158,0.0,0.720220099193454,0.0,0.23205817984086297,0.7826857316163891,1.99045555544254
comedy,Drohtspitz,M,master_shoemaker,crafts,lower_middle_class,"
            
DROHTSPITZ:

            
Horich Edwar, als gewöhnlicher Schuehmacher dät ich mich verzüerne. Awer als Millionär bin ich ze
            nowel. Verstehsch, dü Lüüser!

          
",100,bastian-dr-maischter-hett-gewunne,26,1,0.0384615384615384,0.0,1.2790368312652771,1.1398412365679156,0.0,1.301501291596802,0.0,0.720220099193454,0.0,0.23205817984086297,0.4893442425919609,1.672451399115363
comedy,Addes,M,shoemaker_apprentice,crafts,lower_class,"
            
ADDES:

            
Nowel geht d' Welt zegrund. Ja Herr Millionär, was ich fröuje möcht, was mach ich denn?

          
",101,bastian-dr-maischter-hett-gewunne,22,2,0.0909090909090909,0.0233263356924336,0.9701063191568895,1.331263603365876,0.05770198829180943,1.3271183831766247,0.043276491218857085,1.0046922061508403,0.0,0.23205817984086297,0.4893442425919609,1.806468609152675
comedy,Drohtspitz,M,master_shoemaker,crafts,lower_middle_class,"
            
DROHTSPITZ:

            
Dü, dü schnüüfsch dass d' nit verschticksch. Awer halt! Ich schaff mer e Vierspänner aan, mit
            Arawerhengscht, odder englisch Vollbluet, un derno kannsch Kütscher bie mir wäre.

          
",101,bastian-dr-maischter-hett-gewunne,36,1,0.0277777777777777,0.5029517049519179,0.542136310765287,1.1950233688617236,0.3552179458236308,1.148120548588674,0.043276491218857085,0.2844721069573864,0.0,0.0,0.0,1.2279177910427843
comedy,Addes,M,shoemaker_apprentice,crafts,lower_class,"
            
ADDES:

            
Bravo! Diss dät mer basse. 
            
(Holt einen Stuhl, setzt sich in Reitsitz, schnalzt.)
 Allez! Allez César, allez! EDDES 
            
(macht Addes nach):
 Allez Coquette, allez Favorit. 
            
(Sie reiten um Drohtspitz herum.)

          
",102,bastian-dr-maischter-hett-gewunne,50,2,0.04,0.5029517049519179,0.0,1.4697141959153899,0.35521794582363075,1.587726080408729,0.043276491218857085,0.6963794564352364,0.0,0.0,0.595260573608517,1.6374898007556744
comedy,Schaköbel,M,,,,"
            
SCHAKOEBEL

            
(lauft hinten nach):

            
Hohü, hischterum, öööh Schimmel.

          
",102,bastian-dr-maischter-hett-gewunne,14,1,0.0714285714285714,0.5029517049519179,0.0,1.829306884900273,1.103596124380771,1.9014452765580436,0.043276491218857085,0.6963794564352364,0.0,0.0,0.595260573608517,2.0279627148749215
comedy,Drohtspitz,M,master_shoemaker,crafts,lower_middle_class,"
            
DROHTSPITZ

            
(lacht unbändig, schlägt sich aufs Knie).

          
",103,bastian-dr-maischter-hett-gewunne,11,1,0.0909090909090909,0.5029517049519179,0.0,1.829306884900273,1.1035961243807713,1.9014452765580436,0.043276491218857085,0.6963794564352364,0.0,0.0,0.595260573608517,2.0279627148749215
comedy,Dorel,M,upholsterer,crafts,lower_middle_class,"
            
DOREL:

            
Oho! 
            
(Bleibt an der Türe stehen.)
 Was isch denn los?

          
",103,bastian-dr-maischter-hett-gewunne,17,1,0.0588235294117647,0.4796253692594842,0.6413598039403184,2.143354862293525,1.0458941360889618,2.355117103361322,0.0,1.0080009142565929,0.0,0.4663546135358717,0.9697130201163553,2.4171544351895955
comedy,Drohtspitz,M,master_shoemaker,crafts,lower_middle_class,"
            
DROHTSPITZ

            
(steht auf, kehrt Dorel den Rücken, geht dann aufgeblasen hin und her).

          
",104,bastian-dr-maischter-hett-gewunne,18,1,0.0555555555555555,0.4540752117055116,0.6413598039403184,2.293894904841383,0.7483781785571403,2.300067923888686,0.5399239449057882,1.0080009142565929,0.6211734952800931,0.4663546135358717,0.9697130201163553,2.237599289126633
comedy,Dorel,M,upholsterer,crafts,lower_middle_class,"
            
DOREL:

            
Was Deifels, bisch bös, Schwejerbabbe? Sin mini Schuch gsohlt? Guete Daa Schwejeres, wo isch denn
            's Petronelle, dis lieb Schätzel? — Ken Antwort.

          
",104,bastian-dr-maischter-hett-gewunne,33,3,0.0909090909090909,0.6962172946241575,0.8972053572497195,2.1300221742472423,0.9857180359793112,1.9105284605418036,0.7554887969835038,0.9389505543150541,0.8339871562005501,0.4663546135358717,0.3744524465078382,1.8163499135043075
comedy,Eddes,M,shoemaker_apprentice,crafts,lower_class,"
            
EDDES:

            
Er het drei Millione gewunne. Sie muehn-em Herr Millionär saawe.

          
",105,bastian-dr-maischter-hett-gewunne,14,2,0.1428571428571428,0.7195436303165911,0.8972053572497195,1.8957887413230836,0.2950418457139804,1.7893939462284028,0.7987652882023608,0.9389505543150541,0.8339871562005501,0.4663546135358717,0.3744524465078382,1.603497516213563
comedy,Drohtspitz,M,master_shoemaker,crafts,lower_middle_class,"
            
DROHTSPITZ:

            
Edwar, dü gehsch nab zuem Photograph am Eck, er soll glich kumme.

          
",106,bastian-dr-maischter-hett-gewunne,17,1,0.0588235294117647,0.7195436303165911,1.4393416680150064,2.25956470514926,0.2950418457139804,2.1917471806058337,0.7987652882023608,0.9389505543150541,0.8339871562005501,0.4663546135358717,0.3744524465078382,2.0383744465533113
comedy,Eddes,M,shoemaker_apprentice,crafts,lower_class,"
            
EDDES:

            
Wäre mir photographiert, Herr Drohtspitz?

          
",107,bastian-dr-maischter-hett-gewunne,9,1,0.1111111111111111,0.7661963017014582,0.7979818640746881,1.8207084578922619,0.41044582229759924,1.7594590006044222,0.885318270640075,0.34285698953631116,0.8339871562005501,0.0,0.0,1.5407749489859361
comedy,Drohtspitz,M,master_shoemaker,crafts,lower_middle_class,"
            
DROHTSPITZ:

            
Ja, in Läwesgrösse.

          
",107,bastian-dr-maischter-hett-gewunne,7,1,0.1428571428571428,0.3121210899959467,0.7979818640746881,1.7147828441429909,0.41044582229759924,1.7749286528038692,0.34539432573428686,0.9118012034510838,0.21281366092045695,0.0,0.0,1.962994633417976
comedy,Drohtspitz,M,master_shoemaker,crafts,lower_middle_class,"
            
DROHTSPITZ:

            
Awer d' beschte wo'r hett. Saasch er soll e 'n Andenke gänn.

          
",109,bastian-dr-maischter-hett-gewunne,16,2,0.125,0.0699790070773008,0.7899991635034119,1.467222415957843,0.17310596487542834,1.7076662886121796,0.12982947365657124,0.5689442139147728,0.0,0.0,0.29334148902442825,1.8577992253148405
comedy,Drohtspitz,M,master_shoemaker,crafts,lower_middle_class,"
            
DROHTSPITZ:

            
Un dü, Adolph, bschtellsch mer glich e Fass Champagner, verschtande?

          
",110,bastian-dr-maischter-hett-gewunne,16,2,0.125,0.04665267138486721,0.7899991635034119,1.6418226255534276,0.1154039765836189,1.8328491800630533,0.34832816146208023,0.5689442139147728,0.2528446825118078,0.0,0.29334148902442825,1.9257457265415194
comedy,Dorel,M,upholsterer,crafts,lower_middle_class,"
            
DOREL:

            
Haha, e Fass Champagner. Dem isch 's Pech in de Kopf gschtöje.

          
",110,bastian-dr-maischter-hett-gewunne,17,1,0.0588235294117647,0.04665267138486721,0.2478628527381249,1.877965593039867,0.1154039765836189,2.0660310922591973,0.8718785195108124,0.5689442139147728,0.7585340475354234,0.0,0.29334148902442825,1.9820028323121335
comedy,Drohtspitz,M,master_shoemaker,crafts,lower_middle_class,"
            
DROHTSPITZ:

            
Halt, Adolph! Z'erscht gehsch in de Keller, an de Gänsstall, nämsch d'r Knibbe mit un murigsch
            alli Gäns ab. Schaköbel, dü helfsch-em. D' Madam Drohtspitz hett's 
            
nimi notwendig Gäns ze stopfe, diss isch guet for Proletarier.

          
",111,bastian-dr-maischter-hett-gewunne,48,3,0.0625,0.1598751230864947,0.2478628527381249,1.7791539552685371,0.09917198584394046,1.8081889277011307,0.7853255370730983,0.5689442139147728,0.7585340475354234,0.0,0.29334148902442825,1.7365591485862388
comedy,Addes,M,shoemaker_apprentice,crafts,lower_class,"
            
ADDES:

            
Gibts hitt noch e Fricot, Herr Drohtspitz?

          
",111,bastian-dr-maischter-hett-gewunne,11,1,0.0909090909090909,0.20652779447136188,0.2478628527381249,1.5295374155410442,0.21457596242755933,1.850956221304865,0.8718785195108124,0.0,0.7585340475354234,0.0,0.29334148902442825,1.5197435940808361
comedy,Addes,M,shoemaker_apprentice,crafts,lower_class,"
            
ADDES:

            
Ha, ich frai mich jetz schun druff. Herr Dorl, vergesse Sie Ihri Redd nit. Schaköbel, kumm. 
            
(Beide Mitteltüre ab.)

          
",112,bastian-dr-maischter-hett-gewunne,30,3,0.1,0.22207868493298427,0.0,1.3860766208143058,0.25304395462209894,1.5941890705365602,0.900729513656717,0.0,0.7585340475354234,0.0,0.0,1.3201531156393265
comedy,Dorel,M,upholsterer,crafts,lower_middle_class,"
            
DOREL:

            
Herr Drohtspitz! Herr Schwejeres, ich möcht...

          
",113,bastian-dr-maischter-hett-gewunne,11,2,0.1818181818181818,0.31538402770271873,0.0,1.587554179400893,0.4838519077893368,2.0467602245934273,0.8120602995077795,0.0,0.5056893650236155,0.0,0.0,1.7850681648981552
comedy,Drohtspitz,M,master_shoemaker,crafts,lower_middle_class,"
            
DROHTSPITZ:

            
Ja sin denn Sie als noch do?

          
",113,bastian-dr-maischter-hett-gewunne,10,1,0.1,0.31538402770271873,0.0,1.4879702999372166,0.4838519077893368,1.7536271480879457,0.2885099414590472,0.5689442139147728,0.0,0.0,0.0,1.8659907169502001
comedy,Drohtspitz,M,master_shoemaker,crafts,lower_middle_class,"
            
DROHTSPITZ:

            
Los, üss-em Staub, Sunscht hebb ich d' Tüer üss.

          
",114,bastian-dr-maischter-hett-gewunne,14,1,0.0714285714285714,0.15550890461622402,0.6413598039403184,2.0256381849655454,0.3846799219453963,2.443757492647424,0.2885099414590472,1.1650377786935158,0.0,0.4663546135358717,0.3744524465078382,2.60903389824347
comedy,Dorel,M,upholsterer,crafts,lower_middle_class,"
            
DOREL:

            
Soll mich e Esel trette. Ja, was glauwe denn...

          
",115,bastian-dr-maischter-hett-gewunne,14,3,0.2142857142857142,0.10885623323135682,0.6413598039403184,1.941698023460411,0.2692759453617774,2.1727221523316276,0.20195695902133304,1.35468584999844,0.0,0.4663546135358717,0.3744524465078382,2.4444783939739345
comedy,Drohtspitz,M,master_shoemaker,crafts,lower_middle_class,"
            
DROHTSPITZ:

            
Jaja, 's isch Ernscht, Herr Bäbbkessel. Gehn Sie numme. Ich verbiet Ihne ein for allemol in unseri
            Villa ze kumme.

          
",115,bastian-dr-maischter-hett-gewunne,27,4,0.1481481481481481,0.10496851061595122,0.7768938816316402,2.011748805073501,0.2596589473131425,2.2412130139533333,0.19474421048485685,1.35468584999844,0.0,0.4663546135358717,0.3744524465078382,2.5235942070874544
comedy,Drohtspitz,M,master_shoemaker,crafts,lower_middle_class,"
            
DROHTSPITZ:

            
Dabbezierersknecht, wurr nit frech, sunscht könntsch 's Fliehje lehre.

          
",116,bastian-dr-maischter-hett-gewunne,14,2,0.1428571428571428,0.0116631678462168,0.7768938816316402,1.510311780830606,0.028850994145904717,1.4708742866096782,0.021638245609428543,1.35468584999844,0.0,0.4663546135358717,0.3744524465078382,1.8131121397734447
comedy,Dorel,M,upholsterer,crafts,lower_middle_class,"
            
DOREL:

            
Jetz krej ich doch ball e Wuet. Saa mol, was isch denn in dich nyngfahre, dass dü so Käschperles
            mit mir schbielsch?

          
",117,bastian-dr-maischter-hett-gewunne,28,2,0.0714285714285714,0.4511108342949696,0.7768938816316402,1.5323801594883886,0.028850994145904717,1.5939982237825894,0.5575364947804397,0.7857416360836672,0.4394476664487528,0.4663546135358717,0.3744524465078382,1.2782340061077437
comedy,Drohtspitz,M,master_shoemaker,crafts,lower_middle_class,"
            
DROHTSPITZ:

            
Bin ich au, sogar e dreifacher. 's Nümero 128.697 het Glüeck gebrocht. Mit minere Doochter isch
            üss, sie kann schwasiere. Wenn ich Ihne emol ebbs ze verdiene kann gänn, ganz gern. Miner valet de
            chambre wurd Ihne geläjetlich Ordre zuekumme lonn. Un jetz wölle Sie so friendlich sin, un d' Stubb
            süüfer mache.

          
",118,bastian-dr-maischter-hett-gewunne,65,11,0.1692307692307692,0.48283939964993045,0.28710472784001545,1.1458280629188036,0.05944217410576184,1.1630198591755398,0.6093692619992566,0.28421057469479544,0.49126702324401944,0.13562984161290068,0.2184252713157988,0.8660440370336875
comedy,Dorel,M,upholsterer,crafts,lower_middle_class,"
            
DOREL:

            
A so raucht's! Ihr wölle mich nimi kenne? Ja wer hett denn Euch eueri Büdik frisch gedabeziert?
            Wer het 
            
denn eueri Wendelmatratze nej üewerzöüje un euere Flohzirik üssgeraichert? — Wer, fröüj
            ich? Ich hab's gemacht, ich! Un noch umesunscht, ja! Ihr kumme mer gschliche wie gedrabbt, ihr
            Pecheschores.

          
",119,bastian-dr-maischter-hett-gewunne,64,7,0.109375,0.5658024663014077,0.36455277223505644,1.5254073322525619,0.05944217410576184,1.4998478027560316,0.6093692619992566,0.41967348276974137,0.49126702324401944,0.13562984161290068,0.2184252713157988,1.2524089175332622
comedy,Drohtspitz,M,master_shoemaker,crafts,lower_middle_class,"
            
DROHTSPITZ

            
(steht rasch auf, reisst Dorel die Mülze vom Kopf, wirft sie zur Türe hinaus, die er offen
            lässt):

            
Herr Prolet, han Sie gsehne, wie Ihri Proletarierskabb nüssgflöüje isch? Na, so kann's Ihne gehn,
            awer Kopf unte un d' Baan owe.

          
",119,bastian-dr-maischter-hett-gewunne,54,3,0.0555555555555555,0.5696901889168133,0.22901869454373475,1.4553565506394714,0.06905917215439675,1.4313569411343259,0.6165820105357327,0.41967348276974137,0.49126702324401944,0.13562984161290068,0.2184252713157988,1.173293104419742
comedy,Dorel,M,upholsterer,crafts,lower_middle_class,"
            
DOREL:

            
Ich geh vun ase, Herr Millionär. D'r Dorel bliebt d'r Dorel, un d'r Dorel pfifft uff d' Mamsell
            Drohtspitz. Ihr denke noch an denne arme Bäbbkessel, wo richer isch, als ihr allizamme. 
            
(Ab.)

          
",120,bastian-dr-maischter-hett-gewunne,45,2,0.0444444444444444,0.5930165246092469,0.22901869454373475,1.814175837432461,0.12676116044620617,1.9717494238570843,0.6598585017545899,0.709248622929717,0.49126702324401944,0.13562984161290068,0.2184252713157988,1.728896528148103
comedy,Drohtspitz,M,master_shoemaker,crafts,lower_middle_class,"
            
DROHTSPITZ:

            
Armer Windbittel, düürsch mich. 
            
(Man hôrt weitlos Gänsegeschrei.)

          
",120,bastian-dr-maischter-hett-gewunne,15,2,0.1333333333333333,0.1535688581604941,0.22901869454373475,1.291772406925738,0.12676116044620617,1.50622341661608,0.12396025258357875,0.709248622929717,0.051819356795266634,0.13562984161290068,0.2184252713157988,1.6917180736513964
comedy,Linser,M,photographer,intermediate_professionals,lower_middle_class,"
            
LINSER:

            
Bonjour, Herr Drohtspitz. Sie wüensche in corpore uffgenumme ze wäre. Grossartigi Idee, als ewigs
            Andenke. Famoser Gedanke. Diss Bild wurd in alle Zittunge e kollosaler Effekt mache. Wüensch Ihne au
            viel Glüeck zu dem enorme Geld. Drei Milliönle wie ich ghört hab. Ken Klaanigkeit.

          
",122,bastian-dr-maischter-hett-gewunne,56,7,0.125,0.12850496014622853,0.07744804439504101,1.0996491722244497,0.11265626285543746,1.2565546558200373,0.0844921971415781,0.6146861195398458,0.0,0.07475711724105175,0.0,1.4129412211667767
comedy,Linser,M,photographer,intermediate_professionals,lower_middle_class,"
            
LINSER:

            
So, d'r Apparat het glich die gross Ehr in Funktion ze trette. — Awer vorerscht möcht ich doch die
            Herrschafte bitte 's Gsicht un d' Händ ze wäsche, denn mini Platte sin arig empfindlich.

          
",123,bastian-dr-maischter-hett-gewunne,40,7,0.175,0.22049214167059103,0.17456480542784317,0.8567052200302392,0.18653833888765523,1.0915973589787622,0.26642230271809775,0.45024710451716093,0.14001336276184084,0.2925805228400966,0.1446094925730163,1.1835420334974625
comedy,Drohtspitz,M,master_shoemaker,crafts,lower_middle_class,"
            
DROHTSPITZ:

            
Zell isch awer num. Sie sotte vor lütter Gruenz nit wisse, was Sie mache wölle, dass Sie miner
            Hofphotograph wäre. Uewerhaupt hab ich noch nie e Schuehmacher mit 'me Cylinder un Glacéhändschi
            uff-em Pechstuehl sitze sehn.

          
",123,bastian-dr-maischter-hett-gewunne,43,3,0.0697674418604651,0.20494125120896864,0.3539522309461967,1.2285083137877002,0.3695902875460292,1.5371393585736493,0.23757130857219302,0.45024710451716093,0.14001336276184084,0.29258052284009667,0.4347806583389048,1.7195067172462803
comedy,Addes,M,shoemaker_apprentice,crafts,lower_class,"
            
ADDES

            
(von draussen):

            
Ja, ja. D'r Schaköbel hielt wäje de

          
",124,bastian-dr-maischter-hett-gewunne,15,2,0.1333333333333333,0.18161491551653505,0.3539522309461967,1.870359130692592,0.3118882992542197,1.6815510159870777,0.1942948173533359,1.2985603921867308,0.14001336276184084,0.29258052284009667,0.4347806583389048,2.3080164698427343
comedy,Eddes,M,shoemaker_apprentice,crafts,lower_class,"
            
EDDES:

            
Hä, do linse Sie, Herr Linser.

          
",124,bastian-dr-maischter-hett-gewunne,11,1,0.0909090909090909,0.22826758690140228,0.3539522309461967,2.1210776428140394,0.42729227583783863,2.066720379658905,0.28084779979105007,1.2985603921867308,0.14001336276184084,0.29258052284009667,0.4347806583389048,2.663257503499739
comedy,Linser,M,photographer,intermediate_professionals,lower_middle_class,"
            
LINSER:

            
Wie Sie wüensche, Herr Drohtspitz. Also verehrti Herrschafte...

          
",125,bastian-dr-maischter-hett-gewunne,13,3,0.2307692307692307,0.23715381002232938,0.3539522309461967,2.093751052080283,0.4492739856632898,2.058299749279367,0.29733408216013846,1.2985603921867308,0.14001336276184084,0.21782340559904495,0.4347806583389048,2.6197974717197035
comedy,Eddes,M,shoemaker_apprentice,crafts,lower_class,"
            
EDDES:

            
Halt! D'r Addes un dr Schaköbel fehle noch.

          
",125,bastian-dr-maischter-hett-gewunne,12,2,0.1666666666666666,0.3020162464762317,0.17938742551835352,2.0181976958495977,0.5241498883969827,1.9632858778547604,0.11540397658361887,1.1378884278295456,0.0,0.0,0.2901711657658885,2.436842274398639
comedy,Eddes,M,shoemaker_apprentice,crafts,lower_class,"
            
EDDES

            
(hinausrufend):

            
Addes, Schaköbel, ihr solle kumme! Gäns. Mir kumme! Mir kumme!

          
",126,bastian-dr-maischter-hett-gewunne,21,3,0.1428571428571428,0.3020162464762317,1.626408932295861,2.654149656196851,0.3026299475440692,2.596413793501558,0.11540397658361887,1.1378884278295456,0.0,0.0,4.4408920985006264e-17,3.087094703783398
comedy,Linser,M,photographer,intermediate_professionals,lower_middle_class,"
            
LINSER:

            
So, jetz kann's losgehn.

          
",127,bastian-dr-maischter-hett-gewunne,9,1,0.1111111111111111,0.3020162464762317,1.626408932295861,1.6534795524989705,0.3026299475440692,1.911609653365371,0.11540397658361887,0.0,0.0,0.0,4.4408920985006264e-17,1.9429815274585827
comedy,Drohtspitz,M,master_shoemaker,crafts,lower_middle_class,"
            
DROHTSPITZ:

            
Haha, luej die zwei. Mer maant sie han e Bataille mitgemacht. Betrachte die Gänsmetzjer wie die
            drinsehn.

          
",127,bastian-dr-maischter-hett-gewunne,23,1,0.0434782608695652,0.2553635750913645,1.626408932295861,1.4027610403775228,0.1872259709604503,1.5264402896935438,0.028850994145904717,0.0,0.0,0.0,4.4408920985006264e-17,1.587740493801578
comedy,Linser,M,photographer,intermediate_professionals,lower_middle_class,"
            
LINSER:

            
Also mini Herrschafte, bilde Sie e schöni Grupp. D'r Herr Drohtspitz in d' Mittle, die junge Herre
            rächts un links.

          
",128,bastian-dr-maischter-hett-gewunne,26,7,0.2692307692307692,0.24647735197043738,1.626408932295861,1.4298394686017388,0.31110192052927194,1.5293191431152426,0.13005252591334487,0.0,0.13581739140512478,0.06551516397425936,4.4408920985006264e-17,1.6018967308217182
comedy,Addes,M,shoemaker_apprentice,crafts,lower_class,"
            
ADDES:

            
Maischter, ich will links...

          
",130,bastian-dr-maischter-hett-gewunne,8,1,0.125,0.0066646673406953,1.626408932295861,1.2019791570765626,0.16234394176336125,1.3383283444446012,0.13005252591334487,0.0,0.13581739140512478,0.06551516397425936,4.4408920985006264e-17,1.4372007059250531
comedy,Drohtspitz,M,master_shoemaker,crafts,lower_middle_class,"
            
DROHTSPITZ:

            
Maischter!? Do hesch links. 
            
(Gibt ihm eine Ohrfeige.)

          
",130,bastian-dr-maischter-hett-gewunne,16,2,0.125,0.34313549641998564,0.0,0.4189830751635739,0.16234394176336125,0.3881120321931185,0.13005252591334487,0.0,0.13581739140512478,0.06551516397425936,4.4408920985006264e-17,0.40677567952914445
comedy,Eddes,M,shoemaker_apprentice,crafts,lower_class,"
            
EDDES:

            
Bisch jetz zefridde?

          
",131,bastian-dr-maischter-hett-gewunne,6,1,0.1666666666666666,0.34313549641998564,0.0,0.4189830751635739,0.16234394176336125,0.3881120321931185,0.13005252591334487,0.0,0.13581739140512478,0.06551516397425936,4.4408920985006264e-17,0.40677567952914445
comedy,Linser,M,photographer,intermediate_professionals,lower_middle_class,"
            
LINSER:

            
So. D'r Klaan do, der setzt sich vor d'r Herr Drohtspitz uff dr Bodde, C'est ça! Awer Herr
            Drohtspitz, lueje Sie doch friendlicher, ja. Ja so! Uff đe Gsichter muess mer e Glanz sehn, als hätt
            e Maiedaa mit sim Früehjrot druffgezunde un es dät Knackwuerscht räje.

          
",131,bastian-dr-maischter-hett-gewunne,59,10,0.1694915254237288,0.3617965649739325,0.17423828759214524,1.0424877397241477,0.20850553239680886,1.1345603183049413,0.16467371888843055,0.621480811309292,0.13581739140512478,0.14226882996707965,0.13087637586607273,1.323999542239669
comedy,Drohtspitz,M,master_shoemaker,crafts,lower_middle_class,"
            
DROHTSPITZ:

            
Was Knackwuerscht? Paschtete, wenn's beliebt.

          
",132,bastian-dr-maischter-hett-gewunne,11,1,0.0909090909090909,0.3551318976332372,0.17423828759214524,0.9318364741261155,0.04616159063344756,1.0032916769926332,0.03462119297508566,0.621480811309292,0.0,0.0767536659928203,0.13087637586607273,1.1914296273338607
comedy,Addes,M,shoemaker_apprentice,crafts,lower_class,"
            
ADDES:

            
Guet gänn, hahaha.

          
",133,bastian-dr-maischter-hett-gewunne,7,2,0.2857142857142857,0.3551318976332372,0.42210114033027013,1.15887010622667,0.04616159063344756,1.3884486156515472,0.03462119297508566,0.621480811309292,0.0,0.0767536659928203,0.42421786489050095,1.5094337836610385
comedy,Linser,M,photographer,intermediate_professionals,lower_middle_class,"
            
LINSER:

            
So isch erächt, ja. Herr Drohtspitz, e bissel süesser lächle, noch süesser, so — awer d' Nas nit
            so hoch. 
            
(Setzt ihn in bessere Haltung.)
 Sie, junger Herr, lonn Sie d' Finger üss d'r Nas.

          
",133,bastian-dr-maischter-hett-gewunne,49,8,0.1632653061224489,0.1674867543436028,0.5743824208929385,1.346246974221519,0.14592645137006052,1.6786080642822612,0.21697080209709294,0.7996329469490402,0.07125161559349164,0.23943733910928647,0.6116533918520608,1.8276519185529492
comedy,Drohtspitz,M,master_shoemaker,crafts,lower_middle_class,"
            
DROHTSPITZ:

            
Herrschaft düürt dis e Ewigkeit. Aa — Herr Linser, han Sie au die neje Strahle mitgebrocht?

          
",134,bastian-dr-maischter-hett-gewunne,21,4,0.1904761904761904,0.1791499221898196,0.7099885468474922,1.5388450540494005,0.17477744551596525,2.0021080202101658,0.23860904770652147,0.7996329469490402,0.07125161559349164,0.23943733910928647,0.7661186479062546,2.093079427106685
comedy,Linser,M,photographer,intermediate_professionals,lower_middle_class,"
            
LINSER:

            
Bedüür arig. Sie sin uff Schuehmacher nit verwendbar.

          
",135,bastian-dr-maischter-hett-gewunne,12,2,0.1666666666666666,0.1604888536358727,0.5357502592553469,1.1488004202210924,0.1286158548825177,1.6034675349851875,0.20398785473143582,0.46772727579972384,0.07125161559349164,0.16268367311646614,0.6352422720401819,1.5538384712960192
comedy,Drohtspitz,M,master_shoemaker,crafts,lower_middle_class,"
            
DROHTSPITZ:

            
Au Schwindel.

          
",135,bastian-dr-maischter-hett-gewunne,5,1,0.2,0.1604888536358727,0.5357502592553469,1.1488004202210924,0.1286158548825177,1.6034675349851875,0.20398785473143582,0.46772727579972384,0.07125161559349164,0.16268367311646614,0.6352422720401819,1.5538384712960192
comedy,Linser,M,photographer,intermediate_professionals,lower_middle_class,"
            
LINSER:

            
Jetz uffgebasst. Silence! 
            
(Schlüpft unter das Tuch.)

          
",136,bastian-dr-maischter-hett-gewunne,14,1,0.0714285714285714,0.1604888536358727,0.2878874065172221,0.9217667881205379,0.1286158548825177,1.2183105963262733,0.20398785473143582,0.46772727579972384,0.07125161559349164,0.16268367311646614,0.3419007830157537,1.2358343149688413
comedy,Linser,M,photographer,intermediate_professionals,lower_middle_class,"
            
LINSER:

            
Ganz ruehig wenn's beliebt. He, der ganz klaan Herr do vorne, der macht jo e Buckel wie e Katz
            wenn's blitzt.

          
",137,bastian-dr-maischter-hett-gewunne,29,6,0.2068965517241379,0.019438613077027978,0.13560612595455382,0.935741860112655,0.048084990243174516,1.4058667652222123,0.0360637426823809,0.5463797771035583,0.0,0.0,0.37483787382804223,1.4257236750608464
comedy,Schaköbel,M,,,,"
            
SCHAKOEBEL:

            
Harr Telegraph, ech mään — ech mään as düat weh.

          
",138,bastian-dr-maischter-hett-gewunne,14,1,0.0714285714285714,0.5324421153436132,0.0,1.497063863520091,0.4635261975970469,1.4066964027977407,0.5691744147923196,0.5642407701286751,0.7381322911907048,0.0,0.22037261777384848,1.4471270589051153
comedy,Linser,M,photographer,intermediate_professionals,lower_middle_class,"
            
LINSER:

            
Dummer Bue.

          
",138,bastian-dr-maischter-hett-gewunne,5,1,0.2,0.5324421153436132,0.0,1.2636038327878254,0.4635261975970469,1.058888601910896,0.5691744147923196,0.2746656299686995,0.7381322911907048,0.0,0.22037261777384848,1.0691441520052571
comedy,Dorel,M,upholsterer,crafts,lower_middle_class,"
            
DOREL:

            
Herr Drohtspitz, wisse Sie schun?

          
",140,bastian-dr-maischter-hett-gewunne,9,1,0.1111111111111111,0.5790947867284804,0.0,1.514322344909273,0.5789301741806658,1.4440579655827235,0.6557273972300337,0.2746656299686995,0.7381322911907048,0.0,0.22037261777384848,1.424385185662262
comedy,Dorel,M,upholsterer,crafts,lower_middle_class,"
            
DOREL:

            
Herr Millionär, wisse Sie schun?

          
",141,bastian-dr-maischter-hett-gewunne,9,1,0.1111111111111111,0.6257474581133475,0.0,1.7650408570307206,0.6943341507642847,1.829227329254551,0.7422803796677478,0.2746656299686995,0.7381322911907048,0.0,0.22037261777384848,1.7796262193192667
comedy,Dorel,M,upholsterer,crafts,lower_middle_class,"
            
DOREL:

            
Dass Sie nix gewunne han? Do steht's in der Zittung. E Druckfehler het sich yngschliche. 
            
(Ueberreicht Drohtspitz eine Zeitung.)
 Voilà, Monsieur. Gewunne het nit 128.697, awer
            128,698. Aans ze weny! 
            
(Stellt den Zeigefinger.)

          
",142,bastian-dr-maischter-hett-gewunne,51,2,0.0392156862745098,0.6179720128825363,0.0,1.2553571074782126,0.6751001546670148,1.0946683208470875,0.7278548825947955,0.017860993025116657,0.7381322911907048,0.0,0.0,0.9973129597120151
comedy,Drohtspitz,M,master_shoemaker,crafts,lower_middle_class,"
            
DROHTSPITZ

            
(stiert auf die Zeitung, lässt sie fallen):

            
Nix gewunne! Nix ge... Jesses, jetz, jetz... 
            
(Alle stürzen vor Schrecken zu Boden.)

          
",142,bastian-dr-maischter-hett-gewunne,33,5,0.1515151515151515,0.09330534276973432,0.0,0.5972294310982094,0.2308079531672378,0.9188169579693917,0.17310596487542834,0.14225172418014123,0.0,0.0,0.0,0.9020668810246377
comedy,Linser,M,photographer,intermediate_professionals,lower_middle_class,"
            
LINSER:

            
Oho, die ganz Gsellschaft isch jo verschwunde. Do soll doch glich 
            
(unter dem Tuch hervor.)
 Do hett's e Erdbewe gänn.

          
",143,bastian-dr-maischter-hett-gewunne,29,5,0.1724137931034483,0.1869424204708037,0.09914514109524994,0.9848632386408898,0.2308079531672378,1.3848284393733903,0.3675645507917157,0.2192931152632161,0.1757790665795011,0.19445858591628734,0.1173365956097713,1.2064880555517523
comedy,Addes,M,shoemaker_apprentice,crafts,lower_class,"
            
ADDES:

            
Der guet Fricot!

          
",144,bastian-dr-maischter-hett-gewunne,6,1,0.1666666666666666,0.1402897490859365,0.09914514109524994,0.7341447265194421,0.1154039765836189,0.9996590757015629,0.28101156835400154,0.2192931152632161,0.1757790665795011,0.19445858591628734,0.1173365956097713,0.8512470218947475
comedy,Schaköbel,M,,,,"
            
SCHAKOEBEL:

            
Oo, Mieädder, hole mich!

          
",145,bastian-dr-maischter-hett-gewunne,9,1,0.1111111111111111,0.0936370777010693,0.09914514109524994,0.4834262143979943,0.0,0.6144897120297353,0.19445858591628734,0.2192931152632161,0.1757790665795011,0.19445858591628734,0.1173365956097713,0.4960059882377427
comedy,Dorel,M,upholsterer,crafts,lower_middle_class,"
            
DOREL:

            
Do, Herr Drohtspitz, hesch dini Millionärskabb. 
(Setzt ihm den Kessel auf. Rasch ab.)

              
(Alle lachen. Rideau.)

            

          
",145,bastian-dr-maischter-hett-gewunne,29,2,0.0689655172413793,0.11696341339350289,0.09914514109524994,0.6087854704587181,0.05770198829180943,0.8070743938656489,0.23773507713514444,0.2192931152632161,0.1757790665795011,0.19445858591628734,0.1173365956097713,0.6736265050662451
