drama_type,speaker,sex,job,job_category,social_class,text,progress,short_name,numTokens,numLexTokens,lexRatio,anger_roll_mean,anticipation_roll_mean,arousal_roll_mean,disgust_roll_mean,dominance_roll_mean,fear_roll_mean,joy_roll_mean,sadness_roll_mean,surprise_roll_mean,trust_roll_mean,valence_roll_mean
comedy,Meyer,M,businessman,service_and_sales,lower_middle_class,"
          
MEYER:

          
(hett e Zyttung in d'r Hand unn geht uffgerejt uff  unn ab)

          
Nein, diss iwerläw ich nitt ! Myn ganz Vermeje haw ich verlore! E ganzi Million isch füddi, wo ich in Aktie vun d'r « Australisch Auschterebank » g’steckt habb, unn jetzt isch diss ganz Unternemme iwer Nacht verkracht ! Do steht’s im Blättel !

        
",0,jost-e-dienschtbott-wurd-gsuecht,65,9,0.1384615384615384,,,,,,,,,,,
comedy,Meyer,M,businessman,service_and_sales,lower_middle_class,"
          
MEYER:

          
Unn do bisch numme dü dran schuld, Jean !

        
",1,jost-e-dienschtbott-wurd-gsuecht,12,1,0.0833333333333333,,,,,,,,,,,
comedy,Jean,M,valet,elementary_professions,lower_class,"
          
JEAN :

          
Na ja, Patron, ich will jo gern zuegänn, ass ich denne Morje Ihri Café-Schissel verhejt habb, awer ...

        
",2,jost-e-dienschtbott-wurd-gsuecht,24,4,0.1666666666666666,,,,,,,,,,,
comedy,Meyer,M,businessman,service_and_sales,lower_middle_class,"
          
MEYER:

          
Ach was, die mein ich nitt! Vun mir üss hättsch d'ganz G’schirrabteilung vum « Magmod » kapütt dengle kenne! Ich mein d’« Australisch Auschterebank»!

        
",3,jost-e-dienschtbott-wurd-gsuecht,33,4,0.1212121212121212,,,,,,,,,,,
comedy,Jean,M,valet,elementary_professions,lower_class,"
          
JEAN:

          
Ah! Isch s’e üss’m Lym gange? Unn ich soll schuld sinn ? Ich habb mich nitt druff g’setzt, Monsieur Meyer !

        
",4,jost-e-dienschtbott-wurd-gsuecht,28,1,0.0357142857142857,0.1027441478114827,0.1437542289238108,0.8850735234628158,0.0,1.1303980580800281,0.12216943657956228,0.6275605799612985,0.14055358247862454,0.09156332224016375,0.3571422353204496,1.217320390342381
comedy,Meyer,M,businessman,service_and_sales,lower_middle_class,"
          
MEYER:

          
Babbel kein Mischt, Jean! Ass s'e schiewes isch gange, isch nitt dyni Schuld, awer ass ich myn ganz Geld nyng’steckt habb !

        
",5,jost-e-dienschtbott-wurd-gsuecht,29,4,0.1379310344827586,0.24747778656604735,0.08346791324271033,0.7766339291050326,0.2034056838578699,0.7900745205010533,0.12216943657956228,0.4071746089656475,0.14055358247862454,0.04772708355131478,0.26053733196157686,0.806379433773875
comedy,Jean,M,valet,elementary_professions,lower_class,"
          
JEAN :

          
Jetzt wurd’s Daa! Ja, Patron, saawe emool: Sinn Sie d'r Herr odder ich? Kenne Sie nitt mache, was Sie welle ?

        
",6,jost-e-dienschtbott-wurd-gsuecht,30,3,0.1,0.26545283815791765,0.08346791324271033,1.1597199553508282,0.24787028516407536,1.2893002129522977,0.15551788755921636,0.5915538090280593,0.14055358247862454,0.04772708355131478,0.42843839712830034,1.289372818629929
comedy,Meyer,M,businessman,service_and_sales,lower_middle_class,"
          
MEYER :

          
Doch, awer wo ich dich angaschiert habb, hesch dü mir versichert, ass dü dich uff alles verstehsch.

        
",7,jost-e-dienschtbott-wurd-gsuecht,23,2,0.0869565217391304,0.26545283815791765,0.0,1.2386643340677899,0.24787028516407536,1.6163814420653708,0.15551788755921636,0.6103933026919853,0.14055358247862454,0.0,0.4836376244044301,1.6660210191955958
comedy,Jean,M,valet,elementary_professions,lower_class,"
          
JEAN:

          
Sell isch wohr, wenn sich's um ’s Koche, Butze, Nähje unn so wyddersch handelt : ass ich awer au noch Ihre Finanzrat soll sinn, diss isch nitt im Kontrakt vor- g’sähn !

          
        
		
",8,jost-e-dienschtbott-wurd-gsuecht,40,3,0.075,0.16270869034643493,0.0,1.0131296057123085,0.24787028516407536,1.4082187714552326,0.03334845097965408,0.535552569699619,0.0,0.0,0.4836376244044301,1.4732137438262467
comedy,Meyer,M,businessman,service_and_sales,lower_middle_class,"
          
MEYER :

          
Egal, dü hesch mir awer geroote, ass ich’s riskiere kennt, myn Vermeje in dem Unternemme anzeleije.

        
",9,jost-e-dienschtbott-wurd-gsuecht,23,3,0.1304347826086956,0.16270869034643493,0.18085894704330147,1.2088591235399107,0.24787028516407536,1.6378911937623404,0.03334845097965408,0.7051667966455236,0.0,0.13150871606654696,0.589230576717821,1.7136067693522825
comedy,Jean,M,valet,elementary_professions,lower_class,"
          
JEAN :

          
Unn ich dhät’s noch emool mache, Monsieur Meyer ! Ich bin in dem Dings guet renseigniert ..... myner bescht Frind hett jo e Liebschti, wo d’Schweschter vun d'r Butzfrau vum Gouverneur vun d'r Banque de France isch ! Non, non, ich loss mir ’s nitt üssredde ..... die Ba- bierle sinn so sicher wie Zuchthüssmüre !

        
",10,jost-e-dienschtbott-wurd-gsuecht,65,7,0.1076923076923077,0.0676478979243066,0.34458834198966554,1.128762234003748,0.09235680709219134,1.5828929628906674,0.11449555146280521,0.7029414051478213,0.08112610571390091,0.17887480351683663,0.6766763034089793,1.6590632388777162
comedy,Meyer,M,businessman,service_and_sales,lower_middle_class,"
          
MEYER :

          
Ich habb jo ’s Konträr devun schwarz uff wyss ! Füddi isch füddi! Unn fur ass ich an die unglieckselig Affär gar nimm ze denke brüch, ze will ich mir die Aktie-Babierer do üss de Aue schaffe ! 
(Er langt e En- veloppe üss'm Sack, wo e paar Babierer drine sinn unn leijt s’e uff de Disch)
: Wo sinn denn Schwäwehelzle ..... ich will s’e verbrenne! 
(Er suecht im Zimmer nooch 's Schwäwehelzle)
. JEAN 
(nemmt g’schwind, unn ohne ass ’s d'r Meyer sieht, d'Babierer üss d'r Enveloppe, steckt s’e yn unn ersetzt s'e durich e Stick Zyttung, wo uff'm Disch lejt ; fur sich)
: Ich glaub als noch nitt an denne Bankkrach unn waje dem will ich die Babierle do in Sicherheit bringe ..... nutzt’s nix, ze schad’s nix !

        
",11,jost-e-dienschtbott-wurd-gsuecht,160,7,0.04375,0.049672846332436314,0.39649437219883127,1.372413123143208,0.047892205785985895,2.040985912131316,0.08114710048315113,1.2291318421721429,0.08112610571390091,0.17887480351683663,0.5858818564802296,2.198111874060101
comedy,Meyer,M,businessman,service_and_sales,lower_middle_class,"
          
MEYER:

          
Ah, do sinn jo Schwäwes! 
(Er zind eins an unn verbrennt d’Enveloppe)
 : Diss isch, ma foi, e dyer’s Fyer- werik, wo mich e bari Million koschte dhuet! Ich Ar- mer !

        
",12,jost-e-dienschtbott-wurd-gsuecht,46,1,0.0217391304347826,0.5648638304206013,0.737339845597262,1.56216081247738,0.5418378924685455,1.6372712716420597,0.7209951247144762,0.9527992055273021,0.6646519533655153,0.17887480351683663,0.27014529724252306,1.5125698234606788
comedy,Jean,M,valet,elementary_professions,lower_class,"
          
JEAN :

          
Wenn diss numme kein Dummheit isch, Patron!

        
",13,jost-e-dienschtbott-wurd-gsuecht,11,2,0.1818181818181818,0.5648638304206013,0.737339845597262,1.7486716016157846,0.5418378924685455,1.9970592684278958,0.7209951247144762,0.9527992055273021,0.6646519533655153,0.17887480351683663,0.5219968949926083,1.7536691362493482
comedy,Meyer,M,businessman,service_and_sales,lower_middle_class,"
          
MEYER:

          
Was, Dummheit ? Was erlaubsch dü dir iwerhaupt, mich dumm zu heisse! Dü kummseh mir iwerhaupt in letschter Zytt allewyll so frech !

        
",14,jost-e-dienschtbott-wurd-gsuecht,28,4,0.1428571428571428,0.5648638304206013,0.5564808985539604,1.5529420837881827,0.5418378924685455,1.7673868461207882,0.7209951247144762,0.7831849785813976,0.6646519533655153,0.04736608745028968,0.4164039426792173,1.5132761107233121
comedy,Jean,M,valet,elementary_professions,lower_class,"
          
JEAN :

          
Uff jede Fall, ich hätt’s nitt gemacht.

        
",15,jost-e-dienschtbott-wurd-gsuecht,12,3,0.25,0.515190984088165,0.3927515036075964,1.5394949553145434,0.4939456866825596,1.847467034837304,0.6398480242313251,0.8947913948499607,0.5835258476516144,0.0,0.3289582159880589,1.622308409433409
comedy,Meyer,M,businessman,service_and_sales,lower_middle_class,"
          
MEYER:

          
Ich will einfach nimmi an denne Fehlschlaa ge- mahnt wäre, unn waje dem kannsch au dü sofort dyne Ranze packe unn dich um e neje Platz umsähn, denn wenn ich nitt uff dich g’horicht hätt, ze wär ich hytt nitt am Bettelstab !

        
",16,jost-e-dienschtbott-wurd-gsuecht,49,2,0.0408163265306122,0.515190984088165,0.3408454733984307,1.1355417561274135,0.4939456866825596,1.2220506642160882,0.6398480242313251,0.46055439440806795,0.5835258476516144,0.0,0.25185159775008514,0.9609638346681267
comedy,Meyer,M,businessman,service_and_sales,lower_middle_class,"
          
MEYER :

          
Oh, nitt numme waje dem ! Dü bisch mir in letsch- ter Zytt au viel ze viel iwer de Kopf gewachse! Dü hesch gemacht, was de witt, unn ich habb d’Roll vum e Dienschtbott kenne spiele.

        
",18,jost-e-dienschtbott-wurd-gsuecht,45,2,0.0444444444444444,0.0,0.0,0.5578169828019476,0.0,0.912958448570298,0.0,0.46055439440806795,0.0,0.0,0.25185159775008514,0.8422617215772628
comedy,Jean,M,valet,elementary_professions,lower_class,"
          
JEAN :

          
Wie wenn ich’s nitt allewyll guet mit Ihnne gemeint hätt ! E Fröj, ob Sie e bessere Noochfoljer fur mich be- kumme ? Sie sinn numme noch nitt im Rächte in d’Fin- ger g’falle !

        
",19,jost-e-dienschtbott-wurd-gsuecht,42,6,0.1428571428571428,0.0,0.1734890381114617,0.5029648034118074,0.0,0.7036110080961171,0.0,0.5758182263841924,0.0,0.07493481005908235,0.09076373622886605,0.7837858250592362
comedy,Meyer,M,businessman,service_and_sales,lower_middle_class,"
          
MEYER:

          
Egal! Dü kannsch gehn ... ich habb schun e An- nonce in d’Zyttung gemacht unn wart alle Moment uff e nejer Dienschtbott.

        
",20,jost-e-dienschtbott-wurd-gsuecht,28,3,0.1071428571428571,0.0,0.1734890381114617,0.6514872808772245,0.0,0.9248791888099019,0.0,0.7600399841474196,0.0,0.07493481005908235,0.09076373622886605,1.0242507885746737
comedy,Jean,M,valet,elementary_professions,lower_class,"
          
JEAN :

          
Na, ze will ich nitt noch lang by Ihnne anhalte, unn ich winsch, ass ’s Ihnne nie leid dhuet, mir de Laufbass gänn ze hann !

        
",21,jost-e-dienschtbott-wurd-gsuecht,32,4,0.125,0.0,0.1734890381114617,0.5029648034118074,0.0,0.7036110080961172,0.0,0.5758182263841924,0.0,0.07493481005908235,0.09076373622886605,0.7837858250592362
comedy,Meyer,M,businessman,service_and_sales,lower_middle_class,"
          
MEYER :

          
Mir leid dhuen! Im Läwe nie! Unn jetzt ver- schwind ! 
(Kehrt'm de Buckel anne.)

        
",22,jost-e-dienschtbott-wurd-gsuecht,24,4,0.1666666666666666,0.0,0.2805867104164347,0.6213172480452918,0.0,0.678209563579807,0.0,0.39536143830814685,0.0808877321634163,0.07493481005908235,0.35695974517100265,0.7812009562175739
comedy,Jean,M,valet,elementary_professions,lower_class,"
          
JEAN :

          
(fur sich)

          
Halt, ich habb e gueti Idee, denn ich habb myne Herr viel ze lieb, als dass ich’ne so einfach uffgibb ! 
(Rächts ab)
.

        
",23,jost-e-dienschtbott-wurd-gsuecht,35,5,0.1428571428571428,0.08976354729757183,0.41011447647811144,0.8579447112025609,0.07566984928753864,0.9692731359577641,0.02000907058779244,0.5689407691146684,0.0808877321634163,0.07493481005908235,0.3569597451710027,1.099275586602704
comedy,Meyer,M,businessman,service_and_sales,lower_middle_class,"
          
MEYER :

          
Gott sej Dank, ass’r furt isch ! Diss wär doch gelacht, wenn’s kein bessere Ersatz fur’ne sott gänn ! Denne will ich awer no dressiere ! Du reste, haw ich mir do e Photographie-Apperat angeschafft, fur myn däjlich’s Brot mit ze verdiene, denn nooch dem Millioneverluscht kann ich mir’s nimm leischte, mich uff d’füll Hütt ze leije. 
(Er stellt de Apperat by d'r Dier rächts uff unn macht sich dran ze schaffe.)
 Awer ich muess erscht noch e bis- sel lehre unn stüdiere, wie die Photographiererej funk- tioniert, unn wenn ich’s no kann, ze geh ich nüss uff’s Land unn photographier d’Büre unn ihre Vieh unn ihri Fraue.... do isch noch Geld mit ze verdiene ! 
(’s klopft.)
 Wer kummt denn jetzt ? Entrez!

          

        
",24,jost-e-dienschtbott-wurd-gsuecht,153,14,0.0915032679738562,0.08976354729757183,0.27155492286288974,1.1501058275053828,0.13261068248492158,1.4374665993907114,0.026792896089128306,0.8482935099183793,0.11900115605306501,0.0,0.39378198737177295,1.5452230014038153
comedy,Emil,M,valet,elementary_professions,lower_class,"
          
EMIL :

          
(e groteski Figür)

          
Wohnt do d'r Monsieur Meyer ?

        
",25,jost-e-dienschtbott-wurd-gsuecht,13,1,0.0769230769230769,0.08976354729757183,0.27155492286288974,1.6896879427317466,0.828725319297272,1.6359320530357988,0.026792896089128306,0.664071752155152,0.11900115605306501,0.0,0.39378198737177295,1.5239225962043217
comedy,Meyer,M,businessman,service_and_sales,lower_middle_class,"
          
MEYER:

          
Ja; der bin ich sälwer !

        
",26,jost-e-dienschtbott-wurd-gsuecht,9,1,0.1111111111111111,0.08976354729757183,0.27155492286288974,2.176122505384204,0.828725319297272,1.968821385073154,0.026792896089128306,1.2172093523423875,0.11900115605306501,0.0,0.39378198737177295,2.08008610153325
comedy,Emil,M,valet,elementary_professions,lower_class,"
          
EMIL :

          
(fur sich )

          
Na, dem will ich’s stecke! Myner Frind, d’r Jean, hett mich g’schickt ! 
(Lütt)
: Ich kumm waje dere Annonce, wo in d'r Zyttung isch unn .....

        
",27,jost-e-dienschtbott-wurd-gsuecht,41,4,0.0975609756097561,0.08976354729757183,0.16445725055791674,1.9701694499844045,0.828725319297272,1.8273983911314873,0.026792896089128306,1.1213335037735923,0.0381134238896487,0.0,0.2437933658972454,1.8723585567917838
comedy,Meyer,M,businessman,service_and_sales,lower_middle_class,"
          
MEYER:

          
Ah, guet! Awer ein Moment... ich habb grad myne Photographie-Apperat yng’stellt unn will gschwind e Prowe-Uffnahm mache, wyll d’Sunn im Mo- ment so ginschtig isch. Stelle Ejch do anne ! 
(Er stellt de Emil e paar Schritt vor’m Apperat uff.)

        
",28,jost-e-dienschtbott-wurd-gsuecht,53,6,0.1132075471698113,0.0,0.03492948449623998,1.807803225559844,0.7530554700097333,1.6469689091104223,0.00678382550133586,1.0398650518486845,0.0381134238896487,0.0,0.2437933658972454,1.6745164081643726
comedy,Emil,M,valet,elementary_professions,lower_class,"
          
EMIL:

          
Hoffetlich gitt’s kein Uffnahm fur ins Verbrecher- Album !

        
",29,jost-e-dienschtbott-wurd-gsuecht,13,1,0.0769230769230769,0.0,0.0,1.788038076245805,0.6961146368123503,1.5745588648126438,0.0,0.6452484790688491,0.0,0.0,0.676955516673776,1.7061372991714943
comedy,Meyer,M,businessman,service_and_sales,lower_middle_class,"
          
MEYER :

          
Unn jetzt lueje e bissel frindlich dryn !

        
",30,jost-e-dienschtbott-wurd-gsuecht,10,1,0.1,0.0,0.0,1.0999334835540242,0.0,1.1548252304537718,0.0,0.6452484790688491,0.0,0.0,0.676955516673776,1.4869727408555509
comedy,Emil,M,valet,elementary_professions,lower_class,"
          
EMIL :

          
Ich habb schun lang nix Guet’s meh g’hett mit Üss- nahm vum e saftige Styerzettel !

        
",33,jost-e-dienschtbott-wurd-gsuecht,20,3,0.15,0.0,0.13989723368645846,0.7873209383212632,0.0,0.9919416572992444,0.0,0.299997402714841,0.0,0.13784082191095584,0.8439132762468213,1.1944352290840707
comedy,Meyer,M,businessman,service_and_sales,lower_middle_class,"
          
MEYER:

          
Also ze denke emool an e zart’s, saftig’s Kalbs- schnitzel ! EMIL 
(lacht e bissel)
.

        
",34,jost-e-dienschtbott-wurd-gsuecht,24,3,0.125,0.0,0.13989723368645846,0.7695902268673454,0.19466211332202063,0.9280787988664534,0.16839283159344348,0.299997402714841,0.0,0.13784082191095584,0.7277058887792123,1.2100928341427795
comedy,Meyer,M,businessman,service_and_sales,lower_middle_class,"
          
MEYER :

          
..... so gross, ass’s uff alle Sytte vum Deller erab- hängt... EMIL 
(lächelt stärker)
.

        
",35,jost-e-dienschtbott-wurd-gsuecht,23,4,0.1739130434782608,0.1626055274194282,0.25949861107127636,1.1209643492604162,0.30375863163918976,1.294075473668015,0.306700301635667,0.6006628035249344,0.1713854910139482,0.30161720139022646,0.8282364092404981,1.6410309626021173
comedy,Meyer,M,businessman,service_and_sales,lower_middle_class,"
          
MEYER :

          
..... unn e Platt voll pommes frites mit Salat ..... EMIL 
(grinst unn’s Wasser lauft'm üss’m Müll uff de Bodde ; er butzt sich mit’m Nasduech ab.)

        
",36,jost-e-dienschtbott-wurd-gsuecht,36,3,0.0833333333333333,0.1626055274194282,0.25949861107127636,0.8654322499887865,0.30375863163918976,0.9691196789349755,0.306700301635667,0.7848845612881616,0.1713854910139482,0.30161720139022646,0.2674882800343311,1.2213042040386788
comedy,Emil,M,valet,elementary_professions,lower_class,"
          
EMIL :

          
(strahlt)

          
Herr, here uff, odder ich lauf üss wie e voller Eimer, wo e Loch hett! Geje Sie isch jo d’Folter im Middelalter ’s reinscht G’sellschaftsspiel !

        
",38,jost-e-dienschtbott-wurd-gsuecht,36,5,0.1388888888888889,0.3839046169797883,0.3558866678753635,1.2772168596107285,0.4977525098941585,1.3821150809176213,0.5255476277689977,0.8954176159460978,0.3261721818146414,0.30161720139022646,0.2674882800343311,1.5320808315147392
comedy,Meyer,M,businessman,service_and_sales,lower_middle_class,"
          
MEYER:

          
So isch’s guet ..... blyewe so... ich will g’schwind scharf ynstelle ! 
(Er stellt sich hinter de Apperat, nemmt’s schwarz Duech iwer de Kopf unn de Apperat unn gückt durich.)
 So! Ja, ’s geht! 
(Allewyll noch unter'm Duech)
: Unn jetzt gücke in de Apperat nyn !

		  

		
",39,jost-e-dienschtbott-wurd-gsuecht,62,5,0.0806451612903225,0.3839046169797883,0.21598943418890498,1.3663880246846927,0.4977525098941585,1.3919660042011823,0.5255476277689977,0.7981586121503176,0.3261721818146414,0.3058325722114995,0.10053052046128577,1.440051462550518
comedy,Meyer,M,businessman,service_and_sales,lower_middle_class,"
          
MEYER :

          
(werft vergelschtert ’s Duech furt)

          
Herrjeh, was isch denn diss fur e Riese-Ochse-Au in mym Apperat ? 
(Sieht de Emil vorm Apperat.)
 Ah, denne Wäj! Na, Ihr schynne mir d’Dummheit au mit’m Leffel gesse ze hann ! Also lonn m'r ’s sinn mit dere Uffnahm ..... ich habb Angscht, d’Platt kennt m'r verspringe, wenn ich’re zuemuete dhät, Ejeri iwerzwerich Visasch ze verewige ! Also zuer Sach..... Ihr hann also myni Annonce ge- läse ? 
(Emil nickt.)
 Wie stehts: Kenne Ihr koche ?

        
",41,jost-e-dienschtbott-wurd-gsuecht,105,6,0.0571428571428571,0.4313450232168276,0.3128978486488447,1.3817111266242084,0.3488301893528754,1.423189867652861,0.43465491336462525,0.7981586121503176,0.4036522477995715,0.35106989192260174,0.22197205285676747,1.422337894317767
comedy,Meyer,M,businessman,service_and_sales,lower_middle_class,"
          
MEYER :

          
Butze?

        
",43,jost-e-dienschtbott-wurd-gsuecht,4,1,0.25,0.2687394957973995,0.19329647126402677,0.956075765498429,0.23973367103570623,0.9465591024944068,0.29634744332240176,0.4053823324586106,0.23226675678562328,0.18729351244333112,0.12144153239548172,0.8711672841007101
comedy,Meyer,M,businessman,service_and_sales,lower_middle_class,"
          
MEYER:

          
Ja, was welle Ihr denn no eijetlich do ?

        
",49,jost-e-dienschtbott-wurd-gsuecht,12,1,0.0833333333333333,0.2687394957973995,0.19329647126402677,1.2939878506854698,0.23973367103570623,1.0581802538179772,0.2963474433224017,0.7742981748826189,0.23226675678562328,0.18729351244333112,0.12144153239548172,1.186865825914201
comedy,Emil,M,valet,elementary_professions,lower_class,"
          
EMIL:

          
Ei, ich habb Ihnne numme welle saawe, ass ich die Stell nitt annemme kann !

        
",50,jost-e-dienschtbott-wurd-gsuecht,19,2,0.1052631578947368,0.0474404062370393,0.09690841445993974,1.0505372168228495,0.04573979278073752,0.8887762388423628,0.07750011718907118,0.6637651202246826,0.07748006598493004,0.18729351244333112,0.41927063411994026,1.1399847966624823
comedy,Meyer,M,businessman,service_and_sales,lower_middle_class,"
          
MEYER:

          
Jetzt hett’s awer g’schellt ! Nein, so e Frechheit ! Nüss !, saaw ich, nix als wie nüss! Ihr hann mir grad noch g’fählt !

        
",51,jost-e-dienschtbott-wurd-gsuecht,32,1,0.03125,0.0474404062370393,0.09690841445993974,0.7875440343291885,0.04573979278073752,0.7089195566759743,0.07750011718907118,0.5531376001872355,0.07748006598493004,0.045237319711102196,0.41927063411994026,0.9683881720692554
comedy,Emil,M,valet,elementary_professions,lower_class,"
          
EMIL :

          
(lacht)

          
So? No kenne Sie mich jo au angaschiere !

        
",52,jost-e-dienschtbott-wurd-gsuecht,15,1,0.0666666666666666,0.0,0.0,0.65476853841178,0.0,0.5764807190443867,4.4408920985006264e-17,0.5531376001872355,0.0,0.0,0.2978291017244585,0.8200591035532702
comedy,Meyer,M,businessman,service_and_sales,lower_middle_class,"
          
MEYER:

          
Nix als wie verzirne kamm’r sich! Oh, ’s isch e Elend mit denne Dienschtbotte vun hyttzedaas ..... frech sinn s’e wie e Spatz unn s’e welle liewer meh Lohn 
 unn defur e bissel wenjer Arweit! Na, ich will liewer noch e bissel photographiere, denn ich muess’s partout lehre ; ’s isch, du reste, au e ganz g’fitzter Sport... scheener wie jeder ander. So haw ich mich, par exemple, au schun mit d'r Fischerej abgänn ..... d’an- dere hann d’Fisch g’fange un ich habb alti Schlappe, Häfe unn ein Protokoll um’s ander odder gar de Sunne- stich verwitscht! No bin ich uff d’Jachd gange, unn was habb ich gedroffe ? Myne Hund odder gar de garde- chasse !... Oh, ich därf gar nitt an alles denke ! Hoffet- lich klappt’s mit'm Photographiere besser! Eins macht mir deby allerdings jetzt schun Kummer, unn diss isch, ass alli myni Bilder so arich verschwumme sinn... unn diss kummt dohere, wyll sich alli Lytt, wo ich bis jetzt photographiert habb, bewejt hann. Waje dem mach ich’s jetzt fur de Anfang andersch.... ich photographier einfach die Statüt do, wo sich wohrschynnlich nitt so ball beweje wurd ! 
(Er stellt d’Statüt mit’m G’stell links vun d'r Scène e paar Schritt vorm Apperat uff.)
 So, unn jetzt welle mir ynstelle ! 
(Er schlupft unter’s Duech unn schafft am Apperat erum )
 er kann deby allerhand Kapriole mache, so ass d’r Apperat wackelt unn als schier umfalle will.

        
",55,jost-e-dienschtbott-wurd-gsuecht,291,20,0.0687285223367697,0.0,0.0,0.8737673483981702,0.02803740646030834,0.8834630909496568,4.4408920985006264e-17,0.7173354741438184,0.0,0.0,0.3907260539381442,1.1369556451443439
comedy,Jean,M,valet,elementary_professions,lower_class,"
          
JEAN :

          
(ohne ass d'r Meyer, wo am Apperat erumschafft, druff acht gitt)

          
So, do bin ich widder! Jetzt will d'r Jean emool sym liewe Monsieur Meyer zeije, was fur e Unterschied zwische mir unn andere Dienschtbotte kann sinn ! Waje dem haw ich mich g’schwind verkleid, fur ass’r mich nitt kennt. Zuedem weiss ich jo gar ze guet, ass’r nitt ohne mich exischtiere kann ! Ah, do isch’r jo! Wie’r numme mit dem Apperat umgeht... wie wenn’r’ne knock out boxe wott !

          

		
",56,jost-e-dienschtbott-wurd-gsuecht,96,4,0.0416666666666666,0.0995201634717251,0.0,0.7294650225233877,0.16216229682448607,0.8015719930660131,0.14195515703327294,0.1641978739565829,0.17378140220443367,0.0,0.39072605393814425,0.77723024055618
comedy,Meyer,M,businessman,service_and_sales,lower_middle_class,"
          
MEYER :

          
(als noch unter'm Duech)

          
So, d’Statüt wär exakt yng’stellt! Jetzt kummt d’Platt nyn. 
(Nemmt üss’m Fracksack e Kassett, wo’r in de Apperat schiebt. Er kummt unter'm Duech vor unn bedracht numme noch de Apperat, so ass’r de Jean, wo in d'r Nähde vun d'r Statüt steht, nitt sieht.)

        
",57,jost-e-dienschtbott-wurd-gsuecht,68,4,0.0588235294117647,0.0995201634717251,0.0,0.6338460676781501,0.16216229682448607,0.6612073082529624,0.14195515703327294,0.3036271385159541,0.17378140220443367,0.0,0.2745086210872146,0.690423945449695
comedy,Jean,M,valet,elementary_professions,lower_class,"
          
JEAN :

          
(stellt sich g’schwind vor d’Statüt ; fur sich)

          
Ich bin doch schun lang nimm abkonterfeit worre !

        
",58,jost-e-dienschtbott-wurd-gsuecht,22,1,0.0454545454545454,0.0995201634717251,0.0,0.6338460676781501,0.16216229682448607,0.6612073082529624,0.14195515703327294,0.3036271385159541,0.17378140220443367,0.0,0.2745086210872146,0.6904239454496951
comedy,Meyer,M,businessman,service_and_sales,lower_middle_class,"
          
MEYER :

          
(wo nix devun sieht, nemmt de Knipser vum Apperat in d'Hand)

          
Unn jetzt nimm geriehrt ..... rächt fryndlieh, s’il vous plait!... Eins-zwei-drej ! 
(Er zählt mit de Finger.)
 So! Diss wär g’schähn ! 
(Nemmt d’Kassett üss’m Apperat.)
 Jetzt will ich die Platt g’schwind ent- wickle gehn ! 
(Ab nooch rächts mit d'r Kassett.)

        
",59,jost-e-dienschtbott-wurd-gsuecht,76,3,0.0394736842105263,0.0995201634717251,0.15525819072915487,0.7525619348815672,0.16216229682448607,0.8297766099056485,0.14195515703327294,0.4847303685561801,0.17378140220443367,0.0,0.45873037885044177,0.9757344639754617
comedy,Meyer,M,businessman,service_and_sales,lower_middle_class,"
          
MEYER :

          
(in d'r Hand e Glasplatt)

          
Was isch mir denn nitt diss ! Myner Napoléon hett sich jo in e Bür verwan- delt... unn e Däschelskapp hett’r au noch uff! 
(Er sieht jetzt de Jean)
: Ah, do steht der Sindebock ! Was han Ihr denn in mynere Menasch unn gar noch in mym Photographie-Apperat ze sueche ?

        
",61,jost-e-dienschtbott-wurd-gsuecht,67,3,0.044776119402985,0.20998586099702404,0.15525819072915487,0.9127837816436116,0.13412489036417774,0.9060563227070559,0.22615157282999468,0.5047542523628243,0.17378140220443367,0.0,0.36583342663675605,0.9612714479262126
comedy,Jean,M,valet,elementary_professions,lower_class,"
          
JEAN :

          
Ich habb in d'r Zyttung Ihri Annonce geläse unn bin kumme waje dem Platz, wo by Ihnne frej isch.

        
",62,jost-e-dienschtbott-wurd-gsuecht,23,2,0.0869565217391304,0.11046569752529893,0.40549402005241275,0.7385609399540679,0.0,0.8407737347590114,0.08419641579672178,0.5047542523628243,0.0,0.0,0.36583342663675605,0.9655610740619327
comedy,Meyer,M,businessman,service_and_sales,lower_middle_class,"
          
MEYER:

          
Diss isch nitt grad wenni, wenn’s wohr isch ! Unn was wär diss par exemple ?

          

		
",65,jost-e-dienschtbott-wurd-gsuecht,20,2,0.1,0.11046569752529893,0.40549402005241275,0.6658459190399837,0.0,0.7375470325650305,0.08419641579672178,0.3653249878034532,0.0,0.0,0.18422175776322725,0.7884717709440758
comedy,Jean,M,valet,elementary_professions,lower_class,"
          
JEAN :

          
(fur sich)

          
Na, wart, ich will dirs schun koche! 
(Lütt)
: Ich kann e Ochs anspanne... also wurr ich Ihnne wohl au d’Kleider anzehje kenne !

        
",66,jost-e-dienschtbott-wurd-gsuecht,37,4,0.1081081081081081,0.11046569752529893,0.40549402005241275,0.8010290244717941,0.0,0.9026248651777309,0.08419641579672178,0.3653249878034532,0.0,0.0,0.30042914523083636,0.9388568026341033
comedy,Meyer,M,businessman,service_and_sales,lower_middle_class,"
          
MEYER:

          
Ihr schynne um Verglych nitt grad arich verläje ze sinn!

        
",67,jost-e-dienschtbott-wurd-gsuecht,13,3,0.2307692307692307,0.11046569752529893,0.2502358293232579,0.682313157268377,0.0,0.7340555635250446,0.08419641579672178,0.1842217577632272,0.0,0.0,0.11620738746760917,0.6535462841083367
comedy,Jean,M,valet,elementary_professions,lower_class,"
          
JEAN :

          
No kann ich Gras mähje ..... also wurr ich wohl au Ihre Bart rasiere kenne !

        
",68,jost-e-dienschtbott-wurd-gsuecht,18,1,0.0555555555555555,0.0,0.2502358293232579,0.3030925005199424,0.0,0.35079347881836725,4.4408920985006264e-17,0.0,0.0,0.0,0.11620738746760917,0.35111275856651225
comedy,Meyer,M,businessman,service_and_sales,lower_middle_class,"
          
MEYER:

          
Unn wie steht’s mit d'r Kiche ? JEAN ch Oh, ieh bin e grosser Frind vun’re gueti Kiche! Unn no au vum e guete Gläsel Wyn... ich syberel fur myn Läwe gern !

        
",69,jost-e-dienschtbott-wurd-gsuecht,39,5,0.1282051282051282,0.0,0.15245246843814667,0.330071895209567,0.0,0.3978238460540831,4.4408920985006264e-17,0.1720676732023209,0.0,0.03818166684105182,0.31682301073073943,0.4468928775789765
comedy,Meyer,M,businessman,service_and_sales,lower_middle_class,"
          
MEYER:

          
Ah, Ihr syberle gern! 
(Fur sich)
: Er isch noch jung unn unerfahre, awer mit d'r Zytt kann’r sich so mache, wie ich’ne hann will! 
(Lütt)
: Unn was hann Ihr fur e Charakter ?

        
",70,jost-e-dienschtbott-wurd-gsuecht,46,3,0.0652173913043478,0.0,0.2637430194284271,0.6358742625080016,0.0,0.7814066836973053,4.4408920985006264e-17,0.3310126637811287,0.0,0.10181777824280487,0.651248238136264,0.8714134936964164
comedy,Jean,M,valet,elementary_professions,lower_class,"
          
JEAN:

          
Oh, ich habb de bescht Charakter vun d'r Welt! Ich mach alles, was m'r will... unn sogar diss, was m'r nitt will! Kurz, e Lämmele isch geje mich e Wolf !

        
",71,jost-e-dienschtbott-wurd-gsuecht,40,2,0.05,0.10547146036107968,0.48165541991012917,1.0460221943262689,0.0,1.1563689166806381,4.4408920985006264e-17,0.585166359012453,0.0,0.10181777824280487,0.738549659647302,1.1935348516637245
comedy,Meyer,M,businessman,service_and_sales,lower_middle_class,"
          
MEYER:

          
Unn wie heisse Ihr ?

        
",72,jost-e-dienschtbott-wurd-gsuecht,7,1,0.1428571428571428,0.10547146036107968,0.48165541991012917,1.0460221943262689,0.0,1.1563689166806381,4.4408920985006264e-17,0.585166359012453,0.0,0.10181777824280487,0.738549659647302,1.1935348516637245
comedy,Jean,M,valet,elementary_professions,lower_class,"
          
JEAN:

          
Ich heiss ganz kurz: Charles Auguste Leon Pierre Georges Louis Alfred Jean Dippeldappel !

        
",73,jost-e-dienschtbott-wurd-gsuecht,17,2,0.1176470588235294,0.10547146036107968,0.48165541991012917,1.207885859783619,0.0,1.4082667855461144,4.4408920985006264e-17,0.7348478249971857,0.0,0.10181777824280487,0.738549659647302,1.4976389654932116
comedy,Meyer,M,businessman,service_and_sales,lower_middle_class,"
          
MEYER:

          
Unn diss heisse Ihr kurz! So e Schlang vum e Namme kann jo kein Mensch b’halte !

        
",74,jost-e-dienschtbott-wurd-gsuecht,20,2,0.1,0.10547146036107968,0.3292029514719825,1.0129970700058626,0.0,1.1755207721047314,4.4408920985006264e-17,0.5627801517948647,0.0,0.06363611140175304,0.5379340363841718,1.2011311196042627
comedy,Meyer,M,businessman,service_and_sales,lower_middle_class,"
          
MEYER:

          
Diss wär noch scheener, wenn Ihr Ejere eije Namme nit b’halte kennte ! Bref, ich ruef Ejch noch einfacher : Alfred !

        
",76,jost-e-dienschtbott-wurd-gsuecht,26,2,0.0769230769230769,0.10547146036107968,0.21791240048170205,0.707194702707428,0.0,0.7919379344615093,4.4408920985006264e-17,0.403835161216057,0.0,0.0,0.20350880897864726,0.7766105034868227
comedy,Jean,M,valet,elementary_professions,lower_class,"
          
JEAN :

          
Ich blyeh by Jean ! Unn wenn Sie mich noch länger säje, ze dhue ich Ihnne d’Fenschterläde blöj poliere ! 
(Er wurd als frecher.)

        
",79,jost-e-dienschtbott-wurd-gsuecht,31,3,0.0967741935483871,0.0,0.0,0.16186366545735037,0.0,0.2518978688654762,4.4408920985006264e-17,0.1496814659847327,0.0,0.0,8.881784197001253e-17,0.3041041138294871
comedy,Meyer,M,businessman,service_and_sales,lower_middle_class,"
          
MEYER :

          
(baff)

          
Unn der will e Lämmeles-Charakter hann ! Nein, myn Liewer, in dem Fall verzieht ich uff Ejeri Dienscht ..... do isch mir d'r Jean, diss heisst d’r Wolf, doch noch liewer als wie d'r Wolf im Schoofsbelz ! Ich nemm sogar noch liewer e Maidel fur alles !

          

        
",80,jost-e-dienschtbott-wurd-gsuecht,57,6,0.1052631578947368,0.0,0.0,0.23612490419005897,0.0,0.36253195922236864,4.4408920985006264e-17,0.2417923448663463,0.0,0.0,8.881784197001253e-17,0.42433659558720577
comedy,Jean,M,valet,elementary_professions,lower_class,"
          
JEAN :

          
Wo sich awer nitt alles g’falle losst wie par exemple so e stilli, verträjlichi Nadür als ich eini habb! Wisse Sie, was Sie sinn ? E Gyzhals sinn Sie! E Gro- bian ! E Lyttschinder ! E alter, yngebilder Zipfel ! 
(D’r Meyer hüpst by jedem Wort vergelschtert in d’Heeche.)
 So Lytt wie Sie hett m'r friehjer uff d’Läbkueche ge- bäbbt! Sie uffgewärmter Leichnam ! Ich habb d’Nas voll vun Ihnne... ich geh... wäre selig ohne mich! 
(Er nemmt syni Kapp unn wärft s'e im Meyer ins G’sicht ; fur sich)
: Diss wurd hoffetlich lange, fur ass’r ynsieht, was’r an sym alte, guete Jean verlore hett! 
(Ab nooch hinte.)

        
",81,jost-e-dienschtbott-wurd-gsuecht,139,13,0.0935251798561151,0.0,0.0,0.1256704867788377,0.0,0.19062894850899387,4.4408920985006264e-17,0.1688980100882238,0.0,0.0,8.881784197001253e-17,0.22114273974481152
comedy,Meyer,M,businessman,service_and_sales,lower_middle_class,"
          
MEYER:

          
Hett m'r jetzt schun emool so e boddelosi Unver- schämtheit erläbt! Er hett wajer Zytt g’hett, ass’r sich üss’'m Staub gemacht hett, der grobb Flejel, denn schunscht hätt ich'm au emool myne Charakter gezeijt ! So wytt sinn mir also hytt kumme, ass d'r Herr Angscht muess hann vor de Dienschtsocke ! So leije sich also die fülle Herrschafte de Begriff « Egalité» üss... die meine, sie därfe grad eso frech unn grobb sinn als wie unsereins! Do isch d'r Jean doch noch e anderer Burscht g’sinn ! Er hett zwar alles nooch sym Schäddel gemacht, awer er hett mich doch als schliesslich ze iwer- zeje gewisst, ass eijetlich ich’s bin g’sinn, wo’s vun vorneryn eso gewellt hett ! Hätt ich’ne numme nitt furt- g’schickt... grad jetzt, wo ich im Elend bin, hätt ich e stariker Halt an’m g’hett! Wenn ich numme wisst, wo’r sich uffhalte dhuet... nein, ’s gängt jo doch nitt, ass ich mich als Herr eso dief erabbloss, fur ihm nooch- zelaufe unn’m gueti Wertle ze gänn ! Schad... arich schad! G’schähn isch g’schähn, was hyllsch ! Ze will ich liewer noch e bissel photographiere unn g’schwind e anderi Platt hole ! 
(Rächts ab.)

          
        
		
",82,jost-e-dienschtbott-wurd-gsuecht,236,29,0.1228813559322034,0.0210549379591273,0.017257643401603982,0.20998533590234417,0.026845884765294557,0.29635029314619615,0.013799359026063805,0.1688980100882238,0.0,0.0,0.02097361750743173,0.3205547513533845
comedy,Jean,M,valet,elementary_professions,lower_class,"
          
JEAN :

          
So, jetzt will ich emool sähn, ob d'r Monsieur Meyer sich e Lehr genumme hett ! Ich habb’m jo vorig d'Hell heiss genue gemacht !

        
",83,jost-e-dienschtbott-wurd-gsuecht,31,4,0.1290322580645161,0.0210549379591273,0.017257643401603982,0.3086617591942622,0.026845884765294557,0.46711857338365714,0.013799359026063805,0.1688980100882238,0.0,0.0,0.15525226087462127,0.48206887453562935
comedy,Meyer,M,businessman,service_and_sales,lower_middle_class,"
          
MEYER :

          
(macht sich am Apperat ze schaffe)

          
Unn jetzt die nej Platt in de Apperat !

        
",84,jost-e-dienschtbott-wurd-gsuecht,19,1,0.0526315789473684,0.0210549379591273,0.017257643401603982,0.8491081430642238,0.026845884765294557,1.278559075732898,0.013799359026063805,0.1688980100882238,0.0,0.0,0.7340793563645395,1.0781546583551092
comedy,Jean,M,valet,elementary_professions,lower_class,"
          
JEAN :

          
(stellt sich widder vor d’Statüt ; fur sich)

          
Wie der spanne wurd, wenn’r d’Platt entwickelt !

        
",85,jost-e-dienschtbott-wurd-gsuecht,23,1,0.0434782608695652,0.3524520305350241,0.017257643401603982,1.2825549640057985,0.026845884765294557,1.8019448545910781,0.013799359026063805,0.07678713120661021,0.0,0.0,0.7340793563645394,1.341290306262525
comedy,Meyer,M,businessman,service_and_sales,lower_middle_class,"
          
MEYER:

          
Kein Bewejung meh! Rächt frindlich, s’il vous plaît ! Eins-zwei-drej ! 
(Er nemmt d’Kassett üss’m Apperat.)
 Hoffetlich isch’s diss Mool besser gange! 
(Rächts ab.)

        
",86,jost-e-dienschtbott-wurd-gsuecht,39,2,0.0512820512820512,0.3524520305350241,0.017257643401603982,1.2311457159596695,0.026845884765294557,1.7219499964389766,0.013799359026063805,0.0,0.0,0.0,0.7340793563645394,1.2403800482754321
comedy,Jean,M,valet,elementary_professions,lower_class,"
          
JEAN :

          
Er hett mich als noch nitt g’sähn ! Wenn’r wisse dhät, was fur e gueti Nuwell ass ich fur’ne habb, er dhät sich mit dem Gückkaschte gewiss nimm abschinde !

        
",87,jost-e-dienschtbott-wurd-gsuecht,34,1,0.0294117647058823,0.3313970925758968,0.0,1.1468308668361629,0.0,1.6162286518017743,4.4408920985006264e-17,0.0,0.0,0.0,0.7131057388571078,1.1409680366668593
comedy,Meyer,M,businessman,service_and_sales,lower_middle_class,"
          
MEYER :

          
Jetzt heert sich doch alles uff ! Myner Napoléon hett sich diss Zugg gar in de Jean verwandelt! Wie isch diss mejlich ? 
(Er sieht de Jean. )
 Ah, do steht’r jo! 
(Fur sich)
: Er kummt mir wie geruefe ! Awer ich muess’ne e bissel zawle lonn ! 
(Lütt, streng)
: Was welle Sie do, Monsieur ? Wisse Sie nitt, ass myni Hüssdier fur Sie fermé isch ?

          

		
",88,jost-e-dienschtbott-wurd-gsuecht,83,4,0.0481927710843373,0.40255770193145574,0.1453626216899096,1.3928790067669692,0.0686096891711063,1.8385916022980275,0.11625017578360677,0.13816631832242038,0.11622009897739505,0.0678559795666533,0.7370097492492083,1.3676333400654788
comedy,Jean,M,valet,elementary_professions,lower_class,"
          
JEAN:

          
Ich habb s’e awer offe g’funde, Monsieur Meyer ! Unn wenn e Dier offe isch, ze isch diss e Zeiche, ass m'r nyn kann unn ...

        
",89,jost-e-dienschtbott-wurd-gsuecht,32,2,0.0625,0.40255770193145574,0.1453626216899096,0.8524326228970075,0.0686096891711063,1.0271510999487865,0.11625017578360677,0.13816631832242038,0.11622009897739505,0.0678559795666533,0.15818265375929,0.7715475562459989
comedy,Jean,M,valet,elementary_professions,lower_class,"
          
JEAN :

          
Ich bin au gar nitt kumme, fur Ejer scheen’s G’sicht ze sähn ..... ich will numme d’Kapp hole, wo myn Ka- merad vorig do hett leje lonn... ich soll se’m bringe! 
(Er setzt d’Kapp uff, wo noch uff'm Bodde lejt.)

        
",91,jost-e-dienschtbott-wurd-gsuecht,56,7,0.125,0.1607052668959043,0.29992292817650307,0.7987810069335703,0.17815241783764638,0.9093122681403871,0.18267884765995346,0.45397504591652416,0.26706856109204746,0.10663082503331231,0.20583974110995737,0.9180231294112244
comedy,Meyer,M,businessman,service_and_sales,lower_middle_class,"
          
MEYER :

          
(baff)

          
Im Himmel !

        
",92,jost-e-dienschtbott-wurd-gsuecht,8,1,0.125,0.1607052668959043,0.29992292817650307,1.1062252594656115,0.17815241783764638,1.4447645541339924,0.18267884765995346,1.174116715431607,0.26706856109204746,0.10663082503331231,0.6992789080855815,1.6979725615171435
comedy,Jean,M,valet,elementary_professions,lower_class,"
          
JEAN :

          
Nein, nitt in de Himmel, awer in d'Wirtschaft vis-à- vis... er wart dort uff mich !: à

        
",93,jost-e-dienschtbott-wurd-gsuecht,25,3,0.12,0.1607052668959043,0.29992292817650307,1.357229154441709,0.17815241783764638,1.844516830178979,0.18267884765995346,1.5983856963665286,0.26706856109204746,0.10663082503331231,0.8637586304107894,2.198420669067887
comedy,Meyer,M,businessman,service_and_sales,lower_middle_class,"
          
MEYER:

          
Was sieh ich ? Die Kapp ! Diss G’sicht ! Diss isch jo ’s nämlich G’sicht wie diss vum Alfred, vun dem un- g’schliffene Holwel, wo sich vorig by mir vorg’stellt hett! Wo haw ich denn numme myni Aue g’hett !

        
",94,jost-e-dienschtbott-wurd-gsuecht,47,2,0.0425531914893617,0.08954465754034534,0.15456030648659344,1.0125045912189845,0.10954272866654007,1.4513855994452647,0.06642867187634674,1.460219378044108,0.1508484621146524,0.03877484546665902,0.7055759766514994,1.8102412424870227
comedy,Jean,M,valet,elementary_professions,lower_class,"
          
JEAN:

          
Kein Wunder, ass ich'm glych ! Ich bin üss’m nämliche Ort wie er !

        
",95,jost-e-dienschtbott-wurd-gsuecht,19,1,0.0526315789473684,0.08954465754034534,0.15456030648659344,1.7250817047069553,0.10954272866654007,2.2762050018196573,0.06642867187634674,2.241225330974499,0.1508484621146524,0.8197807983970499,0.7055759766514994,2.6711535923841376
comedy,Jean,M,valet,elementary_professions,lower_class,"
          
JEAN:

          
Er hett de nämlich Vadder wie ich.

        
",97,jost-e-dienschtbott-wurd-gsuecht,10,1,0.1,0.0,0.0,1.6189793465713869,0.0,2.5607496074330784,4.4408920985006264e-17,1.9254166033803952,0.0,0.7810059529303909,1.2499880851833793,2.9520944929815967
comedy,Jean,M,valet,elementary_professions,lower_class,"
          
JEAN:

          
Unn ich bin’s einzig Kind vun mym Babbe !

        
",99,jost-e-dienschtbott-wurd-gsuecht,12,3,0.25,0.0,0.1761389018467419,1.4708470541800698,0.0,2.1574189230445606,4.4408920985006264e-17,1.3699684044889202,0.0,0.7810059529303909,0.7565489182077552,2.4439104876201636
comedy,Meyer,M,businessman,service_and_sales,lower_middle_class,"
          
MEYER :

          
Haw ich dich verwitscht, dü üssgekochter Spitz- bue ..... dü farceur ! Jetzt sieh ich hell: Dü hesch denne ung'howelt unn gewalttätig Alfred g’spielt, fur ass mir d’Luscht uff e anderer valet-de-chambre vergehn soll ?

        
",100,jost-e-dienschtbott-wurd-gsuecht,42,6,0.1428571428571428,0.12107444591568586,0.1761389018467419,1.6386455016582986,0.09598391400826278,2.1550751566280173,0.13942926455937124,1.1778418975387392,0.0,0.7810059529303909,0.5920691958825473,2.264838612739264
comedy,Jean,M,valet,elementary_professions,lower_class,"
          
JEAN :

          
Ich kann’s nitt leigle, Herr !

        
",101,jost-e-dienschtbott-wurd-gsuecht,10,1,0.1,0.17499960069129672,0.1761389018467419,1.9284474394664184,0.22937771792687914,2.600286908372723,0.2394746174983335,1.1778418975387392,0.0,0.7810059529303909,0.5920691958825473,2.675456636401158
comedy,Meyer,M,businessman,service_and_sales,lower_middle_class,"
          
MEYER:

          
Ja, Jean, haltsch denn dü so arich an mir ?

        
",102,jost-e-dienschtbott-wurd-gsuecht,14,1,0.0714285714285714,0.17499960069129672,0.1761389018467419,1.702304888630906,0.22937771792687914,2.1083568380356854,0.2394746174983335,0.9499735447955839,0.0,0.0,0.5920691958825473,2.370707791832971
comedy,Jean,M,valet,elementary_professions,lower_class,"
          
JEAN :

          
Unn wie, Herr!

        
",103,jost-e-dienschtbott-wurd-gsuecht,7,1,0.1428571428571428,0.22892475546690755,0.1761389018467419,1.644152740863748,0.3627715218454955,1.7528429467602973,0.33951997043729576,0.9499735447955839,0.0,0.0,0.0,1.970541212067046
comedy,Meyer,M,businessman,service_and_sales,lower_middle_class,"
          
MEYER:

          
Unn au in mym Elend witt de mich nitt im Stich lonn ?

        
",104,jost-e-dienschtbott-wurd-gsuecht,15,2,0.1333333333333333,0.3712459741780255,0.2907252433798192,1.681139980106726,0.49999090018770803,1.7449258703265607,0.5720203220045093,0.7852800741719761,0.2324401979547901,0.1357119591333066,0.08395053258336165,1.813667129831078
comedy,Jean,M,valet,elementary_professions,lower_class,"
          
JEAN :

          
Was, Elend ? Herr, mir sinn jo rych ! Do steht’s in d'r Zyttung! 
(Er gitt im Meyer d’Zyttung, wo uff'm Disch lejt.)
 D’« Australisch Auschterebank » isch jo gar nitt verkracht !

        
",105,jost-e-dienschtbott-wurd-gsuecht,46,3,0.0652173913043478,0.2681465798542099,0.2907252433798192,1.5074607610538566,0.44847158748565075,1.7171894586601375,0.46593950842479204,0.7373593579504627,0.2324401979547901,0.1357119591333066,0.08395053258336165,1.869628535230636
comedy,Meyer,M,businessman,service_and_sales,lower_middle_class,"
          
MEYER :

          
Was saasch de do, Jean ! 
(Läst)
: « Unsere gestrige Mitteilung über den Zusammenbruch der « Australischen Austernbank » beruht auf einer Falschmeldung. Im 
 Gegenteil, ihre Aktien sind sogar seit gestern um den doppelten Wert gestiegen.» 
(Er fallt uff e Stuehl.)
 Oh, ich g’schlaawener Mann ! Jetzt haw ich myn Vermeje erscht erächt verlore ! Diss verwind ich nitt! Ich habb jo myni Aktie verbrennt !

		
",106,jost-e-dienschtbott-wurd-gsuecht,81,10,0.1234567901234567,0.2991833398418734,0.3790674748326527,1.5878032488008922,0.4671246223746535,1.6524823400011257,0.5497072968708567,0.8435101533632021,0.3997092661945908,0.1751645739532707,0.21613725232861197,1.7852340778834261
comedy,Jean,M,valet,elementary_professions,lower_class,"
          
JEAN :

          
(lacht)

          
Diss wär allerdings jetzt d'r Fall, wenn ich so e dummer Diener wär, wie Sie vun rächtswäje eine verdiene dhäte! 
(Er langt d’Aktie üss’m Sack unn gitt s’e im Meyer.)
 Ich habb s’e nämlich noch rächtzyttig in Sicherheit gebroocht ! Was Sie verbrennt hann, sinn alti Zyttunge g’sinn !

        
",107,jost-e-dienschtbott-wurd-gsuecht,65,7,0.1076923076923077,0.3727820518544684,0.47966571552730847,1.294395307226234,0.5376882919007334,1.5805555545579455,0.6411141574753317,0.2903725531759667,0.4830701015733928,0.1751645739532707,0.37219605246511167,1.4388590236763246
comedy,Meyer,M,businessman,service_and_sales,lower_middle_class,"
          
MEYER:

          
Isch’s mejlich, Jean ! Dü bisch e Prachtsmensch, e Goldmensch ! Durch dich haw ich nitt numme myn Geld prima plaziert, nein, dü hesch mir sogar noch myn ganz Vermeje gerett! Diss vergess ich dir nitt ! Hytt noch lej ich uff d'r Bank fur dich 100 000 Franke vun denne Aktie do an! 
(Er umarmt’ne.)

        
",108,jost-e-dienschtbott-wurd-gsuecht,68,7,0.1029411764705882,0.31885689707885756,0.6214065300250797,1.3229893004131763,0.4042944879821171,1.639098677906637,0.5410688045363695,0.5885607762603919,0.4830701015733928,0.23152545226750507,0.5741998449798331,1.560956566294788
comedy,Jean,M,valet,elementary_professions,lower_class,"
          
JEAN :

          
Merci, Patron ! Unn wie steht’s mit d'r Kindigung ?

        
",109,jost-e-dienschtbott-wurd-gsuecht,14,2,0.1428571428571428,0.17653567836773967,0.33068128664526053,1.5516451397041948,0.2670751096399045,2.1500044291764024,0.308568452969156,0.5885607762603919,0.5744493187727946,0.09581349313419849,0.7421009101465567,1.8609459367793737
comedy,Meyer,M,businessman,service_and_sales,lower_middle_class,"
          
MEYER:

          
Na, guet, ich b’halt dich in dem Fall nadierlich widder ..... ich habb mich zuedem so scheen an dich gewehnt, unn dyner Verstand .....

        
",110,jost-e-dienschtbott-wurd-gsuecht,29,4,0.1379310344827586,0.1585606267758694,0.33068128664526053,1.3065220163027378,0.22261050833369903,1.7803323312143824,0.275220001989502,0.40433901849716475,0.5744493187727946,0.09581349313419849,0.7421009101465567,1.4836082987099715
comedy,Meyer,M,businessman,service_and_sales,lower_middle_class,"
          
MEYER:

          
Awer au eins merik dir fur in Zuekunft unn nemm’s ze Härze : Ich bin d'r Herr do hinne unn dü dr Ang’stellt! ’s gält also numme dyner Wille ..... äh, ich will saawe: nitt myner Wille ..... ei, nein, ich mein... ’s gält also numme dyner Wille ..... äh, ich na, kurz, dü weisch jo schun, wie ich’s mein ! ’s G’sicht vum Alfred kannsch de mynntwäje b’halte, awer syner Charakter blyet mir zuem Hüss drüsse !

        
",112,jost-e-dienschtbott-wurd-gsuecht,93,6,0.064516129032258,0.08258623780853014,0.24233905519242702,1.0611057746992212,0.09279597017918266,1.5919571306876357,0.10808108609430209,0.3902991019660388,0.40718025053299395,0.0563608783142344,0.6099141904013063,1.3615831041011122
comedy,Jean,M,valet,elementary_professions,lower_class,"
          
JEAN :

          
(setzt im Meyer d’Däschelskapp bis iwer d’Ohre uff de  Kopf)

          
Odder kurz g’saat : Mir bringe drej Kepf unter ein Kapp ! No wäre mir schun besser mitnand härmoniere ! 
(D'r Vorhang fallt g’schwind.)
 
 Schluss. 

        
",113,jost-e-dienschtbott-wurd-gsuecht,45,2,0.0444444444444444,0.00898752579593514,0.14174081449777123,1.0908628698195473,0.02223230065310272,1.6628968551641379,0.016674225489827086,0.6666317386108795,0.3238194151541918,0.0563608783142344,0.4538553902648067,1.5124920982524412
