Unnamed: 0,drama_type,speaker,sex,job,job_category,social_class,text,progress,short_name,numTokens,numLexTokens,avgLexVal,lexRatio
1,comedy,Colette,F,lady’s_maid,elementary_professions,lower_class,"
            
Colette:

            
Was beliebt, — ah Sapristi, d'r Alphonsel isch's ! Wart Knedes, ich will dr d'Lytt so verschrecke
            !

          
",0,horsch-d-madam-fahrt-velo,25,3,0.8491752464191853,0.12
3,comedy,Colette,F,lady’s_maid,elementary_professions,lower_class,"
            
Colette :

            
Dü kleiner Saperlot ! — Hesch de schun widder eins?

          
",1,horsch-d-madam-fahrt-velo,13,1,0.0,0.07692307692307693
4,comedy,Alphonsel,M,,,,"
            
Alphonsel:

            
Ja, do isch's.

          
",2,horsch-d-madam-fahrt-velo,8,1,2.0912188503860056,0.125
6,comedy,Alphonsel,M,,,,"
            
Alphonsel:

            
Ich, ich kenn' ne guet.

          
",3,horsch-d-madam-fahrt-velo,9,1,0.0,0.1111111111111111
7,comedy,Colette,F,lady’s_maid,elementary_professions,lower_class,"
            
Colette:

            
So — dü kennsch ne guet?

          
",3,horsch-d-madam-fahrt-velo,9,1,0.0,0.1111111111111111
8,comedy,Alphonsel,M,,,,"
            
Alphonsel:

            
Heijo, bring ich nit allewyl sinni Briefle do here? — un d'rno hawi ne schun oft uff d'r Rennbahn
            fahre sehn.

          
",4,horsch-d-madam-fahrt-velo,27,3,1.324411566488324,0.1111111111111111
9,comedy,Colette,F,lady’s_maid,elementary_professions,lower_class,"
            
Colette:

            
Jo, dü hesch erecht, hein, der kann's ? E épatanter Typ. De Kilometer macht 'r in ere Minüt un 53
            3/4 Sekunde, départ lancé.

          
",4,horsch-d-madam-fahrt-velo,33,1,2.947676009557516,0.030303030303030304
10,comedy,Alphonsel,M,,,,"
            
Alphonsel:

            
Ja, ich weiß, diß letscht hett 'r sogar emol e Weltrecord um e Viertelsekund verbessert. Isch's
            nit so, Mamsell Colette ?

          
",5,horsch-d-madam-fahrt-velo,28,1,2.0912188503860056,0.03571428571428571
11,comedy,Colette,F,lady’s_maid,elementary_professions,lower_class,"
            
Colette:

            
Doch, dü kleiner Hosselottl. Fahrsch dü au schun Velo, daß de dich so interessirsch?

          
",5,horsch-d-madam-fahrt-velo,20,1,0.0,0.05
12,comedy,Alphonsel,M,,,,"
            
Alphonsel:

            
A noch, wisse Sie, ich helf als im Herr Blotzmeier driwwe d'Velo uffbumbe un schmiere, un do lehnt
            'r m'r als eine vun sinne alte Kärich. Sie sotte emol sehn, wie ich schun loszeij.

          
",6,horsch-d-madam-fahrt-velo,43,5,0.5560137690019377,0.11627906976744186
13,comedy,Colette,F,lady’s_maid,elementary_professions,lower_class,"
            
Colette:

            
Ha ha ha, do wursch dü halt au am e schöne Daa e Champion oder e Recordman genn. Was witt denn
            wäre ?

          
",6,horsch-d-madam-fahrt-velo,27,4,1.9338481245261328,0.14814814814814814
14,comedy,Alphonsel,M,,,,"
            
Alphonsel:

            
Sie hann's grad geroothe, — Rennfahrer wurr i, sunsch nix.

          
",7,horsch-d-madam-fahrt-velo,16,2,3.0063358538402207,0.125
15,comedy,Colette,F,lady’s_maid,elementary_professions,lower_class,"
            
Colette:

            
Voyons, was schriebt m'r min Shatz? 
            
(Lest den Brief.)
 — Was, er will m'r hitt e Visit mache, un denne Morje noch. I soll
            mache, daß i e Minütt for ne hab? Diß isch nit möjli!!

          
",7,horsch-d-madam-fahrt-velo,50,2,0.0,0.04
17,comedy,Colette,F,lady’s_maid,elementary_professions,lower_class,"
            
Colette:

            
Ja, do isch gueter Roth dier. I mueß jo mit d'r Madam furt uff Allerheilige. Herrschaft, diß isch
            m'r jezt e Stoß! Saa-m, es geht nit, un daß i mit d'r Madam furt mueß. Mit dere dumme Partie uff
            Allerheilige !

          
",8,horsch-d-madam-fahrt-velo,51,8,1.5860112109174294,0.1568627450980392
18,comedy,Alphonsel,M,,,,"
            
Alphonsel:

            
Guet Mamsell, — Adje.

          
",9,horsch-d-madam-fahrt-velo,8,2,1.3422134717872176,0.25
19,comedy,Colette,F,lady’s_maid,elementary_professions,lower_class,"
            
Colette:

            
Wart, säh, do hesch for e Wecke. 
            
(Gibt ihm ein Geldstück.)
 Ei, ei, ei, 
            
(Alphonsel ab, Colette ruft ihm nah.)
 Halt!, Alphonsel, weisch was, i mach e
            Kapitalstreich. I mach ebs am Velo, no kanni nit mit. Saasch'm bis in ere Halbstund kann 'r komme.
            Bis dort anne isch s'Nescht per Rad üsgflöije.

          
",9,horsch-d-madam-fahrt-velo,79,3,1.711066638322782,0.0379746835443038
21,comedy,Colette,F,lady’s_maid,elementary_professions,lower_class,"
            
Colette:

            
Au revoir, Alphonsel — un e schön's Kumpliment, vergiß's nit!

          
",10,horsch-d-madam-fahrt-velo,17,1,2.177800157724213,0.058823529411764705
23,comedy,Contre,M,,,,"
            
Contre

            
(kommt durch die Mitte):

            
Elle w'est pas gênée! Hm, hm. 
            
(Colette steht rasch auf und macht sich ans Radputzen.)
 Luej do, het der letzgedräijt
            Barickeszipfel widder s'nämli Pläßzel vergesse ze rasiere, un e ganzes Pädel Bürschte stehn Ionn. —
            Colette, wo isch d'Madam? isch sie schun zeruck? Denn do steht schun widder min cauchemar.

          
",11,horsch-d-madam-fahrt-velo,73,3,0.9825586698525054,0.0410958904109589
24,comedy,Colette,F,lady’s_maid,elementary_professions,lower_class,"
            
Colette:

            
Grad isch d'Madam kumme, vor e paar Minüte.

          
",12,horsch-d-madam-fahrt-velo,13,3,1.2052283503928594,0.23076923076923078
26,comedy,Colette,F,lady’s_maid,elementary_professions,lower_class,"
            
Colette:

            
In ihrem Zimmer, sie düet e paar anderi Hosse an, denn d'andere sinn denne Morje.....

          
",13,horsch-d-madam-fahrt-velo,21,1,0.0,0.047619047619047616
28,comedy,Colette,F,lady’s_maid,elementary_professions,lower_class,"
            
Colette:

            
Ja, d'andere han e Schade gelitte. Madame a ramassée une pelle, mais une pelle! — Nein, sehn die
            Hosse üs. — E so langer Schlenzer. 
            
(Zeigt mit den Händen.)

          
",14,horsch-d-madam-fahrt-velo,42,6,1.4021470805603444,0.14285714285714285
29,comedy,Contre,M,,,,"
            
Contre:

            
Isch d'Madam g'falle ? Sie wurd sich doch nit weh gedohn hann?

          
",14,horsch-d-madam-fahrt-velo,16,3,0.9685993959671512,0.1875
30,comedy,Colette,F,lady’s_maid,elementary_professions,lower_class,"
            
Colette :

            
O nein Herr, seije Sie nurre getroscht, d'Madam hett's hüsse, wenn sie fallt, duet sie sich 
            
nit weh, denn sie isch's jo gewöhnt, un no isch sie flink as wie e Katz.

          
",15,horsch-d-madam-fahrt-velo,44,3,1.4539500142281756,0.06818181818181818
32,comedy,Colette,F,lady’s_maid,elementary_professions,lower_class,"
            
Colette:

            
Pour sür, s'isch ere fascht nix g'schehn. Elle a une veine bleue.

          
",16,horsch-d-madam-fahrt-velo,18,1,0.0,0.05555555555555555
33,comedy,Contre,M,,,,"
            
Contre

            
(bei Seite):

            
Décidément, elle est émancipée cette fille. 
            
(Saut.)
 Nit emol s'Velo isch hin? flûte alors! So e Glück hawi keins.

          
",16,horsch-d-madam-fahrt-velo,34,2,1.52115616795505,0.058823529411764705
34,comedy,Colette,F,lady’s_maid,elementary_professions,lower_class,"
            
Colette:

            
S'isch nix dran. Ein pedale isch e bissel faussiert g'sinn, awer d'r Herr Blotzmeier hett's
            unterwäij's reparirt. Jetzt fehlt ere nur noh e bissel Luft.

          
",17,horsch-d-madam-fahrt-velo,34,2,0.7280259273915368,0.058823529411764705
35,comedy,Contre,M,,,,"
            
Contre:

            
Kein Luft? Was saat Sie jeht diß erersch. Hett sie eng? Do isch sie amend doch krank. Ich mueß
            schnell noch e-re lueije. 
            
(Will abgehen.)

          
",17,horsch-d-madam-fahrt-velo,35,3,1.7326543228603672,0.08571428571428572
36,comedy,Colette,F,lady’s_maid,elementary_professions,lower_class,"
            
Colette:

            
Halte Sie, halte Sie, s'isch jo nur d'r Maschin, wo Luft fehlt, — do hawi d'Luftspritz schun
            gerischt.

          
",18,horsch-d-madam-fahrt-velo,27,4,1.9889822039680554,0.14814814814814814
38,comedy,Colette,F,lady’s_maid,elementary_professions,lower_class,"
            
Colette:

            
D'Madam hett g'saat, Sie solle ne nurr ellein trinke, sie hett ne schun denne Morje früeij uff'm
            Fuchsebuckel genumme, entre deux enlevages! —

          
",19,horsch-d-madam-fahrt-velo,31,4,0.6623044273095893,0.12903225806451613
40,comedy,Colette,F,lady’s_maid,elementary_professions,lower_class,"
            
Colette:

            
Oui Monsieur, un petit emballage, un i bin in-e-ere Minüt un fünf Sekunde widder do, — grad wie
            d'r Tortino. 
            
(Ab.)

          
",20,horsch-d-madam-fahrt-velo,30,1,2.101487363030701,0.03333333333333333
41,comedy,Contre,M,,,,"
            
Contre:

            
D'r Tortino? — e-n-emballage? — Die wurd m'r noch verrukt. O mit dere nundebuckels Stramplereij. 
            
(Colette kommt mit dem Kaffeeservice herein, rüstet den Tisch.)
 I hab gar ken Frau meh
            im Hüß! Zitter daß sie Velo fahrt, plus de femme chez moi! De ganze Daa wurd do gerädelt. Ihri Mamme
            rädelt, minni Schweschter rädelt, minni Magd idem, — i bin meischt nurr noch ellein in d'r
            Menasch!

          
",20,horsch-d-madam-fahrt-velo,87,5,0.8956842963627277,0.05747126436781609
42,comedy,Colette,F,lady’s_maid,elementary_professions,lower_class,"
            
Colette

            
(ist mit rüsten fertig):

            
Voilà Monsieur, do isch Ihr café! Awer jetzt mueß i s'Rad g'schwind butze, d'Madam wurd glich eryn
            kumme for's abzehole, sie will widder furt, un ich bin au noch nit gerischt.

          
",21,horsch-d-madam-fahrt-velo,48,4,0.3785494220369693,0.08333333333333333
44,comedy,Colette,F,lady’s_maid,elementary_professions,lower_class,"
            
Colette:

            
Za do käm ich schön an. In d'r Küche könnte jo Fettflecke od'r Wasserspriber drankumme, un im
            Gang, do sinn Debbi mit Näjel angemacht, on pourrait crever un pneu. Nein d'Madam lyd's nit.

          
",22,horsch-d-madam-fahrt-velo,43,2,1.0889000788621066,0.046511627906976744
45,comedy,Contre,M,,,,"
            
Contre:

            
Hm, 's wundert mi ball, daß sie diß Möwel nit im Salon oder im Schloofzimmer butze loßt. 
            
(Colette schraubt die Pumpe an, und gibt dem hinteren Rade Luft und Contre ißt seinen Kaffee
            fertig.)

          
",22,horsch-d-madam-fahrt-velo,43,2,0.8085445610184502,0.046511627906976744
46,comedy,Juliette,F,,,,"
            
Juliette

            
(rechts herein):

            
Isch min Rad widder propper ? — Sie brücht jo e-n-Ewigkeit dezue! — Ah, bonjour Jean. 
            
(Colette ist fertig, ab.)

          
",23,horsch-d-madam-fahrt-velo,35,1,2.6071666344885416,0.02857142857142857
47,comedy,Contre,M,,,,"
            
Contre:

            
Bonjour Madame, bisch de schun widder g'stisselt un g'spoort? Wo geht denn d'Reif' schun widder
            anne? Kummsch jo kümm heim, un jezt witt schun widder loß? I mein, de könntsch jetzt d'heim bliewe.
            For denne Morje wär's genue. Tu te fatigues trop, et puis — i hab erfahre, daß de e Burzelbaum
            g'schlaaue hesch. Tu n'as pas mal?

          
",23,horsch-d-madam-fahrt-velo,76,4,0.0,0.05263157894736842
48,comedy,Juliette,F,,,,"
            
Juliette:

            
Ach, fangsch de schun widder an? Non, je n'ai rien, sunsch dät i jo d'heime bliewe. Mais, haw' ich
            d'r nit die Wuch g'saat, daß m'r hitt in's Badisch niewer welle, uff Allerheilige. Dü hesch jo
            versproche mit em Zuck nochzekumme. Un jetzt saasch, que je devrai rester là?

          
",24,horsch-d-madam-fahrt-velo,66,3,0.883072569746119,0.045454545454545456
49,comedy,Contre,M,,,,"
            
Contre:

            
Ma chère, diß hawi wohl g'saat, mais enfin, tu sais, diß ewig geräddels, ce n'est pas du tout mon
            goût, je n'aime pas ga. M'r könnte jo au sunsch ienes anne gehn.

          
",24,horsch-d-madam-fahrt-velo,44,3,0.0,0.06818181818181818
50,comedy,Juliette,F,,,,"
            
Juliette:

            
Oui, je sais, daß dü mir die Fraid nit gunsch. So sinn'r alli, ihr Männer. Wenn e 
            
Wybsbild e Fraid an ebs hett, ze-n-isch's Euch e Dorn im Au. Dü bisch wie alli andere,
            kein Hoor besser, — c'est vraiment vrai.

          
",25,horsch-d-madam-fahrt-velo,56,5,0.43510448538368907,0.08928571428571429
51,comedy,Contre,M,,,,"
            
Contre:

            
Bon, voilà que ça recommence. — So hawi 's nit gemeint! Unn wenn i ebs d'rgeije hätt? — Dü bisch
            jo kein Minüt meh d'heim. Un d'rno, weisch, moi qui ne suis pas avec, — dü fahrsch allewyl mit andere
            Lytt.

          
",25,horsch-d-madam-fahrt-velo,55,1,0.0,0.01818181818181818
52,comedy,Juliette,F,,,,"
            
Juliette:

            
Mit andere Lytt? mit minnere Mamme, mit dinnere Schweschter, mit'm Colette, voilà tout. Un diß
            heisch dü mit andere Lytt?

          
",26,horsch-d-madam-fahrt-velo,29,1,1.9189126952668543,0.034482758620689655
53,comedy,Contre,M,,,,"
            
Contre:

            
Ma chère, dü hesch einer vergesse, — d'r Herr Blotzmeier !

          
",26,horsch-d-madam-fahrt-velo,15,2,0.7280259273915368,0.13333333333333333
55,comedy,Contre,M,,,,"
            
Contre:

            
Ach, der zählt nit, — awer bi mir zählt der, un starik. I hab ne uff d'r Latt, denne
            durichgebloßte Ex-Stüdent, d'Madame kann 'r s'Velofahre lehre. Ha, ha, zell isch nit so schwer als e
            Exame mache. Weisch, for Räder zue verkaufe, hett 'r au kenn siwwe Semeschter stüdiere brüche. Der
            ish jo Schuld an dem große Uewel. Der hett d'r jo diß Rad uffgebebbt. Weisch, daß der grad gejenüewer
            von uns e Velolade hett anfange müen, diß due i em nie vergesse. Un wo de hesch g'sehn, daß ball meh
            Wybslytt wie Herre sinni Pratike sinn, hesch dü halt au so e Rad müen hann. Un jetzt 
            
haw' ich de Broote. Der hett dich fahre lehre, un gehsch dü emol furt, na, — na so isch
            der Herr allewyl debie.

          
",27,horsch-d-madam-fahrt-velo,161,15,1.04032146918639,0.09316770186335403
57,comedy,Contre,M,,,,"
            
Contre:

            
Moi, non Madame, vun dem isch kein Redd. Awer ich find, daß sich diß nit allewyl schickt. Immer
            mit dem Blotzmeier do, — meinsch, daß d'Lytt nix do drüwer ze saaue hann, — die wäre sich nit
            sümme.

          
",28,horsch-d-madam-fahrt-velo,50,4,2.163381464557109,0.08
58,comedy,Juliette,F,,,,"
            
Juliette:

            
Was d'Eytt drüwer fauue, je me demande quoi, — do leij ich fein Werth druff.

          
",29,horsch-d-madam-fahrt-velo,21,1,2.7001453643338307,0.047619047619047616
59,comedy,Contre,M,,,,"
            
Contre:

            
Ich au nit, awer doch mueß m'r mit dem reche. D'böse Miller erfinde, was sie nit wisse, un s'isch
            m'r schun e Manichs an d'Ohre kumme, wo.....

          
",29,horsch-d-madam-fahrt-velo,38,2,2.6511989437937356,0.05263157894736842
60,comedy,Juliette,F,,,,"
            
Juliette:

            
Ah, ah, i glaub dü spionirsch mi üs, oder soll diß verlicht heiße, daß i nimmi Velo fahre derf,
            od'r soll, — wäje de Lytt ?

          
",30,horsch-d-madam-fahrt-velo,34,2,0.0,0.058823529411764705
61,comedy,Contre,M,,,,"
            
Contre:

            
Dü hesch verlicht erecht, — doch verbiete — nein, diß will i d'r jo grad nit. Awer weisch, entre
            nous, une femme sur un vélo, — oh! diß isch nit allewyl g'fitzt, awer gar nit. Ce n'est pas gracieux
            du tout.

          
",30,horsch-d-madam-fahrt-velo,54,4,0.5253718407576753,0.07407407407407407
63,comedy,Contre,M,,,,"
            
Contre:

            
So, meinsch, eh bien, hör, ich hab doch schun ebbs netters g'sehn, as e frauezimmer, wo uff e re
            Maschin drowe fitzt, un druff loos strampelt wie e Scheereschliffer, un Hoffe an hett, wie d'r erscht
            bescht Säckträjer! Wenn 'r euch nurre sehr däte, s'dät verlicht e manchi schneller widder erunter
            springe als sie nuff kumme isch.

          
",31,horsch-d-madam-fahrt-velo,72,8,2.7525449574260663,0.1111111111111111
64,comedy,Juliette,F,,,,"
            
Juliette:

            
Ich weiß absolument nit, was dü do dran üszesetze hesch. Soll e Frau nit au d'nämliche Blessiere
            hann, als wie d'r Mann. Mueß sie denn nurre ihri ganz Exischtenz in d'r Küche am Wasserstein, od'r in
            ihre vier Müüre, wo ihri Menasch drinne steht, zuebringe. Im Herre Knöpf annäije, Schueh wichse,
            d'Kinder.....

          
",32,horsch-d-madam-fahrt-velo,67,4,1.1594427803047398,0.05970149253731343
66,comedy,Juliette,F,,,,"
            
Juliette:

            
Ich — ja — nein.

          
",33,horsch-d-madam-fahrt-velo,8,1,2.0912188503860056,0.125
68,comedy,Juliette,F,,,,"
            
Juliette:

            
Ja un wurum solle m'r nit Velo fahre ?

          
",34,horsch-d-madam-fahrt-velo,11,1,2.0912188503860056,0.09090909090909091
70,comedy,Juliette,F,,,,"
            
Juliette:

            
Esthétique! Ah, dü bisch esthétique, ça c'est du nouveau. Eh bien, was findsch dü do
            non-esthétique dran? I bin wunderfitzi.

          
",35,horsch-d-madam-fahrt-velo,29,2,1.7258939965485685,0.06896551724137931
71,comedy,Contre,M,,,,"
            
Contre :

            
Oho, wenn 'r verlicht alli wärde wie d'Venus vun Médici, dät m'r schun e-n-Au zuedrucke, 
            
awer so! — hm — i hab gescht eini g'sehn, e Dicki, e Dicki, — mit Hoffe an, e wohrer
            zweithüriger Kaschte, e Feschtung, e Mehlsack, e Blotzständel, e-n-Omnibus, e..... Dampfwalz.

          
",35,horsch-d-madam-fahrt-velo,67,5,1.712700067973703,0.07462686567164178
73,comedy,Contre,M,,,,"
            
Contre:

            
Bref, e Monstrum, quoi! Ulli Lytt hann ere nochgelueijt, un hann sich geringelt. Un no hett sie e
            Buckel gemacht, wie e Katz wenn's dundert, — dü siehsch diß Bild vun do? E-n-andermol sieht m'r
            widder e Maueri, e Stede, e Besestiel, wo d'Kleider annere rumflattere, wie d'Lumpe an-ere
            Spatzeschaich. Extremitäte wie Sandschiffle an de Shwewelhölzle, autrement dit — Bein!

          
",36,horsch-d-madam-fahrt-velo,82,3,2.6842625004410525,0.036585365853658534
75,comedy,Contre,M,,,,"
            
Contre:

            
A bah — s'isch d'Wohrheit. Wo sieht m'r alti, jungi, kurzi, dinni G'schteller, un mit em e chic
            gemutzt, daß m'r ne par pitié gern e Sü gäbt, — wohri Prachtexemplar for in e Wachsfigürehitt, —
            Abtheilung für Velowomen.

          
",37,horsch-d-madam-fahrt-velo,52,5,1.6492140004403197,0.09615384615384616
77,comedy,Contre,M,,,,"
            
Contre:

            
Ich bin noch nit ferti. Un die alli fahre drufflos, jeschte un strampfe, han G'fichter, roth wie e
            fochter Krebs, un schwitze, daß ne s'Wasser in Bächle üwer d'Backe na lauft. D'Hoor henke ne in
            d'Aue, vun denne schöne, fünschtliche Locke, wo stundelang geringelt un gebrennt wäre, kein Spür meh,
            un sehn üs grad wie e-n-alti Ziginere, 
            
wenn sie am Morje üs'em Karich schlupft. Wenn dü diß alles schön findsch, ma chère, mes
            compliments.

          
",38,horsch-d-madam-fahrt-velo,99,9,1.5350626693850804,0.09090909090909091
78,comedy,Juliette,F,,,,"
            
Juliette:

            
Hör Jean, wenn de m'r nix andersch ze sauue hesch als wie diß! — Dü bisch awer for unsereins awer
            nit im Geringschte galant. — Der Herr Blotzmeier isch in denne Stücke doch viel galanter uns
            gejenüwer, i mueß 's g'stehn un sauue.

          
",39,horsch-d-madam-fahrt-velo,50,1,1.4560518547830736,0.02
80,comedy,Juliette,F,,,,"
            
Juliette:

            
Jean! — A moi — ah non, c'est trop fort! Do bisch de awer uff 'm Holzwäij. — Diß hawi jo noch gar
            nit gemerkt. Er isch artli, zevorkommend, zell isch wohr, arri artli — awer meh nit. Ah non, diß dät
            i ihm nit erlauwe, do dät 'r nit ung'strooft durichschlupfe, — do kennt 'r mi awer noch nit.

          
",40,horsch-d-madam-fahrt-velo,75,3,2.289677756734094,0.04
82,comedy,Juliette,F,,,,"
            
Juliette:

            
I hab d'r jo vori schun g'saat, dü bisch schallü. Arms Männel — je mueß i di jo au noh tröesch'e.
            Tu me fais de la peine! Na, will dü awer saasch, dü hesch Aue — do will i d'r nur sauue, daß 'r
            d'ganz Zytt hinter dinnere Schweschter her isch.

          
",41,horsch-d-madam-fahrt-velo,62,2,0.8980498955278934,0.03225806451612903
84,comedy,Juliette,F,,,,"
            
Juliette:

            
Un wenn de so gueti Aue hettsch, wie de meinsch, ze mueschte schun g'sehn han, daß er d'ganz Zitt
            mit dinnere Schweschter redd, un e-re gewalti hoffiert ?

          
",42,horsch-d-madam-fahrt-velo,35,4,0.8796736417503588,0.11428571428571428
85,comedy,Contre,M,,,,"
            
Contre:

            
Od'r sie ihm! Mit minnere Schweschter, la bonne farce, die isch jo zehn Johr älter als wie er!
            Geh' mach m'r fen Plän, ich weiß, was ich weiß. Diß alles isch e excuse, — so g'scheit bin i au.

          
",42,horsch-d-madam-fahrt-velo,50,4,0.879665179023313,0.08
88,comedy,Juliette,F,,,,"
            
Juliette:

            
Ach, mais, diß isch nit üwel. Glaubt der dumm Mann, daß ich -! Mon cher Jean, tu me connais bien,
            tu sais comme je t'aime. Dü hesch ken Recht, nurre de geringschte soupçon ze hann an mir, bin ich nit
            dinni lieb, klein Frau? —

          
",44,horsch-d-madam-fahrt-velo,59,5,0.5221470019112904,0.0847457627118644
89,comedy,Contre,M,,,,"
            
Contre:

            
Gewiß, gewiß — i tröj d'r jo! Awer der schnied dir e cour numéro Pfiff, un zell isch au wohr. Dü
            bisch jo e Muschterwywele, wärsch noch e viel größers, — wenn de nit Velo fahre dätsch! Awer d'Lytt,
            lueij d'Lytt, i möcht absolument nit vor denne, un vor'm Blotzmeier als Simpel passiere. Ich sich
            hell, un wenn's ze bunt kommt, no guetnacht.

          
",44,horsch-d-madam-fahrt-velo,83,7,2.1675300766576457,0.08433734939759036
90,comedy,Juliette,F,,,,"
            
Juliette:

            
Allons, allons Jean, calmier dich, un redd dich doch nit in d'Hitz nin, ça ne vaut pas la
            peine.

          
",45,horsch-d-madam-fahrt-velo,27,1,0.0,0.037037037037037035
91,comedy,Contre,M,,,,"
            
Contre:

            
Hesch erecht, — s'isch wohr, i hab e Röijes wie e Hüß ! Tiens lueij, i weiß gar nit ebb ich noch
            mit euch fahre soll od'r nit?

          
",45,horsch-d-madam-fahrt-velo,35,2,0.0,0.05714285714285714
92,comedy,Juliette,F,,,,"
            
Juliette:

            
Diß derfsh nit mache, denn dü hesch m'r's versproche. D'Mamme un's Ursule wäre jetzt glich kumme
            vor uns abzehole. s'Colette fahrt au mit, i hab's-m versproche. Diß arm Maidel hett schun vier Wuche
            kenne Sundaa meh g'hett.

          
",46,horsch-d-madam-fahrt-velo,51,6,0.8557513329035534,0.11764705882352941
93,comedy,Contre,M,,,,"
            
Contre:

            
Do hawi am meischte Fraid dran, daß diß au fahrt. —

          
",46,horsch-d-madam-fahrt-velo,15,1,0.0,0.06666666666666667
96,comedy,Juliette,F,,,,"
            
Juliette:

            
Wer weiß, s'wurd am End nimmi lang düüre, ze sitsch dü au uff so e-re Maschin.

          
",48,horsch-d-madam-fahrt-velo,22,2,1.3246088546191785,0.09090909090909091
97,comedy,Colette,F,lady’s_maid,elementary_professions,lower_class,"
            
Colette

            
(kommt als Velocipedistin angezogen, Hosen):

            
D'r Herr Blotzmeier isch drunte un fröijt ob Sie gerischt sinn?

          
",48,horsch-d-madam-fahrt-velo,22,2,0.7280259273915368,0.09090909090909091
98,comedy,Contre,M,,,,"
            
Contre

            
(bei Seite):

            
Wenn'r nur bi de Kannibale wär, der Geck!

          
",49,horsch-d-madam-fahrt-velo,16,1,4.950012227692531,0.0625
99,comedy,Juliette,F,,,,"
            
Juliette:

            
Ah, très bien, — er soll eruf kumme. 
            
(Colette ab)
 Tu permets, n'est-ce pas? kann ne doch nit uff d'r Baß stehn lonn. D'Mamme
            isch au noch nit do.

          
",49,horsch-d-madam-fahrt-velo,42,4,2.103082390328057,0.09523809523809523
105,comedy,Juliette,F,,,,"
            
Juliette :

            
Kumme Sie nurre eryn, — nemme Sie Platz dort uff zellem Faudell.

          
",52,horsch-d-madam-fahrt-velo,16,2,2.0817076986931173,0.125
106,comedy,Blotzmeier,M,bicycle_store_owner,service_and_sales,upper_middle_class,"
            
Blotzmeier:

            
Wie geht's Inne, Herr Contre, wie steht's Befinde. Immer munter, wohl schunn e Spaziergang gemacht
            ?

          
",53,horsch-d-madam-fahrt-velo,24,5,1.6767157004105215,0.20833333333333334
107,comedy,Contre,M,,,,"
            
Contre:

            
s'geht so, merci, — un bi Inne — au? So isch recht, nemme Sie doch Platz. 
            
(Bei Seite.)
 Ich geh los. — 
            
(Laut)
 Ah sapristi, i hab minne Stock uff'm Bureau stehn gelonn, — i mueß gehn, 'ne
            hole, — sunsch griet 'r amend Füeß, denn er isch nett. Sie excüsiere, i kumm glich widder. Adieu. 
            
(Ab.)

          
",53,horsch-d-madam-fahrt-velo,84,9,1.565214822096828,0.10714285714285714
108,comedy,Blotzmeier,M,bicycle_store_owner,service_and_sales,upper_middle_class,"
            
Blotzmeier:

            
Fraid mich sehr, gnädigi Madam, Sie so frisch ze sehn. Hoffentlich hann Sie sich vun Ihrem Sturz
            von denne Morje erholt? Denne Schreck, es isch m'r in min ganzes Ich ning'fahre, als ich Sie stürze
            hab sehn. Awer min Kumpliment, Sie sinn fürchterli schnell widder uff de Bein g'sinn, nur die
            Hauptsach', ohne Shade ze nemme, diß nenn' ich e Glück, e fawelhaft's Glück.

          
",54,horsch-d-madam-fahrt-velo,80,17,1.403488043539834,0.2125
109,comedy,Juliette,F,,,,"
            
Juliette:

            
Jo, i hab chance g'hett, i hab awer au denne Bachstein, wo mitte uff d'r Stroß geläije isch,
            erersch g'sehn wo i schunn dran bin g'finn. M'r meint grad, so Sache sinn expreß gemacht.

          
",54,horsch-d-madam-fahrt-velo,43,4,2.050601940815815,0.09302325581395349
110,comedy,Blotzmeier,M,bicycle_store_owner,service_and_sales,upper_middle_class,"
            
Blotzmeier:

            
Gewiß, sehr möijli. Die Lytt in d'r Umgejed sinn unverschämt genue, so ebbs ze duen, ich hab schon
            so ähnlichs erlebt. Do wäre Stein, Scherwe, gebrocheni Flasche, Näjel uff d'Stroß geworfe, nur um uns
            Radler ze-n-ärjere, un ze schade. Awer ich sieh Gnädigi schun widder frischi Toilette gemacht. Die
            Hosse stehn Inne reizend. Einfach großartig.

          
",55,horsch-d-madam-fahrt-velo,74,14,1.259518060809879,0.1891891891891892
111,comedy,Juliette,F,,,,"
            
Juliette:

            
s'sinn Hosse, nit meh un nit wenjer. 
            
(Bei Seite.)
 Min Mann hätt diß sotte höre!

          
",55,horsch-d-madam-fahrt-velo,24,1,0.0,0.041666666666666664
112,comedy,Blotzmeier,M,bicycle_store_owner,service_and_sales,upper_middle_class,"
            
Blotzmeier:

            
Ja, gewiß, Sie hann entschiede recht, d'Dame hann üwerhaupt immer recht. — Awer d'gnädig Madam
            verstehn dieselbe ze trauue, oh ganz entschiede, wie kenn Anderi ! Sie sinn großartig.

          
",56,horsch-d-madam-fahrt-velo,40,8,1.1167524370694581,0.2
113,comedy,Juliette,F,,,,"
            
Juliette:

            
Wie Sie meine.

          
",56,horsch-d-madam-fahrt-velo,6,1,0.0,0.16666666666666666
114,comedy,Blotzmeier,M,bicycle_store_owner,service_and_sales,upper_middle_class,"
            
Blotzmeier:

            
O doch, ich wiederhol, Frau Contre, Sie sinn entzükend als Radlerin, als Huldigerin vum edle
            Radsport. Sie sinn e Göttin uff'm Rad.

          
",57,horsch-d-madam-fahrt-velo,31,1,2.649217709238357,0.03225806451612903
115,comedy,Juliette,F,,,,"
            
Juliette:

            
I mein, Sie üwertriewe awer doch e bissel mit Ihre Kumplemente. Ich bin angedohn, wie alli Andere
            au. Do find i nix abartigs dran.

          
",57,horsch-d-madam-fahrt-velo,31,2,2.2662602663732736,0.06451612903225806
116,comedy,Blotzmeier,M,bicycle_store_owner,service_and_sales,upper_middle_class,"
            
Blotzmeier :

            
Ja, awer Sie hann e chic, Madam, e chic, e ganz abartiger chic..... großartig!

          
",58,horsch-d-madam-fahrt-velo,22,7,4.66420860313322,0.3181818181818182
117,comedy,Juliette,F,,,,"
            
Juliette

            
(bei Seite):

            
Allez, der kummt gar nimm vun simm chic erab! — Sie sinn zue galant.

          
",58,horsch-d-madam-fahrt-velo,23,1,3.195793508943417,0.043478260869565216
118,comedy,Blotzmeier,M,bicycle_store_owner,service_and_sales,upper_middle_class,"
            
Blotzmeier :

            
Ich wett döuisig geje eins, daß sämmtliche Stroßburjer Radfahrerinne Sie düen beniede. Un Ihri
            Haltung uff'm Rad — graziös, anmüthi, delicat — oh — — — —

          
",59,horsch-d-madam-fahrt-velo,34,3,2.6071596107403825,0.08823529411764706
119,comedy,Juliette,F,,,,"
            
Juliette

            
(bei Seite):

            
Min Mann hett recht! — 
            
(Laut.)
 Die Andere kumme awer lang nit.

          
",59,horsch-d-madam-fahrt-velo,23,5,0.7872453687983876,0.21739130434782608
120,comedy,Blotzmeier,M,bicycle_store_owner,service_and_sales,upper_middle_class,"
            
Blotzmeier :

            
Wenn ich als so newe Inne radel, do dräje sich nit ellein d'Räder unter minne Füeß, 
            
nein, min Bluet dräijt sich mit doppelter Schnelligkeit in minne Odere, un min Herz
            pedaliert in minnere Bruscht vor Glück un Seligkeit, so, so — großartig!

          
",60,horsch-d-madam-fahrt-velo,52,10,1.326919754192314,0.19230769230769232
121,comedy,Juliette,F,,,,"
            
Juliette:

            
Jetzt isch awwer genue, — Herr Blotzmeier Sie fawle.

          
",60,horsch-d-madam-fahrt-velo,13,1,1.4560518547830736,0.07692307692307693
122,comedy,Blotzmeier,M,bicycle_store_owner,service_and_sales,upper_middle_class,"
            
Blotzmeier:

            
Uff Ehr, Madame, s'isch min Ernscht, min ganzer Ernscht. Ich bin kenn Babbler, diß wisse Sie jo
            selbscht, i saa nurr was wohr isch. Oh, wie gern dät ich noch viel meh sauwe. —

          
",61,horsch-d-madam-fahrt-velo,46,7,1.2593594705120255,0.15217391304347827
123,comedy,Juliette,F,,,,"
            
Juliette:

            
(bei Seite):

            
Um's Himmelswille. — 
            
(Laut.)
 Merci bien, Sie sauwe grad genue — un jetzt höre Sie uff mit dem G'spaß, je
            vous en prie.

          
",61,horsch-d-madam-fahrt-velo,38,3,2.3909114093710397,0.07894736842105263
124,comedy,Blotzmeier,M,bicycle_store_owner,service_and_sales,upper_middle_class,"
            
Blotzmeier:

            
Sehn Sie, Madame Contre — 
            
(Es klopft, bei Seite.)
 Shade!

          
",62,horsch-d-madam-fahrt-velo,18,3,0.44133899674220495,0.16666666666666666
126,comedy,Juliette,F,,,,"
            
Juliette:

            
Ah parfait, c'est charmant, daß 'r jeht do sinn. Jett kenne m'r uffpacke, wie 's Colette angedohn
            isch. 
            
(Ruft hinaus in die Küche.)
 Colette, hopp isch Sie ferti, dummelt Sie sich.

          
",63,horsch-d-madam-fahrt-velo,44,1,0.0,0.022727272727272728
127,comedy,Mme. Trett,F,,,,"
            
Mme. Trett:

            
Wie geht's, ma fille. — Isch wohr bisch dü g'falle? M'r sieht d'r jo gar nix an. Hesch d'r nit weh
            gemacht.

          
",63,horsch-d-madam-fahrt-velo,31,5,1.2326059910818692,0.16129032258064516
129,comedy,Mme. Trett,F,,,,"
            
Mme. Trett :

            
Grad wo i d'Gaß eryn g'fahre bin, isch s'Ursule vun d'r ander Sytt kumme, et nous voila, Wo isch
            d'r Herr Blotzmeier?

          
",64,horsch-d-madam-fahrt-velo,31,4,2.082242168367386,0.12903225806451613
130,comedy,Blotzmeier,M,bicycle_store_owner,service_and_sales,upper_middle_class,"
            
Blotzmeier

            
(hervortretend):

            
Entschuldige Sie, ihr Dame, i bin schun e gewissi Zitt do.

          
",65,horsch-d-madam-fahrt-velo,19,2,2.2771479359501794,0.10526315789473684
132,comedy,Mme. Trett,F,,,,"
            
Mme. Trett:

            
Un ich au nit. — Das stecke Sie au do hinte.

          
",66,horsch-d-madam-fahrt-velo,16,1,3.2572317675078932,0.0625
133,comedy,Blotzmeier,M,bicycle_store_owner,service_and_sales,upper_middle_class,"
            
Blotzmeier:

            
Ich, ich hab d' Begrüßung nit störe wölle.

          
",66,horsch-d-madam-fahrt-velo,12,1,0.0,0.08333333333333333
135,comedy,Blotzmeier,M,bicycle_store_owner,service_and_sales,upper_middle_class,"
            
Blotzmeier:

            
Sehr shmeichelhaft, Mademoiselle. — 
            
(Bei Seite.)
 Daß die immer mit mueßl

          
",67,horsch-d-madam-fahrt-velo,18,2,1.6774124301212725,0.1111111111111111
136,comedy,Ursule,F,,,,"
            
Ursule:

            
Ja un wie geht's, cher Monsieur, ich hab Sie jo schun lang nimm g'sehn?

          
",68,horsch-d-madam-fahrt-velo,20,2,1.0456094251930028,0.1
137,comedy,Blotzmeier,M,bicycle_store_owner,service_and_sales,upper_middle_class,"
            
Blotzmeier:

            
Oh, ich bitt Sie — zitter vorgescht.

          
",68,horsch-d-madam-fahrt-velo,11,1,3.231002721060644,0.09090909090909091
138,comedy,Mme. Trett,F,,,,"
            
Mme Trett:

            
Wo isch d'r Jean, — wo steckt 'r? Isch 'r als noch nit bekehrt. Wie schön wär's jetzt, wenn 'r au
            mit radle dät! Nit wohr ?

          
",69,horsch-d-madam-fahrt-velo,36,4,2.325073877922671,0.1111111111111111
141,comedy,Mme. Trett,F,,,,"
            
Mme. Trett:

            
C'est incroyable, cet homme. Hett 'r widder üwer uns losgezöije, hein ?

          
",70,horsch-d-madam-fahrt-velo,18,1,3.2572317675078932,0.05555555555555555
142,comedy,Juliette,F,,,,"
            
Juliette:

            
Na i saa dir, Mamme, diß hättsch höre sotte. I hab, diß heißt, mir hann griet, s'isch kein gueter
            Mumpfel meh an uns gebliewe.

          
",71,horsch-d-madam-fahrt-velo,34,2,0.9594563476334271,0.058823529411764705
143,comedy,Blotzmeier,M,bicycle_store_owner,service_and_sales,upper_middle_class,"
            
Blotzmeier:

            
D'r Herr Contre isch unbegrifflich. Er isch geje de Furtschritt. Er isch nit modern, nein gar nit,
            ha, ha, ha, unglaublich.

          
",71,horsch-d-madam-fahrt-velo,31,4,1.925974768793325,0.12903225806451613
144,comedy,Juliette,F,,,,"
            
Juliette:

            
Maman, hesch schun diß neij blouse gsehn, wo i m'r uff de nächste Sundaa selbscht fawrizier.

          
",72,horsch-d-madam-fahrt-velo,21,1,2.649217709238357,0.047619047619047616
145,comedy,Mme. Trett,F,,,,"
            
Mme. Trett:

            
Non, ma fille.

          
",72,horsch-d-madam-fahrt-velo,8,1,3.2572317675078932,0.125
146,comedy,Juliette,F,,,,"
            
Juliette:

            
Oh, charmant, i hab e Surah entdeckt, so hesch noch keiner g'sehn. Kumm in d'ander Stub, i zaij
            dir's. 
            
(Beide ab.)

          
",73,horsch-d-madam-fahrt-velo,34,3,0.7983802860756386,0.08823529411764706
147,comedy,Ursule,F,,,,"
            
Ursule:

            
Herr Blotzmeier, Sie han m'r ewe üs'm Herze g'sproche, Sie hann ganz erecht, min Brueder isch
            altfränkisch, ich bin ganz von Ihrer Meinung, genn Sie m'r d'Hand.

          
",73,horsch-d-madam-fahrt-velo,37,7,1.5236283255685155,0.1891891891891892
148,comedy,Blotzmeier,M,bicycle_store_owner,service_and_sales,upper_middle_class,"
            
Blotzmeier :

            
S'isch nit derwerth, Fräulein.- 
            
(Bei Seite.) Nein, die Zuedringlichkeit.-(Laut.)
 Wisse Sie, i saa nurre, wie ich's
            denk. Verlicht bekehrt sich d'r Herr Contre noch, un huldigt derno au dem edle, großartigi Sport, dem
            schönschte Vergnüge, dem gröschte Genuß.

          
",74,horsch-d-madam-fahrt-velo,63,5,1.2496289622189245,0.07936507936507936
149,comedy,Blotzmeier,M,bicycle_store_owner,service_and_sales,upper_middle_class,"
            
Blotzmeier

            
(bei Seite):

            
S'wurd g'fährli! 
            
(Laut.)
 Sie schwärme, Fräulein.

          
",74,horsch-d-madam-fahrt-velo,19,4,1.1980232390778873,0.21052631578947367
150,comedy,Ursule,F,,,,"
            
Ursule:

            
Do mueß d'Lieb üwerhand nemme! Finde Sie nit au, Herr Blotzmeier. Ich kann m'r emol gar nit
            andersch inbilde. Un sehn Sie, minner zuekünftig Mann, ja der mueß au Velo fahre. Sehn Sie, so wie
            Sie's könne, so wär's m'r am liebschte. So einer dät m'r am beschte g'falle.

          
",75,horsch-d-madam-fahrt-velo,65,9,1.2726748528479987,0.13846153846153847
151,comedy,Blotzmeier,M,bicycle_store_owner,service_and_sales,upper_middle_class,"
            
Blotzmeier:

            
Awer, ich bitt Sie, Mamsell ! Ich kann — — —

          
",75,horsch-d-madam-fahrt-velo,15,1,3.231002721060644,0.06666666666666667
152,comedy,Ursule,F,,,,"
            
Ursule:

            
O doch, Sie könne's famos, épatant Ich glaub nit, daß noch einer hie isch, wo so eleganti Curve
            fahrt un so g'schickt eine zwische de 
            
Wäije durichführt. Wisse Sie noch, wie Sie mi vor vierzeh Daa zwische-n-eme Sandwaue un
            e-re Kütsch durichg'führt hann? Ah, ich hab d Gänshütt schun g'hett, so satt simmer an de Räder vun
            denne Wäije durihg'fahre. Un wenn Sie nit do wärde g'sinn, — i hab de Kopf schun verlore g'hett —
            weiß i nit, was bassirt wär.

          
",76,horsch-d-madam-fahrt-velo,100,6,0.5263217974409179,0.06
153,comedy,Blotzmeier,M,bicycle_store_owner,service_and_sales,upper_middle_class,"
            
Blotzmeier

            
(bei Seite):

            
Alti Retsch ! 
            
(Laut.)
 Oh, die alt G'schicht, s'isch nit derwerth, daß m'r dervun redd.

          
",76,horsch-d-madam-fahrt-velo,29,1,2.422029155844061,0.034482758620689655
154,comedy,Ursule,F,,,,"
            
Ursule

            
(eifrig):

            
Nit derwerth, par exemple, oh doch! Un wo Sie mi derno sescht am Arm g'hebbt han, do hawi mi so
            sicher g'funde, daß i d'Aue zuegemacht hab, un hab mich ganz Inne üwerlosse, mit 'm Gedanke, daß Sie
            mich schun sicher üs dere böse Affär zeije wäre.

          
",77,horsch-d-madam-fahrt-velo,62,6,2.0061464693303295,0.0967741935483871
155,comedy,Blotzmeier,M,bicycle_store_owner,service_and_sales,upper_middle_class,"
            
Blotzmeier:

            
So g'fährli isch's jo nit g'sinn. 
            
(Bei Seite.)
 Alti Chrestier! —

          
",77,horsch-d-madam-fahrt-velo,19,1,0.0,0.05263157894736842
156,comedy,Ursule,F,,,,"
            
Ursule:

            
Min ganz Lewe wurr i do dran denke, der Moment wurd m'r unvergeßli sinn, un ich bin Inne ewi
            dankbar.

          
",78,horsch-d-madam-fahrt-velo,25,5,1.1320847836267638,0.2
157,comedy,Blotzmeier,M,bicycle_store_owner,service_and_sales,upper_middle_class,"
            
Blotzmeier

            
(bei Seite):

            
I schwitz Bluet! — 
            
(Laut.)
 Awer Mademoiselle, i hab schun g'saat, daß Sie sich gar ken Mueij solle genn,
            do nurre s'kleinscht Wörtel driwer ze verliere.

          
",78,horsch-d-madam-fahrt-velo,41,5,1.474907044699021,0.12195121951219512
158,comedy,Ursule,F,,,,"
            
Ursule:

            
Nein, nein, diß erlaub ich ne nit ze sauue, un sehn Sie, ich hab Inne noch gar nit erecht 
            
danke könne fur die Heldethat, will i noch nit erecht de Zytt hab g'hett. Awer jetzt
            isch's mini Pflicht un möcht's nit verfehle. Ich dank ne vun ganzem Herze. Do sin minni Händ! —

          
",79,horsch-d-madam-fahrt-velo,66,5,0.8018932212402831,0.07575757575757576
159,comedy,Blotzmeier,M,bicycle_store_owner,service_and_sales,upper_middle_class,"
            
Blotzmeier :

            
Awer — Mademoiselle — Fräulein — ihri Händ ? Ah, Sie wölle m'r d'Händ genn. Jo guet, un so wär
            jetzt die G'schicht erledigt.

          
",79,horsch-d-madam-fahrt-velo,31,3,0.7900212668224961,0.0967741935483871
160,comedy,Ursule,F,,,,"
            
Ursule:

            
Merci, liewer, gueter, einziger Mann. 
            
(Sie schütteln sich lange die Hände. Contre, welcher bei den letzten Worten eingetreten ist,
            bleibt erstaunt stehen.)

          
",80,horsch-d-madam-fahrt-velo,34,6,0.8268315268609508,0.17647058823529413
161,comedy,Contre,M,,,,"
            
Contre

            
(für sich):

            
Tiens, mais — do versteh i au nix weh. 
            
(Ab.)

          
",80,horsch-d-madam-fahrt-velo,21,1,2.9057981879014534,0.047619047619047616
162,comedy,Mme. Trett,F,,,,"
            
Mme. Trett

            
(kommt mit Juliette zurück):

            
Nous voilà. Eh bien, ma fille, jetz mein i awer, daß 's Zytt wär uffzepacke, sunsch isch uff
            einmol din Mann mit d'r Isebahn vor uns dort, wenn 'r au später aß mir furtfahrt.

          
",81,horsch-d-madam-fahrt-velo,50,5,1.8716474939686776,0.1
163,comedy,Juliette,F,,,,"
            
Juliette:

            
C'est vrai, Maman, mit sinn gerischt, — na un ihr?

          
",81,horsch-d-madam-fahrt-velo,16,1,0.0,0.0625
164,comedy,Blotzmeier,M,bicycle_store_owner,service_and_sales,upper_middle_class,"
            
Blotzmeier

            
(bei Seite):

            
Na, un obb! 
            
(Laut.)
 Bewiß, gnädigi Hüsfrau mir stehn zue Dienschte, — je ender je liewer.

          
",82,horsch-d-madam-fahrt-velo,30,3,0.8073430519480204,0.1
165,comedy,Colette,F,lady’s_maid,elementary_professions,lower_class,"
            
Colette

            
(kommt herein in Pluderhosen u. s. w.):

            
Madame, i kann d'Partie nit mitmache.

          
",82,horsch-d-madam-fahrt-velo,20,2,0.9611674228529187,0.1
167,comedy,Colette,F,lady’s_maid,elementary_professions,lower_class,"
            
Colette :

            
Madame, minner vorderscht pneu isch leer geloffe, un halt kein Luft meh, — i hab allewäj denne
            Morje wo i zuem Metzjer g'fahre bin, e Nauel uffg'hebt.

          
",83,horsch-d-madam-fahrt-velo,34,5,0.5171348351421579,0.14705882352941177
168,comedy,Juliette,F,,,,"
            
Juliette:

            
Ja, dü liewer Gott — was mache, mir könne jetzt nimm länger warte, — do mueß Sie jetzt halt
            d'heime bliewe?

          
",84,horsch-d-madam-fahrt-velo,28,6,1.7008950167170094,0.21428571428571427
169,comedy,Colette,F,lady’s_maid,elementary_professions,lower_class,"
            
Colette:

            
s'macht nix, Madame. — 
            
(Bei Seite.)
 Ich hab selwer mit ere Nodel ning'stoche !

          
",84,horsch-d-madam-fahrt-velo,22,2,1.473838004778758,0.09090909090909091
171,comedy,Colette,F,lady’s_maid,elementary_professions,lower_class,"
            
Colette :

            
Ja, Madam.

          
",85,horsch-d-madam-fahrt-velo,6,2,1.0456094251930028,0.3333333333333333
173,comedy,Ursule,F,,,,"
            
Ursule:

            
Lewesretter, genn Sie mir de Arm bis nab?

          
",86,horsch-d-madam-fahrt-velo,12,2,0.8506988070032948,0.16666666666666666
174,comedy,Blotzmeier,M,bicycle_store_owner,service_and_sales,upper_middle_class,"
            
Blotzmeier

            
(bei Seite):

            
Daß de versüürsch ! 
            
(Laut.)
 Mit Vergnüje.

          
",87,horsch-d-madam-fahrt-velo,17,2,3.272993875553631,0.11764705882352941
175,comedy,Juliette,F,,,,"
            
Juliette:

            
Wenn min Mann kummt, saat Sie ihm, wurum daß Sie nit mitkann. 
            
(Alle ab bis auf Colette.)

          
",87,horsch-d-madam-fahrt-velo,25,2,1.2705219820011484,0.08
176,comedy,Colette,F,lady’s_maid,elementary_professions,lower_class,"
            
Colette:

            
(hinausrufend):

            
Adje, bon voyage. All Heil! S'isch Zytt, daß sie los sinn, d'r Tortino mueß alle-n-Auesblik
            kumme.

          
",88,horsch-d-madam-fahrt-velo,31,4,1.9473475209707236,0.12903225806451613
178,comedy,Colette,F,lady’s_maid,elementary_professions,lower_class,"
            
Colette :

            
Grad sinn sie do d'Thür nüs.

          
",89,horsch-d-madam-fahrt-velo,10,1,2.101487363030701,0.1
179,comedy,Contre,M,,,,"
            
Contre:

            
Bon, — tiens, sans me dire adieu? Do hett's allewäj widder emol pressiert. Wenn nur d'r Gügück die
            partie... ja, un Sie, was macht Sie denn au derno noch do, in Ihre Hosse ?

          
",89,horsch-d-madam-fahrt-velo,45,3,2.691154358667534,0.06666666666666667
180,comedy,Colette,F,lady’s_maid,elementary_professions,lower_class,"
            
Colette:

            
Wo i angedohn bin g'finn, hawi g'fehn, daß min pneu e Loch hett, i kann nit mit, s'flide hätt ze
            lang uffg'halte. D'Madam hett g'saat, daß ich's ne üsrichte soll.

          
",90,horsch-d-madam-fahrt-velo,42,2,0.0,0.047619047619047616
181,comedy,Contre,M,,,,"
            
Contre :

            
Bon, bon. — 
            
(Bei Seite.)
 Hätt diß nit d'r Madam au bassiere könne, — pas de chance! A propos, i hab
            noch Zytt, min Zuck geht erscht geje Middaa furt. Ebb daß i mi reis'ferti mach, will ich noch zue
            mimm chapelier gehn, der mueß mir e frische Bändel um de Huet mache, — i komm derno noch emol
            heim.

          
",90,horsch-d-madam-fahrt-velo,76,7,0.8346950895981562,0.09210526315789473
182,comedy,Colette,F,lady’s_maid,elementary_professions,lower_class,"
            
Colette:

            
Guet, Herr. 
            
(Contre ab.)
 I bin uff Guffe un uff Nodle g'sinn. 
            
(Es klopft.)
 Ah, jetzt kummt 'r. — Entrez!

          
",91,horsch-d-madam-fahrt-velo,34,4,3.0132306729341254,0.11764705882352941
183,comedy,Alphonsel,M,,,,"
            
Alphonsel

            
(kommt durch die Küche):

            
Do bin i schun widder, Mamsell Colette — i bin d'klein Stäij eruff.

          
",91,horsch-d-madam-fahrt-velo,24,1,0.0,0.041666666666666664
184,comedy,Colette,F,lady’s_maid,elementary_professions,lower_class,"
            
Colette:

            
Comment, dü bisch's — ja was isch denn jetzt schun widder los ?

          
",92,horsch-d-madam-fahrt-velo,17,2,2.8409921512732943,0.11764705882352941
185,comedy,Alphonsel,M,,,,"
            
Alphonsel:

            
Gar nix! — E schöner Grueß vum Herr Tortino, un es isch'm arri Leid — — —

          
",92,horsch-d-madam-fahrt-velo,22,4,2.355368439267215,0.18181818181818182
187,comedy,Alphonsel,M,,,,"
            
Alphonsel:

            
— — — daß 'r nit kumme kann, grad hett 'r e Depesch griet, wäje-m-e neje engagement, s'sinn großi
            course in Sicht.

          
",93,horsch-d-madam-fahrt-velo,29,3,1.9352054574374182,0.10344827586206896
188,comedy,Colette,F,lady’s_maid,elementary_professions,lower_class,"
            
Colette :

            
Ja hätt'r nit e Sprung kumme könne!

          
",94,horsch-d-madam-fahrt-velo,10,2,1.8027082692669414,0.2
189,comedy,Alphonsel,M,,,,"
            
Alphonsel :

            
Nein er hett g'saat, daß 'r kümm d'r Zytt hett an d'Isebahn ze gehn. Do hett 'r m'r noch e kleins
            Lädel genn, wo er selbscht het welle bringe, er hett g'saat i soll's ne genn.

          
",94,horsch-d-madam-fahrt-velo,45,2,0.0,0.044444444444444446
190,comedy,Colette,F,lady’s_maid,elementary_professions,lower_class,"
            
Colette:

            
Merci Kind. — Ah, diß isch awer nett, e broche, e kleins Velo! — Ja d'r Tortino hett goût, er weiß
            was schön isch un er denkt au allewyl an mi. Er isch zue artli, e g'fitzter Typ.

          
",95,horsch-d-madam-fahrt-velo,49,5,1.834631837435482,0.10204081632653061
191,comedy,Alphonsel,M,,,,"
            
Alphonsel :

            
Sie han erecht, Mamsell Colette — er hett m'r sogar e halwer Marik Trinkgeld genn.

          
",95,horsch-d-madam-fahrt-velo,19,1,0.0,0.05263157894736842
192,comedy,Colette,F,lady’s_maid,elementary_professions,lower_class,"
            
Colette :

            
Glückspilz, kleiner. Sä, do hesch noh e halwer.

          
",96,horsch-d-madam-fahrt-velo,14,1,0.0,0.07142857142857142
193,comedy,Alphonsel,M,,,,"
            
Alphonsel

            
(freudig):

            
Zwei halwi macht e Ganzer, so hamm'rs in d'r Schuel gelehrt. Nit Mamsell Colette?

          
",96,horsch-d-madam-fahrt-velo,22,3,0.9825586698525054,0.13636363636363635
195,comedy,Alphonsel,M,,,,"
            
Alphonsel:

            
Ja, er hett m'r noch ebs g'faat, awer — — — —

          
",97,horsch-d-madam-fahrt-velo,16,1,2.0912188503860056,0.0625
200,comedy,Colette,F,lady’s_maid,elementary_professions,lower_class,"
            
Colette:

            
Voyons, Monsieur Alphonse, e so großer Bue, fascht e Mann !

          
",100,horsch-d-madam-fahrt-velo,16,1,0.0,0.0625
201,comedy,Alphonsel,M,,,,"
            
Alphonsel:

            
Er hett m'r e Shmutz genn un hett — — g'saat — — — —

          
",100,horsch-d-madam-fahrt-velo,17,2,0.0,0.11764705882352941
203,comedy,Alphonsel,M,,,,"
            
Alphonsel:

            
Jo, er hett gemeint, i soll ne Inne an simm Platz genn.

          
",101,horsch-d-madam-fahrt-velo,17,1,0.0,0.058823529411764705
204,comedy,Colette,F,lady’s_maid,elementary_professions,lower_class,"
            
Colette:

            
Ah, ah, epatanter Typ, d'r Tortino, — e famosi Idee. Sunsch nix — un do machsch dü so G'schäfte?
            Allons komm her un gib m'r ne.

          
",102,horsch-d-madam-fahrt-velo,35,2,0.0,0.05714285714285714
205,comedy,Alphonsel,M,,,,"
            
Alphonsel

            
(zögernd):

            
Ja macht diß nix, i hab gemeint — — —

          
",102,horsch-d-madam-fahrt-velo,16,2,2.519447429971761,0.125
206,comedy,Colette,F,lady’s_maid,elementary_professions,lower_class,"
            
Colette:

            
Ulle, i sich schunn, s'geht nit andersch. — Do hesch noch e große Nickel — here mit dem
            Shmutz.

          
",103,horsch-d-madam-fahrt-velo,26,1,0.0,0.038461538461538464
208,comedy,Colette,F,lady’s_maid,elementary_professions,lower_class,"
            
Colette

            
(weich):

            
Merci lieb's Alphonsel, — dü machsch doch wenigschtens dinni Commissione so guet m'r kann. Komm
            jetzt griesch au noh einer vun mir, hytt hesch alles im doppelte G'schirr.

          
",104,horsch-d-madam-fahrt-velo,38,4,0.652683752389113,0.10526315789473684
209,comedy,Alphonsel,M,,,,"
            
Alphonsel:

            
Ja Mamsell, hytt griej i alles zwei Mol. Zwei halwi Marik hawi kriejt un zwei Shmitz. E fuerichter
            Daa, — denne schriw-i in de Kalender. Jetzt will i awer gehn, sunsch wurr i g'scholte, daß i so lang
            furtblie — un do rauchts als.

          
",104,horsch-d-madam-fahrt-velo,54,4,0.5228047125965014,0.07407407407407407
210,comedy,Colette,F,lady’s_maid,elementary_professions,lower_class,"
            
Colette :

            
Wurum nit gar. Hesch Angscht, griesch denn als noch Schläij, so e großer Bue?

          
",105,horsch-d-madam-fahrt-velo,20,2,0.0,0.1
212,comedy,Colette,F,lady’s_maid,elementary_professions,lower_class,"
            
Colette:

            
Jo nein, au guet, wurum denn als ?

          
",106,horsch-d-madam-fahrt-velo,12,1,0.0,0.08333333333333333
213,comedy,Alphonsel,M,,,,"
            
Alphonsel:

            
Ja d'r Babbe meint glich widder, i bin Velo g'fahre, un er will's nit hann, — er saat als, ich
            brech' m'r noch emol de Hals, er kann 's uewerhaupt nit verbutze.

          
",106,horsch-d-madam-fahrt-velo,41,4,1.1580657035970756,0.0975609756097561
214,comedy,Colette,F,lady’s_maid,elementary_professions,lower_class,"
            
Colette:

            
Tiens, der isch grad wie minner Herr, — un wer weiß, ob die wo drüwer schelte nit au emol
            fahre?

          
",107,horsch-d-madam-fahrt-velo,26,3,1.185846405937925,0.11538461538461539
215,comedy,Alphonsel,M,,,,"
            
Afphonsel:

            
Diß isch sicher, Mamsell, do wott i fascht wette! 
            
(Es klingelt.)
 Schellt's bi Inne! Do geh' i los!

          
",107,horsch-d-madam-fahrt-velo,29,2,1.7953827260802913,0.06896551724137931
216,comedy,Colette,F,lady’s_maid,elementary_professions,lower_class,"
            
Colette:

            
I weiß nit. 
            
(Es klingelt sehr heftig.)
 E Dunderschdaa! wär rißt denn do am heiterhelle Daa 
            
d'Schell erunter? I mueß emol uff de Gang, s'Fenschter nüs lueije. 
            
(Auf der Flur.)
 Herrjesses, herrjesses, was isch jetzt, was isch jezt! E Kütsch,
            d'Madam, ihri Mamme, d'Mamsell Ursule, d'r Herr Blotzmeier — oh weh wie sehn die üß! 
            
(Kommt herein.)

          
",108,horsch-d-madam-fahrt-velo,86,8,2.3144597258436113,0.09302325581395349
217,comedy,Alphonsel,M,,,,"
            
Alphonsel:

            
Was isch denn Mamsell Colette, wie sehn Sie üß, isch's nit g'hier? Ich riß üss, adje Mamsell
            Colette, 
            
(Ab durch die Küche.)

          
",108,horsch-d-madam-fahrt-velo,33,2,2.0042219669005252,0.06060606060606061
218,comedy,Colette,F,lady’s_maid,elementary_professions,lower_class,"
            
Colette

            
(an der Thür, hinaussprechend):

            
Awer Madam, awer Madam! —

          
",109,horsch-d-madam-fahrt-velo,16,2,0.0,0.125
220,comedy,Colette,F,lady’s_maid,elementary_professions,lower_class,"
            
Colette:

            
Madame, um's Gotteswille, was isch g'schehn ?

          
",110,horsch-d-madam-fahrt-velo,12,1,0.0,0.08333333333333333
221,comedy,Blotzmeier,M,bicycle_store_owner,service_and_sales,upper_middle_class,"
            
Blotzmeier:

            
Ja mir han hitt kein Glück, mir sinn Alli g'stürzt, Alli,

          
",110,horsch-d-madam-fahrt-velo,16,2,1.0456094251930028,0.125
222,comedy,Mme. Trett,F,,,,"
            
Mme. Trett:

            
Minner Arm, — er ish üssenand! Oh, uh, ah!

          
",111,horsch-d-madam-fahrt-velo,17,2,2.479314690757241,0.11764705882352941
223,comedy,Ursule,F,,,,"
            
Ursule:

            
Un min Bake brennt wie Fiehr! Mini Zähn lottle m'r im Müül erum. Colette, springt Sie so schnell
            als Sie kann zuem Dokter, d'Madam hett amend de Fueß gebroche.

          
",111,horsch-d-madam-fahrt-velo,37,5,0.6194793077488814,0.13513513513513514
224,comedy,Colette,F,lady’s_maid,elementary_professions,lower_class,"
            
Colette:

            
Jesses nein, isch diß e G'schicht, i lauf was i kann. 
            
(Ab.)

          
",112,horsch-d-madam-fahrt-velo,20,1,2.402918557132297,0.05
225,comedy,Kütscher,M,,,,"
            
Kütscher:

            
Heh, wo soll i denn die kapütene Velo anne keije, i hab' sie drunte im Gang.

          
",112,horsch-d-madam-fahrt-velo,21,1,0.0,0.047619047619047616
226,comedy,Juliette,F,,,,"
            
Juliette:

            
Lonn Sie, — oh, mon pied, — lonn Sie nur dorte.

          
",113,horsch-d-madam-fahrt-velo,17,2,4.660002937318278,0.11764705882352941
227,comedy,Kütscher,M,,,,"
            
Kütscher :

            
Jo s'isch doch nur noch e Hüffe alt's Ise. Disch ish ebbs for in's Mischtfässel. — Adje.

          
",113,horsch-d-madam-fahrt-velo,25,1,2.6844269435744352,0.04
228,comedy,Mme. Trett,F,,,,"
            
Mme. Trett :

            
Warte Kütscher. — Ma fille, i geh, i fahr direkt in d'Langstrooß zue mimm masseur.

          
",114,horsch-d-madam-fahrt-velo,23,2,2.836964655113415,0.08695652173913043
229,comedy,Ursule,F,,,,"
            
Ursule:

            
I fahr au mit, direkt zuem Abbedeeker, un hol m'r e Hebbpflaschter, au bin i so drecket.

          
",114,horsch-d-madam-fahrt-velo,23,2,1.4479879226484123,0.08695652173913043
230,comedy,Juliette,F,,,,"
            
Juliette:

            
S'isch nit nöthi. Geh nurr nüwwer in minn Zimmer, do findsch was de brüchsch im toilette drinne.
            Gehn — au! — gehn — soignez-vous.

          
",115,horsch-d-madam-fahrt-velo,32,1,1.918871961631623,0.03125
231,comedy,Mme. Trett,F,,,,"
            
Mme. Trett :

            
Ja liebs Kind, do mueß i di jo ellein lonn.

          
",115,horsch-d-madam-fahrt-velo,15,5,2.0384478800101715,0.3333333333333333
232,comedy,Blotzmeier,M,bicycle_store_owner,service_and_sales,upper_middle_class,"
            
Blotzmeier:

            
Ach wenn Sie's erlauwe, — so wurr i bi d'r Madame Contre bliewe, bis d'r Dokter kummt.

          
",116,horsch-d-madam-fahrt-velo,23,2,0.0,0.08695652173913043
233,comedy,Ursule,F,,,,"
            
Ursule:

            
Sie sinn e ritterlicher, liewer Mensch. — Juliette i geh nüwwer.

          
",116,horsch-d-madam-fahrt-velo,16,1,0.0,0.0625
234,comedy,Mme. Trett,F,,,,"
            
Mme. Trett :

            
I geh au. Ma fille, schicksch uns glich nouvelle, wie's geht, gell, wenn d'r Dokter do isch
            g'sinn.

          
",117,horsch-d-madam-fahrt-velo,28,2,1.6286158837539466,0.07142857142857142
236,comedy,Mme. Trett,F,,,,"
            
Mme. Trett, Ursule:

            
Au revoir. 
            
(Ursule ab durch die Seite, Mme, Trett ab durch die Mitte.)

          
",118,horsch-d-madam-fahrt-velo,24,2,6.5144635350157865,0.08333333333333333
237,comedy,Ursule,F,,,,"
            
Mme. Trett, Ursule:

            
Au revoir. 
            
(Ursule ab durch die Seite, Mme, Trett ab durch die Mitte.)

          
",118,horsch-d-madam-fahrt-velo,24,2,6.5144635350157865,0.08333333333333333
238,comedy,Blotzmeier,M,bicycle_store_owner,service_and_sales,upper_middle_class,"
            
Blotzmeier

            
(bei Seite):

            
Ellein ! — 
            
(Laut.)
 Gnädigi Madam, wie isch diß alles nur so schnell kumme? Saue Sie m'r doch, was
            Sie gemacht han, han Sie dem Milichkärichel nit üswiche kenne ?

          
",119,horsch-d-madam-fahrt-velo,43,7,1.0875226875880173,0.16279069767441862
240,comedy,Blotzmeier,M,bicycle_store_owner,service_and_sales,upper_middle_class,"
            
Blotzmeier :

            
I hab Sie noch warne welle. Un d'r Germania sin Sie mit Ihrem Rad d'rvun g'schosse, wie wenn Sie
            Fleijel hätte. Sie sin g'fahre wie e-n-Engel, awer zue schnell.

          
",120,horsch-d-madam-fahrt-velo,39,3,1.2955735887204967,0.07692307692307693
241,comedy,Juliette,F,,,,"
            
Juliette:

            
I wär jo durichkumme, awer en même temps isch uns uff minnere Sytt die Kütsch 
            
ergeje kumme, un d'rno d'r tramway, — no weiß i nimm — wie's gange-n-isch !

          
",120,horsch-d-madam-fahrt-velo,39,2,2.0817076986931173,0.05128205128205128
242,comedy,Blotzmeier,M,bicycle_store_owner,service_and_sales,upper_middle_class,"
            
Blotzmeier :

            
Ja, d'rno sinn Sie an's Kärichel angerennt, un mir wo dicht hinte noch kumme sinn, sinn üwer Sie
            nüsg'flöije. Nein, so e Böije in d'r Luft, hawi noch keiner gemacht. Ich häb sicher kein Hütt meh an
            de Kneij.

          
",121,horsch-d-madam-fahrt-velo,51,5,0.7210833077067765,0.09803921568627451
243,comedy,Juliette,F,,,,"
            
Juliette:

            
Ich, Sie armer Mann — was, ja wurum hann Sie denn diß noch nit g'saat? gehn Sie doch un lonn Sie
            sich verbinde.

          
",121,horsch-d-madam-fahrt-velo,29,5,0.8842440638090288,0.1724137931034483
244,comedy,Blotzmeier,M,bicycle_store_owner,service_and_sales,upper_middle_class,"
            
Blotzmeier :

            
Awer ich bitt Sie. 
            
(Bei Seite.)
 Oh Glück, sie bedüürt mi. 
            
(Laut.)
 Nein, Madam, im e so e Moment kann ich Sie nit im Stich lonn, nein liewer de
            Tod!

          
",122,horsch-d-madam-fahrt-velo,45,8,0.9978791681954804,0.17777777777777778
245,comedy,Juliette,F,,,,"
            
Juliette:

            
(bei Seite):

            
Was packt denne? 
            
(Laut.)
 Ja, ja, was wurd min Mann do d'rzue sauue, mir wäre krieje, un ich b'sundersch.
            Herrjeh, wie if min Fueß g'schwolle.

          
",122,horsch-d-madam-fahrt-velo,44,6,2.32431046207862,0.13636363636363635
246,comedy,Blotzmeier,M,bicycle_store_owner,service_and_sales,upper_middle_class,"
            
Blotzmeier:

            
Awer Frau Contre, Ihr Mann kann do nix dergeje saue. Wenn 'r Sie so Iiede sieht, er wurd doch nit
            so roh sinn.

          
",123,horsch-d-madam-fahrt-velo,29,2,0.0,0.06896551724137931
247,comedy,Juliette,F,,,,"
            
Juliette:

            
Ja meine Sie — er wo's nit sehn kann, daß i — oh min Füeßel — es sticht, es sticht! Wenn i nurr
            erersch denne Schueh üshätt. Diß wurd bös gehn.

          
",123,horsch-d-madam-fahrt-velo,39,4,1.8694072634917913,0.10256410256410256
248,comedy,Blotzmeier,M,bicycle_store_owner,service_and_sales,upper_middle_class,"
            
Blotzmeier:

            
Es sticht, Madame, es sticht — ja mir sticht's au in's Herz nin, wenn i an Ihri 
            
Schmerze denk. G'statte Sie mir verlicht, daß ich ne e bissel b'hilfli bin?

          
",124,horsch-d-madam-fahrt-velo,40,4,0.5228047125965014,0.1
251,comedy,Juliette,F,,,,"
            
Juliette :

            
S'isch wohr, wäje mir, i kann's jetzt doch fascht nimm üshalte.

          
",125,horsch-d-madam-fahrt-velo,18,1,0.0,0.05555555555555555
252,comedy,Blotzmeier,M,bicycle_store_owner,service_and_sales,upper_middle_class,"
            
Blotzmeier:

            
Ich bin üwerglückli. 
            
(Kniet nieder um ihr zu helfen.)
 So genn Sie mir jetzt diß krank Füeßel, — oh wie
            klein!

          
",126,horsch-d-madam-fahrt-velo,29,6,1.1516808084504948,0.20689655172413793
253,comedy,Juliette,F,,,,"
            
Juliette:

            
Au — mache Sie jetzt kein Plän.

          
",126,horsch-d-madam-fahrt-velo,10,1,0.0,0.1
254,comedy,Blotzmeier,M,bicycle_store_owner,service_and_sales,upper_middle_class,"
            
Blotzmeier:

            
Hab i ne weh gedohn, — nurre vum blose anfasse? Sehn Sie, i benied Ihre Mann.

          
",127,horsch-d-madam-fahrt-velo,22,5,0.8459630356256136,0.22727272727272727
255,comedy,Juliette,F,,,,"
            
Juliette:

            
Ja wurum denn?

          
",127,horsch-d-madam-fahrt-velo,6,1,2.0912188503860056,0.16666666666666666
256,comedy,Blotzmeier,M,bicycle_store_owner,service_and_sales,upper_middle_class,"
            
Blotzmeier:

            
Gewiß, er isch ze beniede, so e schöns Frauchen ze hann. Wie kann 'r nurr so sinn, geje-n-e so
            schön's Wywele.

          
",128,horsch-d-madam-fahrt-velo,31,3,2.261320951025422,0.0967741935483871
257,comedy,Juliette,F,,,,"
            
Juliette

            
(bei Seite):

            
Ah, ah, — wart nur ! 
            
(Laut.)
 I versteh Sie nit. Ze helfe Sie mir emol denne Schueh üszeje, oder stehn Sie
            widder uff.

          
",128,horsch-d-madam-fahrt-velo,38,4,1.9046931510849934,0.10526315789473684
258,comedy,Blotzmeier,M,bicycle_store_owner,service_and_sales,upper_middle_class,"
            
Blotzmeier:

            
Sie verstehn mi nit? Wurum verbiet er Inne ze radle. Kammer im e so e göttliche G'schöpf etwas
            abschlaa, do mueß m'r e Stein in 
            
d'r Bruscht hann, awer kein Herz. Oh, Madame — Juliette —

          
",129,horsch-d-madam-fahrt-velo,44,7,1.0975631752839885,0.1590909090909091
259,comedy,Juliette,F,,,,"
            
Juliette

            
(bei Seite):

            
Oh, diß isch jo e Deklaration. 
            
(Laut,)
 Höre Sie, minn Mann isch — ah non, c'est trop fort!

          
",129,horsch-d-madam-fahrt-velo,32,2,1.2110145779220305,0.0625
260,comedy,Blotzmeier,M,bicycle_store_owner,service_and_sales,upper_middle_class,"
            
Blotzmeier :

            
Hann Sie so weh? Arm's Kind.

          
",130,horsch-d-madam-fahrt-velo,11,3,2.3736610384686205,0.2727272727272727
262,comedy,Blotzmeier,M,bicycle_store_owner,service_and_sales,upper_middle_class,"
            
Blotzmeier:

            
Nur noch ein Wort, schöni Madam, nurr e klein's Wörtel möcht i 'ne saue.

          
",131,horsch-d-madam-fahrt-velo,20,4,0.0,0.2
263,comedy,Juliette,F,,,,"
            
Juliette

            
(bei Seite):

            
I friej Angscht! — 
            
(Laut.)
 Jetzt isch genue. Kein Wort meh, od'r i ruef! —

          
",131,horsch-d-madam-fahrt-velo,28,3,0.8073430519480204,0.10714285714285714
265,comedy,Blotzmeier,M,bicycle_store_owner,service_and_sales,upper_middle_class,"
            
Blotzmeier

            
(bei Seite):

            
D'r Deifel! — Oh weh! 
            
(Steht auf.)

          
",132,horsch-d-madam-fahrt-velo,18,2,1.4528990939507267,0.1111111111111111
266,comedy,Ursule,F,,,,"
            
Ursule:

            
Ah, mon Dieu! — D'r Herr Blotzmeier uff de Kneij vor'm Juliette. — Was soll 
            
diß heiße? — 
            
(Vorwurfsvoll.)
 Juliette — Juliette! -? —

          
",133,horsch-d-madam-fahrt-velo,36,3,1.3684231880071434,0.08333333333333333
267,comedy,Juliette,F,,,,"
            
Juliette

            
(bei Seite):

            
Jetzt will i mi räche. — 
            
(Laut.)
 Ah, Ursule, dü kommsch grad wie geruefe, — ma chère, e großi nouvelle, — je te
            félicite!

          
",133,horsch-d-madam-fahrt-velo,40,3,3.2126044080499834,0.075
270,comedy,Juliette,F,,,,"
            
Juliette:

            
Eh bien, denk emol was e surprise, — e Surprise, wo dich angeht. D'r Herr Blotzmeier hett m'r grad
            ewe sinni Lieb — zue dir g'ftande un hett bi mir uff de Kneij um dinni Hand ang'halte.

          
",135,horsch-d-madam-fahrt-velo,44,5,2.453855985941144,0.11363636363636363
273,comedy,Juliette,F,,,,"
            
Juliette:

            
Ich hab ihm versproche ze helfe, un hab'm g'saat, daß 'r hoffe kann.

          
",136,horsch-d-madam-fahrt-velo,19,3,0.8613850651581304,0.15789473684210525
274,comedy,Blotzmeier,M,bicycle_store_owner,service_and_sales,upper_middle_class,"
            
Blotzmeier

            
(starr, bei Seite):

            
Was, — ich! — 
            
(Laut.)
 Ja — — ja — -!

          
",137,horsch-d-madam-fahrt-velo,25,4,3.434781692113552,0.16
276,comedy,Ursule,F,,,,"
            
Ursule

            
(freudig):

            
Ja, s'isch wohr, er saat ja. Ah, mon Dieu, isch's möjli, — diß Glück? Oh oui, i hab's gewüeßt, ich
            hab's g'spiert, daß 'r mi gern hett.

          
",138,horsch-d-madam-fahrt-velo,47,7,1.8860243688366178,0.14893617021276595
277,comedy,Blotzmeier,M,bicycle_store_owner,service_and_sales,upper_middle_class,"
            
Blotzmeier

            
(bei Seite):

            
Himmel hilf! — 
            
(Laut.)
 Fräulein Ursule, ich —

          
",138,horsch-d-madam-fahrt-velo,19,3,2.259863103813783,0.15789473684210525
278,comedy,Ursule,F,,,,"
            
Ursule:

            
Was, Fräulein, do gitts kein Fräulein meh. 
            
(Blotzmeier will sprechen.)
 Oh, redd nitt, i weiß jo, was de sauwe witt, — Ich
            acceptier, ich acceptier. Tiens, i bin ganz dinne, du lieb's, verzuckert's Männel!

          
",139,horsch-d-madam-fahrt-velo,54,5,2.7774180004964384,0.09259259259259259
281,comedy,Juliette,F,,,,"
            
Juliette

            
(ebenso, aber fest):

            
Sie müehn, — diß sinn Sie mir schuldi.

          
",140,horsch-d-madam-fahrt-velo,18,2,2.3823283095498278,0.1111111111111111
282,comedy,Ursule,F,,,,"
            
Ursule:

            
Oh, quel bonheur, in bin ganz verzwirwelt im Kopf.

          
",141,horsch-d-madam-fahrt-velo,14,1,1.7960997910557868,0.07142857142857142
284,comedy,Juliette,F,,,,"
            
Juliette

            
(zu ihm):

            
Noch e Wort, un i saa Alles mim Mann.

          
",142,horsch-d-madam-fahrt-velo,17,2,0.0,0.11764705882352941
285,comedy,Blotzmeier,M,bicycle_store_owner,service_and_sales,upper_middle_class,"
            
Blotzmeier

            
(bei Seite):

            
Oh weh, — oh weh! — 
            
(Laut.)
 Fräulein Ursule, i möcht ne doch — — —

          
",142,horsch-d-madam-fahrt-velo,28,4,4.103821426979341,0.14285714285714285
286,comedy,Ursule,F,,,,"
            
Ursule:

            
Was denn, Schätz'l? Oh, ich weiß schunn, was dü mir sauwe witt. Tu m'aimes, i weiß es jo schun
            lang. Hättsh m'rs jo au selwer sauwe könne, — i hätt au glich acceptiert. Oh, was e Glück, — komm in
            minni Ärm dü Herzkäfer, un gib m'r e Schmutz! 
            
(Sie umarmt ihn, indem er noch widerstrebt.)

          
",143,horsch-d-madam-fahrt-velo,75,4,0.0,0.05333333333333334
287,comedy,Contre,M,,,,"
            
Contre

            
(kommt herein, bleibt verwundert stehen):

            
Was Gücksels, qu'est-ce que c'est qu'ça? — Sieh i erecht? — 
            
(Eilt auf seine Frau zu, welche immer noch auf dem Sopha sitzt.)
 Liebs Wywele hesch
            arri Weh, geh zaij m'r emol diß Fueßel. Hesch doch nix gebroche, hesch allewäj nurre de Fueß
            verrenkt? As-tu mal ?

          
",143,horsch-d-madam-fahrt-velo,68,3,3.6150252064224797,0.04411764705882353
289,comedy,Contre,M,,,,"
            
Contre:

            
Mais oui, i hab's Colette do vorne in d'r Gaß angetroffe, i weiß Alles! Oh, mais, dü hesch jo noch
            de Schue an. Attends, i helf d'r ne üßzeije. 
            
(Er thut's.)
 voilà, — mais, saa mol, was isch denn do loß?

          
",144,horsch-d-madam-fahrt-velo,60,1,0.0,0.016666666666666666
291,comedy,Contre,M,,,,"
            
Contre :

            
Ah bah! — nit möjli? — 
            
(Bei Seite.)
 Tiens, tiens, enfin — minni beschte Wünsch, i gratelier! —

          
",145,horsch-d-madam-fahrt-velo,29,1,0.0,0.034482758620689655
292,comedy,Ursule,F,,,,"
            
Ursule:

            
Merci, merci. 
            
(Sie spricht mit Blotzmeier, welcher ganz verdutzt darein schaut.)

          
",146,horsch-d-madam-fahrt-velo,19,1,1.7960997910557868,0.05263157894736842
293,comedy,Contre,M,,,,"
            
Contre

            
(zu Juliette):

            
Eh bien, ma femme, was haltsch de jetzt vum Velofahre. Fahrsch später widder ohne dinne Mann?

          
",146,horsch-d-madam-fahrt-velo,26,2,1.7258939965485685,0.07692307692307693
294,comedy,Juliette,F,,,,"
            
Juliette:

            
I weiß nit, nein. — Dü hesch allewyll erecht g'hett. E Frau isch in zue viel 
            
G'sohre üßg'setzt. I blick jetzt d'heim in minnere Menasch, bi dir.

          
",147,horsch-d-madam-fahrt-velo,36,1,2.802577767925137,0.027777777777777776
295,comedy,Contre,M,,,,"
            
Contre:

            
A la bonne heure, un ich hab widder minni klein Frau, min lieb Wywele.

          
",147,horsch-d-madam-fahrt-velo,19,2,1.305367504778226,0.10526315789473684
296,comedy,Colette,F,lady’s_maid,elementary_professions,lower_class,"
            
Colette:

            
D'r Herr Dokter isch im salon.

          
",148,horsch-d-madam-fahrt-velo,9,3,1.024380325606658,0.3333333333333333
297,comedy,Contre,M,,,,"
            
Contre :

            
D'r Dokter, hm, — führt Sie ne glich eryn.

          
",148,horsch-d-madam-fahrt-velo,14,1,0.0,0.07142857142857142
