2022-08-20 21:51:16 - valence lexicon length: 7864
2022-08-20 21:51:16 - Number of rows: 517
2022-08-20 21:51:18 - dominance lexicon length: 7864
2022-08-20 21:51:18 - Number of rows: 517
2022-08-20 21:51:20 - arousal lexicon length: 7864
2022-08-20 21:51:20 - Number of rows: 517
2022-08-20 21:51:22 - anger lexicon length: 7864
2022-08-20 21:51:22 - Number of rows: 517
2022-08-20 21:51:24 - anticipation lexicon length: 7864
2022-08-20 21:51:24 - Number of rows: 517
2022-08-20 21:51:26 - disgust lexicon length: 7864
2022-08-20 21:51:26 - Number of rows: 517
2022-08-20 21:51:27 - fear lexicon length: 7864
2022-08-20 21:51:27 - Number of rows: 517
2022-08-20 21:51:29 - joy lexicon length: 7864
2022-08-20 21:51:29 - Number of rows: 517
2022-08-20 21:51:30 - sadness lexicon length: 7864
2022-08-20 21:51:30 - Number of rows: 517
2022-08-20 21:51:32 - surprise lexicon length: 7864
2022-08-20 21:51:32 - Number of rows: 517
2022-08-20 21:51:33 - trust lexicon length: 7864
2022-08-20 21:51:33 - Number of rows: 517
2022-08-24 17:09:19 - valence lexicon length: 7864
2022-08-24 17:09:19 - Number of rows: 517
2022-08-24 17:09:21 - dominance lexicon length: 7864
2022-08-24 17:09:21 - Number of rows: 517
2022-08-24 17:09:23 - arousal lexicon length: 7864
2022-08-24 17:09:23 - Number of rows: 517
2022-08-24 17:09:24 - anger lexicon length: 7864
2022-08-24 17:09:24 - Number of rows: 517
2022-08-24 17:09:26 - anticipation lexicon length: 7864
2022-08-24 17:09:26 - Number of rows: 517
2022-08-24 17:09:28 - disgust lexicon length: 7864
2022-08-24 17:09:28 - Number of rows: 517
2022-08-24 17:09:30 - fear lexicon length: 7864
2022-08-24 17:09:30 - Number of rows: 517
2022-08-24 17:09:32 - joy lexicon length: 7864
2022-08-24 17:09:32 - Number of rows: 517
2022-08-24 17:09:34 - sadness lexicon length: 7864
2022-08-24 17:09:34 - Number of rows: 517
2022-08-24 17:09:36 - surprise lexicon length: 7864
2022-08-24 17:09:36 - Number of rows: 517
2022-08-24 17:09:37 - trust lexicon length: 7864
2022-08-24 17:09:37 - Number of rows: 517
