Unnamed: 0,drama_type,speaker,sex,job,job_category,social_class,text,progress,short_name,numTokens,numLexTokens,avgLexVal,lexRatio
0,comedy,Jacques,M,valet,elementary_professions,lower_class,"
          
Jacques:

          
Jaja, Madam. — 's isch guet, Madam! — 's wurd bsorjt, Madam!

          
(zum Publikum):

          
Wenn unseri Madam bekumme däet was ich ere wünsch, no müeßt se emol vor alle Dinge jede Daa e Kilo
          zünämme, bis se am e schöene Daa v'rknelle däet wie e gebrooteni Bluetwurscht. Die Hawwergais, die
          Häriseel, die Linsespaltere und Pfennifuchsere, die — — die gifti Krott, die miserawel! — Pardon! —
          Wenn ich mich v'rzürne wott, ze däet ich ere noch ebs ganz anderschs v'rzähle! Aw'r naan, ich will mir
          mini Ruehj reserviere. Nit daß ich mir wäeje Dere 's Läwe süür mach! — 's falt m'r in! — So ebs daet
          ere jo basse! — Denn uff dies geht se üs, Daa fer Daa. kann ich ebs d'rfür, daß ich numme valet de
          chambre bin?! - kann sie ebs d'rfür, daß sie Madam isch worre?! — Worum isch's nit umgekehrt?! — Worum
          ich sie nit valet de chambre und ich d'Madam?!-

          
(Es klingelt.)

          
Aha! — Sie schellt wid'r emol e Düür, unseri Madam ! — Die lebt jo nit ruehji, wenn se merkt, daß
          Unseraans emol e bissel schnüüfe köent.

          
(Es klingelt.)(wü-

        
",0,riff-s-paradies,246,19,0.44184297136304995,0.07723577235772358
1,comedy,Marie,F,lady’s_maid,elementary_professions,lower_class,"
          
Marie

          
(bedauernd):

          
Oh, dies schöene Rösele. Gescht noch so nätt geblüejt, und hyt schun welk! — 
          
(seufzt tief auf.)
 — O ja, so isch's halt emol uff d'r Welt! — So geht's mit de Rose — so
          geht's mit de Maidle. M'r blüehjt — m'r wurd umschwärmt — m'r v'rwelkt — un wurd gemiede! 
          
(Starkes Geklirr hinter der Bühne.)

        
",1,riff-s-paradies,79,8,0.6575653568221345,0.10126582278481013
2,comedy,Marie,F,lady’s_maid,elementary_professions,lower_class,"
          
Marie

          
(erschrickt):

          
Uh! Do gitt's Schärwe?!

        
",2,riff-s-paradies,13,2,0.0,0.15384615384615385
3,comedy,Jacques,M,valet,elementary_professions,lower_class,"
          
Jacques

          

          
(hinter der Scene):
 E Millonezunderschtzewwerst soll d'rzwische nin bängle, aans vun unte
          un aans vun owwe — wenn's will!!!

        
",3,riff-s-paradies,29,1,0.0,0.034482758620689655
4,comedy,Marie,F,lady’s_maid,elementary_professions,lower_class,"
          
Marie

          
(lachend):

          
Aha, 'skracht in d'r Kiche, no wurd's au bal rauche! 
          
(Es klingelt.)

        
",4,riff-s-paradies,24,1,0.0,0.041666666666666664
5,comedy,Marie,F,lady’s_maid,elementary_professions,lower_class,"
          
Marie

          
(lachend):

          
Hoppla! — Was hawich nit gsaat? — 's raucht schun! 
          
(Es klingelt.)

        
",5,riff-s-paradies,23,1,0.0,0.043478260869565216
6,comedy,Jacques,M,valet,elementary_professions,lower_class,"
          
Jacques

          
(hinter der Scene.:

          
Jo riß d'Schell vun d'r Wand erab, alter Nißkraawe! 
          
(Kommt hastig von rechts.)

        
",6,riff-s-paradies,26,1,0.0,0.038461538461538464
7,comedy,Marie,F,lady’s_maid,elementary_professions,lower_class,"
          
Marie

          
(lachend):

          
Oho, Jacques, so böes gelüünt?

        
",7,riff-s-paradies,13,2,0.0,0.15384615384615385
8,comedy,Jacques,M,valet,elementary_professions,lower_class,"
          
Jacques

          
(wütend):

          
Wenn ich nin kumm, ze riß ich ere diesmol d'Barriek vum Schäddel, daß se au emol weiß, was schelle
          heißt! 
          
(eilt erregt nach links ab.)

        
",8,riff-s-paradies,38,4,0.0,0.10526315789473684
9,comedy,Marie,F,lady’s_maid,elementary_professions,lower_class,"
          
Marie

          
(lachend):

          
's isch nit halwer eso schlimm. Wenn'r nin kummt, no isch wied'r d'Madam hinte un d'Madam vorne. —
          Ja, d'r Jacques! — Hahaha! Er isch e Dschori! — E guetmuethiger Dschorit -E aanfältiger Dschori! — Er
          het's grad wie die Hund, wie erscht's Herz han ze belle, wenn sie innewendi hinterem guet v'rrejelte
          Hofdärel stehn! — Haha! — Mit so eme Mann wär guet läewe. — So aaner dhät sich zehje loon, so wie m'r
          'ne gern hätt. — Alt genuej zum hyroothe wär 'r juschtemend, un ich glaab küm, daß ich's 'm abschlaawe
          dhäet! — Er het e paar Fränkle uff d'r SparkaB, ich hab min Gedüech un e Bettlad — brücht m'r sunscht
          noch vielerlei mehr fer de Anfang? — Was noch fehlt, schafft m'r sich so v'rplämpelterwies an. — E
          Hauptbedingung isch numme: m'r mueß z'halb Zweit sin zem hyroothe, un — — — ım'r mueß enander welle. — 
          
(setzt sich auf die Bank.)
 — M'r mueß enander welle?! — 
          
(seufzt tief auf.)
 — Wie wenn ich de Jacques nit wott?! — O Gott, o Gott, o Gott! 
          
(Jacques tritt unbemerkt von links ein.)

        
",9,riff-s-paradies,240,20,1.9350483539613488,0.08333333333333333
12,comedy,Marie,F,lady’s_maid,elementary_professions,lower_class,"
          
Marie

          
(springt mit einem erschreckten Aufschrei in die Hôhe.)

          
Aw'r Jacques, wie kann m'r numme eso schliche?!

        
",12,riff-s-paradies,23,3,0.0,0.13043478260869565
13,comedy,Jacques,M,valet,elementary_professions,lower_class,"
          
Jacques

          
(erstaunt):

          
Schliehe? — Un d'rbie saat d'Madam alle gelte zue m'r: ich däet dappe wie e Elephant?!

        
",13,riff-s-paradies,27,3,0.0,0.1111111111111111
14,comedy,Marie,F,lady’s_maid,elementary_professions,lower_class,"
          
Marie

          
(lachend):

          
Die het jo ihrer Läwe noch gar kaan Elephant gsehne! — Sie renomiert halt gern mit ihre
          astronomische Kenntnisse.

        
",14,riff-s-paradies,26,4,0.9983124466732692,0.15384615384615385
15,comedy,Jacques,M,valet,elementary_professions,lower_class,"
          
Jacques:

          
Aw'r numme fer mir 's Läwe süür ze mache. — Sie kann mich halt nit schmecke. — Ich sie aw'r au
          nit!

        
",15,riff-s-paradies,27,4,1.1903344897789447,0.14814814814814814
16,comedy,Marie,F,lady’s_maid,elementary_professions,lower_class,"
          
Marie:

          
Rej Dich doch nit uff, Jacques. — Het se 's mit mir nit 's nämli? Dhuet se mich nit au d'halb Zyt
          ärjere un küjoniere, daß ich grüen un gääl könnt wäre vor Pläsier? — M'r mueß aw'r allewiel bedenke:
          wenn d'r Mensch ins Alter kummt, no wurd'r wunderli. — Unseri Madam — — —

        
",16,riff-s-paradies,66,6,0.46643815625177654,0.09090909090909091
20,comedy,Marie,F,lady’s_maid,elementary_professions,lower_class,"
          
Marie:

          
Geh, schäm Dich doch e bissel, Jacqes! Ich hab ewwe numme welle saawe: unseri Madam het ihri Lüüne
          zyttwies un randswies, wie dies ewwe 's Alter eso mit sich bringt. — Wenn se aw'r d'rnoo ihri
          ""Rootschläej"" uff uns los renne loßt, no loon mir se ewwe ze aam Ohreläppel nin un zem andere wied'r
          nüs schnärre. — Schmerzlos!

        
",20,riff-s-paradies,73,7,1.2006863024328955,0.0958904109589041
21,comedy,Jacques,M,valet,elementary_professions,lower_class,"
          
Jacques

          
(kraut sich hinter den Ohren):

          
Jaja, 's isch alles räecht, un ich will unserer Madam au nix schläechts wünsche — - behüet selle m'r
          sin — aw'r Pläsier dhäet's m'r halt mache, wenn ere emol e Elephant mit glichlinge Füeß uff de Mauue
          hüpse däet! — — —

        
",21,riff-s-paradies,57,6,0.46643815625177654,0.10526315789473684
22,comedy,Marie,F,lady’s_maid,elementary_professions,lower_class,"
          
Marie

          
(lachned):

          
Aw'r Jacques!

        
",22,riff-s-paradies,8,1,0.0,0.125
23,comedy,Jacques,M,valet,elementary_professions,lower_class,"
          
Jacques:

          
Numme daß se 's inne dhäet wäre, was unter eme Elephant v'rsteht, der alt Pomad- hafe!

        
",23,riff-s-paradies,22,2,0.0,0.09090909090909091
25,comedy,Jacques,M,valet,elementary_professions,lower_class,"
          
Jacques:

          
Ja? — Was denn?

        
",25,riff-s-paradies,8,1,2.461893917066416,0.125
26,comedy,Marie,F,lady’s_maid,elementary_professions,lower_class,"
          
Marie:

          
Jacques, Dü wit doch ganz sicher nit diner Läwelang d'Füeß unter fremdi Lyt ihrer Disch strecke?

        
",26,riff-s-paradies,21,3,0.5606653632567157,0.14285714285714285
27,comedy,Jacques,M,valet,elementary_professions,lower_class,"
          
Jacques:

          
Naan, ganz sicher nit.

        
",27,riff-s-paradies,8,2,0.8409980448850735,0.25
28,comedy,Marie,F,lady’s_maid,elementary_professions,lower_class,"
          
Marie:

          
Un speziell do in dem Hüs gfallt's D'r nimmi erächt?

        
",28,riff-s-paradies,14,2,1.5847533216130745,0.14285714285714285
29,comedy,Jacques,M,valet,elementary_professions,lower_class,"
          
Jacques

          
(setzt sich mißmutig auf die Bank):

          
Naan, ganz und gar nimmi.

        
",29,riff-s-paradies,17,1,1.681996089770147,0.058823529411764705
30,comedy,Marie,F,lady’s_maid,elementary_professions,lower_class,"
          
Marie

          
(lauernd):

          
Un schun lang nimmi? Gell nit?

        
",30,riff-s-paradies,13,1,0.0,0.07692307692307693
31,comedy,Jacques,M,valet,elementary_professions,lower_class,"
          
Jacques:

          
Schun arig lang nimmi.

        
",31,riff-s-paradies,7,1,0.0,0.14285714285714285
33,comedy,Jacques,M,valet,elementary_professions,lower_class,"
          
Jacques

          
(überrascht):

          
Dir g'fallt's au nimmi? -Oho?-

        
",33,riff-s-paradies,15,1,0.0,0.06666666666666667
38,comedy,Marie,F,lady’s_maid,elementary_professions,lower_class,"
          
Marie

          
(schmollend):

          
Aw'r Jacques!

        
",38,riff-s-paradies,8,1,0.0,0.125
39,comedy,Jacques,M,valet,elementary_professions,lower_class,"
          
Jacques:

          
Ja dü liewi Zytt, was hawich denn merke selle? — M'r macht sini Arweit de Daa iewer, loßt sich alle
          finf Minüte vun d'r Madam anhüche und abkanzle, daß m'r üs d'r Hüt erüsfahre un sich trüri d'rnäwe
          setze möecht; m'r plänkelt uff de Fyrowe — — un so gehn aam no die Dääj erum-

        
",39,riff-s-paradies,64,7,1.4105761474971164,0.109375
40,comedy,Marie,F,lady’s_maid,elementary_professions,lower_class,"
          
Marie

          
(seufzt):

          
Ja, so gehn aam d'rnoo die Dääej erum, un d'rbie wurd m'r no als älter un älter — jaja - — —

        
",40,riff-s-paradies,31,3,0.8206313056888054,0.0967741935483871
41,comedy,Jacques,M,valet,elementary_professions,lower_class,"
          
Jacques:

          
's isch au schun e schöeni Zyt here, zyter aß Dini Konfermation gemacht hesch, gell Marie?

        
",41,riff-s-paradies,21,2,0.0,0.09523809523809523
42,comedy,Marie,F,lady’s_maid,elementary_professions,lower_class,"
          
Marie

          
(seufzend):

          
Dies isch's jo grad.

        
",42,riff-s-paradies,11,1,0.0,0.09090909090909091
45,comedy,Jacques,M,valet,elementary_professions,lower_class,"
          
Jacques

          
(springt auf):

          
Zem Gücksel noch emol, was soll ich denn allewiel merke?!

        
",45,riff-s-paradies,19,1,0.0,0.05263157894736842
49,comedy,Jacques,M,valet,elementary_professions,lower_class,"
          
Jacques:

          
Aw'r e bissel viel dumm, hein?

        
",49,riff-s-paradies,10,1,0.0,0.1
50,comedy,Marie,F,lady’s_maid,elementary_professions,lower_class,"
          
Marie

          
(lächelnd):

          
Zell will ich jetz nit grad saawe, aw'r-

        
",50,riff-s-paradies,15,2,1.9990575381464852,0.13333333333333333
51,comedy,Jacques,M,valet,elementary_professions,lower_class,"
          
Jacques:

          
Höer, Marie, jetz glaawi iewer halwer daß ich ebs merk.

        
",51,riff-s-paradies,15,1,0.0,0.06666666666666667
52,comedy,Marie,F,lady’s_maid,elementary_professions,lower_class,"
          
Marie

          
(freudig):

          
Ja?! — Was denn?!

        
",52,riff-s-paradies,13,2,1.230946958533208,0.15384615384615385
53,comedy,Jacques,M,valet,elementary_professions,lower_class,"
          
Jacques:

          
Bscht! — Numme langsam! — Dü hesch doch noch meh uffem Herze?

        
",53,riff-s-paradies,17,1,0.0,0.058823529411764705
54,comedy,Marie,F,lady’s_maid,elementary_professions,lower_class,"
          
Marie

          
(freudig):

          
O ja, noch arig viel!

        
",54,riff-s-paradies,12,2,1.230946958533208,0.16666666666666666
55,comedy,Jacques,M,valet,elementary_professions,lower_class,"
          
Jacques:

          
Ei na, ze babbel numme. 
          
(lachend)
 Ich merk ebs! — O je, ich merk ebs! - Hahahahaha!

        
",55,riff-s-paradies,27,1,0.0,0.037037037037037035
56,comedy,Marie,F,lady’s_maid,elementary_professions,lower_class,"
          
Marie:

          
Jacques -kurz un guet — gieb m'r Antwort uff mini Fröije — — —

        
",56,riff-s-paradies,17,2,1.3993144687553296,0.11764705882352941
57,comedy,Jacques,M,valet,elementary_professions,lower_class,"
          
Jacques:

          
Uff was fer Fröije?

        
",57,riff-s-paradies,7,1,2.798628937510659,0.14285714285714285
58,comedy,Marie,F,lady’s_maid,elementary_professions,lower_class,"
          
Marie:

          
Jacques, löij, mir sin jetz schun e paar Jährle do bienand in dem Platz. Mir han's — ei- jetli ich
          hab's so noochetnooch d'rzü gebroocht, daß mir per ""Dü"" mitnander stehn, aw'r sunscht isch's im
          Allgemeine grad noch's nämli wie am erschte Daa, wie m'r uns kenne han lehre. — 's kummt m'r grad vor,
          wie wenn m'r vor ere himmelhoche Müür stehn däete. — Do steht d'M üür — do stehn mir — un kaan Macht
          stellt sich in wie die Müür umrennt — un do stehn mir Zwei ewwe no, hilflos wie zwei klaani Kinder, un
          kumme nit wyttersch, — un kumme nit wyttersch — — —

        
",58,riff-s-paradies,132,10,0.2700241204446278,0.07575757575757576
59,comedy,Jacques,M,valet,elementary_professions,lower_class,"
          
Jacques

          
(gähnend):

          
Ei no bliewe m'r halt e Gottsname vor dere Müür stehn. — Weisch, ich-bin kaan Friend vum klettere,
          bsunders wenn's hoch owenüs soll gehn. — Oho!

        
",59,riff-s-paradies,37,3,0.0,0.08108108108108109
61,comedy,Jacques,M,valet,elementary_professions,lower_class,"
          
Jacques:

          
Gott sej Dank! — Ich schwitz nämli dene Wäj schun! — Aw'r höer, ich hab doch gemaant, Dü wottsch
          mich ebs fröije?

        
",61,riff-s-paradies,29,3,0.9294654301909259,0.10344827586206896
62,comedy,Marie,F,lady’s_maid,elementary_professions,lower_class,"
          
Marie:

          
Ja, — ei nadierli hawich Dich ebs fröije welle.

        
",62,riff-s-paradies,13,1,2.461893917066416,0.07692307692307693
63,comedy,Jacques,M,valet,elementary_professions,lower_class,"
          
Jacques:

          
Na, ze fröij doch emol, ich bin gspannt wie e Bareplee biem Räejewetter.

        
",63,riff-s-paradies,18,2,0.0,0.1111111111111111
64,comedy,Marie,F,lady’s_maid,elementary_professions,lower_class,"
          
Marie

          
(momentan etwas verwirrt):

          
Jacques — Dü — Dü gehsch od'r Dü wottsch iew'r kurz od'r lang üssem Dienscht?

        
",64,riff-s-paradies,23,2,0.0,0.08695652173913043
67,comedy,Jacques,M,valet,elementary_professions,lower_class,"
          
Jacques:

          
Ah jaso. — Na, ze fröij wyttersch.

        
",67,riff-s-paradies,12,1,0.0,0.08333333333333333
68,comedy,Marie,F,lady’s_maid,elementary_professions,lower_class,"
          
Marie:

          
Dü machsch dies Johr nimmi ganz üß in dem Platz do?

        
",68,riff-s-paradies,14,1,1.681996089770147,0.07142857142857142
69,comedy,Jacques,M,valet,elementary_professions,lower_class,"
          
Jacques:

          
Wer saat zell?

        
",69,riff-s-paradies,6,1,0.0,0.16666666666666666
70,comedy,Marie,F,lady’s_maid,elementary_professions,lower_class,"
          
Marie

          
(bestimmt):

          
Ich!

        
",70,riff-s-paradies,7,1,0.0,0.14285714285714285
71,comedy,Jacques,M,valet,elementary_professions,lower_class,"
          
Jacques:

          
Hesch D'r d'Kart schlaawe loon?

        
",71,riff-s-paradies,9,2,1.243375159595942,0.2222222222222222
73,comedy,Jacques,M,valet,elementary_professions,lower_class,"
          
Jacques:

          
Ah ja, zem Dunterlättel — — —

        
",73,riff-s-paradies,10,1,2.461893917066416,0.1
75,comedy,Jacques,M,valet,elementary_professions,lower_class,"
          
Jacques:

          
Wart e Moment, ich will mich zerscht setze — 
          
(setzt sich auf die Bank)
 So, jetz wytterscht

        
",75,riff-s-paradies,23,1,0.0,0.043478260869565216
76,comedy,Marie,F,lady’s_maid,elementary_professions,lower_class,"
          
Marie:

          
Ja, un wenn Dü no do üB dem Platz gehsch, no bisch-zem letschtemol in Dim Läwe Do- mestique gsin
          ?

        
",76,riff-s-paradies,25,2,2.059993347940317,0.08
78,comedy,Marie,F,lady’s_maid,elementary_professions,lower_class,"
          
Marie

          
(freudig):

          
Un mit Dim zammegsparte V'rmüije fangsch d'rnoo e Krämel an — — —

        
",78,riff-s-paradies,19,1,0.0,0.05263157894736842
82,comedy,Marie,F,lady’s_maid,elementary_professions,lower_class,"
          
Marie

          
(unbeirrt):

          
Löijsch Dich no nooch eme schöene, brave, rechtschaffene Maidel um — —

        
",82,riff-s-paradies,19,3,0.0,0.15789473684210525
83,comedy,Jacques,M,valet,elementary_professions,lower_class,"
          
Jacques:

          
Hein?! — Worum jetz grad nooch eme Maidl?

        
",83,riff-s-paradies,13,2,0.0,0.15384615384615385
84,comedy,Marie,F,lady’s_maid,elementary_professions,lower_class,"
          
Marie:

          
Dü nimmsch e Maidel wie koche, nähje, strieke, wäsche, Strümpf stopfe un sunscht alles mache kaan —
          — —

        
",84,riff-s-paradies,25,2,0.0,0.08
86,comedy,Marie,F,lady’s_maid,elementary_professions,lower_class,"
          
Marie:

          
Un dies Maidel hyrootsch no — — —

        
",86,riff-s-paradies,10,1,0.0,0.1
87,comedy,Jacques,M,valet,elementary_professions,lower_class,"
          
Jacques:

          
Oeh la, Schimmel! — Ja Hepplamepperle! — Ich merk's, wo's nüs will! — Ah, un Dü hesch anoch gemaant
          ich merk nix! — 
          
(sing)
""Dü hesch jo gar kaan Ahnung, wie hell d'r Schääkele isch"".

        
",87,riff-s-paradies,52,5,0.4923787834132832,0.09615384615384616
88,comedy,Marie,F,lady’s_maid,elementary_professions,lower_class,"
          
Marie

          
(eifrig):

          
Ei na, wenn Dü no hell genuej bisch, no wäre-m-'r au enandernooch Maan un Frau un krieje enander vun
          Daa ze Daa liewer — un d'r- 
          
noo läwe-m-'r glichli mitnand -un d'rnoo — un d'rnoo kumme die herzige klaane,
          wuschberliche, süeße Bébé — — —

        
",88,riff-s-paradies,58,6,0.6494197094268295,0.10344827586206896
89,comedy,Jacques,M,valet,elementary_professions,lower_class,"
          
Jacques

          
(ist langsam aufgestanden):

          
Sunscht nix wie Knepfle! Naan, Mamsel Marie, sie kumme noch nit! — Aeh-äh — sie kumme noch nit! —
          Iewerhaupt — nooch mienere Maanung, laaft schun wied'r viel zeviel vun dem Gerührs do erum. Jetz sogar
          noch Negerle un Anamitle!

        
",89,riff-s-paradies,55,3,0.0,0.05454545454545454
91,comedy,Jacques,M,valet,elementary_professions,lower_class,"
          
Jacques:

          
Na, ich hab jo nix do d'rgeje. — E jeds Dhierel het sin Pläsierel, un jedem Narr gfallt sini
          Kapp!-

        
",91,riff-s-paradies,28,1,0.0,0.03571428571428571
93,comedy,Jacques,M,valet,elementary_professions,lower_class,"
          
Jacques:

          
Was beliebt?

        
",93,riff-s-paradies,5,1,0.0,0.2
94,comedy,Marie,F,lady’s_maid,elementary_professions,lower_class,"
          
Marie:

          
Gell Dü hesch die klaane, herzige Kinderle gern?

        
",94,riff-s-paradies,12,2,1.1675785039394295,0.16666666666666666
95,comedy,Jacques,M,valet,elementary_professions,lower_class,"
          
Jacques:

          
O ja. Arig gern, aw'r numme in andere Lyt ihri! 
          
(Es klingelt.)

        
",95,riff-s-paradies,20,2,2.3985254624726373,0.1
96,comedy,Marie,F,lady’s_maid,elementary_professions,lower_class,"
          
Marie

          
(ärgerlich):

          
D'Madam schellt! — Isch's jetz fer mich od'r fer Dich? 
          
(eilt gegen rechts.)

        
",96,riff-s-paradies,25,4,0.0,0.16
97,comedy,Jacques,M,valet,elementary_professions,lower_class,"
          
Jacques:

          
Sie sell warte, die alt Schatüll — 
          
(eilt Marie nach und zieht sie an der Hand wieder zurück.)
 Numme nit glich geloffe! Mir
          han se dennewäej schun viel ze viel v'rwöehnt. 
          
(Es klingelt.)

        
",97,riff-s-paradies,44,3,0.0,0.06818181818181818
98,comedy,Jacques,M,valet,elementary_professions,lower_class,"
          
Beide:

          
(eilen gegen dem Ausgang rechts, fahren mit dem rechten Zeigefinger ruckartig unter der Nase
          durch, schlagen hierauf mit der rechten Hand auf das erhobene Knie, klatschen dann einen kräftigen
          Schlag in die Hände und führen den Finger nochmals unter der Nase durch.)

          
ffffft! — Hutzti! — Hepplamepperle! — fffft!

        
",98,riff-s-paradies,61,12,0.0,0.19672131147540983
99,comedy,Marie,F,lady’s_maid,elementary_professions,lower_class,"
          
Beide:

          
(eilen gegen dem Ausgang rechts, fahren mit dem rechten Zeigefinger ruckartig unter der Nase
          durch, schlagen hierauf mit der rechten Hand auf das erhobene Knie, klatschen dann einen kräftigen
          Schlag in die Hände und führen den Finger nochmals unter der Nase durch.)

          
ffffft! — Hutzti! — Hepplamepperle! — fffft!

        
",99,riff-s-paradies,61,12,0.0,0.19672131147540983
100,comedy,Jacques,M,valet,elementary_professions,lower_class,"
          
Jacques:

          
Wenn Die maant, daß dies eso wyttersch geht mit dere Stäeje-n-uff un abrennerej, no isch se aw'r
          diesmol schläecht orientiert. — Vor alle Dinge wurd jetz emol e Düür anne gsesse. 
          
(setzt sich auf die Bank.)
 Marie, Dü bisch doch au müed wie e — — - wie e
          Dienschtmaidel?

        
",100,riff-s-paradies,63,3,0.9328763125035531,0.047619047619047616
101,comedy,Marie,F,lady’s_maid,elementary_professions,lower_class,"
          
Marie

          
(lachend):

          
Aw'r sicher! — Derf ich näwe Dich sitze?

        
",101,riff-s-paradies,15,2,0.0,0.13333333333333333
102,comedy,Jacques,M,valet,elementary_professions,lower_class,"
          
Jacques:

          
Mientwäeje au uff de Geere.

        
",102,riff-s-paradies,8,2,1.3993144687553296,0.25
104,comedy,Jacques,M,valet,elementary_professions,lower_class,"
          
Jacques:

          
Ei na — d'r Madam ze Leid — kumm! — —

        
",104,riff-s-paradies,14,3,0.0,0.21428571428571427
106,comedy,Jacques,M,valet,elementary_professions,lower_class,"
          
Jacques

          
(gekränkt):

          
Ze wär ich demnooch unanständig.

        
",106,riff-s-paradies,11,1,0.0,0.09090909090909091
107,comedy,Marie,F,lady’s_maid,elementary_professions,lower_class,"
          
Marie:

          
Naan, Jacques, ums Himmelswille, dies hawich nit saawe welle 
          
(setzt sich ihm rasch auf den Schoß.)
 Wenn aw'r d'Madam kummt?

        
",107,riff-s-paradies,30,1,0.0,0.03333333333333333
112,comedy,Jacques,M,valet,elementary_professions,lower_class,"
          
Jacques

          
(schmunzelnd):

          
Ja?

        
",112,riff-s-paradies,7,1,2.461893917066416,0.14285714285714285
113,comedy,Marie,F,lady’s_maid,elementary_professions,lower_class,"
          
Marie

          
(streicht ihm die Wangen):

          
Bisch e liewer gueter Kerl.

        
",113,riff-s-paradies,14,2,0.0,0.14285714285714285
115,comedy,Marie,F,lady’s_maid,elementary_professions,lower_class,"
          
Marie:

          
Wenn ich d'r saa! 
          
(verliebt)
 Jaeques-

        
",115,riff-s-paradies,12,1,0.0,0.08333333333333333
116,comedy,Jacques,M,valet,elementary_professions,lower_class,"
          
Jacques:

          
Was hesch uffem Herze?

        
",116,riff-s-paradies,7,1,0.0,0.14285714285714285
117,comedy,Marie,F,lady’s_maid,elementary_professions,lower_class,"
          
Marie:

          
Ich — ich hab Dich gern!

        
",117,riff-s-paradies,9,1,2.335157007878859,0.1111111111111111
119,comedy,Marie,F,lady’s_maid,elementary_professions,lower_class,"
          
Marie:

          
Jacques, mir derfe nimmi üssenander, kummt's wies will! Mir Zwei muehn bienander bliewe, denn mir
          sin enander schun so gewohnt, daß mir aans ohni 's ander iewerhaupt nimmi läwe könnte. Mit aam Wort:
          mir Zwei muehn enander hyroothe, ich mueß Dini Frau wäre — — —

        
",119,riff-s-paradies,57,3,0.5526975929380726,0.05263157894736842
120,comedy,Jacques,M,valet,elementary_professions,lower_class,"
          
Jacques

          
(überrascht):

          
Was muesch Dü?

        
",120,riff-s-paradies,9,1,0.0,0.1111111111111111
122,comedy,Jacques,M,valet,elementary_professions,lower_class,"
          
Jacques:

          
Oho! Zeij Marie, steh e bissel uff!

        
",122,riff-s-paradies,12,1,2.798628937510659,0.08333333333333333
123,comedy,Marie,F,lady’s_maid,elementary_professions,lower_class,"
          
Marie

          
(leidenschaftlich):

          
Naan, ewwe hesch v'rlangt, daß ich D'r uff de Geere sitz, jetz blie ich aw'r au sitze! Die günschtig
          Geläjeheit loß ich diesmol nimmi fahre!

        
",123,riff-s-paradies,35,3,2.1311613634799773,0.08571428571428572
124,comedy,Jacques,M,valet,elementary_professions,lower_class,"
          
Jacques:

          
O ich Dolle!

        
",124,riff-s-paradies,6,1,0.0,0.16666666666666666
125,comedy,Marie,F,lady’s_maid,elementary_professions,lower_class,"
          
Marie

          
(wie oben):

          
Jacques, wenn Dü emol do üs dem Platz eweck gehsch, un daß mir üssenander gerisse däete wäre, d'rnoo
          muesch hyroothe — iewerleij D'r's wie De witt — Dü muesch d'rnoo ewwe hyroothe! — Do springsch nit drum
          erum! Un wenn Dü d'rnoo hyrootsch, d'rnoo muesch vor alle Dinge e Frau nämme wie Dich kennt, wie Dich
          lieb het, wie Dine Charakter v'rsteht, un wie weiß, wie se mit Dir umzegehn het un wie Dü bhandelt
          muesch wäre — — —

        
",125,riff-s-paradies,101,2,2.3716081938425626,0.019801980198019802
127,comedy,Marie,F,lady’s_maid,elementary_professions,lower_class,"
          
Marie:

          
Aanfach — Dü muesch hyroothe!

        
",127,riff-s-paradies,8,1,0.0,0.125
129,comedy,Marie,F,lady’s_maid,elementary_professions,lower_class,"
          
Marie:

          
Ja, Dü muesch.

        
",129,riff-s-paradies,7,1,2.461893917066416,0.14285714285714285
130,comedy,Jacques,M,valet,elementary_professions,lower_class,"
          
Jacques:

          
Wer saat dies?!

        
",130,riff-s-paradies,7,1,0.0,0.14285714285714285
132,comedy,Jacques,M,valet,elementary_professions,lower_class,"
          
Jacques:

          
Zeij, Marie, steh uff!

        
",132,riff-s-paradies,9,1,2.798628937510659,0.1111111111111111
134,comedy,Jacques,M,valet,elementary_professions,lower_class,"
          
Jacques

          
(verzwiefelt):

          
D'Füeß schloofe m'r in — un — un ich kriej de Datteri in d'Knej — un ich schwitz m'r e
          pflutschnasser Buckel! — V'rdoria noch emol!

        
",134,riff-s-paradies,35,4,0.0,0.11428571428571428
135,comedy,Marie,F,lady’s_maid,elementary_professions,lower_class,"
          
Marie:

          
Dies lejt mir jetz Alles nix an! — Ich saa Dir's aanfach noch hundertmol: Dü muesch hyroothe! Denn
          wenn nit hyrootsch, no hesch jo kaan Menscheseel uff dere Welt wie uff Dich löijt un wie Dich bsorjt.
          No kriejsch kann Wäsch gewäsche, kaan Kleider gfliekt, kaan Strümpf gstopft, kaan Knopf angenähjt, un
          kaan gueti kräftige Süppele kocht — — —

        
",135,riff-s-paradies,72,5,2.2389031500085275,0.06944444444444445
137,comedy,Marie,F,lady’s_maid,elementary_professions,lower_class,"
          
Marie

          
(lächelnd):

          
Gell, an so Sache hesch noch gar nie gedenkt?

        
",137,riff-s-paradies,16,1,3.9981150762929705,0.0625
139,comedy,Marie,F,lady’s_maid,elementary_professions,lower_class,"
          
Marie

          
(zärtlich):

          
Ja siehsch, min liewer Bue, m'r mueß ewwe an Alles denke! 
          
(holt einen Apfel aus der Schürzentasche, und beißt kräftig hinein.)

        
",139,riff-s-paradies,33,4,1.1795481417173357,0.12121212121212122
143,comedy,Marie,F,lady’s_maid,elementary_professions,lower_class,"
          
Marie

          
(schmatzend):

          
Uessem Garte. 
          
(lachend)
 wit au e Biß?

        
",143,riff-s-paradies,16,1,0.0,0.0625
146,comedy,Jacques,M,valet,elementary_professions,lower_class,"
          
Jacques

          
(unruhig):

          
Steh üff jetz!

        
",146,riff-s-paradies,9,2,0.0,0.2222222222222222
147,comedy,Marie,F,lady’s_maid,elementary_professions,lower_class,"
          
Marie:

          
Zerscht dhuesch emol herzhaft drin bisse.

        
",147,riff-s-paradies,9,1,0.0,0.1111111111111111
148,comedy,Jacques,M,valet,elementary_professions,lower_class,"
          
Jacques:

          
Na, daß Ruehj hesch — here mit! — Aw'r no stehsch uff! — 
          
(beißt kräftig von dem Apfel ab.)

        
",148,riff-s-paradies,27,3,1.684975862437862,0.1111111111111111
149,comedy,Marie,F,lady’s_maid,elementary_professions,lower_class,"
          
Marie:

          
Isch'r guet?

        
",149,riff-s-paradies,5,1,0.0,0.2
150,comedy,Jacques,M,valet,elementary_professions,lower_class,"
          
Jacques

          
(schmatzend)

          
Aw'r sicher.

        
",150,riff-s-paradies,7,1,0.0,0.14285714285714285
151,comedy,Marie,F,lady’s_maid,elementary_professions,lower_class,"
          
Marie:

          
Isch'r au süeß?

        
",151,riff-s-paradies,6,1,3.945458827870916,0.16666666666666666
152,comedy,Jacques,M,valet,elementary_professions,lower_class,"
          
Jacques:

          
Aw'r sicher!

        
",152,riff-s-paradies,5,1,0.0,0.2
154,comedy,Jacques,M,valet,elementary_professions,lower_class,"
          
Jacques:

          
Ich hab jo 's Mül noch voll.

        
",154,riff-s-paradies,10,2,0.0,0.2
156,comedy,Jacques,M,valet,elementary_professions,lower_class,"
          
Jacques:

          
Höer, Marie, so het's d'Eva zellemols im Paradies mit 'm Adam getriewe.

        
",156,riff-s-paradies,19,2,0.0,0.10526315789473684
157,comedy,Marie,F,lady’s_maid,elementary_professions,lower_class,"
          
Marie

          
(lachend):

          
Do wärdsch Dü d'r Adam?

        
",157,riff-s-paradies,11,1,0.0,0.09090909090909091
158,comedy,Jacques,M,valet,elementary_professions,lower_class,"
          
Jacques

          
(lachend):Un

          
Dü d'Eva! — Jetz fehlt numme noch d'Schlang. 
          
(Beide lachen kräftig.) (Es klingelt!)

        
",158,riff-s-paradies,28,5,0.0,0.17857142857142858
159,comedy,Marie,F,lady’s_maid,elementary_professions,lower_class,"
          
Marie

          
(lachend):

          
Là voilà — doch isch se jo schun!

        
",159,riff-s-paradies,14,1,0.0,0.07142857142857142
160,comedy,Jacques,M,valet,elementary_professions,lower_class,"
          
Jacques:

          
Wahrhafti! Na, jetz wär jo so ziemli Alles bienander — numme 's Paradies fehlt noch! Im Paradies sin
          m'r bis hyt noch nit gsin. Gell nit, Evele?

        
",160,riff-s-paradies,35,6,0.7334775826513473,0.17142857142857143
161,comedy,Marie,F,lady’s_maid,elementary_professions,lower_class,"
          
Marie:

          
Naan jo nit. — Ehnder mittle in d'r Höll! — Aw'r mir welle jetz emol ins Paradies mitnander, Arm in
          Arm, un unser Läwe genieße un glickli un zefridde mitnand un näwenander läwe! 
          
(springt auf und zieht Jacques mit großer Kraftanstrengung in die Höhe.)
 Ich läb fer
          Dich, un Dü läbsch ger mich! Gell Jacques?!

        
",161,riff-s-paradies,69,12,0.8821549642831483,0.17391304347826086
162,comedy,Jacques,M,valet,elementary_professions,lower_class,"
          
Jacques

          
(sich schwerfällig erhebend):

          
Mini Füeß sin ganz stiff worre. Un am räechte Fueß schlooft m'r d'r groß Zeh! - Sapperlot, wie dies
          kriwwelt! — Do bisch Dü d'Schuld dran! —

        
",162,riff-s-paradies,40,4,1.3053656419146455,0.1
163,comedy,Marie,F,lady’s_maid,elementary_professions,lower_class,"
          
Marie:

          
Mientwäeje. — Ich nimm jo gern alli Schuld uff mich. Un ich will d'r's jo au gern v'r- spreche, dab
          ich miener Läwe eso ebs nimmi dhun will.

        
",163,riff-s-paradies,36,6,2.299558291306719,0.16666666666666666
165,comedy,Marie,F,lady’s_maid,elementary_professions,lower_class,"
          
Marie:

          
Sicher! — Miner Läwe ninimi.

        
",165,riff-s-paradies,9,3,0.5526975929380726,0.3333333333333333
166,comedy,Jacques,M,valet,elementary_professions,lower_class,"
          
Jacques:

          
Ja, so siehsch üs!

        
",166,riff-s-paradies,8,1,2.461893917066416,0.125
167,comedy,Marie,F,lady’s_maid,elementary_professions,lower_class,"
          
Marie:

          
Bisch nit böes gell nit? 
          
(küßt ihn.)

        
",167,riff-s-paradies,13,1,0.0,0.07692307692307693
169,comedy,Marie,F,lady’s_maid,elementary_professions,lower_class,"
          
Marie

          
(zärtlich):

          
Nit böes sin, Adam! 
          
(küst ihn) Jacques schmatzend)
: Mhmmm! — Aaaah! — Dies sell nit kriwwle! — 
          
(tritt mit dem rechten Fuß hoch in die Höhe.)
 Jetz schlooft m'r d'r groß Zeh gar nimmi! —
          
          
(reekt sich rasch in die Höhe und breitet die Arme aus.)
 Marie, Evele, noch e Schmutz! —
          Noch aaner! 
          
(Marie fliegt ihm an die Brust und küßt ihn.)

        
",169,riff-s-paradies,91,6,0.8085898801693293,0.06593406593406594
171,comedy,Marie,F,lady’s_maid,elementary_professions,lower_class,"
          
Marie

          
(windet sich lachend los):

          
— Naan, min liewer Adam, jetz isch's genüej! 
          
Es klingelt!)

        
",171,riff-s-paradies,24,3,1.0398082867759084,0.125
172,comedy,Marie,F,lady’s_maid,elementary_professions,lower_class,"
          
Marie

          
(lachend):

          
Siehsch — jetz het's gschellt! — Do kannsch nix mehr dran mache! Jacques 
          
(stampft zornig mit dem Fuß auf):
 Zell welle m'r aw'r doch emol sehne! 
          
(Es klingelt!)

        
",172,riff-s-paradies,43,3,0.0,0.06976744186046512
173,comedy,Jacques,M,valet,elementary_professions,lower_class,"
          
Jacques:

          
Jaja, m'r kumme, alti Schawäll! Diesmol kumme m'r alli Zwei mitnander! — Warte Sie numme, Madam,
          diesmol selle Sie sich wundere, wenn ich anfang ""höefli"" zu wäre! - Uffgekündt wurd! — Uff d'r Stell! —
          Marie, machsch mit?!

        
",173,riff-s-paradies,55,8,0.6197146801754636,0.14545454545454545
174,comedy,Marie,F,lady’s_maid,elementary_professions,lower_class,"
          
Marie

          
(triumphierend):

          
Aw'r sicher mach ich mit!

        
",174,riff-s-paradies,11,2,2.5041311196917397,0.18181818181818182
175,comedy,Jacques,M,valet,elementary_professions,lower_class,"
          
Jacques:

          
Batsch in! — 
          
(hält ihr die rechte Hand entgegen.)

        
",175,riff-s-paradies,15,3,0.0,0.2
176,comedy,Marie,F,lady’s_maid,elementary_professions,lower_class,"
          
Marie

          
(feierlich):

          
E Mann — e Wort! 
          
(schlägt kräftigt ein.)

        
",176,riff-s-paradies,17,3,0.0,0.17647058823529413
177,comedy,Jacques,M,valet,elementary_professions,lower_class,"
          
Jacques:

          
Un noch emol e Schmutz!

        
",177,riff-s-paradies,8,1,0.0,0.125
178,comedy,Marie,F,lady’s_maid,elementary_professions,lower_class,"
          
Marie

          
(lachend):

          
Naan — jetz nit — später — wenn m'r emol ghyroot sin. 
          

          
(Es klingelt andauernd heftig.)

        
",178,riff-s-paradies,25,2,0.0,0.08
180,comedy,Marie,F,lady’s_maid,elementary_professions,lower_class,"
          
Marie

          
(schelmisch lächelnd):

          
Zue unsere Hochzytt!

        
",180,riff-s-paradies,10,2,1.9990575381464852,0.2
181,comedy,Jacques,M,valet,elementary_professions,lower_class,"
          
Jacques

          
(wirbelt Marie in ausgelassener Stimmung im Kreisel herum.)

          
Juuuuuuuuh! — Kumm, Marie, m'r packe unser Bimbelebaasch zamme, un d'rnoo aw'r nix aß wie nüs üs
          dere Höll! :

        
",181,riff-s-paradies,38,5,0.4351169398714644,0.13157894736842105
182,comedy,Marie,F,lady’s_maid,elementary_professions,lower_class,"
          
Marie

          
(jubelnd):

          
Un nin ins Paradies!

          
(Beide hüpfen, eng umschlungen, jubelnd rechts ab.)

        
",182,riff-s-paradies,22,3,6.6630209875415005,0.13636363636363635
