2022-08-20 21:36:08 - valence lexicon length: 7864
2022-08-20 21:36:08 - Number of rows: 183
2022-08-20 21:36:08 - dominance lexicon length: 7864
2022-08-20 21:36:08 - Number of rows: 183
2022-08-20 21:36:08 - arousal lexicon length: 7864
2022-08-20 21:36:08 - Number of rows: 183
2022-08-20 21:36:08 - anger lexicon length: 7864
2022-08-20 21:36:08 - Number of rows: 183
2022-08-20 21:36:09 - anticipation lexicon length: 7864
2022-08-20 21:36:09 - Number of rows: 183
2022-08-20 21:36:09 - disgust lexicon length: 7864
2022-08-20 21:36:09 - Number of rows: 183
2022-08-20 21:36:09 - fear lexicon length: 7864
2022-08-20 21:36:09 - Number of rows: 183
2022-08-20 21:36:09 - joy lexicon length: 7864
2022-08-20 21:36:09 - Number of rows: 183
2022-08-20 21:36:09 - sadness lexicon length: 7864
2022-08-20 21:36:09 - Number of rows: 183
2022-08-20 21:36:09 - surprise lexicon length: 7864
2022-08-20 21:36:09 - Number of rows: 183
2022-08-20 21:36:10 - trust lexicon length: 7864
2022-08-20 21:36:10 - Number of rows: 183
2022-08-24 17:06:35 - valence lexicon length: 7864
2022-08-24 17:06:36 - Number of rows: 183
2022-08-24 17:06:36 - dominance lexicon length: 7864
2022-08-24 17:06:36 - Number of rows: 183
2022-08-24 17:06:36 - arousal lexicon length: 7864
2022-08-24 17:06:36 - Number of rows: 183
2022-08-24 17:06:36 - anger lexicon length: 7864
2022-08-24 17:06:36 - Number of rows: 183
2022-08-24 17:06:36 - anticipation lexicon length: 7864
2022-08-24 17:06:36 - Number of rows: 183
2022-08-24 17:06:37 - disgust lexicon length: 7864
2022-08-24 17:06:37 - Number of rows: 183
2022-08-24 17:06:37 - fear lexicon length: 7864
2022-08-24 17:06:37 - Number of rows: 183
2022-08-24 17:06:37 - joy lexicon length: 7864
2022-08-24 17:06:37 - Number of rows: 183
2022-08-24 17:06:37 - sadness lexicon length: 7864
2022-08-24 17:06:37 - Number of rows: 183
2022-08-24 17:06:38 - surprise lexicon length: 7864
2022-08-24 17:06:38 - Number of rows: 183
2022-08-24 17:06:38 - trust lexicon length: 7864
2022-08-24 17:06:38 - Number of rows: 183
