2022-08-20 21:32:22 - valence lexicon length: 7864
2022-08-20 21:32:22 - Number of rows: 525
2022-08-20 21:32:23 - dominance lexicon length: 7864
2022-08-20 21:32:23 - Number of rows: 525
2022-08-20 21:32:24 - arousal lexicon length: 7864
2022-08-20 21:32:24 - Number of rows: 525
2022-08-20 21:32:24 - anger lexicon length: 7864
2022-08-20 21:32:24 - Number of rows: 525
2022-08-20 21:32:25 - anticipation lexicon length: 7864
2022-08-20 21:32:25 - Number of rows: 525
2022-08-20 21:32:25 - disgust lexicon length: 7864
2022-08-20 21:32:25 - Number of rows: 525
2022-08-20 21:32:26 - fear lexicon length: 7864
2022-08-20 21:32:26 - Number of rows: 525
2022-08-20 21:32:26 - joy lexicon length: 7864
2022-08-20 21:32:26 - Number of rows: 525
2022-08-20 21:32:27 - sadness lexicon length: 7864
2022-08-20 21:32:27 - Number of rows: 525
2022-08-20 21:32:27 - surprise lexicon length: 7864
2022-08-20 21:32:27 - Number of rows: 525
2022-08-20 21:32:28 - trust lexicon length: 7864
2022-08-20 21:32:28 - Number of rows: 525
2022-08-24 17:01:30 - valence lexicon length: 7864
2022-08-24 17:01:30 - Number of rows: 525
2022-08-24 17:01:31 - dominance lexicon length: 7864
2022-08-24 17:01:31 - Number of rows: 525
2022-08-24 17:01:31 - arousal lexicon length: 7864
2022-08-24 17:01:31 - Number of rows: 525
2022-08-24 17:01:32 - anger lexicon length: 7864
2022-08-24 17:01:32 - Number of rows: 525
2022-08-24 17:01:32 - anticipation lexicon length: 7864
2022-08-24 17:01:32 - Number of rows: 525
2022-08-24 17:01:33 - disgust lexicon length: 7864
2022-08-24 17:01:33 - Number of rows: 525
2022-08-24 17:01:33 - fear lexicon length: 7864
2022-08-24 17:01:33 - Number of rows: 525
2022-08-24 17:01:34 - joy lexicon length: 7864
2022-08-24 17:01:34 - Number of rows: 525
2022-08-24 17:01:34 - sadness lexicon length: 7864
2022-08-24 17:01:34 - Number of rows: 525
2022-08-24 17:01:34 - surprise lexicon length: 7864
2022-08-24 17:01:34 - Number of rows: 525
2022-08-24 17:01:35 - trust lexicon length: 7864
2022-08-24 17:01:35 - Number of rows: 525
