Unnamed: 0,drama_type,speaker,sex,job,job_category,social_class,text,progress,short_name,numTokens,numLexTokens,avgLexVal,lexRatio
0,tale,d'Grand-mère oder Grand-père,B,,,,"
          
Grand'mère:

          
 
(sitzt beim Ofen und strickt)
 

        
",0,weber-am-wihnachtsowe-bym-e-kriejsblinde,9,1,0.0,0.1111111111111111
4,tale,d'Grand-mère oder Grand-père,B,,,,"
          
Grand'mère:

          
Ja min Liewer. Awer der Hanstrapp kummt awer au mit.

        
",2,weber-am-wihnachtsowe-bym-e-kriejsblinde,14,2,0.0,0.14285714285714285
5,tale,Charele ,M,,,,"
          
Charele:

          
(spielt weiter — — nach einer Weile)

          
Grand’- meman zue uns brüecht jo de Hanstrapp nit zu kumme, ich bin jo immer brav! ! Grand’mère: Ich weiss nit, ich weiss nit? Am End kummt de Hanstrapp doch zue uns! Zeij lüej mich emol aan, Charele. Bisch düe immer brav g'sinn? ?

        
",2,weber-am-wihnachtsowe-bym-e-kriejsblinde,65,3,0.7678410965488194,0.046153846153846156
6,tale,Charele ,M,,,,"
          
Charele:

          
Ja, ja Grand'meman ich immer, awer s’Jeanne als nit.

        
",3,weber-am-wihnachtsowe-bym-e-kriejsblinde,15,2,0.0,0.13333333333333333
7,tale,d'Grand-mère oder Grand-père,B,,,,"
          
Grand'mère:

          
(lacht)
 Ah düe immer, awer s’Jeanne als nit?

        
",3,weber-am-wihnachtsowe-bym-e-kriejsblinde,15,1,0.0,0.06666666666666667
8,tale,Charele ,M,,,,"
          
Charele:

          
Ja, ja Grand’meman. 
(spielt weiter)

        
",4,weber-am-wihnachtsowe-bym-e-kriejsblinde,11,2,0.0,0.18181818181818182
9,tale,d'Grand-mère oder Grand-père,B,,,,"
          
Grand'mère:

          
Ich glaub, düe bisch als au bœss g’sin.

        
",4,weber-am-wihnachtsowe-bym-e-kriejsblinde,12,1,0.0,0.08333333333333333
10,tale,Charele ,M,,,,"
          
Charele:

          
Ein Mol, e kleins bissele. Awer düe müesch dess nit im Hanstrapp saawe. Grand’mère: Ja der weiss alles, dem brüecht m'r nix ze saawe.

        
",5,weber-am-wihnachtsowe-bym-e-kriejsblinde,32,1,0.0,0.03125
11,tale,Charele ,M,,,,"
          
Charele:

          
Ich schliess einfach Tüer zu, wenns Chrischtkindel hinne isch, no kummt er nit erin. Grand’mère : Ja no kummt er züem Fenschter erin.

        
",5,weber-am-wihnachtsowe-bym-e-kriejsblinde,29,2,0.0,0.06896551724137931
12,tale,Charele ,M,,,,"
          
Charele:

          
No versteckel ich mich; un ich kann jo bete, un de Babe hilft mir, un ich will jo nix vum Hanstrapp! ! !

        
",6,weber-am-wihnachtsowe-bym-e-kriejsblinde,29,2,1.5181424027497386,0.06896551724137931
13,tale,d'Grand-mère oder Grand-père,B,,,,"
          
Grand'mère:

          
Wie düe jetzt awer uff einmol e grosses Mül hesch? Ich will numme sähn was düe machsch, wenn de Hanstrapp kummt? ? ? 6

        
",6,weber-am-wihnachtsowe-bym-e-kriejsblinde,29,2,0.0,0.06896551724137931
14,tale,Charele ,M,,,,"
          
Charele:

          
(spielt weiter — — nach einer Weile)

          
Grand’- meman, kummt s’Chrischtkindel bal? Es isch jo schun ganz finschter drüsse.

        
",7,weber-am-wihnachtsowe-bym-e-kriejsblinde,28,2,0.0,0.07142857142857142
15,tale,d'Grand-mère oder Grand-père,B,,,,"
          
Grand'mère:

          
Es kummt, wie de Babe un s’Jeanne d’heime sin.

        
",7,weber-am-wihnachtsowe-bym-e-kriejsblinde,15,1,0.0,0.06666666666666667
16,tale,Charele ,M,,,,"
          
Charele:

          
(nach einer Weile)

          
Kummt de Babe uns Jeanne bal, Grand’meman? ?

        
",8,weber-am-wihnachtsowe-bym-e-kriejsblinde,17,1,0.0,0.058823529411764705
17,tale,d'Grand-mère oder Grand-père,B,,,,"
          
Grand'mère:

          
Ich weiss nit, awer ich denk sie wäre bal kumme.

        
",8,weber-am-wihnachtsowe-bym-e-kriejsblinde,14,1,2.303523289646458,0.07142857142857142
18,tale,Charele ,M,,,,"
          
Charele:

          
(steht auf und geht zu Grand'mère)

          
Weisch was Grand’meman, wenn de Hanstrapp do erin-kumme will, no saasch düe züem, es sin kein Kinder do.

        
",9,weber-am-wihnachtsowe-bym-e-kriejsblinde,32,2,1.1194582829284716,0.0625
19,tale,d'Grand-mère oder Grand-père,B,,,,"
          
Grand'mère:

          
(lacht)

          
Werum nit gar! M’r derf doch nit lüeje! Un de Hanstrapp weiss doch wo alli Kinder wohne.

        
",9,weber-am-wihnachtsowe-bym-e-kriejsblinde,25,2,1.1194582829284716,0.08
20,tale,Charele ,M,,,,"
          
Charele:

          
Ich will awer nit, dass er züe uns kummt. Grand’möre: Gäll düe hesch jetzt schon Angscht? Wer weiss, viellicht kummt s’Chrischtkindel au gar nit zu uns, wenn’s so schnejt kann’s nit zu alle Lyt kumme — Zeij ich hœr jemand an de Tüer, am End isch’r dess schun! ! 
(es klopft)

        
",10,weber-am-wihnachtsowe-bym-e-kriejsblinde,66,3,0.7678410965488194,0.045454545454545456
21,tale,Charele ,M,,,,"
          
Charele:

          
 
(geht schnell unter den Tisch und zieht die Decke runter)
 
(es klopft)
 

        
",10,weber-am-wihnachtsowe-bym-e-kriejsblinde,18,3,0.0,0.16666666666666666
23,tale,Hol,M,landlord,rentiers,,"
          
Hol:

          
(kommt herein)

          
Bonsoir Madame Braun! Sie wundere sich viellicht, will ich noch um dess Zyt züe ihne kumm, awer ihr Sohn het mir versproche, hyt Owe Antwort zu gän weje de Wohnung. Ich bin dodeweje kumme. Het er jetzt e Wohnung gfunde? ? Sie wisse nit? ? ? ? Güet ich wart bis er kummt.

        
",11,weber-am-wihnachtsowe-bym-e-kriejsblinde,68,9,0.2559470321829398,0.1323529411764706
24,tale,d'Grand-mère oder Grand-père,B,,,,"
          
Grand'mère:

          
Han sie sich e bissel setze wœlle? 
(Holt einen Stuhl und stellt ihn Hol hin.)

          

        
",12,weber-am-wihnachtsowe-bym-e-kriejsblinde,21,2,0.0,0.09523809523809523
25,tale,Hol,M,landlord,rentiers,,"
          
Hol:

          
Merci, ich will nit sitze. Also sie wisse nit ob er e Wohnung g’funde het ?

        
",12,weber-am-wihnachtsowe-bym-e-kriejsblinde,20,1,0.0,0.05
26,tale,d'Grand-mère oder Grand-père,B,,,,"
          
Grand'mère:

          
Nein, Herr Hol.

        
",13,weber-am-wihnachtsowe-bym-e-kriejsblinde,7,2,0.0,0.2857142857142857
27,tale,Hol,M,landlord,rentiers,,"
          
Hol:

          
Sicher nit, denn sunscht het er’s ihne g’saat. Mini Geduld het awer jetzt e End! ! ! Ich müess die Woh- nung do han, miner Sohn will hyrode. Ich hab lang genüej Rucksicht uff sie g’het, will ihre Sohn e Kriejs- blinder isch. D’r Staat soll sich um d’Kriejsblinde annehme. Mir Hüessherre han numme Unangenehms ..... Do wäre einfach 500 Mietsg’setzer votiert un unsereins het no die Scherereje mit. ..... Ich bin jo gar net ver- pflicht g’sin, euch so lang do wohne ze lonn, awer was macht m'r nit alles üess Mitleid? ? ? Also saawe sie ihrem Sohn, dass ich am erschte Jänner die Woh- nung müess han, sunscht bin ich gezwunge, de Hüessjé kumme ze lonn.... Nix wie Unkœschte het m'r hyt- zedaas mit sine Locataires ..... Es wurd doch au emol wieder andersch kumme! ! ! !

        
",13,weber-am-wihnachtsowe-bym-e-kriejsblinde,167,16,1.5398491889465777,0.09580838323353294
28,tale,d'Grand-mère oder Grand-père,B,,,,"
          
Grand'mère:

          
Herr Hol ich glaub nit, dass miner Sohn e Wohnung g’funde het, awer es vergeht kein Daa, wo er nit süecht.

        
",14,weber-am-wihnachtsowe-bym-e-kriejsblinde,27,4,0.0,0.14814814814814814
29,tale,Hol,M,landlord,rentiers,,"
          
Hol:

          
(erzürnt)

          
Mini Geduld isch züe End, ich saa’s ihne züem letschde Mol. Am erschte Jänner miess die Woh- nung gerümt sin! !

        
",14,weber-am-wihnachtsowe-bym-e-kriejsblinde,31,1,0.0,0.03225806451612903
30,tale,d'Grand-mère oder Grand-père,B,,,,"
          
Grand'mère:

          
Bedänke sie doch, es sin zwei Kinder do.

        
",15,weber-am-wihnachtsowe-bym-e-kriejsblinde,12,1,2.238916565856943,0.08333333333333333
31,tale,Hol,M,landlord,rentiers,,"
          
Hol:

          
Ich weiss dess alles; alles weiss ich. Ihre Sohn het üewerhaupt gar kein Recht do in dere Wohnung, er het jo by mir gar nit gelehnt, sie sin jo Locataire. Er wohnt jo by ihne.

        
",15,weber-am-wihnachtsowe-bym-e-kriejsblinde,43,2,0.0,0.046511627906976744
32,tale,d'Grand-mère oder Grand-père,B,,,,"
          
Grand'mère:

          
Ja werum wœlle sie denn mim Sohn die Wohnung nit gänn ? ?

        
",16,weber-am-wihnachtsowe-bym-e-kriejsblinde,15,2,0.0,0.13333333333333333
33,tale,Hol,M,landlord,rentiers,,"
          
Hol:

          
Will ich nit kann, ich müess sie füer miner Sohn han. Grand’were: Sie wisse ganz genau, dass mir nit meh Zins bezahle kœnne, drum dränge sie druff, dass mir zeje. Mit dere Pension, wo miner Sohn bekummt, müen mir alli 4 läwe. Viel verdiene kann er jo nit.

        
",16,weber-am-wihnachtsowe-bym-e-kriejsblinde,61,8,0.3394313685137786,0.13114754098360656
34,tale,Hol,M,landlord,rentiers,,"
          
Hol:

          
Au wenn Sie mir 100 Franke meh wodde gänn im Monet, kœnnt ich ihne die Wohnung nit lonn.

          

        
",17,weber-am-wihnachtsowe-bym-e-kriejsblinde,22,3,1.2852911553799509,0.13636363636363635
35,tale,d'Grand-mère oder Grand-père,B,,,,"
          
Grand'mère:

          
Ja wo solle mir denn am erschte Jänner ane, wenn mir kein anderi Wohnung han?

        
",17,weber-am-wihnachtsowe-bym-e-kriejsblinde,19,1,0.0,0.05263157894736842
36,tale,Hol,M,landlord,rentiers,,"
          
Hol:

          
Ich weiss nit! Gehn sie züem Maire, er soll ihne eini b’sorje.

        
",18,weber-am-wihnachtsowe-bym-e-kriejsblinde,17,1,0.0,0.058823529411764705
37,tale,d'Grand-mère oder Grand-père,B,,,,"
          
Grand'mère:

          
Miner Sohn isch jo schun e paar Mol dorte g’'sinn, er het awer keini. Wenn sie numme däte warte wœlle, bis im Früehjohr, Herr Hol.

        
",18,weber-am-wihnachtsowe-bym-e-kriejsblinde,32,4,0.9727831832444261,0.125
38,tale,Hol,M,landlord,rentiers,,"
          
Hol:

          
Bis im Früehjohr? ? ? Saawe sie doch glich bis im Spootjohr! ! Ich kann nit, ich hab lang genüej gewart. Hätte sie sich früejer um e anderi Wohnung bekümmert un nit gewart bis züem letschde Moment. Grand’mère: Mir han jo alles gemacht.

        
",19,weber-am-wihnachtsowe-bym-e-kriejsblinde,52,3,0.0,0.057692307692307696
39,tale,Hol,M,landlord,rentiers,,"
          
Hol:

          
(geht aufgeregt hin und her, schlägt mit der Faust  auf den Tisch)

          
Schint’s doch nit, denn sunscht hätte sie schun eini.

        
",19,weber-am-wihnachtsowe-bym-e-kriejsblinde,29,3,0.0,0.10344827586206896
40,tale,Charele ,M,,,,"
          
Charele:

          
(kommt ängstlich auf allen Vieren unter dem Tische  hervor und stellt sich hinter Grand’mère)

          
Grand’mère. Doch, doch, ich versicher ihne, Herr Hol! !

        
",20,weber-am-wihnachtsowe-bym-e-kriejsblinde,32,5,0.7031621313785622,0.15625
41,tale,Hol,M,landlord,rentiers,,"
          
Hol:

          
Dess ich gar net notwendi. Zeje sie am erschte Jänner un no bin ich zefriedde un brüech ihri Versicherunge nimmi !

        
",20,weber-am-wihnachtsowe-bym-e-kriejsblinde,24,4,0.5757816272836764,0.16666666666666666
42,tale,d'Grand-mère oder Grand-père,B,,,,"
          
Grand'mère:

          
Wo solle mir jetzt schnell, in 4-5 Daa, e Wohnung here nämme?

        
",21,weber-am-wihnachtsowe-bym-e-kriejsblinde,17,1,0.0,0.058823529411764705
43,tale,Hol,M,landlord,rentiers,,"
          
Hol:

          
Ja do min sie mich nit froeje, ich hab keini! Un wenn ich eini het, no gäb ich sie ihne nit. Mir sieht jo, wie sie sin, kumpliziert un noch frech dezüe. Grand'mère. Dess isch awer nit wohr, Herr Hol, dess sin mir nit! !

        
",21,weber-am-wihnachtsowe-bym-e-kriejsblinde,58,6,0.0,0.10344827586206896
44,tale,Hol,M,landlord,rentiers,,"
          
Hol:

          
Sooo? ?

        
",22,weber-am-wihnachtsowe-bym-e-kriejsblinde,5,1,0.0,0.2
46,tale,Hol,M,landlord,rentiers,,"
          
Hol:

          
Na, no sin sie ebs andersch’s, wenn sie dess nit woelle sin. Uff alli Fäll hab ich satt mit ihne bis owe aan. Verstehn sie mich! ! ! ! Am erschte Jänner will ich mini Wohnung han, un jetzt Schluss mit allem. 
(Schritte und Stimmen)

        
",23,weber-am-wihnachtsowe-bym-e-kriejsblinde,57,4,0.0,0.07017543859649122
47,tale,Jeanne  ,F,,,,"
          
Jeanne:

          
(öffnet die Türe und führt Braun herein)

          
Güete Owe Grand'mère!

          

        
",23,weber-am-wihnachtsowe-bym-e-kriejsblinde,15,1,0.0,0.06666666666666667
48,tale,Charele ,M,,,,"
          
Charele:

          
(sobald sich die Türe öffnet, verschwindet wieder  unter den Tisch)

        
",24,weber-am-wihnachtsowe-bym-e-kriejsblinde,15,2,0.0,0.13333333333333333
49,tale,Albert Braun ,M,,,,"
          
Braun:

          
Güete Owe Mame!

        
",24,weber-am-wihnachtsowe-bym-e-kriejsblinde,6,2,0.7283160991512249,0.3333333333333333
50,tale,d'Grand-mère oder Grand-père,B,,,,"
          
Grand'mère:

          
(geht zu Braun)
 Güete Owe Albert! ! D'r Herr Hol isch do un will mit dir redde.

        
",25,weber-am-wihnachtsowe-bym-e-kriejsblinde,23,3,0.0,0.13043478260869565
51,tale,Jeanne  ,F,,,,"
          
Jeanne:

          
(zieht den Mantel aus und wärmt sich dann am  Ofen)

        
",25,weber-am-wihnachtsowe-bym-e-kriejsblinde,14,2,0.0,0.14285714285714285
52,tale,Albert Braun ,M,,,,"
          
Braun:

          
Güete Owe Herr Hol! Sie kumme waje de Wohnung? ?

        
",26,weber-am-wihnachtsowe-bym-e-kriejsblinde,14,4,0.5758808224116145,0.2857142857142857
53,tale,Hol,M,landlord,rentiers,,"
          
Hol:

          
Ja, han sie jetzt eini g'funde ?

        
",26,weber-am-wihnachtsowe-bym-e-kriejsblinde,10,2,0.0,0.2
54,tale,Albert Braun ,M,,,,"
          
Braun:

          
Es düet mir arich leid, dass sie sich wieder de- rangiere han müen. Ich hab mit'm beschte Wille noch kein anderi Wohnung finde kenne.

        
",27,weber-am-wihnachtsowe-bym-e-kriejsblinde,31,2,0.0,0.06451612903225806
55,tale,Hol,M,landlord,rentiers,,"
          
Hol:

          
Des verzehle sie mir jetzt schon 4 Monet lang.

        
",27,weber-am-wihnachtsowe-bym-e-kriejsblinde,12,2,0.0,0.16666666666666666
56,tale,Albert Braun ,M,,,,"
          
Braun:

          
Ess isch d’Wohrheit Herr Hol! !

        
",28,weber-am-wihnachtsowe-bym-e-kriejsblinde,10,3,0.0,0.3
57,tale,Hol,M,landlord,rentiers,,"
          
Hol:

          
Dene Witz koenne sie im’e andere verzehle. Ich mein, wenn sie numme e bissel güeter Wille hätte g’het, no hätte sie in 4 Monet e Wohnung koennte finde. Am erschte Jänner will ich die Wohnung gerümt han.

        
",28,weber-am-wihnachtsowe-bym-e-kriejsblinde,44,5,0.0,0.11363636363636363
58,tale,Albert Braun ,M,,,,"
          
Braun:

          
Ja woelle sie uns by dem Wetter uff d’Stross stelle?

        
",29,weber-am-wihnachtsowe-bym-e-kriejsblinde,14,3,0.0,0.21428571428571427
59,tale,Hol,M,landlord,rentiers,,"
          
Hol:

          
Ich kann kein ander Wetter mache!

        
",29,weber-am-wihnachtsowe-bym-e-kriejsblinde,9,1,0.0,0.1111111111111111
60,tale,Albert Braun ,M,,,,"
          
Braun:

          
Denke sie doch an mini 2 Kinder, an mini alt Mame! ! !

        
",30,weber-am-wihnachtsowe-bym-e-kriejsblinde,17,2,1.8477743820796966,0.11764705882352941
61,tale,Hol,M,landlord,rentiers,,"
          
Hol:

          
(kalt)

          
Am erschte Jänner müess ich die Wohnung han, sunscht loss ich de Hüessjé kumme. Braun; Herr Hol, ich bitt sie, seje sie nit so hart! !

        
",30,weber-am-wihnachtsowe-bym-e-kriejsblinde,37,9,0.9963422237145968,0.24324324324324326
62,tale,Hol,M,landlord,rentiers,,"
          
Hol:

          
Ich hät vor 6 Monet schun mit ihne so solle sin, no hätte sie hyt au e anderi Wohnung ....... Adjé, bysamme! ! 
(geht hinten ab)
 
(kl. Pause)

        
",31,weber-am-wihnachtsowe-bym-e-kriejsblinde,38,4,0.0,0.10526315789473684
63,tale,Albert Braun ,M,,,,"
          
Braun:

          
Un jetzt Mame?

        
",31,weber-am-wihnachtsowe-bym-e-kriejsblinde,6,1,1.4566321983024497,0.16666666666666666
64,tale,d'Grand-mère oder Grand-père,B,,,,"
          
Grand'mère:

          
Düe müesch de Müet nit verliere. Es isch bis züem erschte Jänner noch fascht e ganzi Wuch, un 
 wer weiss, wer weiss, viellicht geht alles güet üess 
(hilft Braun den Mantel ausziehen und führt ihn zu einem Stuhl beim Tische)

        
",32,weber-am-wihnachtsowe-bym-e-kriejsblinde,48,5,0.0,0.10416666666666667
65,tale,Albert Braun ,M,,,,"
          
Braun:

          
Ich bin hyt wiedder an 4, 5 Plätz g’sin, es isch awer nierigs e Wohnung zu krieje. D’Maire het mir jetzt eini versproche uff de erschte März. Un mit der Arweit isch au nit viel los. Alles isch eim verleid! ! !

        
",32,weber-am-wihnachtsowe-bym-e-kriejsblinde,51,5,1.5279565638607229,0.09803921568627451
66,tale,d'Grand-mère oder Grand-père,B,,,,"
          
Grand'mère:

          
Allez, Allez, Albert! Redd nit eso! Denk an dini Kinder!

        
",33,weber-am-wihnachtsowe-bym-e-kriejsblinde,17,1,2.238916565856943,0.058823529411764705
67,tale,Albert Braun ,M,,,,"
          
Braun:

          
Ja, ja, mini Kinder. Güet dass die do sin! Wer weiss, wer weiss? ?

        
",33,weber-am-wihnachtsowe-bym-e-kriejsblinde,22,4,0.5597291414642358,0.18181818181818182
68,tale,d'Grand-mère oder Grand-père,B,,,,"
          
Grand'mère:

          
Stille Büe, stille.

        
",34,weber-am-wihnachtsowe-bym-e-kriejsblinde,7,2,0.0,0.2857142857142857
70,tale,d'Grand-mère oder Grand-père,B,,,,"
          
Grand'mère:

          
De Charele? ? ? Ich weiss nit. Ah, so, er het sich wohrschints vorhere versteckelt, will er gemeint het, de Hanstrapp kummt schun.

        
",35,weber-am-wihnachtsowe-bym-e-kriejsblinde,32,1,0.0,0.03125
71,tale,Albert Braun ,M,,,,"
          
Braun:

          
Het er denn Angscht er bekummt se vum Hans- trapp?

        
",35,weber-am-wihnachtsowe-bym-e-kriejsblinde,14,1,0.0,0.07142857142857142
73,tale,Jeanne  ,F,,,,"
          
Jeanne:

          
Ja er isch als au boes.

        
",36,weber-am-wihnachtsowe-bym-e-kriejsblinde,9,2,0.0,0.2222222222222222
75,tale,Albert Braun ,M,,,,"
          
Braun:

          
Ja wo steckt er denn?

        
",37,weber-am-wihnachtsowe-bym-e-kriejsblinde,8,1,0.0,0.125
76,tale,Jeanne  ,F,,,,"
          
Jeanne:

          
(lacht)

          
Er sitzt unterem Tisch, Babe.

        
",38,weber-am-wihnachtsowe-bym-e-kriejsblinde,12,2,0.0,0.16666666666666666
78,tale,d'Grand-mère oder Grand-père,B,,,,"
          
Grand'mère:

          
(macht die Decke weg)

          
Do sitzt er jo, unsere Angschtpeter !

        
",39,weber-am-wihnachtsowe-bym-e-kriejsblinde,16,3,0.0,0.1875
80,tale,Albert Braun ,M,,,,"
          
Braun:

          
(sucht mit den Händen nach Charele)

          
Ah do bisch jo. 
(zieht ihn an sich und küsst ihn)
 Düe müech kein Angscht han, min Liewer. 
(lässt Charele wieder gehen)

        
",40,weber-am-wihnachtsowe-bym-e-kriejsblinde,39,2,0.0,0.05128205128205128
81,tale,Charele ,M,,,,"
          
Charele:

          
(geht zu Jeanne an den Ofen)

        
",40,weber-am-wihnachtsowe-bym-e-kriejsblinde,10,1,0.0,0.1
82,tale,d'Grand-mère oder Grand-père,B,,,,"
          
Grand'mère:

          
(leise zu Braun)

          
Albert, hesch düe noch e bissel Geld? s’Jeanne sott e paar Wecke hole füer hyt Owe. Ich hab sunscht nix füer d’Kinder un sie sölle doch au wisse, dass Wihnachte isch. Ich hab kein Süü meh im Hüess.

        
",41,weber-am-wihnachtsowe-bym-e-kriejsblinde,53,3,0.7463055219523144,0.05660377358490566
84,tale,d'Grand-mère oder Grand-père,B,,,,"
          
Grand'mère:

          
(zählt das Geld)

        
",42,weber-am-wihnachtsowe-bym-e-kriejsblinde,7,1,0.0,0.14285714285714285
85,tale,Albert Braun ,M,,,,"
          
Braun:

          
.... Wihnachte, un kenn Geld im Hüess! !

        
",42,weber-am-wihnachtsowe-bym-e-kriejsblinde,12,2,0.0,0.16666666666666666
87,tale,Albert Braun ,M,,,,"
          
Braun:

          
Dess Klavier wo ich hyt g’stimmt hab, bekumm ich an Nejohr bezahlt, un Gott weiss wenn die be- zahle, wo mir s’Geld noch schuldig sin! Grand’mère: Soll s’Jeanne für alles Geld Wecke hole? ?

        
",43,weber-am-wihnachtsowe-bym-e-kriejsblinde,45,7,0.37924055224785386,0.15555555555555556
88,tale,Albert Braun ,M,,,,"
          
Braun:

          
Ja. Wenn de Charele gesse het, vergisst er viel- licht s’Chrischtkindel.

        
",44,weber-am-wihnachtsowe-bym-e-kriejsblinde,18,2,0.0,0.1111111111111111
89,tale,d'Grand-mère oder Grand-père,B,,,,"
          
Grand'mère:

          
Armer Büe! ! !

        
",44,weber-am-wihnachtsowe-bym-e-kriejsblinde,7,1,0.0,0.14285714285714285
90,tale,Albert Braun ,M,,,,"
          
Braun:

          
Mame, im Mantel hab ich e Trumpet, wo ich füer ne kauft hab. Dess isch alles was er bekummt. s’Jeanne kriejt halt dess Johr gar nix. Grand’mère: Es versteht’s un weiss dass mir arm sin.

        
",45,weber-am-wihnachtsowe-bym-e-kriejsblinde,46,5,0.29132643966048993,0.10869565217391304
91,tale,Albert Braun ,M,,,,"
          
Braun:

          
Ja, ja; ..... arm! ! ! arm! ! ! 
(sucht nach seiner Mutter und hält sie am Arme)
 Es gibt viellicht noch ärmeri wie mir, gäll Mame? ?

        
",45,weber-am-wihnachtsowe-bym-e-kriejsblinde,38,8,0.18207902478780622,0.21052631578947367
92,tale,d'Grand-mère oder Grand-père,B,,,,"
          
Grand'mère:

          
Aermeri? ? ? 
(schaut Braun an, wischt sich mit einem Taschentuche die Tränen ab)
 ärmeri ..... ?? Ja, es gibt noch ärmeri Lyt wie mir.

        
",46,weber-am-wihnachtsowe-bym-e-kriejsblinde,34,5,0.0,0.14705882352941177
93,tale,Albert Braun ,M,,,,"
          
Braun:

          
Was hech denn Mame? ? ? ?

        
",46,weber-am-wihnachtsowe-bym-e-kriejsblinde,10,1,1.4566321983024497,0.1
94,tale,d'Grand-mère oder Grand-père,B,,,,"
          
Grand'mère:

          
Nix, nix, Albert. 
(geht vom Tische weg)
 Ich schick no s’Jeanne furt Wecke hole.

        
",47,weber-am-wihnachtsowe-bym-e-kriejsblinde,23,1,0.0,0.043478260869565216
95,tale,Albert Braun ,M,,,,"
          
Braun:

          
Ja, es soll awer güet acht gänn, wenn es üewer d’Stross geht.

        
",47,weber-am-wihnachtsowe-bym-e-kriejsblinde,18,3,0.0,0.16666666666666666
96,tale,d'Grand-mère oder Grand-père,B,,,,"
          
Grand'mère:

          
Kumm Jeanne. 
(geht zu Jeanne und redet mit ihr)

        
",48,weber-am-wihnachtsowe-bym-e-kriejsblinde,14,1,0.0,0.07142857142857142
98,tale,Charele ,M,,,,"
          
Charele:

          
Ja, Babe. 
(geht zu Braun)

        
",49,weber-am-wihnachtsowe-bym-e-kriejsblinde,11,2,0.0,0.18181818181818182
101,tale,Albert Braun ,M,,,,"
          
Braun:

          
(sucht Charele)

          
Wo bisch denn, min Liewer? Zeij kumm setzt dich e bissel züe mir. 
(setzt Charele auf seine Knie)

        
",50,weber-am-wihnachtsowe-bym-e-kriejsblinde,29,2,0.0,0.06896551724137931
102,tale,Charele ,M,,,,"
          
Charele:

          
Babe meinsch vergisst uns s’Chrischtkindel nit?

        
",51,weber-am-wihnachtsowe-bym-e-kriejsblinde,10,1,0.0,0.1
103,tale,Albert Braun ,M,,,,"
          
Braun:

          
Allewej, wo denksch düe ane! Es vergisst kein Kind. Un dir bringt es doch die Trumpet mit, wo düe schun lang witt.

        
",51,weber-am-wihnachtsowe-bym-e-kriejsblinde,29,3,0.7852068810647581,0.10344827586206896
105,tale,Albert Braun ,M,,,,"
          
Braun:

          
Ja was denn? ?

          

        
",52,weber-am-wihnachtsowe-bym-e-kriejsblinde,7,1,0.0,0.14285714285714285
106,tale,Charele ,M,,,,"
          
Charele:

          
Es soll e Tannebaum bringe un ich will noch e Flint un e Savel un e Soldatekapp.

        
",53,weber-am-wihnachtsowe-bym-e-kriejsblinde,20,1,0.0,0.05
107,tale,Albert Braun ,M,,,,"
          
Braun:

          
(laut)

          
Charele, nein! ! kein Flint un kein Sawel! !

        
",53,weber-am-wihnachtsowe-bym-e-kriejsblinde,17,2,0.0,0.11764705882352941
108,tale,Charele ,M,,,,"
          
Charele:

          
Doch Babe, füer ze spiele.

        
",54,weber-am-wihnachtsowe-bym-e-kriejsblinde,9,2,0.0,0.2222222222222222
109,tale,Albert Braun ,M,,,,"
          
Braun:

          
Nein!! nein!! mit Flint un Sawel spielt m'r nit! !

        
",54,weber-am-wihnachtsowe-bym-e-kriejsblinde,17,1,0.0,0.058823529411764705
110,tale,Charele ,M,,,,"
          
Charele:

          
Doch Babe, Soldatels un Kriej! !

        
",55,weber-am-wihnachtsowe-bym-e-kriejsblinde,10,2,0.0,0.2
111,tale,Albert Braun ,M,,,,"
          
Braun:

          
(lauter)

          
Nein! ! nein! ! 
(stellt Charele auf den Boden)
 Düe sollsch nit Soldatels un Kriej spiele, Charele!! Nein, düe nit. Hoersch, diner Babe will’s nit han. 
(zieht Charele wieder sich)
 Gäll Charele, düe spielsch nie, nie Soldatels un Kriej, nie, gäll nit min liewer Büe!!! Lüej, d’Soldate sin alles boesi Männer, wo de andere Lyt numme Weh mache. Lüej, dim Babe han d’Soldate au arich weh an de Gigele gemacht, ich kann jetzt nix meh sehn, au dich nimmi min Liewer! ! ! !

        
",55,weber-am-wihnachtsowe-bym-e-kriejsblinde,119,16,0.19535899912862287,0.13445378151260504
113,tale,Albert Braun ,M,,,,"
          
Braun:

          
Ja min Liewer, an de Gigele. 
(presst Charele fest an sich und küesst ihn)
 Charele, liewer goldiger Büe, dir sol’s emol nit gehn wie mir.

        
",56,weber-am-wihnachtsowe-bym-e-kriejsblinde,35,4,0.8157455770010063,0.11428571428571428
114,tale,Charele ,M,,,,"
          
Charele:

          
(bedrachtet Braun)

          
Babe, ja werum mache d’Soldate eim Weh? ?

        
",57,weber-am-wihnachtsowe-bym-e-kriejsblinde,17,4,0.0,0.23529411764705882
115,tale,Albert Braun ,M,,,,"
          
Braun:

          
Werum??? werum??? Kind, dess wisse ah jo d’Soldate sälwer nit. Sie müen, un dorum mache sie’s. 
(presst Charele wieder fest an sich)
 
(erregt, sehr laut)
 Min Büe, du sollsch un derfsch nie Kriej spiele!!! Grand’mère: 
(kommt von rechts)
 Was hesch düe denn Albert? Düe reddsch jo so lütt, dass mir näwes dran e jeds Wort versteht. 4

        
",57,weber-am-wihnachtsowe-bym-e-kriejsblinde,86,10,0.8516654722283402,0.11627906976744186
116,tale,Charele ,M,,,,"
          
Charele:

          
(geht zu Grand'mère)

          
Grand’meman, d’Soldate han im Papa weh an de Gigele gemacht. Ich will vum Chrischtkindel kein Flint un kein Sawel. 
(holt sein Roess- lein, setzt sich in eine Ecke und spielt damit)

        
",58,weber-am-wihnachtsowe-bym-e-kriejsblinde,46,4,0.0,0.08695652173913043
118,tale,Albert Braun ,M,,,,"
          
Braun:

          
Isch wo de Kriej so arich hass, hab e Büe wo e Flint un e Sawel will füer mit ze spiele!!! Grand’mère: Er isch noch e Kind, er weiss noch nit, was er saat. 
(zu Charele)
 Ja min Liewer spiel düe scheen mit dim Rœssele.

        
",59,weber-am-wihnachtsowe-bym-e-kriejsblinde,58,10,0.23556206431942744,0.1724137931034483
119,tale,Albert Braun ,M,,,,"
          
Braun:

          
Mame!!!! Mame! ! ! !

          

        
",59,weber-am-wihnachtsowe-bym-e-kriejsblinde,12,2,2.9132643966048994,0.16666666666666666
121,tale,Albert Braun ,M,,,,"
          
Braun:

          
(sucht Grand’mère und hält mit beiden Händen  ihr Gesicht)

          
Mame! ! ! ! Mame! ! ! ! !

        
",60,weber-am-wihnachtsowe-bym-e-kriejsblinde,24,4,1.4566321983024497,0.16666666666666666
123,tale,Albert Braun ,M,,,,"
          
Braun:

          
Mame!! ......ich wott...... gern hiele!!!! Grand’mère: Armer, armer Büe!!!! 
(umarmt Braun und küsst ihn)
 
(kl. Pause)
 
(es klopft an die Türe)

        
",61,weber-am-wihnachtsowe-bym-e-kriejsblinde,44,6,0.6187726524018969,0.13636363636363635
124,tale,Albert Braun ,M,,,,"
          
Braun:

          
Mame!

        
",62,weber-am-wihnachtsowe-bym-e-kriejsblinde,4,1,1.4566321983024497,0.25
125,tale,d'Grand-mère oder Grand-père,B,,,,"
          
Grand'mère:

          
Ja;

        
",62,weber-am-wihnachtsowe-bym-e-kriejsblinde,4,1,0.0,0.25
126,tale,Albert Braun ,M,,,,"
          
Braun:

          
Ich glaub es het geklopft. 
(es klopft an die Türe)

        
",63,weber-am-wihnachtsowe-bym-e-kriejsblinde,15,1,0.0,0.06666666666666667
127,tale,d'Grand-mère oder Grand-père,B,,,,"
          
Grand'mère:

          
Kumm setzt dich. 
(macht Braun sitzen)
 
(es klopft fest an die Türe)

        
",63,weber-am-wihnachtsowe-bym-e-kriejsblinde,19,3,1.087660769334675,0.15789473684210525
128,tale,Charele ,M,,,,"
          
Charele:

          
(geht schnell unter den Tisch)

        
",64,weber-am-wihnachtsowe-bym-e-kriejsblinde,9,2,0.0,0.2222222222222222
129,tale,d'Grand-mère oder Grand-père,B,,,,"
          
Grand'mère:

          
Ja, ja. 
(geht an die Türe und macht auf)

        
",64,weber-am-wihnachtsowe-bym-e-kriejsblinde,15,3,0.0,0.2
130,tale,Paul ,M,driver,service_and_sales,,"
          
Paul:

          
(an der Türe)

          
Pardon Madame, wohnt do viellicht Braun? ? ?

        
",65,weber-am-wihnachtsowe-bym-e-kriejsblinde,17,2,0.0,0.11764705882352941
131,tale,d'Grand-mère oder Grand-père,B,,,,"
          
Grand'mère:

          
Ja, was soll sin Monsieur? ?

        
",65,weber-am-wihnachtsowe-bym-e-kriejsblinde,10,1,0.0,0.1
132,tale,Paul ,M,driver,service_and_sales,,"
          
Paul:

          
Ein Moment, Madame. 
(geht wieder von der Türe weg und ruft)
 Ja Monsieur, do isch’s 
(kommt wieder an die Türe)
 Sie müen nit verschrecke Madame, es isch nit schlimm.

        
",66,weber-am-wihnachtsowe-bym-e-kriejsblinde,41,6,0.0,0.14634146341463414
133,tale,d'Grand-mère oder Grand-père,B,,,,"
          
Grand'mère:

          
Ja was isch denn? ?

        
",66,weber-am-wihnachtsowe-bym-e-kriejsblinde,8,1,0.0,0.125
134,tale,Albert Braun ,M,,,,"
          
Braun:

          
(hat zugehört, steht auf)

          
Was isch Mame, saa! !

        
",67,weber-am-wihnachtsowe-bym-e-kriejsblinde,16,1,1.4566321983024497,0.0625
135,tale,d'Grand-mère oder Grand-père,B,,,,"
          
Grand'mère:

          
Ich weiss nit. 
(sobald Henri mit Jeanne er- scheint)
 O Gott was ich denn passiert??? ?

        
",67,weber-am-wihnachtsowe-bym-e-kriejsblinde,25,1,2.654683865734977,0.04
136,tale,Henri Greiner ,M,,,,"
          
Henri:

          
(trägt auf seinen Armen Jeanne, legt sie auf das  Canapé)

        
",68,weber-am-wihnachtsowe-bym-e-kriejsblinde,15,1,0.0,0.06666666666666667
137,tale,Jeanne  ,F,,,,"
          
Jeanne:

          
(ist ohnmächtig)

        
",68,weber-am-wihnachtsowe-bym-e-kriejsblinde,6,1,0.0,0.16666666666666666
139,tale,Paul ,M,driver,service_and_sales,,"
          
Paul:

          
(hält Grand’mère zurück)

          
Es isch jo nit schlimm Madame.

          

        
",69,weber-am-wihnachtsowe-bym-e-kriejsblinde,14,3,0.0,0.21428571428571427
140,tale,Albert Braun ,M,,,,"
          
Braun:

          
Mame, Mame!!!!

        
",70,weber-am-wihnachtsowe-bym-e-kriejsblinde,9,2,2.9132643966048994,0.2222222222222222
142,tale,Albert Braun ,M,,,,"
          
Braun:

          
Was isch, was het’s??? 
(hält Grand'mère am Arme fest)

        
",71,weber-am-wihnachtsowe-bym-e-kriejsblinde,18,2,1.6314911540020125,0.1111111111111111
143,tale,Henri Greiner ,M,,,,"
          
Henri:

          
(hat inzwischen Jeanne auf’s Canapé gebettet)

          
Sie kœnne ganz berüehigt sin Madame, es isch numme e kleini Ohnmacht.

        
",71,weber-am-wihnachtsowe-bym-e-kriejsblinde,25,4,0.0,0.16
144,tale,Albert Braun ,M,,,,"
          
Braun:

          
Wo isch denn s’Jeanne, Mame??? Wo??? Grand’mère: 
(führt Braun zu Jeanne ans Canapé)

        
",72,weber-am-wihnachtsowe-bym-e-kriejsblinde,26,1,1.4566321983024497,0.038461538461538464
145,tale,Albert Braun ,M,,,,"
          
Braun:

          
(sucht Jeanne)

          
Jeanne, Jeanne, min Kind!!! Was hesch düe denn??. ..... Mame es gibt jo kein Ant- wort!!!!

        
",72,weber-am-wihnachtsowe-bym-e-kriejsblinde,35,3,2.236768204193942,0.08571428571428572
146,tale,Henri Greiner ,M,,,,"
          
Henri:

          
Es isch nix Monsieur, sie kœnne sicher berüehigt sin. Ihri Tochder isch uff de Stross aneg’fallle, direckt vor min Auto. Vor Schrecke isch sie jetzt ohnmächtig. Es düert noch e paar Auwesblick. Sie het nit die geringschde Verletzunge.

        
",73,weber-am-wihnachtsowe-bym-e-kriejsblinde,47,6,0.0,0.1276595744680851
147,tale,Albert Braun ,M,,,,"
          
Braun:

          
Uessgerutscht saawe sie? Sie wäres üewerfahre han, dess arme Kind.

        
",73,weber-am-wihnachtsowe-bym-e-kriejsblinde,15,2,1.1778103215971372,0.13333333333333333
148,tale,Henri Greiner ,M,,,,"
          
Henri:

          
Ich versicher ihne Monsieur, dass ihri Tochder nit üewerfahre isch wore. Es sin jo Zeje do wo’s g’sähne han: e Schutzmann un e Frau wo do im Hüess wohnt.

        
",74,weber-am-wihnachtsowe-bym-e-kriejsblinde,36,4,0.0,0.1111111111111111
149,tale,Albert Braun ,M,,,,"
          
Braun:

          
S’isch schun güet, sie han Recht, wie immer all richi Lyt Recht han, wenn ebs pasiert. D’r arm Teifel isch immer de Schuldig. Gehn sie jetzt numme...... sie han jo ihri Pflicht gemacht.

        
",74,weber-am-wihnachtsowe-bym-e-kriejsblinde,43,7,0.0,0.16279069767441862
150,tale,Henri Greiner ,M,,,,"
          
Henri:

          
Nein Monsieur, ich blie. Ich bin Dokter un geh erscht, wenn ich seh, dass alles erum isch.

        
",75,weber-am-wihnachtsowe-bym-e-kriejsblinde,24,1,0.0,0.041666666666666664
151,tale,d'Grand-mère oder Grand-père,B,,,,"
          
Grand'mère:

          
(hat in der Zwischenzeit Jeanne das Gesicht  abgewaschen)

          
Jeanne!!! Jeanne! !!!

        
",75,weber-am-wihnachtsowe-bym-e-kriejsblinde,21,1,0.0,0.047619047619047616
152,tale,Albert Braun ,M,,,,"
          
Braun:

          
(sucht Jeanne auf dem Canapé)

          
Mame was isch? ? Grand’mère: Es kummt züe sich. Es isch wie der Herr do saat, es isch nit schlimm.

        
",76,weber-am-wihnachtsowe-bym-e-kriejsblinde,34,4,0.36415804957561243,0.11764705882352941
154,tale,d'Grand-mère oder Grand-père,B,,,,"
          
Grand'mère:

          
(hat sich zu Jeanne gesetzt und sie auf-  gerichtet, hält sie nun in ihren Armen)

        
",77,weber-am-wihnachtsowe-bym-e-kriejsblinde,21,2,0.0,0.09523809523809523
155,tale,Albert Braun ,M,,,,"
          
Braun:

          
Mame, saa wie geht's ihm? ? Grand’mère: Stille, stille.

        
",77,weber-am-wihnachtsowe-bym-e-kriejsblinde,17,3,0.4855440661008166,0.17647058823529413
156,tale,Jeanne  ,F,,,,"
          
Jeanne:

          
(kommt wieder zu sich, lächelt)

          
Grand'mère! ! ! ! 
(küsst sie)

          

        
",78,weber-am-wihnachtsowe-bym-e-kriejsblinde,19,1,0.0,0.05263157894736842
158,tale,Jeanne  ,F,,,,"
          
Jeanne:

          
Babe!!!

        
",79,weber-am-wihnachtsowe-bym-e-kriejsblinde,6,1,0.0,0.16666666666666666
159,tale,Albert Braun ,M,,,,"
          
Braun:

          
Hesch weh min Kind?

        
",79,weber-am-wihnachtsowe-bym-e-kriejsblinde,7,2,1.1778103215971372,0.2857142857142857
160,tale,Jeanne  ,F,,,,"
          
Jeanne:

          
Nein, Babe; ich hab nit weh.... Grand'mère, wo sinn denn d’Wecke wo ich g’holt hab? ?

        
",80,weber-am-wihnachtsowe-bym-e-kriejsblinde,24,2,0.0,0.08333333333333333
161,tale,Henri Greiner ,M,,,,"
          
Henri:

          
Die leje drunte uff de Stross un sin nass 
(geht zu Paul und sagt etwas)

        
",80,weber-am-wihnachtsowe-bym-e-kriejsblinde,19,2,0.0,0.10526315789473684
163,tale,Albert Braun ,M,,,,"
          
Braun:

          
Was hesch denn gemacht Kind? ?

        
",81,weber-am-wihnachtsowe-bym-e-kriejsblinde,9,2,1.1778103215971372,0.2222222222222222
164,tale,Jeanne  ,F,,,,"
          
Jeanne:

          
Ich hab wœlle schnell üewer d’Stross laufe, wo ich d’Wecke hab g’hett; bin awer üessgerutscht un aneg’falle. Ich hab noch die zwei grosse Lichter vum Auto g’sähn, un no isch alles schwarz worre.

        
",82,weber-am-wihnachtsowe-bym-e-kriejsblinde,42,3,0.0,0.07142857142857142
165,tale,Albert Braun ,M,,,,"
          
Braun:

          
Hesch sicher nierigs Weh?

        
",82,weber-am-wihnachtsowe-bym-e-kriejsblinde,7,2,0.0,0.2857142857142857
166,tale,Jeanne  ,F,,,,"
          
Jeanne:

          
Nein, ganz sicher nit.

        
",83,weber-am-wihnachtsowe-bym-e-kriejsblinde,8,2,0.0,0.25
168,tale,Jeanne  ,F,,,,"
          
Jeanne:

          
Grand'mère ich hab nierigs Weh.

        
",84,weber-am-wihnachtsowe-bym-e-kriejsblinde,8,1,0.0,0.125
169,tale,Henri Greiner ,M,,,,"
          
Henri:

          
Ich versicher ihne nochemol Monsieur, dass ihri Tochder nit vum Auto berührt worre isch. Wenn sie wœlle untersüech ich sie awer trotzdem.

        
",84,weber-am-wihnachtsowe-bym-e-kriejsblinde,27,2,0.0,0.07407407407407407
170,tale,Albert Braun ,M,,,,"
          
Braun:

          
Merci vielmols Monsieur un verzeje sie mir vun vorhere.

        
",85,weber-am-wihnachtsowe-bym-e-kriejsblinde,12,1,0.0,0.08333333333333333
171,tale,Henri Greiner ,M,,,,"
          
Henri:

          
s’isch schun güet, ich kann’s verstehn, d'Uffrejung im erschte Moment.

        
",85,weber-am-wihnachtsowe-bym-e-kriejsblinde,18,2,0.0,0.1111111111111111
172,tale,Albert Braun ,M,,,,"
          
Braun:

          
Ja so isch’s. Awer ‚merci will ich ihne doch saawe, denn Geld kann ich ihne nit gän, will ich kein’s hab.

        
",86,weber-am-wihnachtsowe-bym-e-kriejsblinde,29,3,0.0,0.10344827586206896
173,tale,Henri Greiner ,M,,,,"
          
Henri:

          
s’isch schun güet Monsieur. Sie han e Auweliede ?

        
",86,weber-am-wihnachtsowe-bym-e-kriejsblinde,13,1,0.0,0.07692307692307693
174,tale,Albert Braun ,M,,,,"
          
Braun:

          
Ja, es isch vum Kriej.

        
",87,weber-am-wihnachtsowe-bym-e-kriejsblinde,9,2,0.0,0.2222222222222222
176,tale,Albert Braun ,M,,,,"
          
Braun:

          
Ja ..... blind.

        
",88,weber-am-wihnachtsowe-bym-e-kriejsblinde,6,1,0.0,0.16666666666666666
178,tale,Albert Braun ,M,,,,"
          
Braun:

          
Ja, Monsieur.

        
",89,weber-am-wihnachtsowe-bym-e-kriejsblinde,6,1,0.0,0.16666666666666666
179,tale,Henri Greiner ,M,,,,"
          
Henri:

          
Sie nämme mir’s doch nit in Uewel uff, wenn ich sie frœj?

        
",89,weber-am-wihnachtsowe-bym-e-kriejsblinde,17,1,0.0,0.058823529411764705
181,tale,Henri Greiner ,M,,,,"
          
Henri:

          
Durich was isch’s den kumme ?

        
",90,weber-am-wihnachtsowe-bym-e-kriejsblinde,9,1,2.303523289646458,0.1111111111111111
184,tale,Albert Braun ,M,,,,"
          
Braun:

          
Ja, ich bin grad vum Sanitätsunterstand here kum- me, wo ich e Schwerverletzter anegetrawe hab g’het. Es ich noch e Büe gsin, küm 19 Johr alt. Ich hab grad in de Grawe ningewœllt, no het e Miin iingschlaawe. s’Fier wo ich dert g’sähne hab, isch’s s’letschde g’sin, was isch g’sähne hab. Blind! ! blind!!! vun dert aan isch immer Nacht um mich g’sin.

        
",92,weber-am-wihnachtsowe-bym-e-kriejsblinde,84,5,0.0,0.05952380952380952
185,tale,Henri Greiner ,M,,,,"
          
Henri:

          
Armer Mam!!...... un wo ich dess g’sin, wo sie verwundt worre sin? ?

        
",92,weber-am-wihnachtsowe-bym-e-kriejsblinde,20,3,0.797160582019344,0.15
188,tale,Albert Braun ,M,,,,"
          
Braun:

          
Ja, in de Stellung vun Pronville.

        
",94,weber-am-wihnachtsowe-bym-e-kriejsblinde,10,1,0.0,0.1
190,tale,Albert Braun ,M,,,,"
          
Braun:

          
Ja. Sie kenne die Stellunge dort ?

        
",95,weber-am-wihnachtsowe-bym-e-kriejsblinde,10,1,0.0,0.1
191,tale,Henri Greiner ,M,,,,"
          
Henri:

          
Ja. Un der Soldat wo sie üess’m Drohtverhau erüesg’holt han ?

        
",95,weber-am-wihnachtsowe-bym-e-kriejsblinde,15,2,0.0,0.13333333333333333
197,tale,Henri Greiner ,M,,,,"
          
Henri:

          
Ja Albert, ich bin’s. Mich hesch düe üess’m Droht- verhau erüess g’holt, mir hesch s’Läwe gerett un bisch debie blind worre.

        
",98,weber-am-wihnachtsowe-bym-e-kriejsblinde,31,2,1.3577254740551143,0.06451612903225806
198,tale,Albert Braun ,M,,,,"
          
Braun:

          
Düe bisch de Henri? 
(tastet das Gesicht von Henri ab)

        
",99,weber-am-wihnachtsowe-bym-e-kriejsblinde,15,1,0.0,0.06666666666666667
199,tale,Henri Greiner ,M,,,,"
          
Henri:

          
Ja, ja ich bin’s. Hyt endlich noch lange Johre kann ich dir merci saawe.

        
",99,weber-am-wihnachtsowe-bym-e-kriejsblinde,20,4,0.0,0.2
200,tale,Albert Braun ,M,,,,"
          
Braun:

          
Loss, loss Henri. Loss „Kleiner“.

        
",100,weber-am-wihnachtsowe-bym-e-kriejsblinde,12,4,7.579329745963977,0.3333333333333333
201,tale,Henri Greiner ,M,,,,"
          
Henri:

          
Ja „Kleiner“, so hesch düe mir als g’saat, die Zyt, die paar Monet, wo mir bynand sin g’sin.

        
",100,weber-am-wihnachtsowe-bym-e-kriejsblinde,27,2,0.0,0.07407407407407407
203,tale,Albert Braun ,M,,,,"
          
Braun:

          
Ja „Kleiner“ ..... awer saa, wie isch’s dir denn speder no gange?

        
",101,weber-am-wihnachtsowe-bym-e-kriejsblinde,19,2,0.0,0.10526315789473684
204,tale,Henri Greiner ,M,,,,"
          
Henri:

          

          
Ich bin by Cambrai in e Feldlazarett kumme. Im Früehjohr 1918 wo no d'r Vormarsch, d. h. de Rüeck- marsch ang’fange het, sin mir no vun Engländer in’s Innere transportiert worre. Ich hab noch Orleans in’e Lazarett verlangt, will ich dort Verwandti hab. Dort bin ich au operiert worre. Mini Eldere sin noch’m Armistice au ane kumme und dort gebliewe. Ich hab no mini Stüdie in Paris ferti gemacht un bin jetzt in Orleans etabliert.

        
",102,weber-am-wihnachtsowe-bym-e-kriejsblinde,89,5,1.8428186317171664,0.056179775280898875
205,tale,Albert Braun ,M,,,,"
          
Braun:

          
Un dini Wunde ???

        
",102,weber-am-wihnachtsowe-bym-e-kriejsblinde,8,1,0.0,0.125
206,tale,Henri Greiner ,M,,,,"
          
Henri:

          
Es isch alles güet g’heilt, numme düe bisch nit güet devun kumme.

        
",103,weber-am-wihnachtsowe-bym-e-kriejsblinde,16,3,0.7678410965488194,0.1875
207,tale,Albert Braun ,M,,,,"
          
Braun:

          
Loss „Kleiner“.

        
",103,weber-am-wihnachtsowe-bym-e-kriejsblinde,7,2,1.684295499103106,0.2857142857142857
209,tale,Albert Braun ,M,,,,"
          
Braun:

          
Ja min Jeannele!! kumm here züe mir Jeanne!

        
",104,weber-am-wihnachtsowe-bym-e-kriejsblinde,13,2,0.0,0.15384615384615385
212,tale,Henri Greiner ,M,,,,"
          
Henri:

          
Ja!

        
",106,weber-am-wihnachtsowe-bym-e-kriejsblinde,4,1,0.0,0.25
213,tale,Albert Braun ,M,,,,"
          
Braun:

          
...... 
(erregt)
 ..... isch ..... voreme ..... halwe Johr .....g’storwe.

        
",106,weber-am-wihnachtsowe-bym-e-kriejsblinde,15,1,0.0,0.06666666666666667
214,tale,Henri Greiner ,M,,,,"
          
Henri:

          
Düe Armer, hesch au gar kein chance!

        
",107,weber-am-wihnachtsowe-bym-e-kriejsblinde,11,2,1.9084731175438483,0.18181818181818182
215,tale,Albert Braun ,M,,,,"
          
Braun:

          
E Lungeentzüendung ..... un noch ..... s’Misère! Ah, un dort ich au mini lieb un güet Mame, Henri! !!!

        
",107,weber-am-wihnachtsowe-bym-e-kriejsblinde,28,4,1.3080864973731485,0.14285714285714285
216,tale,Henri Greiner ,M,,,,"
          
Henri:

          
(geht zu Grand'mère)

          
Ich hab viel vun ihne ver- zehle hœre, Madame Braun. D’Mame, d’Frau un sin Jeannel sin immer sin Alles g’sin.

        
",108,weber-am-wihnachtsowe-bym-e-kriejsblinde,34,3,0.4855440661008166,0.08823529411764706
217,tale,Albert Braun ,M,,,,"
          
Braun:

          
Noch ebs „Kleiner“.

        
",108,weber-am-wihnachtsowe-bym-e-kriejsblinde,8,1,0.0,0.125
223,tale,Albert Braun ,M,,,,"
          
Braun:

          
Ja, e fils wo ich kenn awer noch nie g’sähne hab.

        
",111,weber-am-wihnachtsowe-bym-e-kriejsblinde,15,1,0.0,0.06666666666666667
225,tale,Albert Braun ,M,,,,"
          
Braun:

          
Ja wo steckt er denn. Charele! !!!

          

        
",112,weber-am-wihnachtsowe-bym-e-kriejsblinde,13,1,0.0,0.07692307692307693
226,tale,Jeanne  ,F,,,,"
          
Jeanne:

          
(geht an den Tisch und hebt die Decke in die  Höhe)

          
Do sitzt er jo. Zeij kumm vor, Charele.

        
",113,weber-am-wihnachtsowe-bym-e-kriejsblinde,26,2,0.0,0.07692307692307693
228,tale,Charele ,M,,,,"
          
Alle:

          
(lachen)

        
",114,weber-am-wihnachtsowe-bym-e-kriejsblinde,5,1,0.0,0.2
229,tale,Henri Greiner ,M,,,,"
          
Henri:

          
(geht an den Tisch und bückt sich)

          
D'r Hans- trapp? ? Ja der isch jo gar nit do g’sin.

        
",114,weber-am-wihnachtsowe-bym-e-kriejsblinde,26,1,0.0,0.038461538461538464
232,tale,Charele ,M,,,,"
          
Charele:

          
(sieht Paul)

          
Dort steht er jo. 
(lauft schnell hinter Grand'mère)

        
",116,weber-am-wihnachtsowe-bym-e-kriejsblinde,17,1,0.0,0.058823529411764705
234,tale,Henri Greiner ,M,,,,"
          
Henri:

          
Nein. Awer er kann, ne jetzt emol spiele. Paul, hole sie alli Sache wo im Auto leje, eruff.

        
",117,weber-am-wihnachtsowe-bym-e-kriejsblinde,26,2,0.0,0.07692307692307693
236,tale,Henri Greiner ,M,,,,"
          
Henri:

          
Ich bin nämlich by minere Schwechder wo hy g'hyrot isch, üewer Wihnachte. Ich hab grad Inkeif gemacht un bin jetzt durich des Accident vum Jeanne do here kumme. Wie geht’s dir sunscht Albert, was machsch? ?

        
",118,weber-am-wihnachtsowe-bym-e-kriejsblinde,44,5,0.4607046579292916,0.11363636363636363
237,tale,Albert Braun ,M,,,,"
          
Braun:

          
Ich hab noch’m Kriej Klavierstimmer gelehrt, will ich uff mim Handwerik nimmi schaffe kann.

        
",118,weber-am-wihnachtsowe-bym-e-kriejsblinde,19,2,0.0,0.10526315789473684
240,tale,Henri Greiner ,M,,,,"
          
Henri:

          
..... un emol gar nix, gäll. Dess hœrt jetzt uff. Ich sorig vun hyt an füer dich. Wer weiss wo ich wär, wenn düe nit wärsch g’sin.

        
",120,weber-am-wihnachtsowe-bym-e-kriejsblinde,35,2,0.0,0.05714285714285714
241,tale,Albert Braun ,M,,,,"
          
Braun:

          
Loss „Kleiner“ ..... nein.

        
",120,weber-am-wihnachtsowe-bym-e-kriejsblinde,9,2,1.684295499103106,0.2222222222222222
242,tale,Henri Greiner ,M,,,,"
          
Henri:

          
Doch Albert ....... loss düe numme diner „Kleiner“ mache. Ich denk mir, dass düe mit dinere Pen- sion un mit dem was düe verdiensch mit 4 Persone in däne Zyte nit läwe kannsch. Ich hab noch ebs quitt zu mache. Vor alle Dinge bekummsch düe emol e Woh- nung in eim vun de Hiser vun mine Eldere. S’andere wo no noch ze mache isch, wur ich no schun sähn.

        
",121,weber-am-wihnachtsowe-bym-e-kriejsblinde,83,5,1.2168083892632882,0.060240963855421686
244,tale,Charele ,M,,,,"
          
Charele:

          
(will wieder unter den Tisch, sobald Paul herein kommt)

          

        
",122,weber-am-wihnachtsowe-bym-e-kriejsblinde,14,1,0.0,0.07142857142857142
245,tale,Henri Greiner ,M,,,,"
          
Henri:

          
(hält Charele zurück)

          
Düe brüesch doch kein Angscht ze han.

        
",122,weber-am-wihnachtsowe-bym-e-kriejsblinde,15,2,0.0,0.13333333333333333
247,tale,Henri Greiner ,M,,,,"
          
Henri:

          
Do Madame Braun, ebs füer ihri Kinder. Miner neveu un mini nièce bekumme anderi Sache. 
(gibt Grand'mère Geld)

        
",123,weber-am-wihnachtsowe-bym-e-kriejsblinde,25,5,0.44778331317138864,0.2
248,tale,d'Grand-mère oder Grand-père,B,,,,"
          
Grand'mère:

          
(will es nicht annehmen)

        
",124,weber-am-wihnachtsowe-bym-e-kriejsblinde,8,1,0.0,0.125
249,tale,Henri Greiner ,M,,,,"
          
Henri:

          
Doch doch Madame Braun; sie müens nämme.

        
",124,weber-am-wihnachtsowe-bym-e-kriejsblinde,11,1,0.0,0.09090909090909091
252,tale,Albert Braun ,M,,,,"
          
Braun:

          
„Kleiner“ nein, ich kann dess nit annämme.

        
",126,weber-am-wihnachtsowe-bym-e-kriejsblinde,13,2,0.0,0.15384615384615385
253,tale,Henri Greiner ,M,,,,"
          
Henri:

          
Albert, ich hab gar kein Zyt, füer mit dir ze disch- betiere. Ich müess unbedingt glich furt. Ich kumm morje wieder, no redde mir mitnand.

        
",126,weber-am-wihnachtsowe-bym-e-kriejsblinde,34,2,0.0,0.058823529411764705
255,tale,Henri Greiner ,M,,,,"
          
Henri:

          
Nein Madame Braun, 
(zeigt auf Braun)
 dort steht der, wo ellein e „Merci“ verdient.

        
",127,weber-am-wihnachtsowe-bym-e-kriejsblinde,23,2,0.0,0.08695652173913043
257,tale,Henri Greiner ,M,,,,"
          
Henri:

          
Aurevoir Albert! ich kumm morje wieder un no fiere mir Wihnachte do by dir. 
(umarmt Braun)
 Amüesiere euch hyt Owes güet.

        
",128,weber-am-wihnachtsowe-bym-e-kriejsblinde,28,5,0.0,0.17857142857142858
258,tale,Albert Braun ,M,,,,"
          
Braun:

          
Aurevoir „Kleiner“.

        
",129,weber-am-wihnachtsowe-bym-e-kriejsblinde,7,1,0.0,0.14285714285714285
260,tale,Charele ,M,,,,"
          
Charele:

          
Adjé Hanstrapp ! ! Grand’mère: 
(geht mit Jeanne an die Türe, machen sie zu)

        
",130,weber-am-wihnachtsowe-bym-e-kriejsblinde,20,1,0.0,0.05
261,tale,Charele ,M,,,,"
          
Charele:

          
 
(geht ängstlich hinter Grand'mère her)
 

        
",130,weber-am-wihnachtsowe-bym-e-kriejsblinde,9,1,3.515810656892811,0.1111111111111111
262,tale,Albert Braun ,M,,,,"
          
Braun:

          
Mame, Mame!! Grand’mère: 
(geht zu Braun)
 Was myn Büe ??

        
",131,weber-am-wihnachtsowe-bym-e-kriejsblinde,19,2,2.9132643966048994,0.10526315789473684
263,tale,Albert Braun ,M,,,,"
          
Braun:

          
Wenn numme noch s’Madeleine läwe dät! ! !

        
",131,weber-am-wihnachtsowe-bym-e-kriejsblinde,12,1,2.7154509481102287,0.08333333333333333
264,tale,d'Grand-mère oder Grand-père,B,,,,"
          
Grand'mère:

          
Ja, ja s’Madeleine! Awer lüej dess isch sicher au so zefriedde wenn es weiss, dass es uns wieder besser geht. Wihnachte het füer uns e grossi Ande- rung gebrocht. Due derfsch de Müet nit verliere, denn es gibt doch noch gueti Lyt uff de Wält, wo helfe, wenn sie könne. 
(zu den Kindern.)
 Un au ihr Kinder,

        
",132,weber-am-wihnachtsowe-bym-e-kriejsblinde,74,11,0.20353786962335849,0.14864864864864866
