Unnamed: 0,drama_type,speaker,sex,job,job_category,social_class,text,progress,short_name,numTokens,numLexTokens,avgLexVal,lexRatio
1,comedy,Eugène Mathis,M,rentier,rentiers,upper_class,"
            
Mathis:

            
Un wenn ich bis do her kumme bin, so geh ich a ganz nin — deß loß ich m'r nit g'falle, daß m'r
            d'Orangerie absperrt. Di isch für Jedermann do. Un wenn ich do e Scheppel trinke will, so kann mers
            ken Mensch verwehre.

          
",1,schneegans-steckelburjer-universite-saaue,53,4,1.438544523119901,0.07547169811320754
2,comedy,Sophie Mathis,F,,,,"
            
Mme. Mathis:

            
Awer, Eugène, j't'en prie! Dü sisch jo, 's isch e Concert oder e Hochzitt. — Gehn mer liewer ins
            Bäckehiesel.

          
",2,schneegans-steckelburjer-universite-saaue,29,2,0.0,0.06896551724137931
3,comedy,Eugène Mathis,M,rentier,rentiers,upper_class,"
            
Mathis:

            
Nein, Sophie. — Wenn's e Concert isch, un wenn's eb's koscht, so bezahl' ich schun. Ich bin nit e'
            so, daß ich uf's Geld lüej. Deß weisch dü schun, Sophie. Je ne suis pas commeça que je regarde à
            l'argent.

          
",3,schneegans-steckelburjer-universite-saaue,56,2,1.2090020627190614,0.03571428571428571
4,comedy,Sophie Mathis,F,,,,"
            
Mme. Mathis:

            
Zell weiß ich schun! Ça je le sais bien — awer du machsch' d'r noch e ""mauvaise affaire"". — Kumm,
            d' Lytt lüejen alli so. Un do kummt schun e Herr uf uns zü! O, i müß mich schemme.

          
",4,schneegans-steckelburjer-universite-saaue,51,3,1.0964124174532588,0.058823529411764705
5,comedy,Ein Herr vom Comité,M,professor,professionals_scientific_technical,upper_class,"
            
Herr:

            
Entschuldigen Sie, mein Herr, ich muß Sie darauf aufmerksam machen, daß es hier geschlossene
            Gesellschaft ist, und der Saal abgesperrt ist. Oder haben Sie etwa eine Einladungskarte erhalten
            ?

          
",5,schneegans-steckelburjer-universite-saaue,36,4,1.4526967277881484,0.1111111111111111
6,comedy,Sophie Mathis,F,,,,"
            
Mme. Mathis:

            
Haw' ich's d'r nit gsaat? Allez, kumm. — J't'en prie, Eugène! . ..

          
",6,schneegans-steckelburjer-universite-saaue,22,1,0.0,0.045454545454545456
7,comedy,Eugène Mathis,M,rentier,rentiers,upper_class,"
            
Mathis

            
(im bekannten sog. Psarrerdeutsch):

            
Nein, mein Herr, ich habe keine Einladungskarte — aber ich muß doch sagen — die Orangerie ist für
            Jedermann da, und ich seh nicht ein, warum man sie absperren sollte, an einem so schönen Abend wie
            heute, ganz besonders.

          
",7,schneegans-steckelburjer-universite-saaue,55,6,1.1793331276831638,0.10909090909090909
8,comedy,Ein Herr vom Comité,M,professor,professionals_scientific_technical,upper_class,"
            
Herr:

            
Entschuldigen Sie vielmals, — aber die Stadt ist so freundlich gewesen, uns das Lokal zu
            überlassen, um unser Fest darin abzuhalten. So gern ich Ihnen das Vergnügen machen würde. . .

          
",8,schneegans-steckelburjer-universite-saaue,38,5,1.1706859128416016,0.13157894736842105
9,comedy,Sophie Mathis,F,,,,"
            
Mme. Mathis:

            
Awer Eugène, sois donc raisonnable — Kumm, mer gehn jezt. . .

          
",9,schneegans-steckelburjer-universite-saaue,18,1,0.0,0.05555555555555555
11,comedy,Sophie Mathis,F,,,,"
            
Mme. Mathis:

            
O jemerliche! Wenn der Mann emol ebbs in simm Kopf het, so isch's nit mejli, mit dem beschte Wille
            nit. . . Entschuldigen Sie, mein Herr.

          
",11,schneegans-steckelburjer-universite-saaue,36,3,1.0656958434625445,0.08333333333333333
12,comedy,Eugène Mathis,M,rentier,rentiers,upper_class,"
            
Mathis

            
(zum Herrn):

            
Ich bezahl jo gern was es koscht. . . . Saue Se mer nur, was ich ze bezahle hab.

          
",12,schneegans-steckelburjer-universite-saaue,28,1,1.8278923682661068,0.03571428571428571
13,comedy,Ein Herr vom Comité,M,professor,professionals_scientific_technical,upper_class,"
            
Herr

            
(lachend):

            
Ja, mein verehrter Herr, es ist nichts zu bezahlen. Sie sehen ja doch selber ein, daß Sie sich
            nicht in eine fremde Gesellschaft eindrängeln können.

          
",13,schneegans-steckelburjer-universite-saaue,35,7,1.7051737725040645,0.2
14,comedy,Eugène Mathis,M,rentier,rentiers,upper_class,"
            
Mathis:

            
Mein Herr! Ich bin nit le premier venu. Ich bin der Herr Eugène Mathis, un wohn uf'em Pont
            couvert, un Jedermann kennt mich für en' ordentlicher Mann — un deß isch min Frau . . .

          
",14,schneegans-steckelburjer-universite-saaue,43,4,1.4526967277881484,0.09302325581395349
15,comedy,Ein Herr vom Comité,M,professor,professionals_scientific_technical,upper_class,"
            
Herr:

            
Ja, mein verehrter Herr! Ich bezweifle ja nicht im Geringsten, daß Sie ein ordentlicher Mann sind.
            Es liegt mir ja natürlich vollständig fern, Ihnen in irgend einer Weise zu nahe treten zu wollen,
            aber Sie werden doch begreifen. . . .

          
",15,schneegans-steckelburjer-universite-saaue,50,10,2.190622566548984,0.2
16,comedy,Sophie Mathis,F,,,,"
            
Mme. Mathis:

            
Nein, Herr, min Mann begrifft's nit; wenn er sich so ebs in de Kopf setzt, so isch Alles verlore.
            D' Lit sauen als: C'est une tête carrée.

            
(Unterdessen sind sie immer weiter gegangen, bis in die Mitte des Saales. Andere Herren des
            Comité's sind auf dieses Vorkommniß aufmerksam geworden und sprechen zusammen. Im Publikum befindet
            sich stud. med. Kühne, der nun unter lebhaften Zeichen der Verwunderung näher tritt.)

          
",16,schneegans-steckelburjer-universite-saaue,89,12,1.1795107960515114,0.1348314606741573
17,comedy,Otto Kühne,M,doctor,professionals_scientific_technical,upper_class,"
            
Kühne:

            
Donnerschlag! Das sind ja meine Wirthsleute! Was will denn der verdrehte Kerl 
            
hier? Na, das ist ja famos! . . . 
            
(geht auf sie zu):
 Guten Tag Herr Mathis! Guten Tag Frau Mathis! — Was machen Sie nur
            hier? 
            
(Auf den Herrn vom Comite zugehend.)
 Erlauben Sie, daß ich mich Ihnen vorstelle: Mein
            Name ist: Studiosus Kühne.

          
",17,schneegans-steckelburjer-universite-saaue,77,10,1.8536324190141742,0.12987012987012986
18,comedy,Ein Herr vom Comité,M,professor,professionals_scientific_technical,upper_class,"
            
Herr:

            
Prof.....

          
",18,schneegans-steckelburjer-universite-saaue,4,1,0.8712331269216534,0.25
19,comedy,Eugène Mathis,M,rentier,rentiers,upper_class,"
            
Mathis:

            
Ah, Sind sie a do, Herr Kihne!

          
",19,schneegans-steckelburjer-universite-saaue,12,2,1.5922277572066117,0.16666666666666666
20,comedy,Sophie Mathis,F,,,,"
            
Mme. Mathis:

            
Gueten owe, Herr Kihne. Ich bitt' Sie, sind Sie doch so frindlich un helfe Se m'r mine Mann zü
            persuadiere, daß er ken G'schicht anfangt.

          
",20,schneegans-steckelburjer-universite-saaue,33,7,0.4549222163447462,0.21212121212121213
21,comedy,Eugène Mathis,M,rentier,rentiers,upper_class,"
            
Mathis:

            
Ich saa d'rs jetz ein für alle mol. Loß mi jetz gehn. Was min Recht isch, isch min Recht, un do
            kann der Herr Kihne a nix mache . . . un wenn sie mir's verwehre, no mach ich erscht recht Krambohl,
            oder schrieb an d'Birjerzittung! Do solle Sie erscht sehn . . . .

          
",21,schneegans-steckelburjer-universite-saaue,67,6,0.8699268298532248,0.08955223880597014
22,comedy,Sophie Mathis,F,,,,"
            
Mme. Mathis:

            
Herr Jeses! Was wurd jetz noch do drüs!

          
",22,schneegans-steckelburjer-universite-saaue,13,2,0.4356165634608267,0.15384615384615385
23,comedy,Otto Kühne,M,doctor,professionals_scientific_technical,upper_class,"
            
Kühne

            
(zum Herrn);

            
Wenn Sie mir erlauben, Herr Prof., so würde ich Ihnen rathen, die beiden eintreten zu lassen. Das
            sind köstliche Leute, wirkliche Straßburger Typen, die unterhalten die ganze Gesellschaft. . . .

          
",23,schneegans-steckelburjer-universite-saaue,45,5,1.771194008757886,0.1111111111111111
24,comedy,Ein Herr vom Comité,M,professor,professionals_scientific_technical,upper_class,"
            
Herr:

            
Na, dann meinetwegen. Ich hoffe die andern Herren vom Comité haben nichts dagegen?

          
",24,schneegans-steckelburjer-universite-saaue,18,5,0.6459706291639871,0.2777777777777778
25,comedy,Otto Kühne,M,doctor,professionals_scientific_technical,upper_class,"
            
Kühne:

            
Und wenn es auch nicht im Programm steht, Sie werden es sicher nicht bereuen. Erlauben Sie mir
            nur, die Geschichte zu deichseln. Das werde ich schon recht machen. - 
            
(Zu Herrn Mathis.)
 Kommen Sie doch nur mit, Herr und Frau Mathis, und haben Sie keine
            Angst. Sie werden sehen, wie's hier gemüthlich wird.

          
",25,schneegans-steckelburjer-universite-saaue,69,6,1.1347743127718972,0.08695652173913043
26,comedy,Sophie Mathis,F,,,,"
            
Mme. Mathis:

            
Awer, ich tröj mir nit, ich bin jo a nit en toilette, und die Madame do sin jo alli so scheen hell
            angezöje.

          
",26,schneegans-steckelburjer-universite-saaue,30,4,0.46954198224907456,0.13333333333333333
28,comedy,Otto Kühne,M,doctor,professionals_scientific_technical,upper_class,"
            
Kühne

            
(von dem Podium aus zum Publikum gewendet) :

            
Verehrte Damen und Herren, ich bitte Sie Plaß zu nehmen! Der Zufall hat gewollt, daß meine
            vortrefflichen Wirthsleute sich hier in unsere Gesellschaft verirrt haben. Ich bin sicher, daß Sie
            damit einverstanden sein werden, wenn ich sie in Ihrem Namen auffordere hier auf dem Podium Plaß zu
            nehmen. Es find ganz famose Leute, die echten Steckelburjer, von altem Schrot und Korn! Ich
            unterhalte mich sehr oft und gerne mit ihnen, und ich glaube annehmen zu dürfen, daß es auch für Sie,
            meine verehrten Anwesenden, von Interesse sein wird, ein solches echtes Straßburger Gespräch mit
            anzuhören. Namentlich dürfte es für die, welche hier früher docirt oder studirt haben, eine Freude 
            
sein, sich wieder in die alte Straßburger Vergangenheit hinein zu versetzen. Also ich
            stelle Ihnen vor: Herr Mathis, Eigenthümer und Rentier, und seine Frau, Wirthsleute, wie man sie
            nicht besser haben könnte. Ich wohne schon seit 3 Semestern bei ihnen. Mein Name ist stud. Kühne.
            Pst! Musik!

          
",28,schneegans-steckelburjer-universite-saaue,198,24,0.9031974605752852,0.12121212121212122
29,comedy,Otto Kühne,M,doctor,professionals_scientific_technical,upper_class,"
            
Kühne:

            
Cantus ex! Ein Schmollis der Musik! Und Ihnen, mein verehrter Herr Mathis, komm' ich einen Halben
            aufs Spezielle sine, sine. Das ist doch reizend von Ihnen und Ihrer Frau, daß Sie uns mit Ihrer
            Gegenwart beehren! Prosit!

          
",29,schneegans-steckelburjer-universite-saaue,48,5,0.6394175060775267,0.10416666666666667
30,comedy,Eugène Mathis,M,rentier,rentiers,upper_class,"
            
Mathis

            
(wüthend):

            
Ja here Sie mol, Herr Kihne. Was isch jetz deß ? Was solle mir do mache? Was lon sie uns do auf
            deren Estrade size, daß alli Lit uns anlüeje! Mer thät grad meine, mir sin ""bêtes curieuses"", Wisse
            Sie, deß loß ich mir nit g'falle! ich bin en alter Chasseur d'Afrique.J'ai fait plusieurs campagnes
            mit Üszeichnung. Un min Capitaine het als g'saat: ,Mathis est un brave soldat. Il porte le bâton de
            maréchal 
            
dans son havresac."" Un wer weiß, wenn d' Schwowe. nit g'kumme wärde . . . ..

          
",30,schneegans-steckelburjer-universite-saaue,117,11,0.8612214035969352,0.09401709401709402
31,comedy,Sophie Mathis,F,,,,"
            
Mme. Mathis:

            
O bli doch still! Herr Jeses Gott! — Dü hesch jo durchüs nin gehn welle.

          
",31,schneegans-steckelburjer-universite-saaue,21,4,0.875349380716204,0.19047619047619047
32,comedy,Eugène Mathis,M,rentier,rentiers,upper_class,"
            
Mathis:

            
Ja, nin gehn, haw i gewellt! Awer nit do sitze, so vor alli Litt, grad wie wenn ich Theater wott
            spiele. Deß leijt m'r grad an. Ich bin ken Comédien.

          
",32,schneegans-steckelburjer-universite-saaue,40,4,2.3907582685405595,0.1
33,comedy,Otto Kühne,M,doctor,professionals_scientific_technical,upper_class,"
            
Kühne:

            
Nun, nun, mein lieber Herr Mathis,nehmen Sie das doch. nicht krumm! — Sehen Sie, Sie wollten
            durchaus hineingehn. Schließlich, nach langem Hinund Herreden, ist es mir gelungen, Ihnen einen Platz
            im Saale zu verschaffen, und dazu noch einen sehr ehrenvollen, den ehrenvollsten vielleicht; und
            jetzt reklamieren Sie wiederum! Sie sind mir der rechte Straßburger, denn das habe ich in den 3
            Semestern, die ich hier studirte, doch allmählich herausbekommen. Ein jeder Straßburger hat etwas von
            seinem Nationalhelden an sich, dem Hans im Schnackenloch . . ""Der Hans im Schnackenloch het Alles was
            er will, und was er will das het er nit, und was er het, das will er nit, der Hans im Schnackenloh
            het Alles, was er will!"" -

          
",33,schneegans-steckelburjer-universite-saaue,150,10,1.2604688118964056,0.06666666666666667
34,comedy,Eugène Mathis,M,rentier,rentiers,upper_class,"
            
Mathis:

            
O gehn Se m'r doch mit Ihrem Stroßburjer Ditsch. S'macht mer grad Büchweh, wenn ichs heer. So redt
            mer doch nit: Der Hans im Schnokeloch het Alles was er will, und was 
            
er will, deß het er nit, und was er het, deß will er nit, der Hans im Schnokeloch het
            Alles was er will — oder wenn mr's scheen uf franzesch saue will:""Jean dans le tru du cusin, il havre
            di tut ce qui vul'r, et tut ce qui vul'r il havre di pas, et tut ce qu'il havre ti vul'r ti pas. Jean
            dans le tru du cusin, il havre ti tut ce qui vul'r. — Gel' Sophie, so ischs! — Un do brücht m'r nit
            so ze lache. Un was lache denn die Pfohl alli do?

          
",34,schneegans-steckelburjer-universite-saaue,155,7,3.112216820004307,0.04516129032258064
35,comedy,Sophie Mathis,F,,,,"
            
Mme. Mathis:

            
Dü redsch halt so firig! Kannsch denn's Mül nit halte?

          
",35,schneegans-steckelburjer-universite-saaue,16,4,1.3697618285668747,0.25
36,comedy,Eugène Mathis,M,rentier,rentiers,upper_class,"
            
Mathis:

            
Halt dü's Mül. — Un jetzt, Herr Kihne, mecht ich doch endlich e-mol wisse, was mir do mache. Was
            welle die Lit? Was sin so vieli do? Isch's e Hochzitt, e Kindtauf oder was?

          
",36,schneegans-steckelburjer-universite-saaue,47,5,0.9448071127564643,0.10638297872340426
37,comedy,Otto Kühne,M,doctor,professionals_scientific_technical,upper_class,"
            
Kühne:

            
Aber, mein lieber Herr Mathis! Wissen Sie denn nicht, was heute los ist? Es ist ja das
            fünfundzwanzigste Jubiläum der Universität, heute, und nicht bloß heute, sondern auch gestern und
            vorgestern, und morgen noch!

          
",37,schneegans-steckelburjer-universite-saaue,45,7,1.5002474372328793,0.15555555555555556
39,comedy,Sophie Mathis,F,,,,"
            
Mme. Mathis:

            
Grad wie e silwerni Hochzitt! -

          
",39,schneegans-steckelburjer-universite-saaue,10,2,1.0039594625085342,0.2
40,comedy,Eugène Mathis,M,rentier,rentiers,upper_class,"
            
Mathis:

            
Hesch e Recht, Sophie, e silwerni Hochzitt ! Weisch noch, wie mer unsri celebrirt hen!

          
",40,schneegans-steckelburjer-universite-saaue,21,2,0.0,0.09523809523809523
41,comedy,Sophie Mathis,F,,,,"
            
Mme. Mathis:

            
's sind jetzt 11 Johr!

          
",41,schneegans-steckelburjer-universite-saaue,9,1,2.31322238749157,0.1111111111111111
42,comedy,Eugène Mathis,M,rentier,rentiers,upper_class,"
            
Mathis:

            
Isch des e Gejäschts g'sin! — A, e silwerni Hochzitt! Un die celebrirt jetz d'Université? Ja, mit
            wem denn?

          
",42,schneegans-steckelburjer-universite-saaue,28,2,0.7656786870469822,0.07142857142857142
43,comedy,Otto Kühne,M,doctor,professionals_scientific_technical,upper_class,"
            
Kühne:

            
Na, mein lieber Herr Mathis! Wohl kaum mit der Bürgerschaft, nach dem was Sie davon zu wissen
            scheinen! — Na, schad' nichts, wird schon allmählich anders werden! — Ja, sagen Sie mal, haben Sie
            denn gar nicht gemerkt, daß in der Stadt etwas besonderes los ist?

          
",43,schneegans-steckelburjer-universite-saaue,59,10,0.9509795069601268,0.1694915254237288
44,comedy,Sophie Mathis,F,,,,"
            
Mme. Mathis:

            
Ich hab's gemerkt, Herr Kihne! O jemerliche, was sind Sie agitiert gsin die Täj! Als B'süch g'hett
            von güti Frind, als im schenste Gala, un furt gange, un heim kumme un wider furtgange — un als im
            Waue g'sesse un rumg'fahre. — Was hett min Berwel Kleider mien birschte un Stiefel wichse! Un was hen
            sie z'nächt Kleider vertreckelt uff'm Fackelzüg!

          
",44,schneegans-steckelburjer-universite-saaue,77,7,0.634363647955851,0.09090909090909091
45,comedy,Eugène Mathis,M,rentier,rentiers,upper_class,"
            
Mathis:

            
Ah, für deß isch der Fackelzüg gsin am Frida!

          
",45,schneegans-steckelburjer-universite-saaue,13,1,0.0,0.07692307692307693
46,comedy,Otto Kühne,M,doctor,professionals_scientific_technical,upper_class,"
            
Kühne:

            
Ja, natürlich, mein lieber Herr Mathis! Haben Sie sich denn das nicht angesehn?

          
",46,schneegans-steckelburjer-universite-saaue,19,4,1.1821112261203996,0.21052631578947367
47,comedy,Eugène Mathis,M,rentier,rentiers,upper_class,"
            
Mathis:

            
O lon Sie mich numme rühig, Herr Kihne Ich hab genüe mit dem Fackelzüg am 22te März g'hett. Do haw
            i mit gehn mien! — Ich bin doch trésorier vom Angelverein. Un wenn mir nit mitgange werde, do wär's
            uns schlecht gange! Do sin mir halt mit. A paar sin d'heim gebliwwe. Awer ich bin halt 
            
im Comité gsin. Un dernoh, wisse Sie, 's isch halt der alt Kaiser g'sin. — J'ai été
            chasseur d'Afrique, et j'ai fait plusieurs campagnes mit Uszeichnung. — Awer wisse Sie, dem alt
            Kaiser müß mer's lon, 's isch so en alter ehrwirdiger Herr g'sin, vor dem haw i Respekt bekumme. Dem
            het m'r gern a Plaisir gemacht. A nach em Tod! — Oui, awer anmol ich güt. So im Treck rum watschlen e
            paar Stund isch ken Fraid! — Un no henn Sie deß am Frida gemacht? Gelte Sie, m'r bekummt e scheener
            Durscht nochher. -

          
",47,schneegans-steckelburjer-universite-saaue,184,24,1.8509523950903464,0.13043478260869565
48,comedy,Sophie Mathis,F,,,,"
            
Mme. Mathis:

            
Herr Jeses Gott! Un Kleider sen üs. Do hemmer putze mien! Unser Berwel isch ganz üßer sich gjsin.
            — Un saue Sie, Herr Kihne, was hen Sie denn gescht owes gemacht? O jemerliche, wie het des Zimmer
            üsgsehn denne Morje, wie 's Berwel nin isch gange, 's het mer verzehlt, alles durchenander ! Un
            Stiefel uff em Kannapee! Un d'Hose uff em Ofe; un unterm — Bett sin a noch Saches g'sin. Un Sie henn
            g'schlofe un g'schnarcht noch am halwer elfe, wie ich von d'r Kirch' bin g'kumme; un hen so e roter
            Kopf g'het! Ja, ja Herr Kihne! — Un uff an Mol, do schellt's un schellt's un schellt's — 's Berwel
            geht nuf un saat mer: 's wurd fur der Kaffee sin! Awer nein: ""Kaffee nehmen Sie nur ruhig wieder mit.
            Ich trinke keinen heute. Aber bringen Sie mir ein Glas Wasser !"" 
            
Un wie's deß Glas Wasser gebrocht het, schnell wider gebimmelt, un s' Berwel isch üßer
            Othem gsin, un het als g'saat: O je, was het numme der Herr Kihne hit! Un was hen Sie gwellt: Noch e
            Glas Wasser! Und doch saue Sie gewehnlich als: ""'s Wasser ischs für's liebe Vieh! Wein muß der Mensch
            trinke."" -Un dernoh isch's im Trab gange, un Sie hen so g'scholte, wil Sie d'andre Kleider hen
            gebirscht han welle ; un mir hen springe mien. Sie sin erecht bees gsin, wil nit alles glich ferti
            isch g'sin. Un wie ich Sie g'fröjt hab, was denn los ish, daß Sie so jeschte, no hen sie g'saat: ""Ich
            muß mich tummeln, weil um 3/4 12 Frühschoppen im Tivoli ist. Da darf ich nicht zu spät kommen."" Saue
            Sie doch: Wurd mer denn glich relegiert, wenn mer ze spot zum Frihschoppe kummt?

          
",48,schneegans-steckelburjer-universite-saaue,360,26,1.3665813159480409,0.07222222222222222
49,comedy,Otto Kühne,M,doctor,professionals_scientific_technical,upper_class,"
            
Kühne:

            
Relegirt — — ich bitte Sie, Frau Mathis. Wie kommen Sie überhaupt zu dem Wort?

          
",49,schneegans-steckelburjer-universite-saaue,20,3,0.0,0.15
51,comedy,Eugène Mathis,M,rentier,rentiers,upper_class,"
            
Mathis:

            
Jo, 's hett fascht so lang gedürt un isch so ambetant g'sin ze lese, wie deß Dings do in Kreta. —
            Awer saue Sie, Herr Kihne, was han Se denn gescht owes ghet, daß Sie so in dem Zuestand beim kumme
            sin?

          
",51,schneegans-steckelburjer-universite-saaue,51,4,0.5318307870498465,0.0784313725490196
52,comedy,Otto Kühne,M,doctor,professionals_scientific_technical,upper_class,"
            
Kühne :

            
Nun, gestern Abend war ja Commers !

          
",52,schneegans-steckelburjer-universite-saaue,10,1,1.5313573740939643,0.1
53,comedy,Eugène Mathis,M,rentier,rentiers,upper_class,"
            
Mathis:

            
Sie han mir schints e scheens Commerce gemacht, mit Kischte, gelte Si?

          
",53,schneegans-steckelburjer-universite-saaue,17,3,0.7026618189330133,0.17647058823529413
55,comedy,Eugène Mathis,M,rentier,rentiers,upper_class,"
            
Mathis:

            
Er wurd doch nit im Hôtel du Commerce sin gsin, wo's Casino isch, uf'm Gütebergplatz. Do hett er
            sich nit so viehmäßig kenne betrinke. Deß hätte d'habitués nit gelitte. Un dernoh — weiß i a nit, ob
            er grad ins Casino het nien kumme kenne! Do welle sie ken Schwowe han. Nit daß sie eb's geje sie
            hätte — so politisch mein ich — nein, awer sie wellen under sich sin -

          
",55,schneegans-steckelburjer-universite-saaue,87,9,1.659051262173194,0.10344827586206896
56,comedy,Otto Kühne,M,doctor,professionals_scientific_technical,upper_class,"
            
Kühne:

            
Aber, mein lieber Herr Mathis, Sie scheinen ja gar nicht zu wissen, was ein Commers ist. Es ist
            eine festliche Veranstaltung beim Bier ; Professoren und Studenten kommen zusammen, halten Reden,
            reiben Salamander, singen Lieder, rauchen ihre Cigarren und die Damen schauen von der Tribüne
            herunter auf das fröhliche Treiben, das sich da unten entwickelt.

          
",56,schneegans-steckelburjer-universite-saaue,67,15,1.4184473362647718,0.22388059701492538
57,comedy,Eugène Mathis,M,rentier,rentiers,upper_class,"
            
Mathis:

            
Na, deren ihri Kleider mien den andre Morjen e scheener Gschmack han, wenn sie sich so raichere
            lon! — Un deß isch Alles für's Jubilé g'sin ?

          
",57,schneegans-steckelburjer-universite-saaue,33,4,1.524138613267789,0.12121212121212122
58,comedy,Otto Kühne,M,doctor,professionals_scientific_technical,upper_class,"
            
Kühne:

            
Ja natürlich, und heute ist hier Festessen gewesen, und Sie nehmen selbst nun an der 
            
geselligen Vereinigung mit Damen theil, die sich in den festlich geschmückten Räumen der
            OrangerieRestauration abspielt.

          
",58,schneegans-steckelburjer-universite-saaue,36,5,1.3874065275407623,0.1388888888888889
59,comedy,Eugène Mathis,M,rentier,rentiers,upper_class,"
            
Mathis:

            
Deß alles noch silwerni Hochzitt! — Passe Sie uf! Do were noch andri Hochzitte drüs wenn so viel
            Mamsellen un Herre zsamme sin! . . .Meinsch nit Sophie?

          
",59,schneegans-steckelburjer-universite-saaue,35,5,0.4836008250876246,0.14285714285714285
60,comedy,Sophie Mathis,F,,,,"
            
Mme. Mathis:

            
O sicherlich! So es Fescht macht m'r jo a numme für deß, daß e mariage drüß wurd.

          
",60,schneegans-steckelburjer-universite-saaue,23,2,2.3622733713347004,0.08695652173913043
61,comedy,Eugène Mathis,M,rentier,rentiers,upper_class,"
            
Mathis:

            
Oder e Paar! Un saue Sie, Herr Kihne, all die Herren un Madamen un Mamselle die g'here zür
            Université?

          
",61,schneegans-steckelburjer-universite-saaue,25,3,1.0536970198898694,0.12
63,comedy,Eugène Mathis,M,rentier,rentiers,upper_class,"
            
Mathis:

            
Ja, do mißt ich jo e Paar Herre kenne! Ich bin doch Proprietär von e Paar Hieser in der Neistadt
            und do haw ich mit dene Herre manchmol zu dhün. Un ich müß saue, ich bin recht zefridde mit 'ne. Sie
            bezahlen ihre Zins regelmäßig und keiner isch mir noch ebs schuldig gebliewe.

          
",63,schneegans-steckelburjer-universite-saaue,61,6,0.2552262290156607,0.09836065573770492
64,comedy,Sophie Mathis,F,,,,"
            
Mme. Mathis:

            
O ja, deß muß mer 'ne lon, 's sind ordentlichi und bravi Litt.

          
",64,schneegans-steckelburjer-universite-saaue,19,4,1.4631361173199378,0.21052631578947367
65,comedy,Eugène Mathis,M,rentier,rentiers,upper_class,"
            
Mathis:

            
Manchmol sind si so e bissel krittlich, und lamentire! — So hen se nit verstehn welle, daß mer so
            d'Beim abhaut, wo einem grad vor der Nas stehn, un d' Üssicht versperre . . . 
            
Awer ich loß mir nix saue. J'ai été Chasseur d'Afrique, j'ai fait plusieurs campagnes,
            mit Üszeichnung — und min Capitaine het als g'saat: ""Mathis est un brave soldat. Il porte le bâton de
            maréchal dans son havresac, un wenn d'Schwowe nit kumme wärde . . . . . Awer ich bin als heflich und
            frindlich mit 'ne, und wenn einer ebs will, so sau ich als, Herr Professor, wissen Sie, ich bin schon
            in Stroßburi seit 64 Jahren, seit meiner Geburt, und Sie sind erst hier seit ein Paar Jahren, und Sie
            verstehen . . . Un do fahr ich als so furt — un sie verstehn's in de meischte Fäll! — 'S sin halt
            g'scheiti Litt. Ja, wenn mer so lang stüdiert, und 's doch nit verstehn thät, — wisse Sie, deß wär
            doch trürig. Wer müß doch zü ebs kummen in der Welt.

          
",65,schneegans-steckelburjer-universite-saaue,214,22,1.0460600171519416,0.102803738317757
66,comedy,Sophie Mathis,F,,,,"
            
Mme. Mathis:

            
Heer, Eugène, do fallt mer awer grad ebs in. Die Herre were sicher froh sin, daß dü a zum Jubilé
            kumme bisch! Deß kann Dir viellicht noch nutze.

          
",66,schneegans-steckelburjer-universite-saaue,37,6,1.2158720690170772,0.16216216216216217
67,comedy,Eugène Mathis,M,rentier,rentiers,upper_class,"
            
Mathis :

            
Siesch, Alterle. Ich hab doch Recht g'het, daß ich durchüs hab nin gehn welle! Ja, ja, hab so e'
            pressentiment g'het, daß ich so nin müß. — Wer weiß, viellicht nimmt einer noch der erscht Stock, wo
            nit verlehnt isch, wenn er erscht sicht, was ich für e Proprietär bin. Gelte Sie, Herr Kihne, wenn
            Sie so ebs heere, — Sie 
            
kenne mich schun lang. — Do kennte Sie ebs fur mich mache.

          
",67,schneegans-steckelburjer-universite-saaue,93,9,1.2056407854103084,0.0967741935483871
68,comedy,Otto Kühne,M,doctor,professionals_scientific_technical,upper_class,"
            
Kühne

            
(allmählich ärgerlich werdend):

            
Versteht sich, mit dem größten Vergnügen, mein Verehrtester. — Aber sagen Sie mir doch mal, das
            interessirt mich, und ist ja typisch für die hiesigen Verhältnisse. Haben Sie denn gar keine Ahnung
            von diesem Fest gehabt?

          
",68,schneegans-steckelburjer-universite-saaue,50,6,1.7580723670857274,0.12
69,comedy,Eugène Mathis,M,rentier,rentiers,upper_class,"
            
Mathis:

            
Vom Jubilé ? Nein, was geht mich deß an? Wisse Sie, min liewer Herr Kihne! Ich will nen ebs saue.
            Je veux vous dire quelquechose. Ich hab als in mim Lewe deß principe ghet: Mer soll sin Sach güt
            mache. Was d'andri mache, deß geht eine nix an.

          
",69,schneegans-steckelburjer-universite-saaue,61,4,1.099573457986078,0.06557377049180328
70,comedy,Sophie Mathis,F,,,,"
            
Mme. Mathis:

            
Ja, wisse Sie, min Mann isch en alter rentier, er het sini paar Hieser ; er macht, daß
            d'locataires zefridde sin , er cüjonirt sie nit — -

          
",70,schneegans-steckelburjer-universite-saaue,36,5,1.0586010429575956,0.1388888888888889
71,comedy,Eugène Mathis,M,rentier,rentiers,upper_class,"
            
Mathis:

            
Un ich loß mich a nit cüjonire. Ich hab min Frau! Mini Kinder sin driwwen in Frankrich. Ich mach
            mini G'schäft, am zweie spiel ich mini Partie Ecarté im Bausin, am 6e trink ich min Scheppel im
            Dauphin oder in der Taverne, am 10 geh' ich schlofe. Un witersch süch ich nix un will ich a nix
            süche. Un am Sundaa geh ich halt fische am Pont Couvert oder wo's sunsch am beschten isch.

          
",71,schneegans-steckelburjer-universite-saaue,86,6,0.753371410942691,0.06976744186046512
72,comedy,Otto Kühne,M,doctor,professionals_scientific_technical,upper_class,"
            
Kühne:

            
Ein sehr bequemer Standpunkt! -Und Sie haben gar nicht mal das Gefühl, daß die Universität auch
            etwas für die Stadt bedeutet?

          
",72,schneegans-steckelburjer-universite-saaue,27,3,1.5807656247908788,0.1111111111111111
73,comedy,Eugène Mathis,M,rentier,rentiers,upper_class,"
            
Mathis:

            
Einmol haw ich's ghet, un ich will ne saue, wenn. -Deß isch zellemol g'sin, wo mer d'r tramway
            electrique bis z'r Orangerie het fihre welle. Wie ich 'ne gsaat hab, ich hab so e paar Hieser drüsse.
            Un no hen als d'locataires lamentirt un reclamirt, daß der tramway electrique von d'r Kinigstroß bis
            an d'Orangerie sott gehn. No het mer deß rangire welle. Un alles wärs zefridde g'sin. Do kummt uff
            anmol so e Herr Professor von d'r Université un saat: Die Wissenschaft erlaubt nicht, daß der tramway
            an der Universität vorbeifährt. Es stört uns in unseren Arbeiten."" Voilà! Qu'est ce que vous pensez
            de ça? Hab 'ne doch grad g'saat, daß ich d' Professore für g'scheidt halt, en gros. — Awer so ebs
            saue! — Wenn Sie sich noch beklaue thäte, daß d' jetzig Dampfmaschin se steert, wil si so bimmelt und
            poltert und schnüft. — Awer so en' electrischer. Kaschte, wo miesstill fahrt! do heert doch Alles
            uf.

          
",73,schneegans-steckelburjer-universite-saaue,195,18,0.8805728600565867,0.09230769230769231
74,comedy,Sophie Mathis,F,,,,"
            
Mme. Mathis:

            
Awer heer, Eugène! Min Nevö, der Ernest, wo stüdirt hett, hett's uns doch scheen explizirt, worum
            deß isch g'sin.

          
",74,schneegans-steckelburjer-universite-saaue,30,1,0.0,0.03333333333333333
75,comedy,Eugène Mathis,M,rentier,rentiers,upper_class,"
            
Mathis:

            
Lo mi rühig mit dim Nevö. Der halt's allewil mit de' Schwowe. — Ja, Herr 
            
Kiehne, zellemols haw i g'sen, daß d'Université a ebs fur d'Stadt beditt!

          
",75,schneegans-steckelburjer-universite-saaue,38,6,1.644836351086762,0.15789473684210525
76,comedy,Otto Kühne,M,doctor,professionals_scientific_technical,upper_class,"
            
Kühne:

            
Im negativen Sinne also nur! — Und nicht einmal das macht Eindruck auf Sie, um etwas ganz
            Materielles anzuführen, da Sie ja nur dafür Interesse zu haben scheinen — daß aus allen Gauen
            Deutschlands Studenten hierher kommen, sich bei den Bürgern einmiethen und ihr gutes Geld hier
            verzehren!

          
",76,schneegans-steckelburjer-universite-saaue,55,6,0.9748789099493472,0.10909090909090909
77,comedy,Eugène Mathis,M,rentier,rentiers,upper_class,"
            
Mathis:

            
Was haw ich dr'vun? Si trinke doch nur bairisch Bier. Un unser Bier lüje si nit emol an, un saue
            gar, 's isch Wackesbier. Un doch hett m'r frijer als g'saat, mir hen hier 's bescht Bier!

          
",77,schneegans-steckelburjer-universite-saaue,46,1,3.8600337966177736,0.021739130434782608
78,comedy,Sophie Mathis,F,,,,"
            
Mme. Mathis:

            
Ja, deß müß mer faue, Herr Kihne! Deß kenne mir Stroßburjer nit verputze, daß Sie alles von drüße
            kumme lon: Wirscht, Schinke, Brot oder in dene Delicatessehandlungen inkaufe. Un daß sie nix halten
            uf unsri gueti Stroßburjer Charcuterie, Knackwirscht und Brofesserwirscht, un unser Mülun Füßsalat,
            un Froscheschenkel . . . . Un nit emol wäsche lon se hie, wo m'r doch so scheeni Wäschpritschen in
            der Ill han.

          
",78,schneegans-steckelburjer-universite-saaue,84,10,1.6835968368799759,0.11904761904761904
79,comedy,Otto Kühne,M,doctor,professionals_scientific_technical,upper_class,"
            
Kühne:

            
Aber Verehrteste! Ihr macht mich endlich nervös. Wenn uns das Alles nicht shmeckt! — Und dann ist
            das Alles nur äußerlich! Der Student ist doch nicht bloß da, um zu essen und 
            
zu trinken! Der Student bezieht die Universität aus idealen Gründen. Der Student ist der
            Pionier der Wissenschaft. -

          
",79,schneegans-steckelburjer-universite-saaue,60,4,2.384992685162686,0.06666666666666667
80,comedy,Eugène Mathis,M,rentier,rentiers,upper_class,"
            
Mathis:

            
Un der Hussard wo spazire fahrt! Meine Si, ich sieh Se nit, die Herre Studente, wi si in ihre
            citadines in d'r Stadt 'rum fahre, der ein' in Uniform, d'r ander mit sim Käppel uf em Kopf, als
            rechti faquins mit ihre gele Hendschih, un als numme zwei z'samme in einer Kitsch, daß es nobler
            üssicht, un 's G'sicht so verhaue, daß m'r grad meint, s'isch e roh's Biftek.

          
",80,schneegans-steckelburjer-universite-saaue,87,8,0.5532403813068989,0.09195402298850575
81,comedy,Otto Kühne,M,doctor,professionals_scientific_technical,upper_class,"
            
Kühne:

            
Aber mein lieber Herr Mathis! Sehen Sie denn nicht ein, daß das die Hülle ist, hinter welcher sich
            der Kern verbirgt? Wir sind die Raupen, aus denen sich der Schmetterling entwickelt! Und als solche
            werden wir einst über das Land dahin flattern, und die Wissenschaft, die wir an der Brust unserer
            alma mater gesogen, in die Herzen dieser im Grunde deutschen Bevölkeruug einpflanzen.

          
",81,schneegans-steckelburjer-universite-saaue,75,6,0.9183849863132005,0.08
82,comedy,Eugène Mathis,M,rentier,rentiers,upper_class,"
            
Mathis:

            
Versteh'sch was er saat?

          
",82,schneegans-steckelburjer-universite-saaue,7,1,2.1800129364932186,0.14285714285714285
83,comedy,Sophie Mathis,F,,,,"
            
Mme. Mathis:

            
Er redt gar scheen!

          
",83,schneegans-steckelburjer-universite-saaue,8,1,0.0,0.125
84,comedy,Otto Kühne,M,doctor,professionals_scientific_technical,upper_class,"
            
Kühne

            
(immer feuriger werdend) :

            
Sie haben einen viel zu philiströsen und hausbackenen Standpunkt! . . . Es ist zum Verzweifeln,
            daß Sie nicht die hohe Aufgabe verstehen können, die sich die Universität gesteckt hat, daß Sie nicht
            verstehen, daß sie eine Wohlthat ist für das Land. 
            
Gemäß dem Wahlspruch, der in goldenen Lettern auf dem Giebel unserer Hochschule prangt,
            litteris et patriae, wird die Universität unentwegt das Banner der Wissenschaft und der
            Vaterlandsliebe hochhalten, und dieses Banner, es wird wehen über die fruchtbaren Gauen des schönen
            wiedergewonnenen Elsaßlandes, und alle die Söhne dieses im Grunde urdeutschen Landes, sie werden sich
            um dasselbe scharen in edler Begeisterung. — Und in diesem Sinne, Commilitonen, fordere ich Euch auf
            einen urkräftigen Salamander. . . . Donnerwetter, wo bin ich denn? Es brummt mir im ganzen Kopf
            herum, da sag ich ja meine Commersrede wieder her. Es sind auch zu schwere Tage....

          
",84,schneegans-steckelburjer-universite-saaue,173,12,0.5191404893092978,0.06936416184971098
85,comedy,Eugène Mathis,M,rentier,rentiers,upper_class,"
            
Mathis:

            
Heere Se, Herr Kihne, welle Si nit e Prise nemme?

          
",85,schneegans-steckelburjer-universite-saaue,15,2,0.4356165634608267,0.13333333333333333
86,comedy,Sophie Mathis,F,,,,"
            
Mme. Mathis:

            
Loß ne doch gehn, Mathis! Dü siehsch jo, er isch ganz üsser Othem! — Un er het scheen geredt, gar
            ze scheen. — Alles haw i nit verstande, 's isch ze gelehrt g'sin — awer wenn ich's so iwerdenk, er
            het doch e Recht, d'Universität isch doch e Wohlthat für's Land. Min Nevö, der a stüdiert het, un
            jetz Lehrer worren isch, er saat's als au. Un deß hesch dü doch selwer a gsaat, daß d'Lehrer in d'r
            Schuel ihri Sach besser mache wie zer franzesche Zitt'. Weisch dü wie unsri Kinder guet gelehrt han,
            daß alli im 
            
Frankrich verstünt sin g'sin, wie sie derte kumme sin. — Un d'Lehrer kumme doch von d'r
            Üniversität?

          
",86,schneegans-steckelburjer-universite-saaue,144,16,0.8093342262397627,0.1111111111111111
87,comedy,Eugène Mathis,M,rentier,rentiers,upper_class,"
            
Mathis:

            
Oui, oui, oui, 's ich schun guet! Mach dü a noch Plän jetz !

          
",87,schneegans-steckelburjer-universite-saaue,20,2,0.0,0.1
88,comedy,Sophie Mathis,F,,,,"
            
Mme. Mathis:

            
Nein, Mathis, so derfsch m'r nit rede! un weisch: dü hesch's doch selwer emol ing'sehn, wie guet
            es isch, daß m'r d'Universität han, wie unserm Pauline ihr Kind so krank isch g'sin, un wie sie von
            Epinal do her sin g'fahre — un alli han gemeint: Mit dem Kind isch's üs . . un dü hesch selwer
            g'krine. No het min Nevö g'saat, m'r solle doch zue dem Professor gehn, wo so berihmt isch. Er wurd's
            heile! Un mir sin ane gange, un ihm isch's a gelunge, mit Gottes Hilf!

          
",88,schneegans-steckelburjer-universite-saaue,115,8,1.5019617887047536,0.06956521739130435
89,comedy,Eugène Mathis,M,rentier,rentiers,upper_class,"
            
Mathis

            
(sich die Augen abwischend):

            
Oui, oui, oui, 's isch guet, deß isch ebs. — Awer, sehn Si' Herr Kihne, wenn Si so rede, wie Si
            vorher geredt han, von dem Banner un dem scheene Land . .. do mueß i halt grad lache. I kann m'r a
            nit denke, daß Si emol e Schmetterling wäre. — Wisse Si, d'Welsche hen a so vielmols scheeni Rede
            g'halte, deß het m'r a nit guet g'falle. — Wir Stroßburjer, mir sin praktischi Litt. Mir mache unsri
            Sach, awer deß Gejeschts isch uns zewidder.

          
",89,schneegans-steckelburjer-universite-saaue,114,11,0.8862237033545722,0.09649122807017543
90,comedy,Otto Kühne,M,doctor,professionals_scientific_technical,upper_class,"
            
Kühne:

            
Na, da sollten Sie aber doch gerade die stille, aber stete Arbeit der Wissenschaft anerkennen, die
            nicht um äußerer Lorbeeren willen, sondern nur der Sache zu Liebe ihre Arbeit verrichtet ?

          
",90,schneegans-steckelburjer-universite-saaue,37,6,0.1871277372753304,0.16216216216216217
91,comedy,Sophie Mathis,F,,,,"
            
Mme. Mathis:

            
Ja, Herr Kihne! Si henn e recht. So isch mer's a vorkumme, wie ich bi dem Professer bin g'sinn mit
            dem kranke Kind, er isch so schlicht g'sin, un het nit g'fröit, wer mir sin, un was m'r han. Er het
            numme sin Sach gemacht. — Un min Nevö saat als grad' so ebs, wie Sie's g'saat han. Wie er gelehrt het
            uff d'r Universitté, het er a so als d'impression g'het wie wenn's die Herre numme so mache thäte,
            wil sie denke, daß es so wohr isch. . . . Un sie lüeje nit rechts un nit links, nach dem was d' Litt
            saue, sie mache so grad furt, fur sich — — Ich kann's nit guet explicire . . . awer wenn min Nevö do
            wärt, er kennt's ne so scheen klar mache. . . .

          
",91,schneegans-steckelburjer-universite-saaue,168,17,0.611053897624398,0.10119047619047619
92,comedy,Dr. Schaufler,M,professor,professionals_scientific_technical,upper_class,"
            
Dr. Schaufler

            
(aus dem Publikum):

            
Er isch do, Tante. Un dü hesch e' Recht. Ja, ich hab's d'r vilmols so g'saat. 
            
(Kommt vor und tritt auf das Podium)

          
",92,schneegans-steckelburjer-universite-saaue,39,2,0.7656786870469822,0.05128205128205128
95,comedy,Otto Kühne,M,doctor,professionals_scientific_technical,upper_class,"
            
Kühne

            
(zu Schaufler):

            
Meine Name ist stud. Kühne.

          
",95,schneegans-steckelburjer-universite-saaue,13,1,0.0,0.07692307692307693
96,comedy,Dr. Schaufler,M,professor,professionals_scientific_technical,upper_class,"
            
Dr. Schaufler:

            
Dr. Schaufler — Ja, meinen Ihr denn, wenn's Fescht von d'r Universität isch, un d'alti Schieler
            ing'lade sin, werd ich d'heim bliewe, hinter mini vier Wänd? Deß wär jo 'e Schand! Ich bin d'ganz
            Zitt do g'sesse un haw Eich züg'hert. Un es hät mich noch recht g'fuxt, daß dü Unkel unsri gueti
            Stroßburjer so lächerlich machsch.

          
",96,schneegans-steckelburjer-universite-saaue,74,10,1.58843712631493,0.13513513513513514
97,comedy,Eugène Mathis,M,rentier,rentiers,upper_class,"
            
Mathis:

            
Ich! Do heert awer Alles uf! Ich en alter Chasseur d'Afrique . ..

          
",97,schneegans-steckelburjer-universite-saaue,18,2,1.7785116413479658,0.1111111111111111
98,comedy,Dr. Schaufler,M,professor,professionals_scientific_technical,upper_class,"
            
Dr. Schaufler:

            
Ja g'rad dü, mit dim Chasseur d'Afrique . . . — Und sehen Sie, mein lieber Herr — gestatten Sie
            mir die Bemerkung, Sie haben auch nicht den richtigen Ton mit den Leuten getroffen. Sie sind zu
            nervös geworden, das darf man hierzulande nie.

          
",98,schneegans-steckelburjer-universite-saaue,54,9,1.517474601464781,0.16666666666666666
99,comedy,Otto Kühne,M,doctor,professionals_scientific_technical,upper_class,"
            
Kühne:

            
Ja, aber erlauben Sie, ich habe mich lang genug gehalten . . . Aber diese hausbackenen
            Anschauungen . . . .

          
",99,schneegans-steckelburjer-universite-saaue,25,2,0.7656786870469822,0.08
100,comedy,Dr. Schaufler,M,professor,professionals_scientific_technical,upper_class,"
            
Dr. Schaufler:

            
Geduld, Geduld, wenn's Herz auch bricht. Bedenken Sie, daß Sie es hier nicht mit leichtbeweglichen
            und leichtentzündbaren Franken, sondern mit schwerfälligen und langsamen Alemanen zu thun haben. Sehn
            Sie, all' die schönen Reden, das Banner der Wissenschaft, die Pioniere, das wiedergewonnene, im
            Grunde deutsch 
            
gebliebene Land, all diese überschwinglichen Redensarten, die können höchstens einen
            Augenblick ein weiches Frauenherz rühren, 
            
(zur Frau Mathis):
 Gel' Tante?

          
",100,schneegans-steckelburjer-universite-saaue,86,4,0.3863817957904345,0.046511627906976744
101,comedy,Sophie Mathis,F,,,,"
            
Mme. Mathis:

            
Ja, mir hets guet g'falle, 's isch grad wie Müsik g'sin.

          
",101,schneegans-steckelburjer-universite-saaue,17,5,0.7078552598222065,0.29411764705882354
102,comedy,Dr. Schaufler,M,professor,professionals_scientific_technical,upper_class,"
            
Dr. Schaufler:

            
Awer verstande hesch's doch nit, liebs Täntele? 
            
(zu Kühne)
 Nein, mein lieber Freund, das sind rauschende Phrasen. Aber was der
            Bevölkerung imponirt, das ist die gewissenhafte Arbeit des Lehrers in der Schule, der fürsorgliche
            Rat des Arztes — ich kann hinzufügen, die gerechte Handhabung der Justiz und Ordnung in der
            Verwaltung, 
            
(zu Mathis gewendet):
 deß mien Ihr doch saue, daß deß besser isch wie z'r franzesche
            Zitt. — -

          
",102,schneegans-steckelburjer-universite-saaue,89,11,1.463208954625643,0.12359550561797752
103,comedy,Eugène Mathis,M,rentier,rentiers,upper_class,"
            
Mathis:

            
In d'r Birgerzittung isch nix dervon ze lese, un doch isch's e Schwob wo sie schribt. Il ne faut
            pas être plus royaliste que le roi.

          
",103,schneegans-steckelburjer-universite-saaue,32,1,0.0,0.03125
104,comedy,Sophie Mathis,F,,,,"
            
Mme. Mathis:

            
Loß doch d'Zittung, de wursch als de mauvaise humeur, wenn dü dervon redsch! — Un gel Ernest,
            unsri Pfarrer sin doch a recht guet?

          
",104,schneegans-steckelburjer-universite-saaue,33,3,0.5291926062280294,0.09090909090909091
105,comedy,Dr. Schaufler,M,professor,professionals_scientific_technical,upper_class,"
            
Dr. Schaufler :

            
Die Geistlichkeit ist von jeder in unserm Land vortrefflich g'sin — -

          
",105,schneegans-steckelburjer-universite-saaue,15,1,0.0,0.06666666666666667
106,comedy,Otto Kühne,M,doctor,professionals_scientific_technical,upper_class,"
            
Kühne:

            
Aber ich bitte Sie — ich sehe nicht ein, was das Alles mit der Universität zu thun hat?

          
",106,schneegans-steckelburjer-universite-saaue,22,1,0.0,0.045454545454545456
107,comedy,Dr. Schaufler,M,professor,professionals_scientific_technical,upper_class,"
            
Dr. Schaufler:

            
Ist denn die Universität nicht die Anstalt, welche die jungen Leute zu diesen Berufen vorbereitet?
            Und ist das Alles nicht in letzter Linie ihr Verdienst? . .

          
",107,schneegans-steckelburjer-universite-saaue,33,2,1.2144850652710752,0.06060606060606061
108,comedy,Otto Kühne,M,doctor,professionals_scientific_technical,upper_class,"
            
Kühne:

            
Ja aber die Wissenschaft !

          
",108,schneegans-steckelburjer-universite-saaue,7,1,1.5313573740939643,0.14285714285714285
109,comedy,Dr. Schaufler,M,professor,professionals_scientific_technical,upper_class,"
            
Dr. Schaufler:

            
Die Arbeit der Wissenschaft ist selbstlos. Und wenn sie, erhaben über das Parteigetriebe und frei
            von der Beeinflussung durch die Tagespolitik, nur ihrer hohen Aufgabe der Erforschung der Wahrheit
            nachgeht, und wenn sie dieses Streben nach Wahrheit und sachlicher Objectivität, die von jeher ein
            besonderes Verdienst der deutschen Wissenschaft war, der jungen Generation einpflanzt, dann hat sie
            meines Erachtens ihre Pflicht gethan. Und da werden sich die Früchte schon einstellen, langsam aber
            sicher, vielleicht am allerersten durch uns, die Lehrer. Aber in der Schule liegt die Zukunft.

          
",109,schneegans-steckelburjer-universite-saaue,103,12,0.2665042639637149,0.11650485436893204
111,comedy,Sophie Mathis,F,,,,"
            
Mme. Mathis:

            
Ich heer der Ernest gar gern rede.

          
",111,schneegans-steckelburjer-universite-saaue,11,1,1.8278923682661068,0.09090909090909091
112,comedy,Dr. Schaufler,M,professor,professionals_scientific_technical,upper_class,"
            
Dr. Schaufler

            
(fortfahrend zu Kühne):

            
Und zu dieser Fanfarenmusik gehört auch das sog. Germanisiren. Ich erinnere mich stets, als
            Student die Commersrede eines allgemein geachteten und weltberühmten Professors gehört zu haben, —
            und in diesen Tagen ist auch wieder davon die Rede gewesen — die in dem Worte gipfelte: Die
            Universität ist keine 
            
SchnellgermanisirungsAnstalt . . . . Wissen Sie, sobald ein Straßburger dies Wort nur
            hört . ..

          
",112,schneegans-steckelburjer-universite-saaue,78,2,0.0,0.02564102564102564
113,comedy,Eugène Mathis,M,rentier,rentiers,upper_class,"
            
Mathis :

            
Heer mol, Nevö, jetzt hesch genü der Schwowe g'sspielt. Was red'sch dü von Germanisiren un so
            Plän.

          
",113,schneegans-steckelburjer-universite-saaue,23,1,0.0,0.043478260869565216
115,comedy,Sophie Mathis,F,,,,"
            
Mme. Mathis:

            
Loß ne doch, er redt so scheen gelehrt.

          
",115,schneegans-steckelburjer-universite-saaue,13,1,0.0,0.07692307692307693
116,comedy,Eugène Mathis,M,rentier,rentiers,upper_class,"
            
Mathis:

            
Weisch Nevö, in minen Aue bisch dü ken Stroßburjer meh.

          
",116,schneegans-steckelburjer-universite-saaue,14,1,0.0,0.07142857142857142
117,comedy,Dr. Schaufler,M,professor,professionals_scientific_technical,upper_class,"
            
Dr. Schaufler:

            
Unkel, ich bin villicht e besserer wie dü.

          
",117,schneegans-steckelburjer-universite-saaue,13,1,0.0,0.07692307692307693
118,comedy,Sophie Mathis,F,,,,"
            
Mme. Mathis:

            
Ja, er het a Recht, er loßt nix uf sin Vaterstadt kumme.

          
",118,schneegans-steckelburjer-universite-saaue,18,4,1.301362880202455,0.2222222222222222
119,comedy,Eugène Mathis,M,rentier,rentiers,upper_class,"
            
Mathis:

            
Un all deß Gepappels haw i jetz genü! — Ich bin doch nit do, f'r e ditsch Fescht ze celebrire, was
            mich Stroßburjer nix angeht, un wo d' Litt doch ken Herz f'r uns hen.

          
",119,schneegans-steckelburjer-universite-saaue,42,2,1.0509590296165978,0.047619047619047616
120,comedy,Dr. Schaufler,M,professor,professionals_scientific_technical,upper_class,"
            
Dr. Schaufler:

            
Do bisch grad uf em Holzweg, Unkel! — Meinsch denn wirklich, die Herre hen ken Verständniß f'r
            Strotzburjer Dings?

          
",120,schneegans-steckelburjer-universite-saaue,26,4,1.1064807626137978,0.15384615384615385
121,comedy,Eugène Mathis,M,rentier,rentiers,upper_class,"
            
Mathis:

            
Nit emol soviel! Hesch dü schon einer g'sen, wo Pompier woren isch?

          
",121,schneegans-steckelburjer-universite-saaue,17,1,0.0,0.058823529411764705
122,comedy,Dr. Schaufler,M,professor,professionals_scientific_technical,upper_class,"
            
Dr. Schaufler:

            
Isch denn deß d'Hauptsach ? Nein, Unkel. Do bring ich dir morjen e Büch, wo einer von dene Herre
            für's Jubiläum gemacht het. Do wursch dich villicht anders b'sinne.

          
",122,schneegans-steckelburjer-universite-saaue,39,6,0.6523550629067291,0.15384615384615385
125,comedy,Dr. Schaufler,M,professor,professionals_scientific_technical,upper_class,"
            
Dr. Schaufler:

            
Deß wurd Eich awer g'falle! — Gellen, Ihr halten ebs uf eier Stroßburjer Ditsch?

          
",125,schneegans-steckelburjer-universite-saaue,20,2,1.2090020627190614,0.1
126,comedy,Eugène Mathis,M,rentier,rentiers,upper_class,"
            
Mathis:

            
Deß will ich meine! Strotzburjer Ditsch isch e Sproch, wie en andri Sprach. — Wie ich frijer
            Chasseur d'Afrique bin g'sin, hätts mich als g'suxt, wenn so e Paar Parisiens kumme sin un zü mer
            g'saat hen, wie ich Stroßburjer Ditsch mit den andren Elsässer geredt hab: Laissez donc cette langue
            barbare, et parlez français!

          
",126,schneegans-steckelburjer-universite-saaue,67,3,0.4186966737592443,0.04477611940298507
127,comedy,Sophie Mathis,F,,,,"
            
Mme. Mathis:

            
Jo, un do henn Si als g'saat: C'est une tête carrée. — Un weisch, wenn die Kinder jetz kumme, 's
            Pauline üs Epinal, un der Jules von Nancy un 's Emilie üs Paris, no heißt's als: Papa, ne parle donc
            pas cet horrible jargon.

          
",127,schneegans-steckelburjer-universite-saaue,58,2,1.7081560292907458,0.034482758620689655
128,comedy,Eugène Mathis,M,rentier,rentiers,upper_class,"
            
Mathis:

            
Awer, dü weisch, daß ich m'r deß nit g'falle loß, un daß ich dernoh d' Antwort gib: E jeder soll
            rede, wi im d'r Schnawel gewachsen ish. Chacun doit parler comme le bec lui à poussé. Voilà mon
            opinion. Deß isch min Ansicht.

          
",128,schneegans-steckelburjer-universite-saaue,54,1,0.0,0.018518518518518517
129,comedy,Dr. Schaufler,M,professor,professionals_scientific_technical,upper_class,"
            
Dr. Schaufler:

            
Eh ben! wenn deß din Ansicht ish, so wursch din Fraid han, wenn dü 
            
deß Elsässicsh Büch fiehsch, was der Herr g'schriewe het.

          
",129,schneegans-steckelburjer-universite-saaue,31,3,0.2904110423072178,0.0967741935483871
130,comedy,Otto Kühne,M,doctor,professionals_scientific_technical,upper_class,"
            
Kühne:

            
Sie meinen wohl das elsässische Idiotikon ?

          
",130,schneegans-steckelburjer-universite-saaue,9,2,1.3448366822789743,0.2222222222222222
131,comedy,Dr. Schaufler,M,professor,professionals_scientific_technical,upper_class,"
            
Dr. Schaufler:

            
's Werterbüch vom Elsässer Ditsch.

          
",131,schneegans-steckelburjer-universite-saaue,9,1,1.529632286148264,0.1111111111111111
133,comedy,Sophie Mathis,F,,,,"
            
Mme. Mathis:

            
Un do ka mer Alles drin finde, was mir rede, so jeder Taa, unsri gewehnlichi Sproch? -

          
",133,schneegans-steckelburjer-universite-saaue,24,1,4.4363745327141535,0.041666666666666664
134,comedy,Otto Kühne,M,doctor,professionals_scientific_technical,upper_class,"
            
Kühne:

            
Ja wohl, das finden Sie Alles drin!

          
",134,schneegans-steckelburjer-universite-saaue,11,2,1.4671740343960233,0.18181818181818182
135,comedy,Sophie Mathis,F,,,,"
            
Mme. Mathis:

            
Un deß hät 'e Professor g'schriewe?

          
",135,schneegans-steckelburjer-universite-saaue,10,1,0.0,0.1
137,comedy,Dr. Schaufler,M,professor,professionals_scientific_technical,upper_class,"
            
Dr. Schaufler:

            
Ja, er un e Elsässer, die gen 's zammen herüs, zum Jubiläum d'r Universität.

          
",137,schneegans-steckelburjer-universite-saaue,21,4,1.5013727920556106,0.19047619047619047
138,comedy,Eugène Mathis,M,rentier,rentiers,upper_class,"
            
Mathis:

            
Nun de Bickel, deß hätt ich jetz nit for mejli g'halte.

          
",138,schneegans-steckelburjer-universite-saaue,15,1,0.0,0.06666666666666667
139,comedy,Sophie Mathis,F,,,,"
            
Mme. Mathis:

            
Heer, Eugène. Deß müeß e guets Buech sin! Deß sott in kener Hüshaltung fehle.

          
",139,schneegans-steckelburjer-universite-saaue,21,1,0.0,0.047619047619047616
140,comedy,Eugène Mathis,M,rentier,rentiers,upper_class,"
            
Mathis:

            
Derfsch's m'r kaufe fur min Anniversaire, deß macht m'r Plaisir! Ich hätt awer nit gedenkt, daß e
            Professor so ebs macht. Sie kumme mir ze stolz fur deß vor.

          
",140,schneegans-steckelburjer-universite-saaue,37,6,2.545337064469777,0.16216216216216217
141,comedy,Otto Kühne,M,doctor,professionals_scientific_technical,upper_class,"
            
Kühne:

            
Ja, glauben Sie denn, mein lieber Herr, daß wir kein Vergnügen haben an Eurem 
            
urwüchsigen Dialekt? Glauben Sie denn, daß wenn wir nicht unsere helle Freude daran
            hätten, ich Sie hier auf das Podium gelootst hätte, um die Gesellschaft zu unterhalten?

          
",141,schneegans-steckelburjer-universite-saaue,51,10,0.7882748973501846,0.19607843137254902
142,comedy,Dr. Schaufler,M,professor,professionals_scientific_technical,upper_class,"
            
Dr. Schaufler:

            
Un meinsh denn, Unkel, daß deß mejli wärt g'sin, am Jubilé ze franzesche Zitte? Ich mein, die
            Herre hätten a g'saat: Laissez donc cet horrible jargon!

          
",142,schneegans-steckelburjer-universite-saaue,36,3,0.7752848011553267,0.08333333333333333
143,comedy,Sophie Mathis,F,,,,"
            
Mme. Mathis:

            
Grad wies Pauline un 's Emilie un d'r Jules! . . Ja, deß isch wohr! deß mueß m'r de Ditsche lon.
            Sie hen Fraid dran, deß het m'r a g'sehn, wie sie d'r Pfingstmonda inscenirt han, un jetz d'andri
            elsässischi Comedi!

          
",143,schneegans-steckelburjer-universite-saaue,53,5,1.1094482013610498,0.09433962264150944
144,comedy,Otto Kühne,M,doctor,professionals_scientific_technical,upper_class,"
            
Kühne:

            
Ja, natürlich! Ich schwärme doch auch für mein Plattdeutsch und die Württemberger für ihr
            Schwäbisch.

          
",144,schneegans-steckelburjer-universite-saaue,20,3,1.2857372591866483,0.15
145,comedy,Dr. Schaufler,M,professor,professionals_scientific_technical,upper_class,"
            
Dr. Schaufler:

            
Sehn Sie, das ist ein fruchtbarerer Boden als ""das schöne neugewonnene Bruderland, wo die bunten
            Schmetterlinge fliegen und das Banner der Wissenschaft weht""! Was an der Scholle klebt, kann nur von
            der Scholle ausgehen.

          
",145,schneegans-steckelburjer-universite-saaue,44,2,0.772763591580869,0.045454545454545456
146,comedy,Eugène Mathis,M,rentier,rentiers,upper_class,"
            
Mathis:

            
Ja, ja, do sicht mer, was mir Steckelburjer fur gfitzte Litt sin. Denn weisch, Sophie, ich merk
            eb's! — Ja, ich habs halt dick hinter den Ohre! Ich hab's d'r doch vielmols g'saat, die Herre
            Professore, die sinn g'scheidt !Un wil sie so g'scheidt sinn, so welle sie als eb's 
            
nei's lehre. Einer von mine locataires hett mer emol so g'saat, wie ich ihm reproches
            gemacht hab, daß sie so langi Vacanze hen. ""Ja das brauchen wir zum Studieren !"" Un siehsch Sophie,
            wie di's verstehn, allewil ebs nei's ze profitiere ! Jetz hen sie sich uff 's Stroßburjer Ditsch
            gelejt — un fur deß noch besser ze lehre un nix ze bezahle derfur, do hen sie deß mit dem Herr Kihne
            rangiert , daß mier zwei do kummen un e ganzi Halbstund vor 'ne redde. Sie wisse fur ihri Sach a ihr
            Jubilé üszenutze, — Awer ich bin a g'sitzt! Wenn ich ebs gib, so will ich a ebs d'rfur han. —
            Messieurs, Sie wisse, ich bin proprietaire, ich hab e paar scheni Hieser, un wenn Sie mir die Ehre
            machen wollen, bei mir zu wohnen, so empfehle ich mich Ihnen beschtens. Am liebschte, deß will ich
            glich faue, hätt' ich dene Herre, wo deß Stroßburjer Ditsch Dictionnair g'schriwe hett. Ich thät ne
            guet logiere, nit grad fur nix, — deß kammer nit, — awer ich thät em e scheeni faveur mache. Un er
            kennt ebs Strotzburjer Ditsch bi mer profitiere.

          
",146,schneegans-steckelburjer-universite-saaue,294,32,1.8144838525920262,0.10884353741496598
147,comedy,Otto Kühne,M,doctor,professionals_scientific_technical,upper_class,"
            
Kühne :

            
Der schlaue Fuchs !

          
",147,schneegans-steckelburjer-universite-saaue,6,1,3.7249066096198256,0.16666666666666666
148,comedy,Sophie Mathis,F,,,,"
            
Mme. Mathis:

            
Heer, Eugène, jetz isch awer Zitt, daß mer heimgehn. Ich heer d'Lumpeglock grad litte. Un 's isch
            wit bis z'm Pont convert.

          
",148,schneegans-steckelburjer-universite-saaue,33,2,1.654370750995632,0.06060606060606061
149,comedy,Eugène Mathis,M,rentier,rentiers,upper_class,"
            
Mathis:

            
Hesch e Recht. En alter Stroßburjer geht bi Zitte schlofe. Kummsch mit, Ernest?

          
",149,schneegans-steckelburjer-universite-saaue,19,3,0.3796730524192697,0.15789473684210525
151,comedy,Eugène Mathis,M,rentier,rentiers,upper_class,"
            
Mathis:

            
Mach mer numme ken Commers mit Kischte , wie der Herr Kihne! — Dü bisch doch so e halwer Schwob. —
            Kumm Sophie, m'r gehn jetz.

          
",151,schneegans-steckelburjer-universite-saaue,32,3,0.2904110423072178,0.09375
152,comedy,Otto Kühne,M,doctor,professionals_scientific_technical,upper_class,"
            
Kühne:

            
Austrinken zuerst, meine Verehrten, das gehört dazu und auf Ihr ganz spezielles Wohl.

          
",152,schneegans-steckelburjer-universite-saaue,18,3,1.032759365621332,0.16666666666666666
153,comedy,Eugène Mathis,M,rentier,rentiers,upper_class,"
            
Mathis:

            
G'sundheit Ihne, und Dir, und Dir Alterle, und d'r ganze G'sellschaft, e scheeni santé un viel
            Amusement züm Jubilé. Un nix fer unguet, mini Herre, wenn ich so frisch von d'r Lewer geredt hab. Ich
            bin halt en alter Chasseur d'Afrique. J'ai fait plusieurs campagnes, mit Üszeichnung und min
            Capitaine het als g'saat :""Mathis est un brave soldat. Il porte le bâton de maréchal dans son
            havresac!"" Un wer weiß, wenn d'Schwowe nit . . . . Awer jez saue ich nix meh. Vive le jubilé!

          
",153,schneegans-steckelburjer-universite-saaue,108,12,1.33441257192446,0.1111111111111111
154,comedy,group,sex_unknown,job_unknown,job_category_unknown,social_class_unknown,"
            
Alle:

            
Hoch.

          
",154,schneegans-steckelburjer-universite-saaue,4,1,3.322954913850019,0.25
155,comedy,Dr. Schaufler,M,professor,professionals_scientific_technical,upper_class,"
            
Dr. Schaufler:

            
Heer' mol Unkel, witt dü morje villicht uf den Üsflüg? ...

          
",155,schneegans-steckelburjer-universite-saaue,16,4,0.6045010313595307,0.25
156,comedy,Otto Kühne,M,doctor,professionals_scientific_technical,upper_class,"
            
Kühne:

            
Erlauben Sie aber, Ihr Onkel dürfte wohl kaum je akademische Bildung genossen haben und
            dann...

          
",156,schneegans-steckelburjer-universite-saaue,19,4,0.8264522453888249,0.21052631578947367
158,comedy,Eugène Mathis,M,rentier,rentiers,upper_class,"
            
Mathis:

            
Ja, wo sol denn des anne gehn ?

          
",158,schneegans-steckelburjer-universite-saaue,11,1,1.5313573740939643,0.09090909090909091
159,comedy,Otto Kühne,M,doctor,professionals_scientific_technical,upper_class,"
            
Kühne:

            
Auf drei Ähren! - 
            
(Nimmt das StudentenProgramm heraus, mit dem Bild des Studenten aus dem 16. Jahrh. darauf,
            kukt hinein).
 Ach, da steht nichts Näheres 
            
(legt es auf den Tisch)
: Aber auf der Karte! 
            
(liest die Karte).

          
",159,schneegans-steckelburjer-universite-saaue,54,1,0.0,0.018518518518518517
160,comedy,Eugène Mathis,M,rentier,rentiers,upper_class,"
            
Mme. Mathis

            
(hat das Programm genommen, mit Entsetzen die Figur betrachtend):

            
Awer Ihr wären Sich doch nit so wischt travestiere! Wenn so Carnevaldings d'rbi isch, loß i mine
            Mann nit mitgehn.

          
",160,schneegans-steckelburjer-universite-saaue,39,2,0.0,0.05128205128205128
161,comedy,Eugène Mathis,M,rentier,rentiers,upper_class,"
            
Mathis:

            
Jo, wenn Ihr so uf drei Aehre thäte nufgehn, kennt 'e scheener Crambohl drüs wäre. — So wiethig
            wie der Brigand do, haw ich nit emol üsg'sehn, wie ich mich als Chasseur d'Afrique mit den Arawer in
            der Kabylie 'rumg'schlaue hab!

          
",161,schneegans-steckelburjer-universite-saaue,50,2,1.2090020627190614,0.04
162,comedy,Otto Kühne,M,doctor,professionals_scientific_technical,upper_class,"
            
Kühne:

            
Seien Sie unbesorgt! Das ist ja nur ein Symbol!

          
",162,schneegans-steckelburjer-universite-saaue,13,1,1.5313573740939643,0.07692307692307693
163,comedy,Dr. Schaufler,M,professor,professionals_scientific_technical,upper_class,"
            
Dr. Schaufler:

            
Auch so ein Schmetterling, der das Banner der Wissenschaft hoch hält ?

          
",163,schneegans-steckelburjer-universite-saaue,16,2,1.6614774569250095,0.125
164,comedy,Sophie Mathis,F,,,,"
            
Mme. Mathis:

            
Ja, awer min Mann kennt sich egariere, wenn er e' bissel Wien getrunke het.

          
",164,schneegans-steckelburjer-universite-saaue,20,2,0.7656786870469822,0.1
165,comedy,Eugène Mathis,M,rentier,rentiers,upper_class,"
            
Mathis :

            
Hab ken Angst, Sophie — deß kann mer in de Vogese nimmer so licht, 's sin jo iwerall Wejwieser.
            Weisch noch, wo m'r vorm — Johr, uf 'em Odilienberg sin g'sin! do hemmer glich der Wej g'funde.

          
",165,schneegans-steckelburjer-universite-saaue,46,3,2.0650395767350322,0.06521739130434782
166,comedy,Dr. Schaufler,M,professor,professionals_scientific_technical,upper_class,"
            
Dr. Schaufler:

            
Un weisch dü, Unkel, wer die viele Wejwieser gemacht het, un die bequeme Wej, un d'Schlesser
            restaurirt !

          
",166,schneegans-steckelburjer-universite-saaue,26,2,0.0,0.07692307692307693
169,comedy,Otto Kühne,M,doctor,professionals_scientific_technical,upper_class,"
            
Kühne:

            
Und der geht auch so halb und halb von der Universität aus. Kennen Sie denn den kleinen Herrn
            nicht. .. .

          
",169,schneegans-steckelburjer-universite-saaue,25,1,0.0,0.04
170,comedy,Sophie Mathis,F,,,,"
            
Mme. Mathis:

            
Ah! der mit dem große Schlapphuet, der d'Kinder so gern het, un ken Wien trinkt, un als uf's
            Minster krattelt ? Dene kennt jo jeder Mann in Stroßburi.

          
",170,schneegans-steckelburjer-universite-saaue,38,4,1.6015296327519972,0.10526315789473684
171,comedy,Eugène Mathis,M,rentier,rentiers,upper_class,"
            
Mathis:

            
Un der hets gemacht? Heer emol, Sophie, 's kummt m'r doch fascht vor, daß die Litt doch meh fur's
            Land gemacht han, als ich gemeint hab. — Un wenn noch emol so e Jubilé kummt, thät ich viellicht e
            scheeni Red halten uf die Litt, scheen uf franzeesch.

          
",171,schneegans-steckelburjer-universite-saaue,60,8,1.2090020627190614,0.13333333333333333
172,comedy,Otto Kühne,M,doctor,professionals_scientific_technical,upper_class,"
            
Kühne:

            
Die können Sie ja morgen auf dem Ausfluge halten.

          
",172,schneegans-steckelburjer-universite-saaue,12,3,0.5104524580313214,0.25
173,comedy,Eugène Mathis,M,rentier,rentiers,upper_class,"
            
Mathis:

            
Ja, Hop la Geis, deß mueß g'stüdirt sin. So schnell geht's nit. -Jetz will i awer heim, daß i
            morjen ufstehn kann.

          
",173,schneegans-steckelburjer-universite-saaue,32,3,1.016853355269123,0.09375
174,comedy,Sophie Mathis,F,,,,"
            
Mme. Mathis:

            
Ja, mach schnell, d'Lumpeglock het schun ufg'hert. Bonsoir Bisamme!

          
",174,schneegans-steckelburjer-universite-saaue,17,3,0.5104524580313214,0.17647058823529413
175,comedy,Eugène Mathis,M,rentier,rentiers,upper_class,"
            
Mathis:

            
Bonsoir un au revoir, morje frij!

          
",175,schneegans-steckelburjer-universite-saaue,10,2,0.0,0.2
