Unnamed: 0,drama_type,speaker,sex,job,job_category,social_class,text,progress,short_name,numTokens,numLexTokens,avgLexVal,lexRatio
0,comedy,Brummer,M,rentier,rentiers,upper_class,"
            
BRUMMER

            
(vun rächts):

            
Wenn ich mich nitt drumbier, ze muess’s Narrehüss do in d’r Gejed sinn !

          
",0,jost-daa-im-narrehuss,22,1,0.0,0.045454545454545456
2,comedy,E Passant,M,,,,"
            
PASSANT:

            
Nein, leider nitt ! 
(Geht wyddersch.)
 

          
",1,jost-daa-im-narrehuss,12,1,0.0,0.08333333333333333
4,comedy,E Passant,M,,,,"
            
PASSANT

            
(kummt wichtig zeruck):

            
Monsieur, meine Sie am End ’s Narrehüss ?

          
",2,jost-daa-im-narrehuss,16,3,0.0,0.1875
5,comedy,Brummer,M,rentier,rentiers,upper_class,"
            
BRUMMER:

            
Gewiss, diss suech ich jo!

          
",2,jost-daa-im-narrehuss,9,1,0.0,0.1111111111111111
6,comedy,E Passant,M,,,,"
            
PASSANT:

            
Ja, wo diss isch, weiss ich nämlich au nitt! 
(Rächts ab.)
 

          
",3,jost-daa-im-narrehuss,19,1,0.0,0.05263157894736842
7,comedy,Brummer,M,rentier,rentiers,upper_class,"
            
BRUMMER

            
(wietig):

            
Awer zyttig sinn Sie, fur’s ball ze wisse ! Na, ich wurr’s schun finde ! No will ich awer im Monsieur Nervich, wo Dokter drinne-n-isch, schun de Marsch bloose ! 
(Lungt e Brief üss’m Sack)
 : Nitt nummen-ass’r hinter mym Buckel mit mynere Dochter e Techtelmechtel ang’fange hett, nein, jetzt fröjt’r mich au noch do in dem Brief um d’Hand vum Octavie ! Schamä! E 
 Narredokter kummt nitt in d’Famili Brummer ! Ihnne mache d’Kranke verruckt, er macht no myni Dochter verruckt unn die schliesslich noch mich — nein, so verruckt bin ich jetzt doch nitt ! Warte Sie, Herr Dokter, ich kenn Sie zwar noch nitt, awer hytt solle Sie mich kenne lehre, selbscht wenn’s Octavie noch so verruckt in Sie isch unn Sie noch so narrächt ins Octavie sinn ! E Narredokter ! M’r saat nitt umesunscht: « Sage mir, mit wem du umgehst, und ich will dir sagen, wer du bist!» Iwerhaupt, was verstehn d’junge Lytt vun d’r Lieb? Do g’heert Erfahrung dezue! Ich habb d’Lieb au erscht g’funde, wo myni erscht Frau dood isch g’sinn. In d’r Biwel steht bekanntlich: «Wen Gott liebt, den straft er!» Na, uff myni erscht Frau angewend, muess ich directement de Fifi vum liewe Herrgott gewänn sinn! Hoffetlich breche-n-awer jetzt besseri Zytte an, denn durich e Zyttungs-Annonce steh ich dato mit’re Mamsell im Briefwechsel ; denne-n-Oowe haw ich’s erscht Rendezvous mit’re, na, unn wenn d’Mamsell Euphrosine Bendélé nooch mym goût isch, ze wurd halt widder g’hyroot, awer nitt üss Verrucktheit, so wie d’junge Lytt! Die solle mit’m Hyroote liewer warte, bis ass s’e-n-au emool Wittmann sinn !

          
",3,jost-daa-im-narrehuss,335,37,0.5782192214042362,0.11044776119402985
11,comedy,Brummer,M,rentier,rentiers,upper_class,"
            
BRUMMER

            
(luejt am Hüss nuff):

            
Ah, do owe huckt jo e Papegei, wo schynnt’s in ebber furtg’flöje-n-ich ! E zü scheens Dierele ! 
(Lockt’m):
 Lorele, kumm! Do isch Zuckerle !

          
",5,jost-daa-im-narrehuss,44,2,0.0,0.045454545454545456
12,comedy,D’Stimm vum e Papegei,U,,,,"
            
PAPEGEI

            
(lacht):

            
Lorele will Kueche !

          
",6,jost-daa-im-narrehuss,9,1,0.0,0.1111111111111111
13,comedy,Brummer,M,rentier,rentiers,upper_class,"
            
BRUMMER:

            
E gelehrig’s Dierele ! Ich muess’s unbedingt fange, denn diss arm Vieh kummt jo in d’r Frejheit um! 
(Zuem Papegei):
 Kumm scheen, Lorele ! Kumm, schunscht fange dich d’beese Katze! 
(Fur sich):
 Jo, ’s lejt’m an !

          
",6,jost-daa-im-narrehuss,55,8,0.0,0.14545454545454545
14,comedy,D’Stimm vum e Papegei,U,,,,"
            
PAPEGEI:

            
Lorele, kumm ! 
(Lacht.)
 

          
",7,jost-daa-im-narrehuss,10,2,0.0,0.2
15,comedy,Brummer,M,rentier,rentiers,upper_class,"
            
BRUMMER:

            
’s wär direkt e Verbreche, so e schlöj’s Dierele umkumme ze lonn ! 
(Lockt’m still wyddersch.)
 

          
",7,jost-daa-im-narrehuss,24,4,0.24632463699207055,0.16666666666666666
16,comedy,E’n Arweiter,M,labourer,unknown,lower_class,"
            
ARWEITER:

            
Heiliché, haw ich e Durscht! 
(Leijt d’Leiter uff de Bodde):
 Ich will g’schwind do am Eck e Seidel schlutze gehn ! 
(Links ab.)
 

          
",8,jost-daa-im-narrehuss,34,3,0.8089479047358639,0.08823529411764706
17,comedy,Brummer,M,rentier,rentiers,upper_class,"
            
BRUMMER:

            
Dem Vöjel kann ich lang ebbs vormache ! Ah, do lejt jo e Leiter ! Jetzt bekumm ich denne Babbelfritz doch. 
(Stellt d’Leiter an’s Hüss unn leijt syne Huet unn Stock näwe d’Leiter, krawelt nuff unn stehnt: «O je!» odder « So e Schinderej ! » unn geroot als mit de Fiess zwische d’Sprosse. Iwerdem lock’r wyddersch)
 : Lorele, sej brav! — Kumm scheen zuem Herrele! 
(Lockt’m still wyddersch.)
 

          
",8,jost-daa-im-narrehuss,92,11,1.9855994025334842,0.11956521739130435
18,comedy,E Gauner,M,conman,unknown,lower_class,"
            
GAUNER

            
(kummt vorsichtig g’schliche unn nemmt de Huet unn de Stock vum Brummer):

            
M’r saat jo, ’s Geld lejt uff d’r Strooss ! Zwanzig Fränkle bekumm ich allewyll noch fur die paar Brocke ! 
(Links ab.)
 

          
",9,jost-daa-im-narrehuss,43,6,0.8756670886416723,0.13953488372093023
19,comedy,Brummer,M,rentier,rentiers,upper_class,"
            
BRUMMER:

            
Lorele, ze kumm doch — baddabing ! d’Leiter isch ze kurz ! 
(Kummt vorsichtig erabb.)
 

          
",9,jost-daa-im-narrehuss,22,3,1.7269817673483605,0.13636363636363635
20,comedy,1. Wärter,M,custodian_(asylum),elementary_professions,lower_class,"
            
1. WÄRTER

            
(sieht d’Leiter):

            
Was Dejfels, ich glabb gar, do rysst einer vun unsere Verruckte üss ! 
(Zuem Brummer, wo jetzt unte-n-isch):
 Ja, Mann, was mache denn Sie do?

          
",10,jost-daa-im-narrehuss,44,5,0.4853687428415183,0.11363636363636363
21,comedy,Brummer,M,rentier,rentiers,upper_class,"
            
BRUMMER:

            
Pscht ! Stille! Ich habb e Vöjel !

          
",10,jost-daa-im-narrehuss,11,1,0.0,0.09090909090909091
22,comedy,1. Wärter,M,custodian_(asylum),elementary_professions,lower_class,"
            
1. WÄRTER:

            
(meh fur sich unn lacht)

            
Denne hann d’anderen-au ! 
(Lütt):
 Woher isch Er denn, Mann ?

          
",11,jost-daa-im-narrehuss,26,3,0.6837132062460523,0.11538461538461539
23,comedy,Brummer,M,rentier,rentiers,upper_class,"
            
BRUMMER:

            
’s isch sicher einer üss Indie ! Awer ze briehle Sie doch nitt so! Sie verscheiche mir’ne jo schunscht !

          
",11,jost-daa-im-narrehuss,23,3,0.0,0.13043478260869565
25,comedy,Brummer,M,rentier,rentiers,upper_class,"
            
BRUMMER:

            
Pscht! Wenn’r furtfliejt, ze-n-isch’s Ihri Schuld!

          
",12,jost-daa-im-narrehuss,14,1,0.0,0.07142857142857142
27,comedy,Brummer,M,rentier,rentiers,upper_class,"
            
BRUMMER:

            
Kenne Sie guet klettere ?

          
",13,jost-daa-im-narrehuss,7,1,0.0,0.14285714285714285
29,comedy,Brummer,M,rentier,rentiers,upper_class,"
            
BRUMMER:

            
Diss isch nitt neetig! Awer e längeri Leiter miehn mir hann ! Wenn ’r in dere Zytt numme nitt furtfliejt !

          
",14,jost-daa-im-narrehuss,24,1,2.4268437142075916,0.041666666666666664
30,comedy,1. Wärter,M,custodian_(asylum),elementary_professions,lower_class,"
            
1. WÄRTER

            
(lacht):

            
Der sitzt fescht fur syn Läbdesdaa! Wie heisse Sie eijetlich ?

          
",15,jost-daa-im-narrehuss,18,3,0.0,0.16666666666666666
31,comedy,Brummer,M,rentier,rentiers,upper_class,"
            
BRUMMER:

            
Worum? Hann Sie sich viellycht mir schun vorg’stellt ?

          
",15,jost-daa-im-narrehuss,12,1,0.0,0.08333333333333333
32,comedy,1. Wärter,M,custodian_(asylum),elementary_professions,lower_class,"
            
1. WÄRTER:

            
Numme nitt uffreje, liewer Frind ! Üss wellere Abteilung sinn Sie, odder hann Sie Separat-Pension?

          
",16,jost-daa-im-narrehuss,21,2,0.0,0.09523809523809523
34,comedy,1. Wärter,M,custodian_(asylum),elementary_professions,lower_class,"
            
1. WÄRTER:

            
Nadierlich, schunscht wäre Sie jo nitt do! 
(Meh fur sich):
 Ich dhue’ ne vorlaifig isolere, bis ass ich weiss, wo’r üssgebroche-n-isch !

          
",17,jost-daa-im-narrehuss,34,1,0.0,0.029411764705882353
35,comedy,Brummer,M,rentier,rentiers,upper_class,"
            
BRUMMER:

            
Was? Üssgebroche ? Wer ? Ich ? Fur was halte Sie mich denn ?

          
",17,jost-daa-im-narrehuss,17,1,0.0,0.058823529411764705
36,comedy,1. Wärter,M,custodian_(asylum),elementary_professions,lower_class,"
            
1. WÄRTER:

            
Halte? Diss sieht m’r au so! Also los unn kein langi Plän gemacht ! 
(Er packt zue, so dass sich d’r Brummer kümm wehre kann, unn schleift’ne ins Hüss nyn.)
 

          
",18,jost-daa-im-narrehuss,40,6,0.2914633418889971,0.15
37,comedy,Brummer,M,rentier,rentiers,upper_class,"
            
BRUMMER

            
(iwerdem verzwyfelt, iwerlütt):

            
Hilf! M’r will e Verbreche-n-an mir begehn ! Hilf ! 
(Alli zwei verschwinde-n-im Hüss.)
 

          
",18,jost-daa-im-narrehuss,30,3,0.0,0.1
38,comedy,Euphrosine Bendélé,F,,,,"
            
EUPHROSINE

            
(in Huet unn Mantel ; uffgerejt vun rächts):

            
Dü liewer Gott, myn Papegei, myn lieb’s Lorele, isch mir furtg’flöje ! 
(Zuem Publikum):
 Ihr liewi Lytt, ze hälfe mir doch, myn arm’s Lorele sueche ! Was b’sinnen-Ihr Ejch, Ihr Männer ! ’s winkt Ejch e hocher Lohn, denn ich, d’Mamsell Euphrosine Bendélé, reich myni jungfrailich Hand zuem Hyroote dem wackere Held, wo mir myn Lorele widerbringt !

          
",19,jost-daa-im-narrehuss,86,12,1.5512182584993297,0.13953488372093023
39,comedy,D’Stimm vum e Papegei,U,,,,"
            
PAPEGEI:

            
’s Lorele will liewer Zucker !

          
",19,jost-daa-im-narrehuss,8,1,0.0,0.125
40,comedy,Euphrosine Bendélé,F,,,,"
            
EUPHROSINE:

            
Herrjeh, diss isch jo d’Stimm vun mym Papegei ! Wo isch’r denn ? Ah, do owe-n-uff’m Dach ! 
(Lockt):
 Kumm, Lorele, kumm scheen zue dym Frauele!

          
",20,jost-daa-im-narrehuss,40,4,0.0,0.1
41,comedy,D’Stimm vum e Papegei,U,,,,"
            
PAPEGEI

            
(lacht):

            
Was b’sinne-n-Ihr Ejch, Ihr Männer ?

          
",20,jost-daa-im-narrehuss,14,2,0.0,0.14285714285714285
42,comedy,Euphrosine Bendélé,F,,,,"
            
EUPHROSINE:

            
Er will nitt ! Ich muess partout uff’s Dach vun dem Hüss ! No kann ich myn Lorele sälwer fange

          
",21,jost-daa-im-narrehuss,23,3,0.0,0.13043478260869565
43,comedy,Brummer,M,rentier,rentiers,upper_class,"
            
BRUMMER

            
(als wietiger):

            
Was fallt Ihnne yn, mich do in e Narrehüss ynzesperre ! Ich bin doch nitt verruckt !

          
",21,jost-daa-im-narrehuss,24,2,0.0,0.08333333333333333
47,comedy,Brummer,M,rentier,rentiers,upper_class,"
            
BRUMMER:

            
Ich bin e Bekannter vum Dokter Nervich !

          
",23,jost-daa-im-narrehuss,10,2,1.95235430720332,0.2
49,comedy,Brummer,M,rentier,rentiers,upper_class,"
            
BRUMMER

            
(nemmt e Stuehl unn geht mit im 1. Wärter ze Lyeb):

            
Wenn Sie meine, ass ich verruckt bin, ze sinn Sie verruckt !

          
",24,jost-daa-im-narrehuss,29,3,0.0,0.10344827586206896
50,comedy,1. Wärter,M,custodian_(asylum),elementary_professions,lower_class,"
            
1. WÄRTER:

            
Jetzt wurd’r rabiat! Na, e gueti Kaltwasserdüsch macht’ne schun zahm ! 
(Wärft sich uff de Brummer, wo sich verzwyefelt wehrt, zejt’m Frack unn Gilet üss unn zejt ihm e’n-Anstaltsmantel an, wo am Ständer hängt. Syni Kleider hängt’r no an de Kleiderständer.)
 

          
",25,jost-daa-im-narrehuss,55,3,0.0,0.05454545454545454
51,comedy,Brummer,M,rentier,rentiers,upper_class,"
            
BRUMMER

            
(iwerdem):

            
Lonn mich doch gehn ! Hilf ! ’s isch jo numme d’r Vöjel dran schuld !

          
",25,jost-daa-im-narrehuss,21,2,0.4926492739841411,0.09523809523809523
52,comedy,1. Wärter,M,custodian_(asylum),elementary_professions,lower_class,"
            
1. WÄRTER:

            
Grad waje dem ! 
(Er stosst’ne in d’KaltwasserCabine nyn unn schliesst d’Dier ab.)
 So e Verruckter wie denne haw ich noch keine zwische de Finger g’hett!

          
",26,jost-daa-im-narrehuss,35,2,1.603035201993812,0.05714285714285714
53,comedy,Nervich Paul,M,doctor,professionals_scientific_technical,upper_class,"
            
NERVICH:

            
Was isch denn do fur e Krach ?

          
",26,jost-daa-im-narrehuss,10,1,0.0,0.1
54,comedy,1. Wärter,M,custodian_(asylum),elementary_professions,lower_class,"
            
1. WÄRTER:

            
Ich habb grad e Verruckter yng’fange, wo hett welle üssrysse, Herr Dokter ! Ich habb’ne-n-einschtwylle dort nyng’sperrt !

          
",27,jost-daa-im-narrehuss,25,5,0.6412140807975248,0.2
55,comedy,Nervich Paul,M,doctor,professionals_scientific_technical,upper_class,"
            
NERVICH:

            
Ich weiss’s ! Grad isch mir g’saat worre, ass in d’r Abteilung II vum Professer Zawlich einer fählt ! D’r Herr Professer kummt awer erscht denne-n-Oowe widder — na, m’r b’halte no halt denne Patient so lang by uns!

          
",27,jost-daa-im-narrehuss,47,7,0.45801005771251774,0.14893617021276595
56,comedy,1. Wärter,M,custodian_(asylum),elementary_professions,lower_class,"
            
1. WÄRTER:

            
Wurd gemacht, Monsieur Nervich !

          
",28,jost-daa-im-narrehuss,9,1,0.0,0.1111111111111111
57,comedy,Nervich Paul,M,doctor,professionals_scientific_technical,upper_class,"
            
NERVICH:

            
Ah, noch ebbs ! Saawe Sie doch dem neje Wärter, wo hytt yng’stellt isch worre, äss’r sich by mir vorstelle soll! Er kann mir no au glych denne do drinne vorfiehre. 
(Er zeijt uff d’Kaltwasser-Cabine.)
 

          
",28,jost-daa-im-narrehuss,46,1,0.0,0.021739130434782608
58,comedy,1. Wärter,M,custodian_(asylum),elementary_professions,lower_class,"
            
1. WÄRTER:

            
Ja, Herr Dokter ! 
(Rächts ab.)
 

          
",29,jost-daa-im-narrehuss,13,3,0.0,0.23076923076923078
59,comedy,Nervich Paul,M,doctor,professionals_scientific_technical,upper_class,"
            
NERVICH:

            
`s wundert mich doch, ass ich als noch kein Antwort habb vum Octavie syn Babbe ! Ich glabb awer, ass diss e guet’s Zeiche-n-isch, denn was lang währt, wurd endlich guet! Ah, schier hätt ich’s vergesse, ass’s Octavie mir jo denne Middaa e Visit will mache! 
(Schellt.)
 

          
",29,jost-daa-im-narrehuss,65,6,0.0,0.09230769230769231
60,comedy,2. Wärter,M,custodian_(asylum),elementary_professions,lower_class,"
            
2. WÄRTER:

            
Was beliebt, Herr Dokter ?

          
",30,jost-daa-im-narrehuss,9,3,0.0,0.3333333333333333
61,comedy,Nervich Paul,M,doctor,professionals_scientific_technical,upper_class,"
            
NERVICH:

            
Jean, denne Middaa kummt myni fiancée ! Wenn ich nitt grad do sott sinn, ze exküsiere Sie mich by’re, unn wenn s’e-n-ebbs will, ze hann Sie’re ze folje wie mir !

          
",30,jost-daa-im-narrehuss,40,1,3.206070403987624,0.025
62,comedy,2. Wärter,M,custodian_(asylum),elementary_professions,lower_class,"
            
2. WÄRTER:

            
Wurd gemacht, Herr Dokter! 
(Rächts ab.)
 

          
",31,jost-daa-im-narrehuss,14,3,0.0,0.21428571428571427
63,comedy,Nervich Paul,M,doctor,professionals_scientific_technical,upper_class,"
            
NERVICH:

            
Unn jetzt will ich in myne Kranke noch e Visit mache. 
(Will ab; in dem Moment schellt d’r Téléphone.)
 ’s telephoniert ! 
(Nemmt de Heerer ab.)
 Do isch Dokter 
 Nervich ! Wer isch dorte ? — D’ Mamsell Claire ! 
(Fur sich):
  Mon Dieu! Au noch die Säj! 
(Lütt):
 Nein, Mamsell Claire, `s isch ganz zwecklos! Sie wisse, wie ich denk ! — Was? Sie welle dohere zue mir kumme ? — Nein, diss geht nitt! — Wie ? Sie kumme doch ? Nein, ich will nitt — heere Sie ? Sinn Sie noch do? — Au diss noch! Sie hett schun yng’hängt! 
(Hängt de Heerer yn.)
 Diss fählt mir jetzt grad! Uff Schritt unu Tritt verfoljt mich jetzt diss Mensch mit syne-n-Andräj, obwohl ich gar nix vun’re wisse will. Sie isch rein verschosse-n-in mich — sozesaawe Liewes-Wahnsinn ! Ich muess’re doch emool e’n-eklatante Bewyes gänn, ass s’e mir Wurscht isch ! 
(Schellt.)
 

          
",31,jost-daa-im-narrehuss,198,13,0.40440077097890625,0.06565656565656566
64,comedy,1. Wärter,M,custodian_(asylum),elementary_professions,lower_class,"
            
1. WÄRTER:

            
D’r Herr Dokter hett g’schellt !

          
",32,jost-daa-im-narrehuss,9,2,0.0,0.2222222222222222
65,comedy,Nervich Paul,M,doctor,professionals_scientific_technical,upper_class,"
            
NERVICH:

            
Horiche Sie, Léon : ’s kummt glych e Mamsell, wo mit mir redde will; ich habb awer kein Luscht dezue. Bref, wenn s’e kummt, ze gänn Sie’re so richtig ze verstehn, ass s’e mir g’stohle kann wäre, so ass s’e’s Widderkumme vergesst.

          
",32,jost-daa-im-narrehuss,57,3,1.4588175021604586,0.05263157894736842
66,comedy,1. Wärter,M,custodian_(asylum),elementary_professions,lower_class,"
            
1. WÄRTER:

            
Herr Dokter, verlonn Sie sich ganz uff mich ! 
(Rächts ab)
.

          
",33,jost-daa-im-narrehuss,18,5,0.0,0.2777777777777778
67,comedy,Nervich Paul,M,doctor,professionals_scientific_technical,upper_class,"
            
NERVICH:

            
So, unn jetzt g’schwind an d’Arweit! 
(Links ab.)
 

          
",33,jost-daa-im-narrehuss,16,1,0.0,0.0625
68,comedy,Euphrosine Bendélé,F,,,,"
            
EUPHROSINE:

            
Diss isch mir noch e scheeni Uffsicht fur e Narre-Hüss ! Kein Seel haw ich g’sähn, unn ich muess doch myn lieb’s Lorele widder hann! 
(Sie luejt zuem Fenschter nüss uff’s Dach.)
 

          
",34,jost-daa-im-narrehuss,41,4,0.0,0.0975609756097561
69,comedy,2. Wärter,M,custodian_(asylum),elementary_professions,lower_class,"
            
2. WÄRTER:

            
(fur sich)

            
Wie isch denn die do ryngewitscht? Diss isch ohne Zwyefel im Herr Dokter syni fiancée ! Heiliché, muess die e Hüffe Geld hann, ass sich d’r Herr Dokter in diss alt Kaliwer vergafft hett !

          
",34,jost-daa-im-narrehuss,45,5,0.0,0.1111111111111111
70,comedy,Euphrosine Bendélé,F,,,,"
            
EUPHROSINE

            
(drähjt sich erum):

            
Ah, do isch jo endlich ebber.

          
",35,jost-daa-im-narrehuss,15,1,0.0,0.06666666666666667
71,comedy,2. Wärter,M,custodian_(asylum),elementary_professions,lower_class,"
            
2. WÄRTER:

            
Mademoiselle, Sie exküsiere, d’r Herr Dokter macht grad Visit !

          
",35,jost-daa-im-narrehuss,15,4,1.506611170721154,0.26666666666666666
72,comedy,Euphrosine Bendélé,F,,,,"
            
EUPHROSINE:

            
Diss isch mir egal! Ich will uff’s Dach steje !

          
",36,jost-daa-im-narrehuss,14,1,0.0,0.07142857142857142
73,comedy,2. Wärter,M,custodian_(asylum),elementary_professions,lower_class,"
            
2. WÄRTER

            
(fur sich):

            
Im Herr Dokter ? 
(Lütt):
 Sie wäre doch nitt!

          
",36,jost-daa-im-narrehuss,20,3,0.6837132062460523,0.15
74,comedy,Euphrosine Bendélé,F,,,,"
            
EUPHROSINE:

            
0, ’s isch e scheener Vöjel!

          
",37,jost-daa-im-narrehuss,10,1,0.0,0.1
75,comedy,2. Wärter,M,custodian_(asylum),elementary_professions,lower_class,"
            
2. WÄRTER:

            
(fur sich)

            
Sicher hett s’e de Herr Dokter mit’re andere verwitscht! Na, ich kann’s ihm nitt in iwel nemme !

          
",37,jost-daa-im-narrehuss,29,4,0.0,0.13793103448275862
76,comedy,Euphrosine Bendélé,F,,,,"
            
EUPHROSINE:

            
Unn er hett allewyl so scheen babble kenne!

          
",38,jost-daa-im-narrehuss,11,2,0.0,0.18181818181818182
77,comedy,2. Wärter,M,custodian_(asylum),elementary_professions,lower_class,"
            
2. WÄRTER

            
(fur sich):

            
E Wunder, wenn s’e viel Glüwes hett !

          
",38,jost-daa-im-narrehuss,17,2,1.0684377992164509,0.11764705882352941
80,comedy,Euphrosine Bendélé,F,,,,"
            
EUPHROSINE:

            
Er isch mir als uff d’Achsel g’huckt...

          
",40,jost-daa-im-narrehuss,11,1,0.0,0.09090909090909091
83,comedy,2. Wärter,M,custodian_(asylum),elementary_professions,lower_class,"
            
2. WÄRTER

            
(fur sich):

            
Als besser, als wenn s’e d’r Herr Dokter uff’s Müll hätt g’schmutzt !

          
",41,jost-daa-im-narrehuss,23,4,0.0,0.17391304347826086
84,comedy,Euphrosine Bendélé,F,,,,"
            
EUPHROSINE:

            
Ich habb’m awer ze viel Frejheite gelonn, unn so isch’s kumme, ass’r mir durich d’Lumpe isch !

          
",42,jost-daa-im-narrehuss,24,2,1.7718605453439495,0.08333333333333333
85,comedy,2. Wärter,M,custodian_(asylum),elementary_professions,lower_class,"
            
2. WÄRTER

            
(fur sich):

            
D’r Herr Dokter hett gewisst, was’r macht !

          
",42,jost-daa-im-narrehuss,16,3,0.9401247596323307,0.1875
86,comedy,Euphrosine Bendélé,F,,,,"
            
EUPHROSINE:

            
Awer ich bekumm’ne widder! Ich weiss, wo’r isch! Hann Sie alli Schlissel vum Hüss ?

          
",43,jost-daa-im-narrehuss,20,1,0.0,0.05
87,comedy,2. Wärter,M,custodian_(asylum),elementary_professions,lower_class,"
            
2. WÄRTER:

            
Gewiss, Mademoiselle ! 
(Fur sich):
 Armer Herr Dokter !

          
",43,jost-daa-im-narrehuss,16,3,0.0,0.1875
88,comedy,Euphrosine Bendélé,F,,,,"
            
EUPHROSINE:

            
Na, ze kumme Sie mit mir!

          
",44,jost-daa-im-narrehuss,10,1,0.0,0.1
89,comedy,2. Wärter,M,custodian_(asylum),elementary_professions,lower_class,"
            
2. WÄRTER

            
(fur sich):

            
In Gott’s Namme denn ! Ich muess’re folje — d’r Herr Dokter hett’s jo g’saat ! 
(Geht d’r Euphrosine nooch, wo nooch links ab isch gange.)
 

          
",44,jost-daa-im-narrehuss,39,3,0.91485105720981,0.07692307692307693
90,comedy,Narr,M,,,,"
            
NARR

            
(in Anstaltsmantel, macht vorsichtig d’Dier uff, kummt no eryng’stirmt unn hüpst im Zimmer unn uff de Stiehl unn uff’m Schryebdisch erum):

            
Tahitata ! Ich bin frej — ich bin’ne üssgerisse! Ich bin nitt verruckt, awer alli andere sinn gebiekt — sogar d’r Herr Professer ! — Tahitata ! Do hänge Kleider — die zej ich an unn no kann ich unscheniert vun do verschwinde ! 
(Zejt de Frack unns Gilet vum Brummer an unn hängt synen-Anstaltsmantel an de Ständer.)
 Tahitata! Ich bin d’r Kinni vun Siam unn erklär jetzt in alle Natione de Kriej ! 
(Gryfft in de Sack vum Frack unn langt e Brief erüss, wo’r läst):
 Was isch diss? — «Werter Herr Brummer! Obwohl Ihnen noch unbekannt — Fräulein Tochter kennen und schätzen gelernt — bitte ich um die Hand von Fräulein Oktavie — Hochachtend Dokter Nervich.» Diss isch jo d’r Dokter vun dere-n-Abteilung ! — Grosser Gott, ’s kummt ebber! Was mache ? Halt, e’nldee! In dere-n-Abteilung kennt mich jo niemand I 
(Setzt sich uff e Stuehl.)
 

          
",45,jost-daa-im-narrehuss,204,23,0.3616969147114744,0.11274509803921569
91,comedy,Nervich Paul,M,doctor,professionals_scientific_technical,upper_class,"
            
NERVICH

            
(fur sich):

            
Do isch schynnt’s Visit kumme !

          
",45,jost-daa-im-narrehuss,13,1,0.0,0.07692307692307693
92,comedy,Narr,M,,,,"
            
NARR:

            
(steht uff)

            
Myn Namme-n-isch Brummer !

          
",46,jost-daa-im-narrehuss,12,2,0.0,0.16666666666666666
93,comedy,Nervich Paul,M,doctor,professionals_scientific_technical,upper_class,"
            
NERVICH:

            
Dokter Nervich ! Fraid mich, Sie kenne ze lehre ! 
(Fur sich):
 Wie wurd d’Antwort üssfalle ?

          
",46,jost-daa-im-narrehuss,24,4,0.0,0.16666666666666666
94,comedy,Narr,M,,,,"
            
NARR:

            
Sie hann mir g’schriwe ... 
(Zeijt de Brief.)
 

          
",47,jost-daa-im-narrehuss,13,1,0.0,0.07692307692307693
95,comedy,Nervich Paul,M,doctor,professionals_scientific_technical,upper_class,"
            
NERVICH:

            
Gewiss, Monsieur Brummer, unn ich hoff, ass Sie mir kenn Absaa bringe !

          
",47,jost-daa-im-narrehuss,18,1,0.0,0.05555555555555555
96,comedy,Narr,M,,,,"
            
NARR

            
(fur sich):

            
Wenn ich numme schun drüsse wär! 
(Lütt):
 Herr Dokter, halte Sie mich fur verruckt, wenn ich Ihnne myni Dochter gibb ?

          
",48,jost-daa-im-narrehuss,33,7,0.2930199455340224,0.21212121212121213
97,comedy,Nervich Paul,M,doctor,professionals_scientific_technical,upper_class,"
            
NERVICH:

            
Awer ganz unn gar nitt.

          
",48,jost-daa-im-narrehuss,8,1,0.0,0.125
98,comedy,Narr,M,,,,"
            
NARR

            
(vergesst sich):

            
Tahitata !

          
",49,jost-daa-im-narrehuss,8,1,0.0,0.125
99,comedy,Nervich Paul,M,doctor,professionals_scientific_technical,upper_class,"
            
NERVICH.:

            
Wie meine Sie !

          
",49,jost-daa-im-narrehuss,7,1,0.0,0.14285714285714285
100,comedy,Narr,M,,,,"
            
NARR:

            
Ich? Ich habb nix g’saat! — Also guet, Sie solle myni Dochter hann !

          
",50,jost-daa-im-narrehuss,19,3,0.0,0.15789473684210525
101,comedy,Nervich Paul,M,doctor,professionals_scientific_technical,upper_class,"
            
NERVICH

            
(umarmt’ne):

            
Merci, liewer Schwejerbabbe !

          
",50,jost-daa-im-narrehuss,10,1,0.0,0.1
102,comedy,Narr,M,,,,"
            
NARR:

            
Schun guet! D’r Kinni vun Siam kann sich diss leischte !

          
",51,jost-daa-im-narrehuss,14,3,0.0,0.21428571428571427
104,comedy,Narr,M,,,,"
            
NARR:

            
Ich? O, gar nix!

          
",52,jost-daa-im-narrehuss,9,1,0.0,0.1111111111111111
105,comedy,1. Wärter,M,custodian_(asylum),elementary_professions,lower_class,"
            
1. WÄRTER

            
(mit Brief):

            
Do isch d’Poscht, Herr Dokter!

          
",52,jost-daa-im-narrehuss,15,2,0.0,0.13333333333333333
106,comedy,Nervich Paul,M,doctor,professionals_scientific_technical,upper_class,"
            
NERVICH:

            
’s isch guet ! Ich mecht awer nimmi g’steert sinn — d’r Monsieur Brummer, myn zuekinftiger Schwejerbabbe-n-isch by mir! 
(Er zeijt uff de Narr.)
 

          
",53,jost-daa-im-narrehuss,33,3,0.0,0.09090909090909091
107,comedy,1. Wärter,M,custodian_(asylum),elementary_professions,lower_class,"
            
1. WÄRTER:

            
’s isch rächt, Herr Dokter ! 
(Rächts ab.)
 

          
",53,jost-daa-im-narrehuss,15,3,0.0,0.2
108,comedy,Narr,M,,,,"
            
NARR:

            
Unn wie wär’s jetzt, myn Liewer ? Hann Sie nix fur mit anzestosse an so’me Fraidedaa, wo ich die Säj los bin ?

          
",54,jost-daa-im-narrehuss,29,3,0.5829266837779942,0.10344827586206896
110,comedy,Narr,M,,,,"
            
NARR

            
(vergelschtert fur sich):

            
Schier hätt ich mich verschnappt ! Ich habb d’G’fangeschaft gemeint! 
(Lütt):
 Allewäj!... ich habb unseri hyttig Rucksprooch gemeint, wo mir schun lang uff’m Maawe geläje-n-isch !

          
",55,jost-daa-im-narrehuss,44,5,0.41022792374763134,0.11363636363636363
111,comedy,Nervich Paul,M,doctor,professionals_scientific_technical,upper_class,"
            
NERVICH:

            
Ah so! Ze will ich g’schwind e guet’s Fläschel b’stelle gehn ! 
(Fur sich):
 Er isch gar nitt so iwel, wie ’s Oktavie als saat! E bissel komisch isch’r jo, awer ’s isch widder emool e Bewyes defür, ass sogar d’r normalscht Mensch pathologisch veranlaat isch ! 
(Links ab.)
 

          
",55,jost-daa-im-narrehuss,63,5,0.4999801888025089,0.07936507936507936
112,comedy,Narr,M,,,,"
            
NARR:

            
Tahitata! Denne Narr bin ich los! Jetzt wurd’s Zytt, ass sich d’r Kinni vun Siam üss’m Staub macht! 
(Will rächts ab.)
 Wer kummt denn do ?

          
",56,jost-daa-im-narrehuss,37,4,1.1422885825577436,0.10810810810810811
113,comedy,Euphrosine Bendélé,F,,,,"
            
EUPHROSINE:

            
Vun mym Papegei isch kein Spür ze sähn ! Awer finde muess ich’ne !

          
",56,jost-daa-im-narrehuss,16,1,0.0,0.0625
114,comedy,1. Wärter,M,custodian_(asylum),elementary_professions,lower_class,"
            
1. WÄRTER

            
(gepressiert unn ohne-n-uff d’Euphrosine ze-n-achte):

            
Pardon, Monsieur Brummer, wisse Sie, wo d’r Herr Dokter isch ? Ich brüch e Rezept vun’m.

          
",57,jost-daa-im-narrehuss,36,4,0.0,0.1111111111111111
115,comedy,Narr,M,,,,"
            
NARR:

            
Er isch grad dort nüss! 
(Zeijt nooch links, 1. Wärter links ab.)
 

          
",57,jost-daa-im-narrehuss,19,2,1.603035201993812,0.10526315789473684
116,comedy,Euphrosine Bendélé,F,,,,"
            
EUPHROSINE

            
(fur sich):

            
Haw ich rächt g’heert ? 
(Lütt):
 Sie sinn d’r Monsieur Brummer ?

          
",58,jost-daa-im-narrehuss,21,2,1.0255698093690784,0.09523809523809523
117,comedy,Narr,M,,,,"
            
NARR

            
(fur sich):

            
Was will denn diss Muschter vun mir ? 
(Lütt):
 Allerdings, ich muess’s zuegänn!

          
",58,jost-daa-im-narrehuss,25,2,1.0255698093690784,0.08
118,comedy,Euphrosine Bendélé,F,,,,"
            
EUPHROSINE:

            
Wie mich diss fraid ! Ich bin nämlich d’ Mamsell Euphrosine Bendélé ! Mir hann uns doch denne Oowe welle perseenlich kenne lehre, fur iwer unseri Hyroot ze redde !

          
",59,jost-daa-im-narrehuss,33,2,0.0,0.06060606060606061
119,comedy,Narr,M,,,,"
            
NARR:

            
(fur sich)

            
Tahitata! So verruckt bin ich jetzt doch nitt ! 
(Lütt):
 Stimmt, Mademoiselle! Ich bin nämlich grad do bym Dokter, fur’ne ze konsültiere, ob ich d’neetig Verrucktheit fur’s Hyroote habb !

          
",59,jost-daa-im-narrehuss,46,7,1.2357172659233224,0.15217391304347827
120,comedy,Euphrosine Bendélé,F,,,,"
            
EUPHROSINE:

            
Ich bin au ganz verruckt üss lütter Lieb ! Ich kann’s kümm verwarte !

          
",60,jost-daa-im-narrehuss,17,4,0.0,0.23529411764705882
121,comedy,Narr,M,,,,"
            
NARR:

            
’s isch jo nimm lang bis denne-n-Oowe !

          
",60,jost-daa-im-narrehuss,12,2,0.0,0.16666666666666666
122,comedy,Euphrosine Bendélé,F,,,,"
            
EUPHROSINE:

            
Ze will ich mich so lang noch beherrsche ! Zuedem haw ich noch Arweit in dem Hüss. Also, au revoir, myn Liewer !

          
",61,jost-daa-im-narrehuss,28,4,0.0,0.14285714285714285
123,comedy,Narr,M,,,,"
            
NARR

            
(fur sich):

            
Nein, d’r Kinni vun Siam geht nitt in d’Sklaverej !

          
",61,jost-daa-im-narrehuss,18,2,0.0,0.1111111111111111
124,comedy,Narr,M,,,,"
            
NARR:

            
Tahitata ! Ich bin s’e los! Unn ich geh jetzt au los! 
(Will rächts ab.)
 

          
",62,jost-daa-im-narrehuss,23,3,2.3317067351119767,0.13043478260869565
125,comedy,Narr,M,,,,"
            
NARR:

            
(fur sich)

            
E Heilich, ich bin verlore !

          
",62,jost-daa-im-narrehuss,13,3,1.3333151366266576,0.23076923076923078
126,comedy,3. Wärter,M,custodian_(asylum),elementary_professions,lower_class,"
            
3. WÄRTER:

            
Herr Dokter, ich bin d’r nej Wärter !

          
",63,jost-daa-im-narrehuss,12,2,0.0,0.16666666666666666
127,comedy,Narr,M,,,,"
            
NARR

            
(fur sich):

            
Tahitata! D’r Thron vun Siam isch gerett ! 
(Lütt)
 : Guet ! Scheen ! 
(Fur sich):
 E’n-Idee! Der Wärter muess mir helfe, ass ich glicklich üss dem Keffi kumm ! 
(Lütt):
 Sie kenne glych emool zeije, was Sie

          
",63,jost-daa-im-narrehuss,57,9,0.9116176083280697,0.15789473684210525
128,comedy,3. Wärter,M,custodian_(asylum),elementary_professions,lower_class,"
            
3. WÄRTER:

            
Diss will ich meine, Herr Dokter !

          
",64,jost-daa-im-narrehuss,11,3,0.0,0.2727272727272727
129,comedy,Narr,M,,,,"
            
NARR:

            
Lonn Sie sich uff nix yn, was’r au saat !

          
",64,jost-daa-im-narrehuss,13,4,0.8712998729952066,0.3076923076923077
131,comedy,Nervich Paul,M,doctor,professionals_scientific_technical,upper_class,"
            
NERVICH:

            
So, liewer Schwejerbabbe, d’r Wyn kummt glych!

          
",65,jost-daa-im-narrehuss,12,1,0.0,0.08333333333333333
132,comedy,Narr,M,,,,"
            
NARR

            
(zuem Wärter):

            
Diss isch’r !

          
",66,jost-daa-im-narrehuss,9,1,0.0,0.1111111111111111
133,comedy,Nervich Paul,M,doctor,professionals_scientific_technical,upper_class,"
            
NERVICH

            
(zuem Wärter):

            
Wer sinn Sie? Ich habb Sie noch nitt g’sähn, zydder ass ich do hinne Dokter bin !

          
",66,jost-daa-im-narrehuss,25,1,0.0,0.04
134,comedy,3. Wärter,M,custodian_(asylum),elementary_professions,lower_class,"
            
3. WÄRTER

            
(zuem Narr):

            
Denne soll’s nitt hann! 
(Lütt zuem Nervich):
 Was isch, gehn Sie guetwillig mit odder nitt ?

          
",67,jost-daa-im-narrehuss,29,2,1.0255698093690784,0.06896551724137931
135,comedy,Nervich Paul,M,doctor,professionals_scientific_technical,upper_class,"
            
NERVICH:

            
Was soll diss heisse ? Ich glabb, Sie sinn verruckt !

          
",67,jost-daa-im-narrehuss,14,2,0.0,0.14285714285714285
136,comedy,3. Wärter,M,custodian_(asylum),elementary_professions,lower_class,"
            
3. WÄRTER:

            
E Verruckter luejt alli G’scheite fur verruckt an! — Allez-hopp, Männel, als do nyn g’spaziert 
(macht d’Gummizell uff)
.

          
",68,jost-daa-im-narrehuss,28,6,0.47006237981616533,0.21428571428571427
138,comedy,Narr,M,,,,"
            
NARR

            
(zuem Nervich):

            
’s isch guet fur Ihri G’sundheit !

          
",69,jost-daa-im-narrehuss,13,3,0.0,0.23076923076923078
139,comedy,Nervich Paul,M,doctor,professionals_scientific_technical,upper_class,"
            
NERVICH:

            
Ich habb jo g’saat, ass’r pathologisch isch ! Ihr sinn alli zwei meschugge !

          
",69,jost-daa-im-narrehuss,17,1,0.0,0.058823529411764705
140,comedy,3. Wärter,M,custodian_(asylum),elementary_professions,lower_class,"
            
3. WÄRTER

            
(zuem Narr):

            
Ich will’s kurz mache, Herr Dokter! 
(Packt de Nervich unn zerrt’ne-n-an d’Cabine)
.

          
",70,jost-daa-im-narrehuss,28,3,0.0,0.10714285714285714
141,comedy,Nervich Paul,M,doctor,professionals_scientific_technical,upper_class,"
            
NERVICH:

            
Was, Herr Dokter ! Ich bin dohinne d’r Dokter !

          
",70,jost-daa-im-narrehuss,13,3,0.0,0.23076923076923078
142,comedy,Narr,M,,,,"
            
NARR

            
(hälft au):

            
Tahitata ! Diss kenne Sie de Gummiwänd do hinne verzehle !

          
",71,jost-daa-im-narrehuss,17,1,0.0,0.058823529411764705
143,comedy,Nervich Paul,M,doctor,professionals_scientific_technical,upper_class,"
            
NERVICH:

            
Jesses, im Octavie syn Babbe-n-isch wohrhaftig verruckt worre ! — Hilf! E Revolt im Narrehüss !

          
",71,jost-daa-im-narrehuss,22,6,0.0,0.2727272727272727
144,comedy,3. Wärter,M,custodian_(asylum),elementary_professions,lower_class,"
            
3. WÄRTER

            
(gitt im Nervich e Stoss, so ass’r in d’Cabine nynfliejt, schlaat d’Dier zue unn schliesst ab):

            
So, der wär uffg’hebbt !

          
",72,jost-daa-im-narrehuss,31,1,0.0,0.03225806451612903
145,comedy,Narr,M,,,,"
            
NARR:

            
(fur sich)

            
Uun jetzt nix als wie ab ! 
(Lütt)
 : Ich geh’ e Commission mache ! 
(Zejt de Pardessü unn de Huet an, wo am Ständer hänge)
.

          
",72,jost-daa-im-narrehuss,38,3,0.6837132062460523,0.07894736842105263
146,comedy,3. Wärter,M,custodian_(asylum),elementary_professions,lower_class,"
            
3. WÄRTER:

            
Ich soll im Herr Dokter doch noch denne Patient vorfiehre, wo üss d’r Abteilung II üssgerisse-n-isch !

          
",73,jost-daa-im-narrehuss,23,2,0.0,0.08695652173913043
147,comedy,Narr,M,,,,"
            
NARR

            
(fur sich):

            
Tahitata! Diss wär jo no ich! Denne muess ich kenne lehre ! 
(Lütt):
 Na, in Gott’s Namme denn!

          
",73,jost-daa-im-narrehuss,32,4,1.1989231975918968,0.125
148,comedy,Brummer,M,rentier,rentiers,upper_class,"
            
BRUMMER

            
(wietig):

            
Endlich! Ich bin nass bis unter d’Hütt ! Sinn Sie d’r Dokter Nervich ?

          
",74,jost-daa-im-narrehuss,21,4,0.0,0.19047619047619047
149,comedy,Narr,M,,,,"
            
NARR:

            
Allerdings, Monsieur. ...

          
",74,jost-daa-im-narrehuss,7,1,0.0,0.14285714285714285
150,comedy,Narr,M,,,,"
            
NARR

            
(für sich):

            
Jesses, der Schwejeres vum Dokter! 
(Lütt)
 : Ah, Sie sinn d’r Babbe vun mym Octavie !

          
",75,jost-daa-im-narrehuss,27,5,0.41022792374763134,0.18518518518518517
151,comedy,Brummer,M,rentier,rentiers,upper_class,"
            
BRUMMER:

            
Sie kumme mir grad g’schliche! Ich hätt’ne jo myni Dochter sowieso nitt gänn ; nooch dere Behandlung awer bekumme Sie s’e erscht erächt nitt! 
(D’r Wärter macht sich in dere Zytt im Zimmer ze schaffe; er kann uffrümme, etc.)
 .

          
",75,jost-daa-im-narrehuss,49,6,1.004407447147436,0.12244897959183673
152,comedy,Narr,M,,,,"
            
NARR:

            
Ich gibb Ihnne myn Wort, ass ich nix defur kann !

          
",76,jost-daa-im-narrehuss,14,2,0.0,0.14285714285714285
153,comedy,Brummer,M,rentier,rentiers,upper_class,"
            
BRUMMER:

            
Do isch e Gaunerej im Spiel! Wyll Sie sich hann denke kenne, ass ich geje d’Hyroot bin, hann Sie mich einfach dohinne welle verschwinde mache! Unn myn Geld hätte Sie no au g’hett!

          
",76,jost-daa-im-narrehuss,41,5,0.0,0.12195121951219512
154,comedy,Narr,M,,,,"
            
NARR

            
(fur sich):

            
Der isch gar nitt so verruckt ! So isch’s schun gemacht worre. 
(Lütt):
 Bon, ich gibb zue, ass e Fähler gemacht isch worre, unn will’ne au widder guet mache, wenn Sie mir Ihri Dochter gänn !

          
",77,jost-daa-im-narrehuss,51,9,0.22790440208201743,0.17647058823529413
155,comedy,Brummer,M,rentier,rentiers,upper_class,"
            
BRUMMER:

            
Im Läwe nie!

          
",77,jost-daa-im-narrehuss,6,1,2.773417304487564,0.16666666666666666
156,comedy,Narr,M,,,,"
            
NARR:

            
No kumme Sie nimmi üss dem Hüss erüss. 
(Fur sich)
 : Die do hinne solle-n-an mich denke!

          
",78,jost-daa-im-narrehuss,25,3,0.0,0.12
157,comedy,Brummer,M,rentier,rentiers,upper_class,"
            
BRUMMER:

            
No geh ich uff d’ Polizej unn ....

          
",78,jost-daa-im-narrehuss,10,1,0.0,0.1
158,comedy,Narr,M,,,,"
            
NARR:

            
Awer ohne myne Wille nitt ! — Wärter, fiehre Sie’ne widder ab ! 
(D’r 3. Wärter will’s mache)
.

          
",79,jost-daa-im-narrehuss,25,2,1.5808478635579113,0.08
159,comedy,Brummer,M,rentier,rentiers,upper_class,"
            
BRUMMER:

            
Nein, numme diss nitt! 
(Fur sich):
 O, was muess ich erläwe! Wenn ich’m de Wille nitt mach, ze bin ich verlore !

          
",79,jost-daa-im-narrehuss,33,1,0.0,0.030303030303030304
160,comedy,Narr,M,,,,"
            
NARR:

            
Na, wie steht’s ?

          
",80,jost-daa-im-narrehuss,8,1,0.0,0.125
161,comedy,Brummer,M,rentier,rentiers,upper_class,"
            
BRUMMER:

            
Was blyet mir iwrig! Nemme Sie myntwäje myni Dochter !

          
",80,jost-daa-im-narrehuss,13,1,0.0,0.07692307692307693
162,comedy,Narr,M,,,,"
            
NARR:

            
No gänn Sie mir’s grad do schriftlich !

          
",81,jost-daa-im-narrehuss,11,3,1.0686901346625415,0.2727272727272727
163,comedy,Brummer,M,rentier,rentiers,upper_class,"
            
BRUMMER:

            
So e Gaunerej ! 
(Schryebt.)
 ’s reinscht Middelalter ! 
(Gitt im Narr `s Schrywe):
 So, diss wurd lange !

          
",81,jost-daa-im-narrehuss,28,2,0.0,0.07142857142857142
164,comedy,Narr,M,,,,"
            
NARR

            
(leijt’s uff de Schryebdisch):

            
Merci, cher beau-père ! D’r Wärter b’sorjt Ihnne Ihri Kleider ! 
(Fur sich)
 : Jetzt wurd’s brenzlich ! Tahitata ! 
(Rächts ab.)
 

          
",82,jost-daa-im-narrehuss,38,2,0.0,0.05263157894736842
165,comedy,3. Wärter,M,custodian_(asylum),elementary_professions,lower_class,"
            
3. WÄRTER

            
(zuem Brummer):

            
Ich will sähn, ass ich Ihri Kleider find ! 
(Links ab.)
 

          
",82,jost-daa-im-narrehuss,22,1,0.0,0.045454545454545456
166,comedy,Brummer,M,rentier,rentiers,upper_class,"
            
BRUMMER

            
(gebroche):

            
Isch denn so ebbs in unserer Zytt noch mejlich! Na, wenn ich üss dem Narrehüss, drüsse bin, ze will ich’s dem nowle Fitzer schun zeije !

          
",83,jost-daa-im-narrehuss,36,2,0.0,0.05555555555555555
167,comedy,Nervich Paul,M,doctor,professionals_scientific_technical,upper_class,"
            
NERVICH

            
(fur sich):

            
’s isch doch guet, ass unsereiner uff so Fäll vorg’sähn isch unn ich de Schlissel by mir habb g’hett ! 
(Sieht de Brummer):
 Was isch denn diss fur e Patient ? Denne haw ich noch nitt by mir g’sähn !

          
",83,jost-daa-im-narrehuss,50,3,0.0,0.06
168,comedy,Brummer,M,rentier,rentiers,upper_class,"
            
BRUMMER:

            
(vergelschtert fur sich)

            
Grosser Gott, do brächt jo e Verruckter üss !

          
",84,jost-daa-im-narrehuss,17,2,1.372276585814715,0.11764705882352941
170,comedy,Brummer,M,rentier,rentiers,upper_class,"
            
BRUMMER:

            
(fur sich)

            
D’Verruckte muess m’r zart behandle! 
(Lütt):
 Myn Namme isch Brummer, unn ich bin d’r Schwejerbabbe vum Dokter Nervich !

          
",85,jost-daa-im-narrehuss,31,5,0.41022792374763134,0.16129032258064516
171,comedy,Nervich Paul,M,doctor,professionals_scientific_technical,upper_class,"
            
NERVICH:

            
(fur sich)

            
Diss isch e ganz hoffnungsloser Fall! 
(Lütt, lacht):
 Wer sinn Sie? De Monsieur Brummer kenn ich besser ! Unn d’r Dokter Nervich bin ich sälwer!

          
",85,jost-daa-im-narrehuss,38,6,0.3418566031230261,0.15789473684210525
172,comedy,Brummer,M,rentier,rentiers,upper_class,"
            
BRUMMER,:

            
(fur sich)

            
’s isch doch trürich, wemm’r so komplett verruckt isch ! 
(Lütt):
 De Dokter Nervich kenn ich leider besser !

          
",86,jost-daa-im-narrehuss,30,6,0.3418566031230261,0.2
173,comedy,Nervich Paul,M,doctor,professionals_scientific_technical,upper_class,"
            
NERVICH:

            
Ich verbitt mir diss ! Sie sinn verruckt unn nitt ich ! Ich loss’ne glych e Kaltwasserdüsch gänn ! 
(Will de Brummer packe, wo im Zimmer erumrennt)
.

          
",86,jost-daa-im-narrehuss,33,2,0.0,0.06060606060606061
174,comedy,Brummer,M,rentier,rentiers,upper_class,"
            
BRUMMER:

            
Wer do de Verstand nitt verliert, hett keine meh ze verliere !

          
",87,jost-daa-im-narrehuss,15,2,0.0,0.13333333333333333
175,comedy,Nervich Paul,M,doctor,professionals_scientific_technical,upper_class,"
            
NERVICH:

            
Do hinne geht’s jo hytt zue wie im e Narrehüss!

          
",87,jost-daa-im-narrehuss,14,1,0.0,0.07142857142857142
178,comedy,3. Wärter,M,custodian_(asylum),elementary_professions,lower_class,"
            
3. WÄRTER

            
(packt de Nervich, nemmt’m de Schlissel ab unn stosst’ne an d’Cabine):

            
So, de Schlissel haw ich ! Diss isch jo e ganz G’fährlicher !

          
",89,jost-daa-im-narrehuss,33,2,0.0,0.06060606060606061
179,comedy,Nervich Paul,M,doctor,professionals_scientific_technical,upper_class,"
            
NERVICH:

            
Ich saa’s Ejch jetzt im Ernscht: Ich bin d’r Dokter Nervich ! Der dort awer isch verruckt!

          
",89,jost-daa-im-narrehuss,22,3,0.0,0.13636363636363635
183,comedy,3. Wärter,M,custodian_(asylum),elementary_professions,lower_class,"
            
3. WÄRTER

            
(hett’ne-n-in d’r Cabine unn macht zue):

            
So Kräfte kann numme-n-e Verruckter hann ! 
(Links ab)
.

          
",91,jost-daa-im-narrehuss,27,3,0.9401247596323307,0.1111111111111111
184,comedy,Brummer,M,rentier,rentiers,upper_class,"
            
BRUMMER:

            
Hoffetlich losst ’r mich nitt lang ellein, denn do hinne wurd m’r noch g’schosse !

          
",92,jost-daa-im-narrehuss,18,3,0.0,0.16666666666666666
185,comedy,1. Wärter,M,custodian_(asylum),elementary_professions,lower_class,"
            
1. WÄRTER

            
(zeijt uff de Brummer):

            
Der isch jo nimmi yng’sperrt ? Ich habb doch gemeint, ich habb d’ Dier guet zuegemacht ! Als widder nyn mit’m! 
(Er will de Brummer packe.)
 

          
",92,jost-daa-im-narrehuss,41,3,0.0,0.07317073170731707
186,comedy,Brummer,M,rentier,rentiers,upper_class,"
            
BRUMMER,

            
(wycht zeruck):

            
Ich bitt Sie, ich bin doch d’r Monsieur Brummer !

          
",93,jost-daa-im-narrehuss,18,1,0.0,0.05555555555555555
187,comedy,1. Wärter,M,custodian_(asylum),elementary_professions,lower_class,"
            
1. WÄRTER:

            
(lacht)

            
Denne kenn ich besser !

          
",93,jost-daa-im-narrehuss,11,1,0.0,0.09090909090909091
188,comedy,Brummer,M,rentier,rentiers,upper_class,"
            
BRUMMER:

            
Ich bin doch d’r Schwejervadder vum Dokter Nervich !

          
",94,jost-daa-im-narrehuss,11,1,0.0,0.09090909090909091
189,comedy,1. Wärter,M,custodian_(asylum),elementary_professions,lower_class,"
            
1. WÄRTER

            
(fur sich):

            
Der Kaib hett in d’r Cabine alles mitang’heert, was vorig do hüsse gebabbelt isch worre. Als widder nyn mit’m! 
(Er packt de Brummer; der wehrt sich, rueft wm Hilf, wurd awer doch in d’Cabine nyng’spediert)
.

          
",94,jost-daa-im-narrehuss,53,1,0.0,0.018867924528301886
190,comedy,Brummer,M,rentier,rentiers,upper_class,"
            
BRUMMER

            
(als letscht’s Wort):

            
Diss isch widder e nejer Streich vun mym süfere Herr Dochtermann !

          
",95,jost-daa-im-narrehuss,20,3,0.0,0.15
191,comedy,1. Wärter,M,custodian_(asylum),elementary_professions,lower_class,"
            
1. WÄRTER:

            
Hoffnungsloser Verfolgungswahnsinn !

          
",95,jost-daa-im-narrehuss,6,1,0.0,0.16666666666666666
192,comedy,Oktavie,F,,,,"
            
OKTAVIE:

            
Ah, endlich losst sich emool ebber blicke! 
(Zuem 1. Wärter):
 Ich bin d’Mamsell Oktavie — d’r Herr Dokter erwart mich!

          
",96,jost-daa-im-narrehuss,29,5,0.0,0.1724137931034483
193,comedy,1. Wärter,M,custodian_(asylum),elementary_professions,lower_class,"
            
1. WÄRTER

            
(fur sich):

            
Halt, diss isch gewiss diss Bibbel, wo ich an d’Luft soll spediere ! 
(Lütt):
 Wenn Sie erwarte, ass Sie d’r Herr Dokter erwart, no kenne Sie lang warte !

          
",96,jost-daa-im-narrehuss,44,9,0.5066394865177548,0.20454545454545456
194,comedy,Oktavie,F,,,,"
            
OKTAVIE:

            
Was soll diss heisse ? Ich bin doch syni fiancée !

          
",97,jost-daa-im-narrehuss,13,1,0.0,0.07692307692307693
195,comedy,1. Wärter,M,custodian_(asylum),elementary_professions,lower_class,"
            
1. WÄRTER

            
(lacht boshaft):

            
Jo, die Fianciererej kennt m’r! Do hett d’r Herr Dokter ganz anderi Lytt an de Händ ! 
(Fur sich):
 Myn Kolleg hett mir’s zuem Glick grad ewe verroote !

          
",97,jost-daa-im-narrehuss,42,8,0.400758800498453,0.19047619047619047
196,comedy,Oktavie,F,,,,"
            
OKTAVIE

            
(hyllt schier):

            
Was fallt Ihnne-n-yn, fur eso mit mir ze verfahre ?

          
",98,jost-daa-im-narrehuss,19,1,3.2082895475078947,0.05263157894736842
197,comedy,1. Wärter,M,custodian_(asylum),elementary_professions,lower_class,"
            
1. WÄRTER:

            
Ei, im Uffdraa vum Herr Dokter !

          
",98,jost-daa-im-narrehuss,11,2,0.0,0.18181818181818182
198,comedy,Oktavie,F,,,,"
            
OKTAVIE

            
(hyllt):

            
Isch’s mejlich, ass d’r Paul eso gemein kann sinn! O, ich arm’s Maidel !

          
",99,jost-daa-im-narrehuss,24,3,0.0,0.125
199,comedy,1. Wärter,M,custodian_(asylum),elementary_professions,lower_class,"
            
1. WÄRTER:

            
Arm ? Diss isch’s jo grad! D’r Herr Dokter hett e rychi fiancée, wenn s’e zwar au üss’m Middelalter stammt! Er hett awer ganz rächt, denn Minz isch hytt Trumpf! Sie wisse also, wo Sie dran sinn! 
(Rächts ab.)
 

          
",99,jost-daa-im-narrehuss,55,7,0.45801005771251774,0.12727272727272726
201,comedy,Euphrosine Bendélé,F,,,,"
            
EUPHROSINE

            
(ohne’s Oktavie ze sähn):

            
Iwerall haw ich jetzt g’suecht — ich kann’ne nierigs finde! Unn deby hängt doch myn ganz Härz an’m!

          
",100,jost-daa-im-narrehuss,30,3,0.0,0.1
203,comedy,Euphrosine Bendélé,F,,,,"
            
EUPHROSINE

            
(wie vorig):

            
Er kann so lieb sinn!

          
",101,jost-daa-im-narrehuss,12,1,0.0,0.08333333333333333
204,comedy,Oktavie,F,,,,"
            
OKTAVIE

            
(fur sich):

            
Kein Zwyefel, diss isch mym beese Paul syni rych Partie !

          
",102,jost-daa-im-narrehuss,18,1,0.0,0.05555555555555555
205,comedy,Euphrosine Bendélé,F,,,,"
            
EUPHROSINE

            
(wie vorig):

            
E Stickele Zucker fresst’r fur syn Läwe gern!

          
",102,jost-daa-im-narrehuss,15,2,3.010937651032742,0.13333333333333333
207,comedy,Euphrosine Bendélé,F,,,,"
            
EUPHROSINE

            
(wie vorig):

            
Kein Mensch weiss’ne so guet ze streichle als wie ich !

          
",103,jost-daa-im-narrehuss,17,1,0.0,0.058823529411764705
208,comedy,Oktavie,F,,,,"
            
OKTAVIE

            
(trätt wietig vor ; lütt):

            
Doch! Ich ! 
(Fur sich):
 Trotz allem gibb ich de Paul noch nitt uff !

          
",104,jost-daa-im-narrehuss,28,3,0.6837132062460523,0.10714285714285714
209,comedy,Euphrosine Bendélé,F,,,,"
            
EUPHROSINE:

            
Sie? Wie kumme Sie iwerhaupt dezue, fur mir diss ze saawe ?

          
",104,jost-daa-im-narrehuss,16,1,0.0,0.0625
211,comedy,Euphrosine Bendélé,F,,,,"
            
EUPHROSINE

            
(uffgerejt):

            
Do heert sich d’Weltg’schicht in acht Bänd uff! 
(Fur sich):
 Nein, myne Papegei gibb ich nitt here !

          
",105,jost-daa-im-narrehuss,29,3,0.0,0.10344827586206896
213,comedy,Euphrosine Bendélé,F,,,,"
            
EUPHROSINE:

            
Er koscht awer myn Geld!

          
",106,jost-daa-im-narrehuss,8,1,0.0,0.125
214,comedy,Oktavie,F,,,,"
            
OKTAVIE

            
(fur sich):

            
O, die kaiwe Geldhyroote ! 
(Lütt):
 Egal, ich bekumm’ne doch !

          
",107,jost-daa-im-narrehuss,22,1,2.0511396187381568,0.045454545454545456
215,comedy,Euphrosine Bendélé,F,,,,"
            
EUPHROSINE:

            
Nein, ich, Sie frechi Person ! Ich weiss’ne ze fange !

          
",107,jost-daa-im-narrehuss,15,2,0.0,0.13333333333333333
216,comedy,Oktavie,F,,,,"
            
OKTAVIE:

            
Unn ich au! 
(Beidi uffgerejt unn glychzyttig ab nooch links.)
 

          
",108,jost-daa-im-narrehuss,16,1,0.0,0.0625
217,comedy,1. Wärter,M,custodian_(asylum),elementary_professions,lower_class,"
            
1. WÄRTER:

            
Aha, diss Bibbel hett sich myni Predicht schynnt’s doch ze Härze genumme unn isch ab !

          
",108,jost-daa-im-narrehuss,21,2,0.0,0.09523809523809523
218,comedy,3. Wärter,M,custodian_(asylum),elementary_professions,lower_class,"
            
3. WÄRTER:

            
Leon, wo isch denn d’r Monsieur Brummer ? Er isch doch grad noch do g’sinn !

          
",109,jost-daa-im-narrehuss,20,1,3.206070403987624,0.05
219,comedy,1. Wärter,M,custodian_(asylum),elementary_professions,lower_class,"
            
1. WÄRTER:

            
Er wurd mit’m Herr Dokter furt sinn.

          
",109,jost-daa-im-narrehuss,12,2,0.0,0.16666666666666666
220,comedy,1. Wärter,M,custodian_(asylum),elementary_professions,lower_class,"
            
1. unn 2. WÄRTER:

            
Was isch denn do los ! 
(Beidi sinn baff)
.

          
",110,jost-daa-im-narrehuss,17,1,1.7487800513339824,0.058823529411764705
221,comedy,2. Wärter,M,custodian_(asylum),elementary_professions,lower_class,"
            
1. unn 2. WÄRTER:

            
Was isch denn do los ! 
(Beidi sinn baff)
.

          
",110,jost-daa-im-narrehuss,17,1,1.7487800513339824,0.058823529411764705
222,comedy,Narr,M,,,,"
            
NARR

            
(fur sich):

            
Tahitata ! Revolütion in Siam !

          
",111,jost-daa-im-narrehuss,12,2,0.0,0.16666666666666666
223,comedy,E Blejele,M,policeman,government_executive_officials,lower_class,"
            
BLEJELE:

            
Wenn ich mich nitt drumpier, ze muess Ejch der Monsieur durch de Räps gange sinn ! Er isch grad ewe ganz stichem durch’s Dor gewitscht !

          
",111,jost-daa-im-narrehuss,30,2,1.603035201993812,0.06666666666666667
224,comedy,3. Wärter,M,custodian_(asylum),elementary_professions,lower_class,"
            
1. unn 3. WÄRTER

            
(schlaawe d’Händ iwer’m Kopf z’samme; zuem. Blejele):

            
Jesses, Schutzmann, do hann Ihr ebbs Scheen’s ang’stellt ! Diss isch jo . . .

          
",112,jost-daa-im-narrehuss,37,3,0.0,0.08108108108108109
225,comedy,1. Wärter,M,custodian_(asylum),elementary_professions,lower_class,"
            
1. unn 3. WÄRTER

            
(schlaawe d’Händ iwer’m Kopf z’samme; zuem. Blejele):

            
Jesses, Schutzmann, do hann Ihr ebbs Scheen’s ang’stellt ! Diss isch jo . . .

          
",112,jost-daa-im-narrehuss,37,3,0.0,0.08108108108108109
227,comedy,2. Wärter,M,custodian_(asylum),elementary_professions,lower_class,"
            
2. WÄRTER:

            
... d’r Herr Dokter Nervich !

          
",113,jost-daa-im-narrehuss,9,2,0.0,0.2222222222222222
228,comedy,E Blejele,M,policeman,government_executive_officials,lower_class,"
            
BLEJELE

            
(vergelschtert):

            
Do bekumm ich widder e scheener Schnaps vun owe-n-erabb ! 
(Rächts ab.)
 

          
",114,jost-daa-im-narrehuss,22,2,0.0,0.09090909090909091
230,comedy,3. Wärter,M,custodian_(asylum),elementary_professions,lower_class,"
            
3. WÄRTER:

            
Ei, d’r Herr Dokter Nervich nadierlich ! Unn wer saasch dü, ass diss isch ?

          
",115,jost-daa-im-narrehuss,20,2,0.0,0.1
231,comedy,1. Wärter,M,custodian_(asylum),elementary_professions,lower_class,"
            
1. WÄRTER:

            
Ei, nadierlich d’r Schwejervadder vum Herr Dokter!

          
",115,jost-daa-im-narrehuss,12,2,0.0,0.16666666666666666
233,comedy,1. Wärter,M,custodian_(asylum),elementary_professions,lower_class,"
            
1. WÄRTER:

            
Unn d’r Dokter Nervich au! 
(Zuem Narr):
 Wer sinn Sie, Monsieur ?

          
",116,jost-daa-im-narrehuss,20,2,0.0,0.1
234,comedy,Narr,M,,,,"
            
NARR:

            
Ei, d’r Schwejeres nadierlich vum Herr Dokter !

          
",117,jost-daa-im-narrehuss,11,3,0.0,0.2727272727272727
236,comedy,3. Wärter,M,custodian_(asylum),elementary_professions,lower_class,"
            
3. WÄRTER:

            
Bin ich denn uff’s Mool sälwer iwerg’schnappt! 
(Zuem Narr):
 Ich fröj Sie, wer Sie sinn, Monsieur ?

          
",118,jost-daa-im-narrehuss,27,3,0.0,0.1111111111111111
237,comedy,Narr,M,,,,"
            
NARR:

            
Ei, d’r Dokter Nervich nadierlich !

          
",118,jost-daa-im-narrehuss,9,2,0.0,0.2222222222222222
239,comedy,1. Wärter,M,custodian_(asylum),elementary_professions,lower_class,"
            
1. WÄRTER

            
(rennt erum):

            
Jetzt steht mir d’r Verstand still! D’r Herr Dokter unn syner Schwejerbabbe kenne doch nitt in ein unn d’r nämlich Person stecke !

          
",119,jost-daa-im-narrehuss,31,4,0.0,0.12903225806451613
240,comedy,3. Wärter,M,custodian_(asylum),elementary_professions,lower_class,"
            
3. WÄRTER:

            
Am End isch der Mann do gar keiner vun beide !

          
",120,jost-daa-im-narrehuss,14,1,0.0,0.07142857142857142
241,comedy,Narr,M,,,,"
            
NARR

            
(zue beide wie vorig d’r 1. unn d’r 3. Wärter):

            
Siehsch de’s !

          
",120,jost-daa-im-narrehuss,18,1,0.0,0.05555555555555555
242,comedy,1. Wärter,M,custodian_(asylum),elementary_professions,lower_class,"
            
1. WÄRTER

            
(kratzt sich hinter de-n-Ohre):

            
Mildebickel, haw ich am End e Bock g’schosse ? 
(Zeijt uff d’Kaltwasserzell.)
 

          
",121,jost-daa-im-narrehuss,28,3,0.0,0.10714285714285714
243,comedy,3. Wärter,M,custodian_(asylum),elementary_professions,lower_class,"
            
3. WÄRTER

            
(grad so):

            
Mon Dieu, mir lauft’s yskalt iwer de Buckel! 
(Zeijt uff d’Gummizell.)
 

          
",121,jost-daa-im-narrehuss,25,3,2.166963387239617,0.12
244,comedy,1. Wärter,M,custodian_(asylum),elementary_professions,lower_class,"
            
1. WÄRTER

            
(fur sich):

            
D’r Herr Dokter !

          
",122,jost-daa-im-narrehuss,11,2,0.0,0.18181818181818182
246,comedy,Nervich Paul,M,doctor,professionals_scientific_technical,upper_class,"
            
NERVICH

            
(zuem Narr unn macht’m e Füscht):

            
Sie impertinenter Mensch! Was fallt Ihnne yn, mich ynsperre ze lonn ! 
(Geht uff unn ab.)
 

          
",123,jost-daa-im-narrehuss,32,4,0.9514182067163185,0.125
247,comedy,Brummer,M,rentier,rentiers,upper_class,"
            
BRUMMER

            
(grad so zuem Narr):

            
Sie Erbschlycher ! Was unterstehn Sie sich, mich in e Narrehüss ze stecke! 
(Geht au uff unn ab.)
 

          
",123,jost-daa-im-narrehuss,31,4,0.801517600996906,0.12903225806451613
248,comedy,Nervich Paul,M,doctor,professionals_scientific_technical,upper_class,"
            
NERVICH

            
(wie vorig):

            
Ihri Dochter kenne Sie b’halte ! Ich will kein Schwejervadder, wo e Klapps hett!

          
",124,jost-daa-im-narrehuss,22,1,0.0,0.045454545454545456
249,comedy,Brummer,M,rentier,rentiers,upper_class,"
            
BRUMMER

            
(wie vorig):

            
Unn Ihnne soll ich myni Dochter gänn ? Nein, e Narr kummt mir nitt ins Hüss !

          
",124,jost-daa-im-narrehuss,24,4,0.0,0.16666666666666666
250,comedy,Narr,M,,,,"
            
NARR

            
(langsam):

            
Tahitata ! Ze will ich Ejch ebb’s ander’s saawe: Wyll der 
(zeijt uff de Brummer)
 mir syni Dochter nitt will gänn, unn wyll der 
(zeijt uff de Nervich)
 myni Dochter nitt will, ze soll doch der 
(zeijt uff de Brummer)
 syni Dochter dem 
(zeijt uff de Nervich)
 gänn, unn ich habb myni Ruehj !

          
",125,jost-daa-im-narrehuss,73,11,0.0,0.1506849315068493
251,comedy,Brummer,M,rentier,rentiers,upper_class,"
            
BRUMMER unn NERVICH

            
(zeije-n-uff de Narr; glychzyttig):

            
Ich hahb’s jo g’saat, ass’r verruckt isch !

          
",125,jost-daa-im-narrehuss,23,3,0.0,0.13043478260869565
252,comedy,Nervich Paul,M,doctor,professionals_scientific_technical,upper_class,"
            
BRUMMER unn NERVICH

            
(zeije-n-uff de Narr; glychzyttig):

            
Ich hahb’s jo g’saat, ass’r verruckt isch !

          
",126,jost-daa-im-narrehuss,23,3,0.0,0.13043478260869565
255,comedy,Euphrosine Bendélé,F,,,,"
            
EUPHROSINE

            
(uffgerejt):

            
Nein, die jung Gans geht mir jetzt doch ze wytt! 
(Sieht de Narr):
 Gell, lieb’s Männele, dü hälfsch mir, jetzt, wo mir ball Mann unn Frau sinn ? 
(Will’ne-n-umarme.)
 

          
",127,jost-daa-im-narrehuss,49,6,0.0,0.12244897959183673
256,comedy,Narr,M,,,,"
            
NARR

            
(wycht zeruck, fur sich):

            
Gott behietmich ! 
(Streckt im 1. unn 2. Wärter je e Hand anne ; lütt):
 Höpp, ihr Wärter, fiehre mich jo g’schwind ab — ich bin d’r Narr, wo üssgerisse-n-isch, unn will’ne au gern blyewe, statt ze hyroote !

          
",128,jost-daa-im-narrehuss,58,6,1.867641085843555,0.10344827586206896
257,comedy,1. Wärter,M,custodian_(asylum),elementary_professions,lower_class,"
            
1. WÄRTER:

            
Der hett uns schynnt’s kein lätzi Farce g’spielt !

          
",128,jost-daa-im-narrehuss,13,2,0.0,0.15384615384615385
258,comedy,Narr,M,,,,"
            
NARR:

            
Unn so e’n-Artist soll no e Muck im Hirn hann! Tahitata !

          
",129,jost-daa-im-narrehuss,16,1,0.0,0.0625
259,comedy,Euphrosine Bendélé,F,,,,"
            
EUPHROSINE:

            
Mir steht d’r Verstand stille !

          
",129,jost-daa-im-narrehuss,8,2,0.0,0.25
260,comedy,Brummer,M,rentier,rentiers,upper_class,"
            
BRUMMER

            
(uffgerejt):

            
Ja, wer isch denn no eijetlich d’r Dokter Nervich ?

          
",130,jost-daa-im-narrehuss,16,3,0.0,0.1875
261,comedy,Nervich Paul,M,doctor,professionals_scientific_technical,upper_class,"
            
NERVICH

            
(grad so):

            
Diss bin ich, Monsieur ! Wer isch no awer myner richtig Schwejerbabbe ?

          
",130,jost-daa-im-narrehuss,20,2,3.7912614552345,0.1
262,comedy,Brummer,M,rentier,rentiers,upper_class,"
            
BRUMMER:

            
Ich heiss Brummer ! Awer myner Dochtermann sinn Sie waje dem noch lang nitt !

          
",131,jost-daa-im-narrehuss,17,2,0.0,0.11764705882352941
263,comedy,Narr,M,,,,"
            
NARR

            
(lacht lütt):

            
Tahitata! Dort isch’s schriftlich ! 
(Zeijt uff de Schryebdisch.)
 

          
",131,jost-daa-im-narrehuss,20,4,0.5127849046845392,0.2
264,comedy,Brummer,M,rentier,rentiers,upper_class,"
            
BRUMMER:

            
Jesses, ich habb’s jo dem Narr schriftlich gänn !

          
",132,jost-daa-im-narrehuss,13,3,0.0,0.23076923076923078
265,comedy,Nervich Paul,M,doctor,professionals_scientific_technical,upper_class,"
            
NERVICH

            
(wo’s Schryewes geläse hett, zuem Brummer):

            
Welle mir’s no nitt au deby lonn, liewer Herr Brummer ?

          
",132,jost-daa-im-narrehuss,25,3,0.32843284932276073,0.12
266,comedy,Brummer,M,rentier,rentiers,upper_class,"
            
BRUMMER

            
(unentschlosse):

            
Nein, mir isch zue arich mitg’spielt worre!

          
",133,jost-daa-im-narrehuss,14,1,0.0,0.07142857142857142
267,comedy,Nervich Paul,M,doctor,professionals_scientific_technical,upper_class,"
            
NERVICH:

            
Monsieur Brummer, was Kinder unn Narre welle, isch d’Stimm vum Himmel! Also...

          
",133,jost-daa-im-narrehuss,19,3,1.0535570499237428,0.15789473684210525
268,comedy,Brummer,M,rentier,rentiers,upper_class,"
            
BRUMMER:

            
Na, myntwäje ! 
(Zuem Nervich):
 Ich hoff awer, ass Sie sich besser uffiehre, als wie Ihre Vorgänger ! 
(Zeijt uff de Narr.)
 

          
",134,jost-daa-im-narrehuss,33,3,0.0,0.09090909090909091
269,comedy,Nervich Paul,M,doctor,professionals_scientific_technical,upper_class,"
            
NERVICH

            
(umarmt de Brummer):

            
Liewer Schwejerbabbe, ich bin numme-n-ins Oktavie verruckt, schunscht awer ganz normal!

          
",134,jost-daa-im-narrehuss,23,3,0.0,0.13043478260869565
272,comedy,Euphrosine Bendélé,F,,,,"
            
EUPHROSINE:

            
... Euphrosine Bendélé heiss ich !

          
",136,jost-daa-im-narrehuss,8,1,0.0,0.125
274,comedy,Euphrosine Bendélé,F,,,,"
            
EUPHROSINE:

            
Ja, unn ich bin do fur myne Goldschatz ze sueche, wo...

          
",137,jost-daa-im-narrehuss,16,2,0.0,0.125
275,comedy,Oktavie,F,,,,"
            
OKTAVIE

            
(stirmt uff de Nervich los):

            
Nein, der Goldschatz do isch myne! Gell, Paul, ’s isch wohr ?

          
",137,jost-daa-im-narrehuss,25,3,0.5829266837779942,0.12
276,comedy,Nervich Paul,M,doctor,professionals_scientific_technical,upper_class,"
            
NERVICH:

            
Gewiss, lieb’s Kind ! Dyn Babbe isch d’accord mit mir !

          
",138,jost-daa-im-narrehuss,16,3,0.0,0.1875
277,comedy,Oktavie,F,,,,"
            
OKTAVIE:

            
Gott sej Dank ! 
(Zue’r Euphrosine):
 Hann Sie’s jetzt g’heert, ass d’r Herr Dokter myne isch ?

          
",138,jost-daa-im-narrehuss,24,4,0.6861382929073575,0.16666666666666666
278,comedy,Euphrosine Bendélé,F,,,,"
            
EUPHROSINE:

            
D’r Herr Dokter? Ich habb doch myne Papegej gemeint, wo mir furtg’flöje isch !

          
",139,jost-daa-im-narrehuss,18,2,0.0,0.1111111111111111
279,comedy,Oktavie,F,,,,"
            
OKTAVIE:

            
No isch jo alles guet ! 
(Sie umarmt de Nervich, unn beidi blyewe in dere Pos stehn.)
 

          
",139,jost-daa-im-narrehuss,23,1,0.0,0.043478260869565216
280,comedy,Brummer,M,rentier,rentiers,upper_class,"
            
BRUMMER

            
(zuer Euphrosine):

            
Was, der Unglieksvöjel isch Ihnne? In dem Fall will ich Ihnne gern bis an myne Dood sueche hälfe — 
(fur sich)
 — fur’m de Hals erumzedrähje !

          
",140,jost-daa-im-narrehuss,38,4,1.6640972103112623,0.10526315789473684
281,comedy,Euphrosine Bendélé,F,,,,"
            
EUPHROSINE

            
(fallt’m um de Hals):

            
Nein, jetzt loss ich’ne flieje, wo’r anne will, denn d’r scheenscht Papegei isch nix geje-n-e lieb’s Babbele !

          
",140,jost-daa-im-narrehuss,33,3,0.37533580854065035,0.09090909090909091
