2022-08-20 21:52:18 - valence lexicon length: 7864
2022-08-20 21:52:18 - Number of rows: 668
2022-08-20 21:52:19 - dominance lexicon length: 7864
2022-08-20 21:52:19 - Number of rows: 668
2022-08-20 21:52:20 - arousal lexicon length: 7864
2022-08-20 21:52:20 - Number of rows: 668
2022-08-20 21:52:22 - anger lexicon length: 7864
2022-08-20 21:52:22 - Number of rows: 668
2022-08-20 21:52:23 - anticipation lexicon length: 7864
2022-08-20 21:52:23 - Number of rows: 668
2022-08-20 21:52:24 - disgust lexicon length: 7864
2022-08-20 21:52:24 - Number of rows: 668
2022-08-20 21:52:25 - fear lexicon length: 7864
2022-08-20 21:52:25 - Number of rows: 668
2022-08-20 21:52:26 - joy lexicon length: 7864
2022-08-20 21:52:26 - Number of rows: 668
2022-08-20 21:52:27 - sadness lexicon length: 7864
2022-08-20 21:52:27 - Number of rows: 668
2022-08-20 21:52:27 - surprise lexicon length: 7864
2022-08-20 21:52:27 - Number of rows: 668
2022-08-20 21:52:28 - trust lexicon length: 7864
2022-08-20 21:52:28 - Number of rows: 668
2022-08-24 17:10:22 - valence lexicon length: 7864
2022-08-24 17:10:22 - Number of rows: 668
2022-08-24 17:10:23 - dominance lexicon length: 7864
2022-08-24 17:10:23 - Number of rows: 668
2022-08-24 17:10:24 - arousal lexicon length: 7864
2022-08-24 17:10:24 - Number of rows: 668
2022-08-24 17:10:25 - anger lexicon length: 7864
2022-08-24 17:10:25 - Number of rows: 668
2022-08-24 17:10:26 - anticipation lexicon length: 7864
2022-08-24 17:10:26 - Number of rows: 668
2022-08-24 17:10:27 - disgust lexicon length: 7864
2022-08-24 17:10:27 - Number of rows: 668
2022-08-24 17:10:28 - fear lexicon length: 7864
2022-08-24 17:10:28 - Number of rows: 668
2022-08-24 17:10:29 - joy lexicon length: 7864
2022-08-24 17:10:29 - Number of rows: 668
2022-08-24 17:10:30 - sadness lexicon length: 7864
2022-08-24 17:10:30 - Number of rows: 668
2022-08-24 17:10:31 - surprise lexicon length: 7864
2022-08-24 17:10:31 - Number of rows: 668
2022-08-24 17:10:32 - trust lexicon length: 7864
2022-08-24 17:10:32 - Number of rows: 668
