drama_type,speaker,sex,job,job_category,social_class,text,progress,short_name,numTokens,numLexTokens,lexRatio,anger_roll_mean,anticipation_roll_mean,arousal_roll_mean,disgust_roll_mean,dominance_roll_mean,fear_roll_mean,joy_roll_mean,sadness_roll_mean,surprise_roll_mean,trust_roll_mean,valence_roll_mean
comedy,Ziwelbloos,M,retired_farmer,agriculture,lower_class,"
          
Ziwelbloos:

          
(Luejt uff d'Pendule es schlaat.)

          
Was schun halwer Vier! — Eh bien Salome, i mueß dr saa, daß der Herr uff sich warte loßt. Jetzt sitze mer schun zitter de dreie do un erwarte dinne prétendu, halt diß er wills au moins wäre, denn er het uns sauwe lonn, daß er hitt kummt, am dreie, fur sinni demande persöhnli ze mache. Ja diß isch nit alles, mer kann doch au üßgemacht ghett, daß mer geje de Viere zues Kretschelmeyers gehn un die Gschicht vun denne drei Stühle, wo sie noch vun mir hann, in Richtigkeit ze bringe.

        
",0,horsch-neui-hosse,118,11,0.0932203389830508,,,,,,,,,,,
comedy,Ziwelbloos,M,retired_farmer,agriculture,lower_class,"
          
Ziwelbloos:

          
Oh, oh, madame Ziwelbloos, duen Sie nit so dick, die drei Stühle sin au de Péru nit! Na ’s nächst Mool saa i, dini Stühle !

        
",2,horsch-neui-hosse,34,1,0.0294117647058823,,,,,,,,,,,
comedy,Rickele,F,,,,"
          
Nicele:

          
Awer Babbe!

		  

        
",3,horsch-neui-hosse,5,1,0.2,,,,,,,,,,,
comedy,Salome,F,,,,"
          
Salome:

          
(uffgebrocht.)

          
Du bisch widder emol gifti hitt. Ich will ewe au mini Rechte kann, min Sach isch so guet wie dins, un ’s ghört üwerhaupt ganz min.

        
",4,horsch-neui-hosse,36,4,0.1111111111111111,,,,,,,,,,,
comedy,Ziwelbloos,M,retired_farmer,agriculture,lower_class,"
          
Ziwelbloos:

          
Witt e Sü? Wer weiß es jo un i weiß es jo au, de heschs mer schun oft genue ze schmecke genn; un jetz hawis ball dick! 
(Ils se tournent le dos.)

        
",5,horsch-neui-hosse,41,2,0.048780487804878,0.12285726385359837,0.14964045525801845,1.3678834463988143,0.2878584696529701,1.6333357518308589,0.0610060135113064,0.6774052140737347,0.04159902392378296,0.0772039780519259,0.953686259538786,1.8760115533457302
comedy,Rickele,F,,,,"
          
Rickele:

          
Oh gehn doch, — wenn jezt der Herr do rin kumme dät, un dät euch so sehn ?

        
",6,horsch-neui-hosse,22,3,0.1363636363636363,0.04872484036894394,0.3050492630234423,1.2343242047395402,0.27022034606483236,1.5492081324955134,0.03285553270614134,0.38782290172461414,0.0,0.0,0.8445352201284688,1.8075341153427757
comedy,Ziwelbloos,M,retired_farmer,agriculture,lower_class,"
          
Ziwelbloos:

          
Hesch recht ma Figle, — denne hät i jezt falscht vergesse, der isch als noch nit do.

        
",7,horsch-neui-hosse,22,2,0.0909090909090909,0.01770936514657264,0.3050492630234423,0.7680809207296433,0.04380737694152178,0.9516801033040512,0.03285553270614134,0.38782290172461414,0.0,0.0,0.48889110424527776,1.1590994447231069
comedy,Rickele,F,,,,"
          
Rickele:

          
Zuem Glück!

        
",8,horsch-neui-hosse,5,1,0.2,0.01770936514657264,0.3050492630234423,0.7680809207296433,0.04380737694152178,0.9516801033040512,0.03285553270614134,0.38782290172461414,0.0,0.0,0.48889110424527776,1.1590994447231069
comedy,Ziwelbloos,M,retired_farmer,agriculture,lower_class,"
          
Ziwelbloos:

          
Was falscht? — Jezt ward i awer nimm länger. Zeij due dich an Salome, un du au Rickele.

        
",9,horsch-neui-hosse,24,2,0.0833333333333333,0.01770936514657264,0.3050492630234423,0.5817836111073044,0.04380737694152178,0.6634288230093084,0.03285553270614134,0.3132987569918902,0.0,0.0,0.33949989859085594,0.8422520700556226
comedy,Salome,F,,,,"
          
Salome:

          
Ja, wenn der awer derwnlisch kummt.

        
",10,horsch-neui-hosse,10,1,0.1,0.01770936514657264,0.3050492630234423,0.7312153121180882,0.04380737694152178,0.7182718252110004,0.03285553270614134,0.49176202000993896,0.0,0.0,0.0,0.9581569296317133
comedy,Ziwelbloos,M,retired_farmer,agriculture,lower_class,"
          
Ziwelbl oos:

          
Nur stäht! 
(ruft)
 Rosalie! — ’s hört guet unser Maidel. Ro-sa-lie!

        
",11,horsch-neui-hosse,20,2,0.1,0.0,0.0,0.43246028303201955,0.0,0.2959522735518907,0.0,0.49176202000993896,0.0,0.0,0.0,0.49445217382398765
comedy,Ziwelbloos,M,retired_farmer,agriculture,lower_class,"
          
Ziwelbloos:

          
I habs grad welle duen, — Rosalie mer gehn furd un wenn e Herr kummt, un fröjt noch uns, ze saat sie er soll e bissel warte, oder soll so guet sin un mache daß er im e halb Stündel widder do isch, i denk mer sin derno widder zeruck.

        
",13,horsch-neui-hosse,58,5,0.0862068965517241,0.01062561908794358,0.11551292983211411,0.651792568431271,0.026284426164913076,0.6100319589683598,0.04267169302462568,0.49176202000993896,0.0,0.02409815080382446,0.20655500656235146,0.8133433816290372
comedy,Salome,F,,,,"
          
Salome:

          
Mer brüche jo zwanzig Minüte fur hin un her ze gehn, i will nit renne wie naasblueti.

        
",14,horsch-neui-hosse,21,1,0.0476190476190476,0.36222792113059354,0.11551292983211411,1.1212360442413662,0.026284426164913076,0.863184273324458,0.46074891253147443,0.49176202000993896,0.48099086952583125,0.02409815080382446,0.20655500656235146,0.9293660116348951
comedy,Ziwelbloos,M,retired_farmer,agriculture,lower_class,"
          
Ziwelbloos:

          
Jezt loß mi gehn, — ihr meine glauwi, i bli am e jede Zeijlade stehn, un schlür derno so furt wie, — wie e Schneck im lange Gras. Rickele: A mon Dieu! — So gehn doch emol furt.

        
",15,horsch-neui-hosse,48,4,0.0833333333333333,0.36222792113059354,0.11551292983211411,1.1212360442413662,0.026284426164913076,0.863184273324458,0.46074891253147443,0.49176202000993896,0.48099086952583125,0.02409815080382446,0.20655500656235146,0.9293660116348951
comedy,Salome,F,,,,"
          
Salome:

          
(zue Rosalie)

          
Sie het also ghört. Gibt sie awer acht, nitt daß re d'Katz widder ’s Biffele- mod wo fur z'Nacht gerischt isch, üß der Plat holt. Gibt sie au im Carnailleföjel frisch Wasser, un trett sie im Hundel wo wirkli in der Küche leijt un Jungi hett nitt uff-m Weddele erum. 
(Dr Ziwelbloos sekt sich widder.)
 Sie kann au denne Salat reine wo drüsse —

        
",16,horsch-neui-hosse,82,5,0.0609756097560975,0.36222792113059354,0.2086813347646987,0.930090606172737,0.026284426164913076,0.7919992085976604,0.46074891253147443,0.06205015768510132,0.48099086952583125,0.05465738762171218,0.20655500656235146,0.7007623632913604
comedy,Ziwelbloos,M,retired_farmer,agriculture,lower_class,"
          
Ziwelbloos:

          
I ward, — heschs ball?

        
",17,horsch-neui-hosse,9,1,0.1111111111111111,0.36222792113059354,0.2086813347646987,0.930090606172737,0.026284426164913076,0.7919992085976604,0.46074891253147443,0.06205015768510132,0.48099086952583125,0.05465738762171217,0.20655500656235146,0.7007623632913604
comedy,Salome,F,,,,"
          
Salome:

          
Wenn mer uff dich höre wott, ze dät mer 's Gsind spaziere lon gehn, un mir fur sie d'Ar- weit mache.

        
",20,horsch-neui-hosse,28,2,0.0714285714285714,0.5294996303131884,0.45656638962136836,1.1714034972970595,0.17152017819333681,0.9538902600669612,0.7086958056905623,0.3290716974326074,0.771534265467128,0.20019518543339618,0.10493569116902293,0.8740256047109332
comedy,Salome,F,,,,"
          
Salome:

          
Un vergetz Sie au nit noch-m kleine Fritzel ze lueije, i mein sie könnt au e bissel ’s Dings awische ; im Summer zejt sich so licht der Staub in d’Zimmer un no kann mer, — — 
(Man hört rufen.)

        
",22,horsch-neui-hosse,48,5,0.1041666666666666,0.17789732827053845,0.45656638962136836,0.7019600214869641,0.17152017819333681,0.700737945710863,0.29061858618371356,0.3290716974326074,0.2905433959412968,0.20019518543339618,0.10493569116902293,0.7580029747050754
comedy,Ziwelbloos,M,retired_farmer,agriculture,lower_class,"
          
Z iwelblo os:

          
Salome ! Kannsch noch e bissel bliewe, mer sige uff der Steij un warte!

        
",23,horsch-neui-hosse,20,3,0.15,0.17789732827053845,0.6490879393415586,0.9688905420502529,0.17152017819333681,1.049520724871146,0.3288825418519484,0.5070860572642781,0.2905433959412968,0.240358770106437,0.23438183906794494,1.1270839398380659
comedy,Salome,F,,,,"
          
Salome:

          
I kumm, i kumm! 
(ab)

        
",24,horsch-neui-hosse,11,2,0.1818181818181818,0.17789732827053845,0.555919534408974,0.7275756970868628,0.17152017819333681,0.824753516046053,0.3288825418519484,0.4450358995791768,0.2905433959412968,0.20979953328854925,0.23438183906794494,0.8612354143576129
comedy,Rosalie,F,cook,service_and_sales,lower_middle_class,"
          
Rosalie:

          
(loßt sich uff e Stuehl falle.)

          
Oh jeh, oh jeh! ha ha ha! — So isch's jedsmol wenn d'Madam üßgeht. Un wenn sie mitnander furtgehn, ze mueß zerscht gezankt wäre. Die arm Mamsell dürt mi. Na die wurd au froh sin, wenn sie üß der So- cietät kommt. Ich fur min Teil, kanns Ziel nimm erwarte, fur ’s Päckel ze mache, un ze gehn. — 
(Abwischend)
 Ja un noch ebbs, hein ? die soll sich nit meine uff ihri paar Grundscholle hin, wo sie mitgebrocht het. Bi-re jede Occassion muen mer diß höre. Do isch's jedesmol uff e anderi Art. Einmol heißt's ja mini Stückle hann allewyl meh getraa als dinni, minni Stückle vertraue de Mischt besser, de Grund isch besser, blit länger naß, un diß, un zell un jens! Gi du liewer Gott, i hätt schun lang e Glasglock drüwer mache lonn. 
(Es klopft.)
 Hetts nit geklopft? 
(Es klopft noch einmal)
 Entrez! «

        
",25,horsch-neui-hosse,199,24,0.1206030150753768,0.24371880235744076,0.6749026852335083,1.21125529952424,0.220185922123142,1.3315724149591595,0.3694228220757617,0.805362521095019,0.3836400171131964,0.22093148893571515,0.32175298967555027,1.4194778403554755
comedy,group,sex_unknown,job_unknown,job_category_unknown,social_class_unknown,"
          
Emil:

          
Bonjour Monsieur — — — 
(ershreckt)
 Rosalie! 
(Blit unter der Dhüer stehn.)

        
",26,horsch-neui-hosse,20,2,0.1,0.0658214740869023,0.3115047005447245,0.7506101230006659,0.0486657439298052,0.8556016780733897,0.07880423589204816,0.5383409813475131,0.0930966211718996,0.05129554032020669,0.2168172985065273,0.9273233911308532
comedy,Rosalie,F,cook,service_and_sales,lower_middle_class,"
          
Rosalie:

          
(freudig)

          
Emil! — was führt dich do her? Ei ze kumm doch erin. I hab dich jo schun so lang nimm gsehn! Zey saa emol wo bisch denn du gsteckt ?

        
",27,horsch-neui-hosse,39,3,0.0769230769230769,0.0658214740869023,0.3115047005447245,0.7506101230006659,0.0486657439298052,0.8556016780733897,0.07880423589204816,0.5383409813475131,0.0930966211718996,0.05129554032020669,0.2168172985065273,0.9273233911308532
comedy,group,sex_unknown,job_unknown,job_category_unknown,social_class_unknown,"
          
Emil:

          
(zebbelt)

          
Ich, - ich, ei ich bin noch allewyl hie gsin 
(kommt langsam herein)
.

        
",28,horsch-neui-hosse,23,2,0.0869565217391304,0.0658214740869023,0.11898315082453433,0.7585768000509286,0.0486657439298052,0.8115881635452652,0.040540280223813355,0.3603266215158424,0.0930966211718996,0.011131955647165898,0.43133081798126405,0.9030875566230474
comedy,Rosalie,F,cook,service_and_sales,lower_middle_class,"
          
Rosalie:

          
Giebsh mer nit emol e Hand? — 
(Klein- laut)
 un au kein Schmug!

        
",29,horsch-neui-hosse,20,2,0.1,0.0658214740869023,0.11898315082453433,0.7585768000509286,0.0486657439298052,0.8115881635452652,0.040540280223813355,0.3603266215158424,0.0930966211718996,0.011131955647165898,0.43133081798126405,0.9030875566230474
comedy,group,sex_unknown,job_unknown,job_category_unknown,social_class_unknown,"
          
Emil:

          
(beiSeite)

          
Do bin i schön ningfalle ! — 
(laut)
 Ich glaub Sie sin nit gscheit, diß dät sich jetzt do basse. — Wo isch ihri Herrschaft ?

        
",30,horsch-neui-hosse,35,5,0.1428571428571428,0.0,0.12375858372277515,0.38532009095919284,0.0,0.43568124159540866,0.0,0.1678496214287503,0.00200689595226118,0.04013791904522432,0.4746308927097781,0.5148584786843683
comedy,Rosalie,F,cook,service_and_sales,lower_middle_class,"
          
Rosalie:

          
(bei Seite)

          
Ich glaub er saat mer Sie. — Brüchsch kein Angscht ze hann, ’s Herr Ziwel- bloose sin üßgange. Do hesch e Stuehl setz dich. 
(er zögert)
 un verzähl mer wäje was de do here kummsch ? Machsch mer e Visit, du bisch awer au gar nit artli hitt.

        
",31,horsch-neui-hosse,63,5,0.0793650793650793,0.12657960744081395,0.12375858372277515,0.5724802994105074,0.10120854171599855,0.602845162158314,0.019713319623684798,0.1678496214287503,0.00200689595226118,0.04013791904522432,0.4746308927097781,0.6690226193986037
comedy,group,sex_unknown,job_unknown,job_category_unknown,social_class_unknown,"
          
Emil:

          
Weje was, daß i do here komm! 
(bei Seite)
 Ja diß kann ich dere awer doch nit saa. 
(laut)
 Ha ich komm weje-n-em e Gschäftel.

        
",32,horsch-neui-hosse,37,4,0.1081081081081081,0.12657960744081395,0.12375858372277515,0.6805953701685123,0.10120854171599855,0.6768332305462866,0.019713319623684798,0.29079012643123503,0.00200689595226118,0.04013791904522432,0.4746308927097781,0.7926356628546006
comedy,group,sex_unknown,job_unknown,job_category_unknown,social_class_unknown,"
          
Emil:

          
Ich nein, a doch; ja heschs grad gerode.

        
",34,horsch-neui-hosse,13,2,0.1538461538461538,0.12657960744081395,0.12375858372277515,0.8423810000215661,0.10120854171599855,0.8834683160145638,0.019713319623684798,0.5366711364362046,0.00200689595226118,0.04013791904522432,0.452889519893615,1.0848924749075082
comedy,Rosalie,F,cook,service_and_sales,lower_middle_class,"
          
Rosalie:

          
Witt du sie denn, denne ablaufe. Die fa- mose Stückle? Em il : 
(zerstreut)
 Ablaufe? — Nein hyrothe will i sie.

        
",35,horsch-neui-hosse,31,2,0.064516129032258,0.12657960744081395,0.12375858372277515,1.8846240870445357,1.8605873265316668,1.9485451366651603,0.019713319623684798,0.5366711364362046,1.2223693470628736,0.04013791904522432,0.452889519893615,2.2546362197568586
comedy,Rosalie,F,cook,service_and_sales,lower_middle_class,"
          
Rosalie:

          
Bisch veruckt, wie kann mer denn so ’s Feld hyrothe. Zej saa mer emol d'Wohrheit, do steckt ebbs anders derhinder ?

        
",36,horsch-neui-hosse,27,3,0.1111111111111111,0.12657960744081395,4.4408920985006264e-17,1.7742011936988942,1.8605873265316668,1.81763315970191,0.019713319623684798,0.3688215150074543,1.2203624511106121,0.0,0.3222182945574956,2.0846228716976745
comedy,group,sex_unknown,job_unknown,job_category_unknown,social_class_unknown,"
          
Emil:

          
(bei Seite)

          
I hab mi glauwi verschnappt ? 
(laut)
 Rosalie, luej du biscch e guets Maidel, i hab di au gern 
(bei Seite)
 ghett! 
(laut)
 awer es gitt Saches uff der Welt wo mer nit allewyl faue kann. Zuem Beispiel, ich, ich kann dir un- möjli jetz saa, was i uff-m Herze hab.

        
",37,horsch-neui-hosse,72,8,0.1111111111111111,0.0,0.04674097336530845,1.7623177870519657,1.759378784815668,1.875500892013216,0.0,0.5023322848812073,1.2203624511106121,0.0267265617937403,0.4835889635752859,2.1978868387962716
comedy,Rosalie,F,cook,service_and_sales,lower_middle_class,"
          
Rosalie:

          
(auffahrend)

          
Bisch du verlicht der Herr, wo Sie erwarte? — hein, — zei rud emol mit der Sproch eruß, wenns Herz hesch.

        
",38,horsch-neui-hosse,31,3,0.0967741935483871,0.01770936514657264,0.04674097336530845,1.749375523088565,1.8031861617571898,1.9477232056260045,0.03285553270614134,0.37939177987872263,1.2203624511106121,0.0267265617937403,0.4835889635752859,2.2091233761537428
comedy,group,sex_unknown,job_unknown,job_category_unknown,social_class_unknown,"
          
Emil:

          
(Verlegen)

          
Ich, ich, — — — es schint mer grad so.

        
",39,horsch-neui-hosse,18,2,0.1111111111111111,0.01770936514657264,0.04674097336530845,1.5331453815725553,1.8031861617571898,1.7997470688500594,0.03285553270614134,0.13351076987375307,1.2203624511106121,0.0267265617937403,0.4835889635752859,1.9618972892417488
comedy,Rosalie,F,cook,service_and_sales,lower_middle_class,"
          
Rosa lie:

          
(weinend)

          
Oh jerum! un ich, Emil, un ich, hesch mich denn ganz vergesse. Din Rosalie, bin ....

        
",40,horsch-neui-hosse,28,3,0.1071428571428571,0.01770936514657264,0.04674097336530845,0.8540483422887117,0.04380737694152178,0.9643285449110067,0.03285553270614134,0.23287629618405167,0.3329960691159354,0.0267265617937403,0.4835889635752859,1.0245071009642426
comedy,group,sex_unknown,job_unknown,job_category_unknown,social_class_unknown,"
          
Emil:

          
(weichend)

          
Oh geh, saa doch kenn so dumm Dings.

        
",41,horsch-neui-hosse,15,1,0.0666666666666666,0.01770936514657264,0.04674097336530845,0.8540483422887117,0.04380737694152178,0.9643285449110067,0.03285553270614134,0.23287629618405167,0.3329960691159354,0.0267265617937403,0.4835889635752859,1.0245071009642426
comedy,Rosalie,F,cook,service_and_sales,lower_middle_class,"
          
Rosalie:

          
(folgend)

          
Was diß heisch du dumm Dings du Tropf 
(Emil weicht zuciid)
 du Daadieb, du bisch nit emol werth, daß dich d'Sunn anschint, netter Kerl, i wurd der glich d'Aaue üßtraße. 
(Fährt auf ihn loß, Emil weicht, stoßt am Tisch an, und fällt hin.)

          
        
		
",42,horsch-neui-hosse,63,6,0.0952380952380952,0.07630974882034762,4.4408920985006264e-17,0.757012119786008,0.04380737694152178,0.7814889444294787,0.10253506929061613,0.09936552631029864,0.41316121403690714,0.0,0.3222182945574956,0.7764160981523862
comedy,group,sex_unknown,job_unknown,job_category_unknown,social_class_unknown,"
          
Emil:

          
Oh Rosalie, was hesch gemacht, zey komm und helf mer widder uff d'Bein.

        
",43,horsch-neui-hosse,19,4,0.2105263157894736,0.05860038367377498,4.4408920985006264e-17,0.7694777947360569,0.0,0.7956379331911593,0.0696795365844748,0.23287629618405167,0.41316121403690714,0.0,0.3222182945574956,0.8158383449254993
comedy,Rosalie,F,cook,service_and_sales,lower_middle_class,"
          
Rosalie:

          
Ja ’s leijt mer uff, de wursch ellein uff- stehn könne ?

        
",44,horsch-neui-hosse,16,4,0.25,0.05860038367377498,4.4408920985006264e-17,1.0876941065220778,0.0,1.1476352713044093,0.06967953658447482,0.8898598806815485,0.41316121403690714,0.0,0.0,1.246662842961721
comedy,Rosalie,F,cook,service_and_sales,lower_middle_class,"
          
Rosalie:

          
(bei Seite)

          
Soll i oder soll i nit? — 
(laut)
 Na i will ’s duen. 
(Zejt am-e-n-Arm.)

        
",46,horsch-neui-hosse,30,2,0.0666666666666666,0.05860038367377498,4.4408920985006264e-17,0.8992335695826347,0.0,1.004957440801766,0.06967953658447482,0.7904943543712499,0.35450903036539305,0.0,0.0,1.139900451257041
comedy,Rosalie,F,cook,service_and_sales,lower_middle_class,"
          
Rosalie:

          
(lacht)

          
Ha, ha, ha, ha! — — —

        
",48,horsch-neui-hosse,16,1,0.0625,0.05860038367377498,4.4408920985006264e-17,0.8992335695826347,0.0,1.004957440801766,0.06967953658447482,0.7904943543712499,0.35450903036539305,0.0,0.0,1.139900451257041
comedy,group,sex_unknown,job_unknown,job_category_unknown,social_class_unknown,"
          
Emil:

          
Du brüchsch au nocch ze lache, do luej mi emol an, 
(Didd uff d'Knej)
 do sin sie hiwe un driwe uffgsprunge, wie e gschwelti Grummbeer! Was fang ich an! was fang ich an? 
(secht sich)
 Un so soll ich jezt d'Dochter uß-m Hüß in d'Eh begehre?

        
",49,horsch-neui-hosse,62,8,0.1290322580645161,0.0,0.0515004980683033,1.1909865926422813,0.0,1.3872065514135197,0.0,0.9439186485774085,0.27434388544442123,0.2063158666433041,0.058886070813828316,1.6417913181623631
comedy,Rosalie,F,cook,service_and_sales,lower_middle_class,"
          
Rosalie:

          
Diß ish ganz einfach ze ranschiere.

        
",50,horsch-neui-hosse,9,2,0.2222222222222222,0.0,0.0515004980683033,1.244527067185285,0.0,1.4776794812795366,0.0,0.9594561681691033,0.27434388544442123,0.2063158666433041,0.058886070813828316,1.7703371954098208
comedy,Rosalie,F,cook,service_and_sales,lower_middle_class,"
          
Rosalie:

          
Ganz einfach! De gehsch heim un duesch e Paar anderi an un kummch widder.

        
",52,horsch-neui-hosse,18,2,0.1111111111111111,0.0,0.0515004980683033,0.8670370257363252,0.0,1.0130862304702553,0.0,0.45152087313705447,0.27434388544442123,0.2063158666433041,0.058886070813828316,1.2524545464415395
comedy,group,sex_unknown,job_unknown,job_category_unknown,social_class_unknown,"
          
E mil:

          
So, grad wie wenn diß so licht wär. I hab die wo i do an hab, nur die Circonstance kauft. I hab zwar noch etlichi Paar d'heim, awer die basse nit do here, ’s hängt d'Grund dran vom Feld.

        
",53,horsch-neui-hosse,51,3,0.0588235294117647,0.0,0.0515004980683033,1.0610038812884544,0.24380069345988126,1.293933355009419,0.1798773409063758,0.45152087313705447,0.0,0.2063158666433041,0.27369826718549206,1.4707314979651005
comedy,Rosalie,F,cook,service_and_sales,lower_middle_class,"
          
Rosalie:

          
Oh du Gibgraue! So hann ihrs alli ihr Krüttbüre. Millione hann ihr d'heim, in de Grumbeersäck unter der Bettlad leije; awer e Stückel Kleid, diß wärd lux!

          
        
		
",54,horsch-neui-hosse,36,2,0.0555555555555555,0.0,0.2605521597621802,1.1720968560758436,0.24380069345988126,1.475074091725712,0.1798773409063758,0.589216234306088,0.0,0.2063158666433041,0.5697154201440217,1.8909823795506295
comedy,group,sex_unknown,job_unknown,job_category_unknown,social_class_unknown,"
          
Emil:

          
St, st, — nitt so lütt, was meinsch, wenn diß der Herr Ziwelbloos höre dät, oder d'Madam ?

        
",55,horsch-neui-hosse,26,3,0.1153846153846153,0.01770936514657264,0.2090516616938769,0.8972760605091183,0.28760807040140307,1.1968433107220364,0.21273287361251714,0.4357919400999295,0.0,0.0,0.5108293493301934,1.5046039884577984
comedy,Rosalie,F,cook,service_and_sales,lower_middle_class,"
          
Rosalie:

          
Ja die, — hm, d'Wohrheit derf mer jo nitt saa. Diß isch au noch e Linsespaltere!

        
",56,horsch-neui-hosse,23,2,0.0869565217391304,0.01770936514657264,0.20905166169387696,0.9523272457374719,0.28760807040140307,1.0939871468695226,0.21273287361251714,0.5326246606394511,0.0,0.0,0.5108293493301934,1.449012370535754
comedy,group,sex_unknown,job_unknown,job_category_unknown,social_class_unknown,"
          
Emil:

          
Um's Gotteswille schweij still, i mein ’s kummt ebber d'Steij eruf.

        
",57,horsch-neui-hosse,17,2,0.1176470588235294,0.01770936514657264,0.20905166169387696,0.7911482894498153,0.28760807040140307,0.8431548462410635,0.21273287361251714,0.3835763711740032,0.0,0.0,0.5108293493301934,1.146194665701716
comedy,Rosalie,F,cook,service_and_sales,lower_middle_class,"
          
Rosalie:

          
Richtig, — jezt awer gschürt. 
(Wischt ab.)

        
",58,horsch-neui-hosse,14,1,0.0714285714285714,0.01770936514657264,0.20905166169387696,0.8464555620609152,0.04380737694152178,1.3020088414778104,0.03285553270614134,0.7492774113638252,0.0,0.0,1.1757065453663635,1.6940150679496704
comedy,group,sex_unknown,job_unknown,job_category_unknown,social_class_unknown,"
          
Emil:

          
So kann i mi unmöjli vorstelle, i geh gschwind un loß mer mini Knejschiwe verstopfe. Adje.

        
",59,horsch-neui-hosse,21,1,0.0476190476190476,0.01770936514657264,0.0,1.2576084760569248,0.04380737694152178,1.6335192622793073,0.03285553270614134,0.6115820501947915,0.43110888685935356,0.0,0.879689392407834,1.4585770491357295
comedy,Ziwelbloos,M,retired_farmer,agriculture,lower_class,"
          
Ziwelbloos:

          
Poy Rotheranesaft, i glaub ihr welle mich uewer e Hüffe renne ?

        
",60,horsch-neui-hosse,15,1,0.0666666666666666,0.0,0.0,1.162435669262321,0.0,1.4873088802785461,0.0,0.6115820501947915,0.43110888685935356,0.0,0.879689392407834,1.323727468322262
comedy,group,sex_unknown,job_unknown,job_category_unknown,social_class_unknown,"
          
Emil:

          
Oh pardon, i habs gewiß nit gern gedohn. 
(Halt d'Knej zue un drejt sich erum.)

        
",61,horsch-neui-hosse,23,3,0.1304347826086956,0.1474232266978918,0.12464259564082243,1.3631666600804653,0.09144796181480705,1.9016204806507133,0.0,0.5437154000214928,0.43110888685935356,0.07127083144997418,1.295255910487698,1.6602523692979374
comedy,Rosalie,F,cook,service_and_sales,lower_middle_class,"
          
Rosalie:

          
(Mit Nachdruk)

          
'S i-s-c-ch, k-e-i-n, 
(etc.)
 Handwerksburscht,- ’s isch der Herr Federköhl.

        
",64,horsch-neui-hosse,24,1,0.0416666666666666,0.2005513221376097,0.12464259564082243,1.648685080464277,0.22287009263937244,2.3402516266529974,0.09856659811842403,0.5437154000214928,0.43110888685935356,0.07127083144997418,1.295255910487698,2.0648011117383405
comedy,Ziwelbloos,M,retired_farmer,agriculture,lower_class,"
          
Ziwelbloos:

          
Höllegallee, Sie excusiere, awer ’s isch ihri Schuld, daß i sie nit erkenne kann, Sie dreje mer au d'ganz Zytt de Buckel.

        
",65,horsch-neui-hosse,30,3,0.1,0.2005513221376097,0.12464259564082243,1.5093065336384162,0.22287009263937244,1.8585216886586462,0.09856659811842403,0.2773798861419694,0.43110888685935356,0.07127083144997418,0.636325072828598,1.55469412643865
comedy,Rosalie,F,cook,service_and_sales,lower_middle_class,"
          
Rosalie:

          
E Wunder.

        
",66,horsch-neui-hosse,5,1,0.2,0.2005513221376097,0.12464259564082243,1.7733988398961558,0.22287009263937244,2.256069564791043,0.09856659811842403,1.1392302034185924,0.0,0.9331211487265971,0.636325072828598,2.3199093385136584
comedy,Rosalie,F,cook,service_and_sales,lower_middle_class,"
          
Rosalie:

          
Nix, Herr Ziwelbloos.

        
",68,horsch-neui-hosse,7,1,0.1428571428571428,0.25367941757732765,0.12464259564082243,2.0589172602799675,0.3542922234639378,2.694700710793327,0.19713319623684805,1.1392302034185924,0.0,0.9331211487265971,0.636325072828598,2.7244580809540615
comedy,Ziwelbloos,M,retired_farmer,agriculture,lower_class,"
          
Ziwelbloos:

          
Ze mach, daß de nüß kommsch. So — 
(Rosalie ab)
 Do hann Sie e Stuehl un fete Sie sich newe mich, 
(Emil zögert)
 Sie müen sich nit geniere — — — 
(Emil figt)
 sehsa — un ver- zähle Sie mer ihri Anleije. - 
(Bei Seite)
 Was deifels, der fißt jo do, so stif wie e Holzbod.

        
",69,horsch-neui-hosse,74,1,0.0135135135135135,0.10625619087943583,0.0,1.641956127945813,0.2628442616491308,2.132412973645214,0.19713319623684805,0.9612158435869217,0.0,0.861850317276623,0.22075855474873393,2.140707093066392
comedy,group,sex_unknown,job_unknown,job_category_unknown,social_class_unknown,"
          
Emil:

          
(Stodend)

          
Herr Ziwelbloos, Sie müen, Sie müen mir erlauwe ! — — —

        
",70,horsch-neui-hosse,19,1,0.0526315789473684,0.10625619087943583,0.0,1.641956127945813,0.2628442616491308,2.132412973645214,0.19713319623684805,0.9612158435869217,0.0,0.861850317276623,0.22075855474873393,2.140707093066392
comedy,group,sex_unknown,job_unknown,job_category_unknown,social_class_unknown,"
          
Emil:

          
(freudig)

          
Alles, vielmol merci, — adje. 
(will fortlaufen)
. x Ziwelblovos: 
(hält ihn)
 Heh! nit ze schnell, junger Mann, isch ne verlicht nit guet. Ich mach ne nix, i hab noch nieme nuntergschluckt.

        
",72,horsch-neui-hosse,51,8,0.1568627450980392,0.16938979271098664,0.0,1.4826427663530157,0.302006606273117,1.901823367739669,0.19713319623684805,0.8618503172766232,0.05388861085741918,0.861850317276623,0.0,1.8255853964144948
comedy,group,sex_unknown,job_unknown,job_category_unknown,social_class_unknown,"
          
Emil:

          
’s fehlt mer nix.

        
",73,horsch-neui-hosse,7,1,0.1428571428571428,0.16938979271098664,0.0,0.6963045713118776,0.302006606273117,0.9916243340894827,0.19713319623684805,0.0,0.05388861085741918,0.0,0.0,0.8755573215678971
comedy,Ziwelbloos,M,retired_farmer,agriculture,lower_class,"
          
Ziwelbloos:

          
Ze sige Sie doch.

        
",74,horsch-neui-hosse,7,1,0.1428571428571428,0.11626169727126871,0.0,0.4107861509280658,0.17058447544855165,0.5529931880871988,0.09856659811842403,0.0,0.05388861085741918,0.0,0.0,0.4710085791274943
comedy,group,sex_unknown,job_unknown,job_category_unknown,social_class_unknown,"
          
Emil:

          
Ja, 
(sept sich machinalement)
.

        
",75,horsch-neui-hosse,10,1,0.1,0.11626169727126871,0.0,0.8432464339600856,0.17058447544855165,0.8489454616390895,0.09856659811842403,0.49176202000993896,0.05388861085741918,0.0,0.0,0.965460752951482
comedy,Ziwelbloos,M,retired_farmer,agriculture,lower_class,"
          
Ziwelbloos:

          
(bei Seite)

          
Der het nit viel Kurasch im Lieb! I mueß-m e bissel helfe. 
(laut)
 Also Sie kumme wäje minre Dochter, han sie gsaat.

        
",76,horsch-neui-hosse,34,5,0.1470588235294117,0.0631336018315508,0.0841489736349892,0.6141923628205446,0.03916234462398626,0.4727665274500765,0.0,0.49176202000993896,0.05388861085741918,0.0,0.0,0.6284124649520798
comedy,group,sex_unknown,job_unknown,job_category_unknown,social_class_unknown,"
          
Emil:

          
(gesticulant)

          
Diß haw i nit gsaat, je n'ais pas dis cela, im Gegenteil ! au contraire; diß wär jo was ich — — — 
(bei Seite)
 Jesses mini Hosse! — 
(Steif, laut)
 Diß isch jo mini ganz Hoffnung. 
(Hält die Knie zu.)

          

		
",79,horsch-neui-hosse,60,6,0.1,0.08417813577540106,0.0841489736349892,0.691556888572551,0.05221645949864836,0.6158871967564039,0.0,0.6437958513989136,0.0,0.0,0.0,0.8585493915410641
comedy,Ziwelbloos,M,retired_farmer,agriculture,lower_class,"
          
Ziwelbloos:

          
Haw-i ne doch ewe ganz häwi ge- macht, un jezt fist mer ber Mench schun widder do, wie wenn er e Messer verschlukt hät ? 
(Zu ihm)
 Also ihri ganz Hoffnung ?

        
",80,horsch-neui-hosse,39,5,0.1282051282051282,0.08417813577540106,0.0841489736349892,1.1240162530049893,0.05221645949864836,1.3075808213821594,0.0,0.8822731145436304,0.0,0.0,0.2679663956538163,1.5896971157169255
comedy,group,sex_unknown,job_unknown,job_category_unknown,social_class_unknown,"
          
Emil:

          
Gewiß. Min Babbe wo Sie ganz guet kenne het mi gheiße, — do here gehn, fur um d'Hand 
(bei Seite)
 oh jerum, der lueijt mer d'ganz Zitt uff d'Knej, - 
(laut)
 vun ihrer — 
(b. S.)
 i glaub er het ebbs gsehn, — 
(taut)
 Dochter, — 
(b. S.)
 ’s wurd mer schwach, 
(laut)
 anzehalte, un i denk....

        
",81,horsch-neui-hosse,84,12,0.1428571428571428,0.08417813577540106,0.13209148805011828,1.329985182118483,0.05221645949864836,1.6461816747613185,0.0,1.0261422308118466,0.0,0.0,0.3216041903908652,1.9587269810047527
comedy,Ziwelbloos,M,retired_farmer,agriculture,lower_class,"
          
Ziwelbloos:

          
(b. S.)

          
Aha dißmol het ers doch ge- paket! — 
(laut)
 So also, wärde so witt. Mir ish's ganz erecht. Halt!! zersh noh e Fröij ; kenne Sie au mini Dochter ?

        
",82,horsch-neui-hosse,46,5,0.108695652173913,0.17263207179413614,0.13209148805011828,1.0460418332807975,0.10708523658753259,1.521008502870537,0.0,0.5939995265880869,0.0,0.0,0.3216041903908652,1.646149349872104
comedy,group,sex_unknown,job_unknown,job_category_unknown,social_class_unknown,"
          
Emil:

          
Oh ja, i mein au, ganz guet. - Ziwelbloos: So, wo henn Sie sie denn kenne gelehrt?

        
",83,horsch-neui-hosse,25,4,0.16,0.17263207179413614,0.047942514415129076,1.17828203293836,0.10708523658753259,1.657960509759468,0.0,0.7914641763232956,0.0,0.0,0.3216041903908652,1.853670791304119
comedy,group,sex_unknown,job_unknown,job_category_unknown,social_class_unknown,"
          
Emil:

          
Ai hab sie als zuefällig am Fenschter gsehn, wenn i zuefällig duch bin gange.

        
",84,horsch-neui-hosse,18,2,0.1111111111111111,0.08845393601873505,0.047942514415129076,0.9756497766420995,0.054868777088884234,1.4004777983682257,0.0,0.6394303449343208,0.0,0.0,0.3216041903908652,1.5570740280280435
comedy,Ziwelbloos,M,retired_farmer,agriculture,lower_class,"
          
Ziwelbloos:

          
(b. S.)

          
Zuefälli ! — 
(laut)
 Aha uff die Art. Na junger Mann, i denk die Dame, diß heißt mini Frau, — 
(b. S.)
 miner Drach, — 
(laut)
 un min Döchterle wäre sich zitter vun ihre Huet debarassiert hann, i will ne sauwe daß Sie do sin. 
(Steht auf)
 I kumm im Auesblick mitne erin. 
(Ziwelbloos ab.)

        
",85,horsch-neui-hosse,80,10,0.125,0.08845393601873505,0.047942514415129076,0.7236891651425601,0.054868777088884234,0.8918067833334918,0.06622756642462017,0.45435738973910544,0.0,0.04600628824651744,0.05363779473704892,1.0076740789007312
comedy,group,sex_unknown,job_unknown,job_category_unknown,social_class_unknown,"
          
Emil:

          
Was, au noch, un ich soll sie in dere Klei- dung empfange, jeht awer los! — 
(Zimelbloos mit Salome un Riedele komme her)
 Oh weh, do sin sie jo schun !

           

		
",86,horsch-neui-hosse,41,4,0.0975609756097561,0.21945964401356455,0.3482207514099966,1.0217777448717218,0.16580552556110156,1.01718486590032,0.2047446075577383,0.5525297284825648,0.18430662534842124,0.24120657387813704,0.0989910584180684,1.1118636490983018
comedy,Ziwelbloos,M,retired_farmer,agriculture,lower_class,"
          
Ziwelbloos:

          
(Vorstellend)

          
Liewi Frau, hm, 
(b. S.)
 i grie de Hueschte, 
(laut)
 do stell i der Herr Emil Federköhl vor, un dir liebs Rickele hm, hm, hm, dine zuekünftige Herr Gemahl, Hm; denn der Herr do het grad vori mir dich in b’sh begehrt — un, — un, un wil ihr euch schun kenne ze brüch i au witterfch nix ze sauwe!

        
",87,horsch-neui-hosse,81,8,0.0987654320987654,0.19077481536451213,0.4964030859598528,1.3651208745663497,0.2587866456498534,1.5974500742593687,0.3156320304409653,0.6008843422591466,0.18430662534842124,0.24120657387813704,0.2613059486122798,1.6817725390746336
comedy,group,sex_unknown,job_unknown,job_category_unknown,social_class_unknown,"
          
 Emil:

          
(b. S.)
 Diß isch alles erecht awer i schwitz doch.

        
",88,horsch-neui-hosse,15,1,0.0666666666666666,0.19077481536451213,0.4964030859598528,1.1764163256645166,0.2587866456498534,1.3980458555571667,0.3156320304409653,0.40341969252393783,0.18430662534842124,0.24120657387813704,0.2613059486122798,1.4067506432016175
comedy,Salome,F,,,,"
          
Salome:

          
Ah, ah mossieu, sie mache uns do e großi Ehr, wahrhaft, beaucu d'honnèr ! Ziwelbloos! 
(bei Seite)
 Alle jezt wurds guet, mini Frau fangt schun an franzeesch ze redde.

        
",90,horsch-neui-hosse,41,3,0.073170731707317,0.19077481536451213,0.6996942129759429,1.4158406760890523,0.2587866456498534,1.6627657673940952,0.5074020881014818,0.662563574021411,0.18430662534842124,0.4734861979824447,0.42757484571152543,1.7338049759619252
comedy,Salome,F,,,,"
          
Salome:

          
Awer Ziwelbloos; wie kannsch du nurre denne Herr so encombrirt lonn. — Pardo, mos- sieu, donnez moi votre schabo et votre ba- rablui s’il vu plait. Diß genirt Sie jo.

        
",91,horsch-neui-hosse,41,2,0.048780487804878,0.3574279315314518,0.9858597537713585,1.571321597784838,0.45956495584077023,1.8213152459306372,0.7193116624866945,0.6091592660719097,0.41310125692922756,0.5610633775019185,0.5102087074205858,1.867420973493331
comedy,group,sex_unknown,job_unknown,job_category_unknown,social_class_unknown,"
          
 Emil:

          
(b. S.)
 Nit um alles vun der Welt. 
(Hebt sinni  Löcher mit zue.)
 Oh madame, je vous en prie  lonn Sie nur, er genirt mi gewiß gar nit, nein  pas du tout; un sehn Sie, wenn i nix in der  Hand hab, so komm i mer so dumm vor.

        
",92,horsch-neui-hosse,64,6,0.09375,0.2782878255560445,0.8154280027757308,1.3322473689277197,0.4313861171486493,1.7145800771628337,0.65707923527045,0.3671178110602341,0.3050595087744084,0.41039091445896264,0.6053118783601671,1.7639590538554946
comedy,Ziwelbloos,M,retired_farmer,agriculture,lower_class,"
          
Ziwelbloos:

          
Zei Rickele, ruck emol e paar Stuehl her, i mein mer könnte e bissel size, ’s koscht ein Geld,

		            


        
",94,horsch-neui-hosse,25,3,0.12,0.3980202181361945,0.6672456682258745,1.09836856090483,0.41276736673089365,1.112785324418391,0.7939709977748339,0.2591438814974732,0.30505950877440846,0.6799563006798705,0.4429969881659558,1.1180150552223835
comedy,group,sex_unknown,job_unknown,job_category_unknown,social_class_unknown,"
          
 Emil:

          
 Au noch, alles isch geje mi.

        
",95,horsch-neui-hosse,10,1,0.1,0.6327039806521373,0.6672456682258745,1.583950780078191,0.41276736673089365,1.552477619145722,0.7939709977748339,0.2591438814974732,0.30505950877440846,0.6799563006798705,0.4429969881659558,1.4580972791032376
comedy,Rickele,F,,,,"
          
 Rickele :

          
(zu Emil)
 Voila, sige Sie do here, newe mich,  der Babbe wurds permettire ?

        
",96,horsch-neui-hosse,21,2,0.0952380952380952,0.6327039806521373,0.4639545412097844,1.344526429653655,0.41276736673089365,1.2877577073087934,0.6022009401143175,0.0,0.30505950877440846,0.44767667657556276,0.27672809106671015,1.13104294634293
comedy,Ziwelbloos,M,retired_farmer,agriculture,lower_class,"
          
Ziwelbloos:

          
Wurum nit, mir sin jo do. Un derno, ihr Kinder, ihr hann euch jo noch nit emol der Brutchmuy genn. Allez, embrassez vous. 
(Sie küssen sich)
 So ischs erecht - 
(b. S.)
 Wenn ich an dem sin Platz wärd, brücht mer mi nit ze heiße.

        
",98,horsch-neui-hosse,60,4,0.0666666666666666,0.4660508644851976,0.5217486677880274,1.3544981219223522,0.2119890565399769,1.2299912484697662,0.3240637993044845,0.3063347392775214,0.07626487719360214,0.4010587000742243,0.1940942293576498,1.2983903604011648
comedy,Salome,F,,,,"
          
Salome:

          
Ziwelbloos, du erlaubsch zue viel. Gell, wo mir ghiroth hann, hann mers nit so gemacht. Unseri Eltere, hann dif Dings unter sih üßge- macht, un mir hann uns vor der Hochzitt küm gsehn noch gekennt.

        
",99,horsch-neui-hosse,46,5,0.108695652173913,0.41418526246577547,0.3439596673736587,1.2177062809678556,0.12923114675988043,1.0652175001292838,0.2477791853876108,0.3063347392775214,4.4408920985006264e-17,0.35653087748556056,0.137295170317697,1.0700216977208599
comedy,Ziwelbloos,M,retired_farmer,agriculture,lower_class,"
          
Ziwelbloos:

          
Oh jeh! Pmer jetz kenn i di werli um deschto besser. 
(b. S.)
 I glaub wenn i sie früjer gefennt hät, — — 
(laut)
 Apropos will mer jetz jo nett bisamme sin könnte mer die Gschicht glich ganz in Ordnung bringe. Was meinsch, Salome, statt daß mer mini drei Stüle ins Kretschelmeyers verkaufe, die welle uns ue- werhaupt doch nix derfur genn, — — —

        
",100,horsch-neui-hosse,80,7,0.0875,0.2346837625159429,0.40510446138347644,1.124704391159936,0.0,1.1574056528520447,0.0,0.4181878595023739,4.4408920985006264e-17,0.08696549126465276,0.28626689362032925,1.2673430716011491
comedy,Ziwelbloos,M,retired_farmer,agriculture,lower_class,"
          
Ziwelbloos:

          
Loß mi doch üßredde, ze genn mer sie im Herr — — —

        
",102,horsch-neui-hosse,16,2,0.125,0.026564047719858958,0.40510446138347644,0.7818813821784809,0.06571106541228268,0.937028931125856,0.049283299059212,0.4181878595023739,4.4408920985006264e-17,0.08696549126465276,0.28626689362032925,1.1295352189404966
comedy,Ziwelbloos,M,retired_farmer,agriculture,lower_class,"
          
Ziwelblo os:

          
Do möcht mer uff der Söij furt du alti Säj nit ein Wort kann mer do saa ohne, — — Rickele: 
(Steht auf zu ihnen)
! Awer höre doch uff, vor mim Hochzitter do ze händle, i mueß mi jo schämme !

          
			
		
",104,horsch-neui-hosse,51,6,0.1176470588235294,0.026564047719858958,0.40510446138347644,1.068917333497555,0.06571106541228268,1.364653919825701,0.049283299059212,0.7742165791657153,4.4408920985006264e-17,0.08696549126465276,0.28626689362032925,1.5942600925047117
comedy,Rickele,F,,,,"
          
 Rickele:

          
(Steht auf zu ihnen)
! Awer höre doch uff, vor  mim Hochzitter do ze händle, i mueß mi jo  schämme !

        
",105,horsch-neui-hosse,27,3,0.1111111111111111,0.026564047719858958,0.06114479400981772,0.8664839422597101,0.06571106541228268,1.2946607848870875,0.049283299059212,0.6458961997198646,4.4408920985006264e-17,0.0,0.28626689362032925,1.3439113426486295
comedy,Ziwelbloos,M,retired_farmer,agriculture,lower_class,"
          
Ziwelbloos:

          
Ja liewi Frau, also dini Stückle genn me ne au zue dem, was mer schun versproche hann.

        
",107,horsch-neui-hosse,22,4,0.1818181818181818,0.026564047719858958,0.21368191986414278,0.9923066563653657,0.06571106541228268,1.346151920678203,0.049283299059212,0.9847845638478713,4.4408920985006264e-17,0.0,0.31249235641230727,1.5645757962451174
comedy,Salome,F,,,,"
          
Salome:

          
Oh un der guet Bodde wo sie do befumme, Herr — — —

        
",108,horsch-neui-hosse,16,2,0.125,0.053128095439717915,0.15253712585432508,0.9700865004991185,0.13142213082456536,1.3240297836808692,0.098566598118424,0.8729314436230187,4.4408920985006264e-17,0.0,0.16352063310967502,1.4636893595504699
comedy,Salome,F,,,,"
          
Salome:

          
Der isch jo verschwunde! - Zej luej unter de Disch, siht er nit d'runter, er het ver- licht Angscht griet. Rickele: Do sin ihr d'Schuld, daß er furt isch, mit eurem Ghändels ! 
(Weint)
 — Ament kommt er jezt nimm, hi, hi, hi der Emil, hi, hi, der het schun genue! hi, hi, hi, i geh in minni Stub ! hi, hi, hi. 
(ab rechts.)

        
",110,horsch-neui-hosse,95,5,0.0526315789473684,0.026564047719858958,0.15253712585432508,0.8273272903072126,0.06571106541228268,1.104714210679727,0.049283299059212,0.8729314436230187,4.4408920985006264e-17,0.0,0.16352063310967502,1.2614149883302683
comedy,Ziwelbloos,M,retired_farmer,agriculture,lower_class,"
          
Ziwelbloos:

          
Granateelement, Mohre un Dürke. Dv soll awer glich — —! Hätsch mi Üßredde lonn. Wenn nur der Gückük dini paar Scholle hole dät! 
(fit hin)

        
",111,horsch-neui-hosse,34,2,0.0588235294117647,0.3424542671882646,0.4387026666497408,0.9682335413299649,0.2007783101909168,0.9259218942843525,0.48717575056325746,0.5169027239596773,0.46929006634372195,0.13358346776599123,0.2461544948187353,0.9677908311287358
comedy,Salome,F,,,,"
          
Salome:

          
Diß hawi gewüßt, daß du diß Unglück uff mich schuepfe wursch. Du bisch halt au der Unfehlbar, du hesch au immer erecht, de weisch alles, de kannsch alles, ’s ghört d'r alles, de kennsch alles, un ich soll allewyl alles annemme, jamais!

        
",112,horsch-neui-hosse,54,6,0.1111111111111111,0.4161658805372105,0.4387026666497407,1.1761427948157617,0.24650229109832034,1.089689830535915,0.48717575056325746,0.427895544043842,0.4692900663437219,0.13358346776599123,0.46970040505672095,1.133320685629667
comedy,Ziwelbloos,M,retired_farmer,agriculture,lower_class,"
          
Ziwelbloos:

          
Do soll awer doch glich e Krüttkopf 2 vespringe. Fest fallt d'Madam newer mi her, wie e Katz uss e Müüs. Weisch was, daß de so furt origle kannsch ze geh i nüß, sunsch verzürn. i mi au am End noch. 
(ab links)

          
        
		
",113,horsch-neui-hosse,55,2,0.0363636363636363,0.4161658805372105,0.2861655407954157,0.9221286416790659,0.24650229109832034,0.8457286759070982,0.48717575056325746,0.08900717991583536,0.4692900663437219,0.13358346776599123,0.30617977194704593,0.7712673788659228
comedy,Salome,F,,,,"
          
Salome:

          
So het ers jedesmol, wie i ihm d'Mei- nung sauwe will, ze geht er pleite. Awer wart i griej dich schun widder. 
(ruft)
 Rosalie ! Rosalie! Szene VIII. Salome. — Rosalie.

        
",114,horsch-neui-hosse,45,2,0.0444444444444444,0.6131606533511421,0.2861655407954157,1.117983303347835,0.18079122568603764,0.7879347305695406,0.6806821797172619,0.08900717991583536,0.7818650900869845,0.13358346776599123,0.30617977194704593,0.6666854193663402
comedy,Rosalie,F,cook,service_and_sales,lower_middle_class,"
          
Rosalie:

          
Was beliebt Madam! 
(b. S.)
 Oh, die lueijt awer führ drin; do gitts.

        
",115,horsch-neui-hosse,21,3,0.1428571428571428,0.6131606533511421,0.2861655407954157,1.117983303347835,0.18079122568603764,0.7879347305695406,0.6806821797172619,0.08900717991583536,0.7818650900869845,0.13358346776599123,0.30617977194704593,0.6666854193663403
comedy,Salome,F,,,,"
          
Salome:

          
Het Sie nit e Herre sehn d'Steij nab gehn?

        
",116,horsch-neui-hosse,13,2,0.1538461538461538,0.29727043388273644,0.24720146044769037,0.8542535613325285,0.045723980907403525,0.7971352832194152,0.2427897282132164,0.08900717991583536,0.3125750237432625,0.0,0.22354591023798567,0.8201163293925428
comedy,Rosalie,F,cook,service_and_sales,lower_middle_class,"
          
Rosalie:

          
Doch, Madam, i hab eine gsehn.

        
",117,horsch-neui-hosse,11,1,0.0909090909090909,0.22355882053379053,0.24720146044769037,0.5028263321871946,0.0,0.41955485261792963,0.2427897282132164,0.0,0.3125750237432625,0.0,0.0,0.42222403810950393
comedy,Rosalie,F,cook,service_and_sales,lower_middle_class,"
          
Rosalie:

          
Ja, awer Madam, wie haw ich wisse fönne daß i ne hab anhewe solle? Es wärd uewerhaupt au arri difficil gsin, denn er isch geloffe wie wenn er Fiehr in de Hosse hät ghet!

        
",119,horsch-neui-hosse,41,2,0.048780487804878,0.22355882053379053,0.24720146044769037,0.7190564737032046,0.0,0.567530989393875,0.2427897282132164,0.24588101000496954,0.3125750237432625,0.0,0.0,0.6694501250214978
comedy,Salome,F,,,,"
          
Salome:

          
Sie isch, un blit halt nit gscheit! — Grad dorum het Sies solle duen.

        
",120,horsch-neui-hosse,19,3,0.1578947368421052,0.1474232266978918,0.24720146044769037,0.6674866452750463,0.09144796181480705,0.7657051396294927,0.0,0.24588101000496954,0.0,0.0,0.21481219637166377,0.9329207184078168
comedy,Rosalie,F,cook,service_and_sales,lower_middle_class,"
          
Rosalie:

          
Madam! Sie brüche mir derwäje kein Grobheite ze mache; daß Sie ’s wisse uffs klein Ziel geh i furt un suech mer e-n-andere Platz! I hab schun lang satt do.

        
",121,horsch-neui-hosse,38,6,0.1578947368421052,0.1474232266978918,0.35848593207643925,0.7581298572266992,0.09144796181480705,0.8725864341937595,0.0,0.24588101000496954,0.0,0.0,0.21481219637166377,1.0426618060516917
comedy,Salome,F,,,,"
          
Salome:

          
Ich glaub Sie wurd au noch surios, wäre mir ze geht Sie hin wo Sie will, ’s guet Lob halt Sie nit uff un ich noch viel wenjer. —

		  

        
",122,horsch-neui-hosse,34,6,0.1764705882352941,0.27973522372061266,0.11128447162874885,0.9068666067394133,0.1371719427222106,0.9410980038239518,0.0696795365844748,0.3348881899208049,0.08016514492097185,0.0,0.32519147374603075,1.073556777066826
comedy,Rosalie,F,cook,service_and_sales,lower_middle_class,"
          
Rosalie:

          
Au noch, na do gibts noch emol Grambol! Enfin jezt isch's gschehn! I hab schun lang gsat i blick nimm; was mi noch am meischte do furt- dribt, ish die Hochzitterei. Un der Ander, herje wie isch der geloffe; sechs Staffle hett er uff ein- mol genumme. i hab-m nochgeruefe, ebb er pressiert isch? Awer er het mer nit emol kenn Antwort gewe. Er wurd sich allewej d'heim sinne Schade welle üßbessere lon, ha, ha. 
(lacht)

        
",123,horsch-neui-hosse,99,7,0.0707070707070707,0.33056303179790936,0.21511246725411565,1.112787061241954,0.1861777079203068,1.1591974727816077,0.1527134183512501,0.4111800584200923,0.16317754376134236,0.09195015952247168,0.355173099794323,1.310427718784817
comedy,group,sex_unknown,job_unknown,job_category_unknown,social_class_unknown,"
          
E mil:

          
(Allewyl in der Dhüer)

          
St, pst — Rosalie!

        
",126,horsch-neui-hosse,15,1,0.0666666666666666,0.33056303179790936,0.21511246725411565,1.4463513149530471,0.1861777079203068,1.6207598652699793,0.1527134183512501,0.1652990484151228,0.16317754376134236,0.09195015952247168,1.0430924345416406,1.7528918931231927
comedy,group,sex_unknown,job_unknown,job_category_unknown,social_class_unknown,"
          
Emil:

          
Nit so lüt. — Wo sin Ihri Lytt, ischs g'hier ? Meine Sie, was mir arrewiert isch.

        
",128,horsch-neui-hosse,23,2,0.0869565217391304,0.18313980510001757,0.21511246725411565,1.1593072715205301,0.09472974610549974,1.2610640873707772,0.1527134183512501,0.1652990484151228,0.16317754376134236,0.09195015952247168,0.8282802381699768,1.3917288880162546
comedy,Rosalie,F,cook,service_and_sales,lower_middle_class,"
          
Rosalie:

          
kumme Sie nur erin, Sie könnes do hinne. au verzähle.

        
",129,horsch-neui-hosse,15,1,0.0666666666666666,0.18313980510001757,0.5245728638003128,1.3509858057902318,0.09472974610549974,1.466443851872866,0.1527134183512501,0.1652990484151228,0.16317754376134236,0.09195015952247168,0.8282802381699768,1.6194900725773838
comedy,group,sex_unknown,job_unknown,job_category_unknown,social_class_unknown,"
          
Emil:

          
(kommt herein, gedämpft)
 Also, wo i d'Stäij drunte bin gsin un unter der Hüßdhuer bin gstande, hawi gedenkt ’s fahrt verlicht e Rütsch durch, jo kannsch der inbilde! Ueß Angscht, daß die drowe mer noch komme, ze hawi halt so wie i gewese bin, furt gemüßt.

        
",130,horsch-neui-hosse,60,4,0.0666666666666666,0.16139522810071555,0.5245728638003128,1.1430932855500875,0.11759173655920152,1.2279567840504853,0.0830338817667753,0.07629186849928744,0.08301239884037051,0.09195015952247168,0.7179009607956097,1.3399978011205191
comedy,Rosalie,F,cook,service_and_sales,lower_middle_class,"
          
Rosalie:

          
(lacht)

          
ha, ha, ha!

        
",131,horsch-neui-hosse,11,1,0.0909090909090909,0.11056742002341884,0.420744868174946,0.9371728310475469,0.06858597136110531,1.0098573150928294,0.0,0.0,0.0,0.0,0.6879193347473175,1.1031268594025279
comedy,group,sex_unknown,job_unknown,job_category_unknown,social_class_unknown,"
          
Emil:

          
Lach nit so dumm! — Na diß hätte Sie sehn solle! d’Buewe sin mer nochgeloffe, d'Litt sin stehn gebliwe un hann gelacht. Un ich, bin üßgerisse, wie wenn mi e Hund gebisse hät, un ha mi gschämt wie alles!

           

		
",132,horsch-neui-hosse,51,3,0.0588235294117647,0.11056742002341884,0.5855458418067396,0.4968534093714574,0.06858597136110531,0.5723409357980753,0.0,0.0,0.0,0.0,0.0,0.6297910157447486
comedy,Rosalie,F,cook,service_and_sales,lower_middle_class,"
          
Rosalie:

          
ha, ha, diß glauwi.

        
",133,horsch-neui-hosse,9,1,0.1111111111111111,0.11056742002341884,0.5855458418067396,0.4968534093714574,0.06858597136110531,0.5723409357980753,0.0,0.0,0.0,0.0,0.0,0.6297910157447486
comedy,group,sex_unknown,job_unknown,job_category_unknown,social_class_unknown,"
          
Emil:

          
Wo i heim kumm, isch kein Mensch un kein Seel im Hüß gsin; alles zuebschlosse, un wer mueß widder umkehre, bin ich. Zuem Glück hetts no anfange ze reije, do hawi mi wenigstens hinter mim Barebli versteckle könne, un do bin i halt widder.

        
",134,horsch-neui-hosse,54,6,0.1111111111111111,0.18427903337236473,0.16480097363179363,0.325450670058521,0.11430995226850882,0.4135551145410483,0.0,0.07451530341266188,0.0,0.0,0.0,0.4859958759527677
comedy,Rosalie,F,cook,service_and_sales,lower_middle_class,"
          
Rosalie:

          
Ja, un jet, welle Sie sich doch so widder zaije ?

        
",135,horsch-neui-hosse,15,1,0.0666666666666666,0.07371161334894588,0.16480097363179363,0.6528542634914508,0.045723980907403525,0.6214496613307826,0.0,0.5662773234226008,0.0,0.0,0.0,0.9045137238296007
comedy,group,sex_unknown,job_unknown,job_category_unknown,social_class_unknown,"
          
Emil:

          
Wurum nit gar, bish e Narr. — I hab ge- denkt Sie könnte mer üß der Noth helfe ?

        
",136,horsch-neui-hosse,24,2,0.0833333333333333,0.4591412822859362,0.16480097363179363,1.0602342722145983,0.3768618130305045,0.7998922465779399,0.34302614361090394,0.5662773234226008,0.2051493640089245,0.0,0.0,1.0566368863014302
comedy,Rosalie,F,cook,service_and_sales,lower_middle_class,"
          
Rosalie:

          
Was fallt Ihne in. Wie kann denn ich Ihne do ihri Löcher zuestopfe. 
(b. S.)
 Hein jezt könnt er mi widder brüche. — 
(laut)
 Nein, i kann nit.

        
",139,horsch-neui-hosse,39,1,0.0256410256410256,0.4591412822859362,0.0,0.9507592986635851,0.3768618130305045,0.6278700966083766,0.34302614361090394,0.5662773234226008,0.2051493640089245,0.0,0.0,0.8402824687088405
comedy,group,sex_unknown,job_unknown,job_category_unknown,social_class_unknown,"
          
Emil:

          
(bittend)

          
Oh Rosalie, saa diß nit, i weiß jo, daß de so guet stopfe kannsch! Oh geh, due mer denne Gfalle, denk doch e bissel an friejer zeruck, do hawi der au manche gedohn.

        
",140,horsch-neui-hosse,46,2,0.0434782608695652,0.4591412822859362,0.0,0.9507592986635851,0.3768618130305045,0.6278700966083766,0.34302614361090394,0.5662773234226008,0.2051493640089245,0.0,0.0,0.8402824687088405
comedy,Rosalie,F,cook,service_and_sales,lower_middle_class,"
          
Rosalie:

          
(b. S.)

          
I brings fascht nit üewers Herz.

        
",141,horsch-neui-hosse,13,1,0.0769230769230769,0.3854296689369903,0.0,0.8398402917551671,0.33113783212310094,0.4743948587990481,0.34302614361090394,0.49176202000993896,0.2051493640089245,0.0,0.0,0.6465753362958173
comedy,group,sex_unknown,job_unknown,job_category_unknown,social_class_unknown,"
          
Emil:

          
Seij doch nit so hart un loß di bitte, lueij i kneij vordi. mer glich widder uff, sunsch gibts noch größeri Löcher. — Ah, Sie hann Glück do steht grad der Mamsell ihri Näjlad. — Nemme Sie e Stuehl

        
",142,horsch-neui-hosse,47,6,0.1276595744680851,0.4886535541282355,0.0,0.6698283367235869,0.33113783212310094,0.5514501986863448,0.4303902949117072,0.08900717991583536,0.2051493640089245,0.0,0.1873102888777136,0.47340528681917043
comedy,Rosalie,F,cook,service_and_sales,lower_middle_class,"
          
Rosalie:

          
Jo wäje mir, i will's duen, awer steh - 2 1 - un setze Sie sich do here. 
(Sucht)
 Na find i denn kein Mobel.

        
",143,horsch-neui-hosse,34,1,0.0294117647058823,0.6857890999177039,0.0,1.098950245160265,0.5810232358324225,0.9215097835556424,0.7188412226404172,0.08900717991583536,0.0,0.0,0.1873102888777136,0.43054742744715835
comedy,Ziwelbloos,M,retired_farmer,agriculture,lower_class,"
          
Ziwelbloos:

          
(leise)

          
Poß blitz.

        
",146,horsch-neui-hosse,8,1,0.125,0.8965131749051316,0.0,1.8792128020902155,0.5810232358324225,1.6782046266559896,1.381116886886619,0.08900717991583536,0.0,0.733456215923778,0.1873102888777136,0.903086233320783
comedy,group,sex_unknown,job_unknown,job_category_unknown,social_class_unknown,"
          
Emil:

          
Alle hopp, dummle Sie sich e bissel; Sie fange jo gar nit an.

        
",147,horsch-neui-hosse,18,1,0.0555555555555555,0.8965131749051316,0.0,2.3690922940322867,0.5810232358324225,2.2317147558447887,1.381116886886619,0.08900717991583536,0.0,1.0902377185479946,0.1873102888777136,1.552752654391893
comedy,Rosalie,F,cook,service_and_sales,lower_middle_class,"
          
Rosalie:

          
(suchend)

          
A, i hab halt d'Nodel falle lonn.

        
",148,horsch-neui-hosse,15,3,0.2,1.1373291139010773,0.1907770271969438,2.848994193915425,0.7625160274996523,2.5379349677501226,1.5336861147203664,0.08900717991583536,0.31458126463898617,1.1792933637253218,0.24239953001708714,1.8253181848302709
comedy,Ziwelbloos,M,retired_farmer,agriculture,lower_class,"
          
Ziwelbloos:

          
(Unter d'r Dhüer, hinausgewandt, leise)

          
Zaj Salome, komm emol doher, un gück emol do nin.

        
",149,horsch-neui-hosse,24,2,0.0833333333333333,1.0341052287098322,0.1907770271969438,2.5865458659149856,0.7625160274996523,2.1649273543109357,1.4463219634195632,0.0,0.31458126463898617,1.1792933637253218,0.05508924113937345,1.5040360604829301
comedy,Salome,F,,,,"
          
Salome:

          
Jesses, Maria un Joseph!

        
",150,horsch-neui-hosse,8,1,0.125,0.45154001398337346,0.1907770271969438,2.1635836183867774,0.1814927916672298,2.2574116721234874,0.8148448920799491,0.614106409402952,0.31458126463898617,1.1792933637253218,0.05508924113937345,2.221850096646348
comedy,group,sex_unknown,job_unknown,job_category_unknown,social_class_unknown,"
          
Emil:

          
(sucht)

          
I glaub Sie finde sie nit.

        
",152,horsch-neui-hosse,12,2,0.1666666666666666,0.5549461602753476,0.1907770271969438,1.8343787725861176,0.49479154865911995,1.7964796101082032,0.49307365058051855,0.614106409402952,0.31458126463898617,0.44583714780154404,0.05508924113937345,1.8082292161367068
comedy,Rosalie,F,cook,service_and_sales,lower_middle_class,"
          
Rosalie:

          
Nein. Sie isch allewaj zwische d'Spalte vun de Diehle gerutscht.

        
",153,horsch-neui-hosse,15,1,0.0666666666666666,0.5549461602753476,0.1907770271969438,1.344499280644046,0.49479154865911995,1.2429694809194036,0.49307365058051855,0.614106409402952,0.31458126463898617,0.08905564517732747,0.05508924113937345,1.1585627950655968
comedy,Rosalie,F,cook,service_and_sales,lower_middle_class,"
          
Rosalie:

          
(sieht dieselben)

          
Oh jerum, d'Madam!

        
",155,horsch-neui-hosse,12,1,0.0833333333333333,0.31413022127940204,0.0,0.8645973807609078,0.3132987569918902,0.9367492690140701,0.3405044227467712,0.614106409402952,0.0,0.0,0.0,0.8859972646272191
comedy,Ziwelbloos,M,retired_farmer,agriculture,lower_class,"
          
Ziwelbloos:

          
Aça, voyons, was isch denn do loos? Zaj Frau, lang mer de Beese. Herr Federköhl wotte sie so guet sin un lueje ebb i nit drüsse bin, un schnell!

          

		
",157,horsch-neui-hosse,38,6,0.1578947368421052,0.3848641957140759,0.12190034672994063,1.1321615505298346,0.4450654097176197,1.231521404512593,0.4760606422822208,0.727403207524053,0.11732169421897194,0.08863790455820378,0.07117047682555974,1.1665016105687036
comedy,group,sex_unknown,job_unknown,job_category_unknown,social_class_unknown,"
          
Emil:

          
Oh jeh! jezt isch alles verspielt, alles kapüt! d'Hosse un au noch mini Hochzitterei! — Oh Rickele vergib mer. Rickele: 
(abgewandt)
 Furt, furt, i will nix meh vun d'r wisse. hi, hi, hi 
(weint)
.

        
",158,horsch-neui-hosse,53,3,0.0566037735849056,0.3848641957140759,0.12190034672994063,0.718621880898217,0.4450654097176197,0.590534916583586,0.4760606422822208,0.1132967981211009,0.11732169421897194,0.08863790455820378,0.07117047682555974,0.3394222713054683
comedy,Ziwelbloos,M,retired_farmer,agriculture,lower_class,"
          
Ziwelbloos:

          
Ja höre Sie, sin Sie denn noch nitdrüsse ?

        
",160,horsch-neui-hosse,12,1,0.0833333333333333,0.07073397443467386,0.12190034672994063,0.7000244528009462,0.1317666527257295,0.590724409050414,0.13555621953544955,0.6050588181310399,0.11732169421897194,0.08863790455820378,0.07117047682555974,0.7749565197654723
comedy,group,sex_unknown,job_unknown,job_category_unknown,social_class_unknown,"
          
E mil:

          
Uff de Kneij wott i sie bitte — 
(b. S.)
 wenn i könnt, 
(laut)
 — ’s isch jo nit minni Schuld!

        
",162,horsch-neui-hosse,30,4,0.1333333333333333,0.07073397443467386,0.12190034672994063,0.807662934545599,0.1317666527257295,0.7510837798128559,0.13555621953544955,0.738569588004793,0.11732169421897194,0.08863790455820378,0.07117047682555974,0.949228347352053
comedy,Ziwelbloos,M,retired_farmer,agriculture,lower_class,"
          
Ziwelbloos:

          
Nit Ihri Schuld! Ja bin ich oder Sie dorte gsesse ?

        
",163,horsch-neui-hosse,14,2,0.1428571428571428,0.07073397443467386,0.12190034672994063,1.0238930760616087,0.1317666527257295,0.8990599165888012,0.13555621953544955,0.9844505980097624,0.11732169421897194,0.08863790455820378,0.07117047682555974,1.1964544342640469
comedy,Salome,F,,,,"
          
Salome:

          
C'est tu 
(tout)
 juste ! un was hann sie denn dorte gemacht?

        
",164,horsch-neui-hosse,17,1,0.0588235294117647,0.0,0.0,0.7563289062926819,0.0,0.6042877810902781,0.0,0.8711537998886616,0.0,0.0,0.0,0.9159500883225624
comedy,group,sex_unknown,job_unknown,job_category_unknown,social_class_unknown,"
          
Emil:

          
Ei ’s Rosalie hett mer ebs an de Hofe ze ranschiere ghett.

        
",165,horsch-neui-hosse,15,1,0.0666666666666666,0.0,0.0,0.7563289062926819,0.0,0.6042877810902781,0.0,0.8711537998886616,0.0,0.0,0.0,0.9159500883225624
comedy,Ziwelbloos,M,retired_farmer,agriculture,lower_class,"
          
Ziwelbloos:

          
Was hör ich! Un ich soll au noch dem mini Dochter genn? Gell Rickele witt ne nimm, i wott ne au nimm! Rickele: hi, hi, hi, der wüesht Mensch, er soll anne gehn wo er here kumme isch!

        
",166,horsch-neui-hosse,50,4,0.08,0.0,0.1051862170437365,0.39444905981600076,0.0,0.3864007723049763,0.0,0.3793917798787226,0.0,0.0,0.0,0.5058734825498258
comedy,group,sex_unknown,job_unknown,job_category_unknown,social_class_unknown,"
          
Emil:

          
(traurig)

          
So geh i halt. Adje, leb wohl! 
(lang- sam ab)
.

        
",167,horsch-neui-hosse,22,6,0.2727272727272727,0.07371161334894588,0.19085094241340514,0.5634244908010629,0.045723980907403525,0.504825909137655,0.0,0.32256968176098877,0.07185148114322558,0.0,0.09291184964172296,0.5751048078196351
comedy,Rosalie,F,cook,service_and_sales,lower_middle_class,"
          
Rosalie:

          
(im Hintergrund)

          
Do bin i Madam!

        
",169,horsch-neui-hosse,11,1,0.0909090909090909,0.07371161334894588,0.19085094241340514,0.347194349285053,0.045723980907403525,0.35684977236170967,0.0,0.07668867175601922,0.07185148114322558,0.0,0.09291184964172296,0.32787872090764136
comedy,Salome,F,,,,"
          
Salome:

          
Zeij komm do her, un saa mer emol wie du do derzue kummsch. Isch diß e Art, hein, daß du im erschte beschte an de — —

		  

        
",170,horsch-neui-hosse,33,1,0.0303030303030303,0.07371161334894588,0.19085094241340514,0.347194349285053,0.045723980907403525,0.35684977236170967,0.0,0.07668867175601922,0.07185148114322558,0.0,0.09291184964172296,0.32787872090764136
comedy,Ziwelbloos,M,retired_farmer,agriculture,lower_class,"
          
Ziwelbloos:

          
Halt! Salome, diß saa ich, fur dich schickt sichs nit, — an de Kleider erum flisch ? hein !

        
",171,horsch-neui-hosse,25,1,0.04,0.5159812934426212,0.19085094241340514,0.7674211076814125,0.3200678663518247,0.7090806794103355,0.0,0.07668867175601922,0.07185148114322558,0.0,0.09291184964172296,0.6316160246962592
comedy,Rosalie,F,cook,service_and_sales,lower_middle_class,"
          
Rosalie:

          
Ja Madam, er isch derwylsch als sie furt sin gewese, do here kumme, un isch uewerem do here gehn gstulpert un het sich alli zwei Kneij durchgstoße.

        
",172,horsch-neui-hosse,33,3,0.0909090909090909,0.5159812934426212,0.2259130147613173,0.9351013475438652,0.3200678663518247,0.8337531921831619,0.0,0.24060934509266554,0.07185148114322558,0.0,0.09291184964172296,0.8245586053213388
comedy,Rickele,F,,,,"
          
Ri dele:

          
(freudig)
 Oh! i habs gewüeßt, er isch unschuldi.

        
",173,horsch-neui-hosse,16,2,0.125,0.44226968009367534,0.14024828939164866,0.8188775022272832,0.27434388544442123,0.7717736344602443,0.0,0.16392067333664634,0.0,0.0,0.28319531770797174,0.940888070024344
comedy,Salome,F,,,,"
          
Salome:

          
Ja wurum hett sie diß nit glich gsaat? Sie isch halt allewyl d'Nämlich!

        
",174,horsch-neui-hosse,18,3,0.1666666666666666,0.5896929067915672,0.14024828939164866,1.2863713144457773,0.36579184725922825,1.191014204415189,0.0,0.3278413466732927,0.0,0.0,0.5125017626237443,1.436847982978669
comedy,Ziwelbloos,M,retired_farmer,agriculture,lower_class,"
          
 Ziwelbloos:

          
 Un diß alles hett so e Mordthat  genn. Fett kaun i mir au denne Ambarra vor-  stelle wo drinne gsteckt isch !

        
",175,horsch-neui-hosse,26,3,0.1153846153846153,0.5896929067915672,0.14024828939164866,1.2863713144457773,0.36579184725922825,1.191014204415189,0.0,0.3278413466732927,0.0,0.0,0.5125017626237443,1.436847982978669
comedy,Rickele,F,,,,"
          
 Rickele:

          
 Drum isch er au so stis gsin. Oh, Babbe,  liewer Babbe, un jezt hesch ne au noch furtgschikt,  zue sim Unglück!

        
",176,horsch-neui-hosse,29,4,0.1379310344827586,0.1474232266978918,0.14024828939164866,0.8661445560494176,0.09144796181480705,0.8387832973665633,0.0,0.3278413466732927,0.0,0.0,0.5125017626237443,1.1331106791900512
comedy,Ziwelbloos,M,retired_farmer,agriculture,lower_class,"
          
Ziwelbloos:

          
C'est vrai ma fille! — ja wottsch ne denn doch noch? Rickele: Oh Babbe, i hab ne so gern. Er kann jo nix derfur, daß im diß arrewiert isch.

        
",177,horsch-neui-hosse,38,3,0.0789473684210526,0.1474232266978918,0.12464259564082243,0.912659338052092,0.09144796181480705,0.917788681237646,0.0,0.5058557065049634,0.0,0.07127083144997418,0.7135171017554125,1.2714923520903725
comedy,Rosalie,F,cook,service_and_sales,lower_middle_class,"
          
Rosalie:

          
(b. S.)
'S ish doch nit ganz eso wie i gsaat hab!

        
",178,horsch-neui-hosse,17,1,0.0588235294117647,0.1474232266978918,0.12464259564082243,1.074627183214272,0.09144796181480705,1.2026483326223611,0.0,0.8039522854358593,0.0,0.07127083144997418,0.43032178404744065,1.5172951441990539
comedy,Salome,F,,,,"
          
Salome:

          
Könnt mer denne junge Mensch nit zu- ruck hole lonn.

        
",179,horsch-neui-hosse,14,3,0.2142857142857142,0.27289421224788646,0.31541962283776626,0.9939282698197033,0.2192759766123032,1.014161663360746,0.40034841322135817,0.6400316120992129,0.1525297543872042,0.42989186284820946,0.25610458027104166,1.2025675995191238
comedy,Ziwelbloos,M,retired_farmer,agriculture,lower_class,"
          
Ziwelbloos:

          
Diß isch e idé, Alti!! komm her, griesch e Schmuß derfur. So. — Rosalie lauft sie im noch un bringt ne sicher mit, sunsch rauchts! 
(Rosalie ab.)

        
",180,horsch-neui-hosse,40,2,0.05,0.27289421224788646,0.31541962283776626,0.9939282698197033,0.2192759766123032,1.014161663360746,0.40034841322135817,0.6400316120992129,0.1525297543872042,0.4298918628482095,0.25610458027104166,1.2025675995191238
comedy,Rickele,F,,,,"
          
Rickele:

          
Ich dank euch vielmol, liewi Eltere, ohne ihne, hät i nimm lewe könne.

		  

        
",181,horsch-neui-hosse,19,4,0.2105263157894736,0.27289421224788646,0.4679567486920913,1.139827352198394,0.2192759766123032,1.1841347496015906,0.40034841322135817,0.855979471224735,0.1525297543872042,0.4298918628482095,0.41962521338071673,1.441007862826871
comedy,Ziwelbloos,M,retired_farmer,agriculture,lower_class,"
          
Ziwelbloos:

          
Oh Schmerz! diß glaub i nit. Kumm emol noch de Flitterwuche. 
(b. S.)
 Bi uns ischs noh andersch gsin, mir hann gar keini ghett. 
(Rosalie kommt mit Federköhl.)

        
",182,horsch-neui-hosse,40,4,0.1,0.27289421224788646,0.5328543263203839,1.044034595949193,0.2192759766123032,1.0490064869257312,0.40034841322135817,0.6913202471728253,0.1525297543872042,0.42830491862952763,0.3643885663369119,1.2981901436479597
comedy,Ziwelbloos,M,retired_farmer,agriculture,lower_class,"
          
Ziwelbloos:

          
Gott sei Dank. Also so verlauft ihr Sach. Zaije sie uns doch emol ihri Schade?

        
",185,horsch-neui-hosse,20,3,0.15,0.27289421224788646,0.6996486597384697,0.9001879740981952,0.2192759766123032,0.8526720084134907,0.4327423540091682,0.5810396015329558,0.1525297543872042,0.42830491862952763,0.5770168798058352,0.9537739586305214
comedy,Ziwelbloos,M,retired_farmer,agriculture,lower_class,"
          
Ziwelbloos:

          
ha, ha, ha. 
(Alle lachen)
.

        
",187,horsch-neui-hosse,13,1,0.0769230769230769,0.0,0.5088716325415258,0.5133930752742698,0.0,0.6219181077201613,0.03239394078781002,0.5810396015329558,0.0,0.06968388723129229,0.5219276386664616,0.7725415903561264
comedy,Ziwelbloos,M,retired_farmer,agriculture,lower_class,"
          
Ziwelbloos:

          
Famos, die sin jo a schur 
(jour)
 wie e paar alti Strümpf, i versteh ihri Verlejeheit. Am End find sie au noch neij?

        
",188,horsch-neui-hosse,31,2,0.064516129032258,0.29128260736322936,0.5088716325415258,0.9316440338541826,0.2905116179162113,0.8961691927783887,0.34813247645761697,0.5810396015329558,0.0,0.06968388723129229,0.5219276386664616,0.8271742419060351
comedy,Salome,F,,,,"
          
Salome:

          
(gerührt)

          
Ach, der guet Mensch! Ridel e: Ha, ha, ha, armer Emil! ziwelbloos: Komme Sie here liewer Sohn, lonn Sie sich an min Herz drude.

        
",190,horsch-neui-hosse,39,6,0.1538461538461538,0.33797896351225626,0.4517230202856727,0.8501517729544181,0.33553403284242267,0.7669482782463513,0.4244170903744906,0.3650917424074338,0.0762648771936021,0.11421170981995603,0.3859516261264734,0.6264304457182056
comedy,Ziwelbloos,M,retired_farmer,agriculture,lower_class,"
          
Ziwelbloos:

          
Do hann Sie minni Docter, 
(b. S.)
 i bin doch froh, daß er sie noch will, bekumme mer sie doch los! 
(laut)
 Awer eins will i ne noh fan, genn sie besser uff sie acht als uf ihri neije Hosse! 
(Vorhang fällt.)

        
",192,horsch-neui-hosse,57,8,0.1403508771929824,0.37661309613880073,0.4166714305811521,0.9011506160946897,0.33553403284242267,0.8973169404984336,0.4244170903744906,0.4360505722090375,0.0762648771936021,0.1061710795931267,0.36539791524893406,0.6685429507638428
