Unnamed: 0,drama_type,speaker,sex,job,job_category,social_class,text,progress,short_name,numTokens,numLexTokens,avgLexVal,lexRatio
0,comedy,Steinle,M,rentier,rentiers,upper_class,"
          
Steinle :

          
(sitzt im Fauteuil und liest in einem grossen dicken Buche)

          
Die Gesundheit ist des Menschen höchstes und teuerstes Gut. 
          
(spricht)
 Stimmt, diss Buch red't d'Wohrheit, denn e kranker Mensch isch niemols g'sund,
          un wie d'r Mensch nit füer sini G'sundheit sorit, no hett's... 
          
(es schellt)
 g'schellt.... stimmt, no hett's g'schellt ! 
          
(ruft)
 Daniel, Daniel! 
          
(es schellt wieder ; Steinle steht auf, geht an die Türe links und ruft hinaus)
 Daniel
          !

        
",0,clemens-gift,97,6,0.0,0.061855670103092786
3,comedy,Daniel,M,domestic_worker,elementary_professions,lower_class,"
          
Daniel:

          
I-ich hab grad d' Müsfall g'stellt, no haw-ich mr noch d'r Finger verquetscht.

        
",1,clemens-gift,17,1,0.0,0.058823529411764705
4,comedy,Steinle,M,rentier,rentiers,upper_class,"
          
Steinle :

          
's wurd nit g'fährli sinn — gehn un mache-n-uff. 
          
(Daniel rechts ab: Steinle legt das Buch auf den Tisch.)
 Wer wurd diss sinn, wo jetzt
          kummt, allewäj d'r Barickes !

        
",2,clemens-gift,41,2,0.0,0.04878048780487805
5,comedy,Anselm,M,,,,"
          
Anselm :

          
(von rechts kommend)

          
Buschur. Herr Steinle, ich will fröje, ob ich Eich ebs mit soll bringe üs d'r Stadt, ich fahr doch
          grad nin mit-em Tram, e Kommission mache.

        
",2,clemens-gift,39,4,0.0,0.10256410256410256
6,comedy,Steinle,M,rentier,rentiers,upper_class,"
          
Steinle:

          
Doch, Anselm, diss isch grad recht, ass-r fröje... Ihr kennte m'r üs d'r Drogerie von dem Gift
          ""Ratten- und Mäusetod"" mitbringe. Ich hab in letschter Zitt so schrecklich viel Mies in mim Hüss, bis
          in d' Stubb kumme se m'r sogar ; es isch vun nix andersch als vun d'r Mälzerei do newe-n-uns.

        
",3,clemens-gift,67,7,0.6990837160377276,0.1044776119402985
8,comedy,Steinle,M,rentier,rentiers,upper_class,"
          
Steinle :

          
(gibt ihm Geld)

          
Ebä, do Anselm, bringe mir e Päckel mit für e Franke, will Ihr doch grad in d' Stadt fahre,
          gelle!... Un wie isch's mit-em Eise do hinte am Hals, isch-r noch nit zitti ?

        
",4,clemens-gift,49,3,0.0,0.061224489795918366
9,comedy,Anselm,M,,,,"
          
Anselm :

          
Ich glaub, ass-r jetz doch uffgeht... es wär au ball Zitt, es isch jetzt schun in d'r vierte Wuch,
          dass ich ne hab.

        
",4,clemens-gift,30,2,1.3044798241456912,0.06666666666666667
10,comedy,Steinle,M,rentier,rentiers,upper_class,"
          
Steinle :

          
Nurre nit verzwifelt, Anselm, ich bring-ne schun uf, numme d' Bäbb vun Hanfsoot un Söjbohnemehl so
          heiss ufgelajt, wie Ihr's verlide kenne ; — uf muss-r un wenn alles hin geht.

        
",5,clemens-gift,39,5,0.0,0.1282051282051282
11,comedy,Anselm,M,,,,"
          
Anselm :

          
(kratzt sich hinter dem Ohr)

          
Jo, jo — — wenn ich awer emol zuem Dokter dätt gehn...

        
",5,clemens-gift,23,1,0.0,0.043478260869565216
12,comedy,Steinle,M,rentier,rentiers,upper_class,"
          
Steinle :

          
(böse werdend)

          
Seje mr still, kenn Wort vom Dokter ; den der geht anne un schnied Ejch glich e Stück üss-em Hals un
          verderbt Ejch's Blüet mit Salwe. — — Do, noch dem Buech tu ich Ejch küriere, diss isch meh wert wie
          zehn Dokter !... Ah, un was ich noch fröje will, hann-r die Nacht guet kenne schlofe uf dene Tee, wo
          ich Ejch gänn hab ?

        
",6,clemens-gift,81,12,0.2680040539043411,0.14814814814814814
13,comedy,Anselm,M,,,,"
          
Anselm :

          
Nit vum Beschte, ich hab mich d' ganz Nacht vun einere Sitt uf d' ander gewälzt.

        
",6,clemens-gift,20,2,0.0,0.1
14,comedy,Steinle,M,rentier,rentiers,upper_class,"
          
Steinle :

          
So, so — — 
          
(schaut im Buche nach)
 no browiere mrs emol hienicht mit 
          
(liest)
""Mohn mit echtem Bienenhonig"" 
          
(spricht)
 Mohn, diss isch Maashüchel — diss trinke-nr, no schlofe-nr wie e Roller ! 
          
(holt im Büffet eine Flasche mit Schnaps und zwei Gläschen)
 Jetz welle-mr noch e Träwerle
          päckle. 
          
(schenkt ein)
 G'sundheit, Anselm ! 
          
(trinken)
 Der isch famos, hä ?—

        
",7,clemens-gift,83,2,0.0,0.024096385542168676
15,comedy,Anselm,M,,,,"
          
Anselm :

          
Exelänt isch'r, Herr Steinle ; wisse-nr, ich versteh ebs vum Schnaps, miner Babbe isch früehjer
          Fuhrmann g'sinn in-ere Schnapsbrennerej ..... ja, un ich will mich uf d' Hinterfüess mache, alle, merci
          au ...

        
",7,clemens-gift,41,5,0.0,0.12195121951219512
16,comedy,Steinle,M,rentier,rentiers,upper_class,"
          
Steinle :

          
Nit d'rwärt, Anselm, un vergesse mr diss Gift nit !

        
",8,clemens-gift,15,2,0.0,0.13333333333333333
17,comedy,Anselm,M,,,,"
          
Anselm :

          
Aba — — ich denk dran, adje, Herr Steinle !

        
",8,clemens-gift,14,2,0.0,0.14285714285714285
18,comedy,Steinle,M,rentier,rentiers,upper_class,"
          
Steinle :

          
Adje, Anselm ! 
          
(Anselm rechts ab.)

        
",9,clemens-gift,12,1,0.0,0.08333333333333333
19,comedy,Steinle,M,rentier,rentiers,upper_class,"
          
Steinle :

          
No wurd doch die Plöj mit dene Mies ufhöere... Wieviel Ühr isch denn au ? 
          
(schaut nach)
 Was, schun glich füenf! E Nuntebuckel, geht die Zitt erum, jetz muess d'r
          Barickes jede Aujesblick kumme, denn morje isch Sundaa... 
          
(geht in der Stube umher, am Abreisskalender bleibt er stehn, reisst einen Zettel ab)
 So,
          welle-mr wieder eine abrisse...; wie mr so e Zettel abrisst, ze isch-mr au e Daa älter, un so risst-mr
          einer noch-em andere ab bis-mr uf einmol selwer abgerisse isch un no isch fini. Awer e Kalender hett
          diss guete an sich, ass-r no wieder von vorne anfangt, awer bim Mensche isch üss un ""Amen"". 
          
(wirft den abgerissenen Zettel fort)
 Morje hätte-mr also wieder e roter. 
          
(liest)
 Sonntag, den 28. September 
          
(sinnend)
""Dr 28. September 1913"". E Nuntebibb, do haw-ich jo morje Geburtsdaa ! Do bin
          ich jo morje 60 Johr alt ; — — 60 Johr, un noch e so frisch un g'sund wie e-n-Eichel ! Diss haw-ich
          alles do dem Buech ze verdanke, diss erhalt mir mini G'sundheit, 
          
(küsst das Buch)
60 Johr, d'juchheirassa !! 
          
(macht einen Luftsprung, schreit auf und hält sich das rechte Bein)
 Autsch ! Uh!... 
          
(hinkt an den Fauteuil, lässt sich hineinfallen)
 Uh, wie duet mir uf einmol diss Bein so
          weh... diss sinn die kaiwe Rumatisse. 
          
(ruft)
 Daniel — Daniel !!

        
",9,clemens-gift,282,24,0.20389941717767054,0.0851063829787234
21,comedy,Steinle,M,rentier,rentiers,upper_class,"
          
Steinle :

          
Do kumme here un griffe emol, ob ich wieder kalti Füess hab, ich hab wieder Rumatisse.

        
",10,clemens-gift,21,4,0.5711565909931776,0.19047619047619047
22,comedy,Daniel,M,domestic_worker,elementary_professions,lower_class,"
          
Daniel:

          
(zieht Steinle die Pantoffeln aus und befühlt die Füsse)

          
D'r links isch warm, un d'r rechts - ho - ho - ho, der isch kalt wie-n-e Iszapfe am Neujohr !

        
",11,clemens-gift,38,3,0.0,0.07894736842105263
23,comedy,Steinle,M,rentier,rentiers,upper_class,"
          
Steinle :

          
Ze hole glich e warme Socke — zeje m'r d'r linkse Pantoffel wieder an, d'r links Füess isch jo
          warm.

        
",11,clemens-gift,24,3,0.0,0.125
24,comedy,Daniel,M,domestic_worker,elementary_professions,lower_class,"
          
Daniel:

          
(zieht Steinle den Pantoffel an, zieht zu fest, rutscht aus und fällt hin)

          
Ho - ho - hoi, do lejt-r !

        
",12,clemens-gift,28,2,1.8857607338274862,0.07142857142857142
25,comedy,Steinle,M,rentier,rentiers,upper_class,"
          
Steinle :

          
(wütend)

          
Ze stehn au wieder uf un mache, dass der Socke glich kummt.

        
",12,clemens-gift,19,2,0.0,0.10526315789473684
27,comedy,Steinle,M,rentier,rentiers,upper_class,"
          
Steinle :

          
Der Mensch wurd alle Daa dauwer, ich glaub, der grejt als d'r Gänsdirmel. 
          
(reibt den Fuss)
 Die kaiwe Rumatisse ! 
          
(ruft)
 Daniel ! Herrschaft, wurd's ball mit dem Socke ?!

        
",13,clemens-gift,42,3,0.0,0.07142857142857142
28,comedy,Daniel,M,domestic_worker,elementary_professions,lower_class,"
          
Daniel :

          
(kommt von links, hat einen roten Socken in die Schürze eingewickelt)

          
Do - do - do haw-ich ne ! 
          
(zieht Steinle denselben umständlich an)
 Ho-hoppla, er isch drinne - er isch guet wärm,
          galle Meischter ?

        
",14,clemens-gift,45,3,0.0,0.06666666666666667
29,comedy,Steinle,M,rentier,rentiers,upper_class,"
          
Steinle :

          
Ah ! dess macht guet, füer Rumatisse isch halt nix besser wie warmi Füess, däjlich dreimol abwäsche
          mit Keschtebluescht un uf d' Nacht inriewe mit Ameisespiritüs, so steht's in dem Buech. 
          
(Trägt nun am rechten Fuss den Socken, am linken den Pantoffel.)

        
",14,clemens-gift,53,7,0.0,0.1320754716981132
30,comedy,Daniel,M,domestic_worker,elementary_professions,lower_class,"
          
Daniel :

          
Mr sott's gar nitt füer mejli halte, ass im e Buech so heilsami Sache kenne stehn ; wo hann-r dann
          dess Buech numme häre ?

        
",15,clemens-gift,29,2,0.0,0.06896551724137931
31,comedy,Steinle,M,rentier,rentiers,upper_class,"
          
Steinle :

          
Vore Johre drissig haw-ichs kauft vum e Grimpler in d'r Stadt un es rejt mich nit, denn es hett mr
          schun grossi Dienschte geleischt. 
          
(es schellt).

        
",15,clemens-gift,33,1,0.0,0.030303030303030304
33,comedy,Steinle,M,rentier,rentiers,upper_class,"
          
Steinle:

          
Gehn un mache-n-uf. 
          
(Daniel rechts ab)
 Es wurd d'r Barickes sinn — 
          
(steht auf)
 ah! es geht schun wieder, ich g'spier fascht nix meh — was doch e warmer
          Socke üsmacht.

        
",16,clemens-gift,43,2,0.0,0.046511627906976744
34,comedy,Daniel,M,domestic_worker,elementary_professions,lower_class,"
          
Daniel :

          
(hereinkommend)

          
Mei - Meischter, as isch iemes do, rote-n-emol wer ?

        
",17,clemens-gift,19,1,0.0,0.05263157894736842
36,comedy,Robert,M,,,,"
          
Robert:

          
(von rechts kommend)

          
Ich bin's Unkel! Bonjour Unkel, wie geht's ? — Do haw-ich e Strüss füer Dich züe Dim 60. Geburtsdaa
          morje, un ich soll Dich vielmols grüesse von d'r Mama un Dir viel Glück wünsche züe Dim Geburtsdaa ; un
          dem Wunsch von minere Mamme schliess ich mich voll un ganz an !

        
",18,clemens-gift,64,12,0.35803280276567623,0.1875
37,comedy,Steinle,M,rentier,rentiers,upper_class,"
          
Steinle :

          
(gerührt)

          
Merci Robert, vielmols merci, dess frajt mich, dass Ihr an mine Geburtsdaa gedenkt hann, ich hätt's
          jo fascht vergesse, — un dess isch schöen von Dir, ass Dü mich wieder emol b'suechsch, denn Dü bisch
          schun lang nim bie m'r g'sinn. Awer kumm, laj ab. — Daniel, do nemme im Robert sini Sache un traue se
          ins Fremdezimmer un no gehn-'r-nab in de Keller un hole e Fläschl, von dene mit Spinnhuddle dran —

        
",18,clemens-gift,92,6,0.0,0.06521739130434782
40,comedy,Daniel,M,domestic_worker,elementary_professions,lower_class,"
          
Daniel:

          
Wie Ihr saue, so wurd's gemacht, Meischter. 
          
(nimmt Robert den Überzieher ab, legt ihn auf den Arm, den Hut setzt er auf seinen Kopf und geht
          links ab; für sich sprechend)
 Des Fläschl trink ich uf sini G'sundheit.

        
",20,clemens-gift,50,4,0.0,0.08
41,comedy,Steinle,M,rentier,rentiers,upper_class,"
          
Steinle :

          
So — un jetz kumm un setz Dich do here, no welle-mr e bissel verzehle.

        
",20,clemens-gift,19,1,0.0,0.05263157894736842
42,comedy,Robert,M,,,,"
          
Robert :

          
Bon, Unkel. — Un wie geht's D'r denn allewill ? Immer noch frisch un munter ?! Awer was hesch am
          Füess, dass De e Socke anhesch ?

        
",21,clemens-gift,34,3,0.793399333134735,0.08823529411764706
43,comedy,Steinle,M,rentier,rentiers,upper_class,"
          
Steinle :

          
Ah — nit schlimm, ich hab grad ewe so e Schmerz nin bekumme, so e-n-Art Rumatisse — 's isch schun
          wieder besser.

        
",21,clemens-gift,29,5,0.0,0.1724137931034483
44,comedy,Robert,M,,,,"
          
Robert :

          
Oho, Rumatisse hesch, do will ich Dir glich e guets Mittel drgeje — —

        
",22,clemens-gift,18,2,0.0,0.1111111111111111
45,comedy,Steinle,M,rentier,rentiers,upper_class,"
          
Steinle :

          
Pscht, pscht, ich brüch kenn Mittel von Dir — ich kürier mich selwer. Do min Buch ! —

        
",22,clemens-gift,23,2,0.0,0.08695652173913043
46,comedy,Robert,M,,,,"
          
Robert :

          
Hesch denn dess Buch als noch ! Do bisch noch nit güet uf Dokter ze spreche, witt noch nix vun-ene
          wisse ?

        
",23,clemens-gift,25,3,0.0,0.12
47,comedy,Steinle,M,rentier,rentiers,upper_class,"
          
Steinle :

          
Robert, Dü kennsch mini Abneigung geje Dokter. Zitter zellemols, wie ich die innerlich Krankheit hab
          g'hett, un kenn Dokter hett mich g'sund gebrocht, bis ich per Züfall zue dem Buch bin kumme — un dess
          hett mich küriert. Von dert eweg will ich nix meh vun de Dokter wisse ! Un wieviel Litt haw-ich schun
          g'holfe oder doch Linderung verschafft.

        
",23,clemens-gift,69,10,0.22846263639727105,0.14492753623188406
49,comedy,Steinle,M,rentier,rentiers,upper_class,"
          
Steinle :

          
Nit ütze, Robert! — Unseri Bas Theres hätt sicher noch vierzehn Daa länger gelebt, wenn ich se
          behandelt hätt, zellemols, wie se d'r Schlaa getroffe hett, anstatt dass mr se ins Spital gemacht hett
          !

        
",24,clemens-gift,43,5,0.0,0.11627906976744186
50,comedy,Robert,M,,,,"
          
Robert :

          
(lachend)

          
O hör Unkel, bi-n-re Fräu vun 82 Johr — was heisst do vierzehn Daa —

        
",25,clemens-gift,23,1,0.0,0.043478260869565216
51,comedy,Steinle,M,rentier,rentiers,upper_class,"
          
Steinle :

          
So! — Vierzehn Daa sin als wieder zwei Wuche! Awer die im Spital un die Dokter zamme kenne nix ass
          wie glich am Mensche erumschniede oder eine mit Pulver un dene Dreckpille un Medizine vergifte, un 
          
no eim noch e Hüffe Geld abnemme für ihri Plöjerej un Litschinderej !

        
",25,clemens-gift,54,6,0.0,0.1111111111111111
52,comedy,Robert,M,,,,"
          
Robert :

          
(aufstehend)

          
Höer Unkel! ich loss d'r Dokter stand nit schlecht mache vun Dir, denn ich will Dir mitteile, dass
          ich vor drei Daa mine Exame gemacht hab als Dokter.

        
",26,clemens-gift,37,7,0.5773910260804541,0.1891891891891892
53,comedy,Steinle,M,rentier,rentiers,upper_class,"
          
Steinle :

          
So, so, Dokter bisch!— Ja un jetz ? !

        
",26,clemens-gift,15,2,0.0,0.13333333333333333
54,comedy,Robert,M,,,,"
          
Robert:

          
Un jetz !? — Jetz haw-ich eso gedenkt. Diner Exame als Dokter hesch gemacht, jetz gehsch zum Unkel,
          stehsch vor-ne, laisch-em d' Hand uf d' Achsel un saasch: ""Unkel, Dü bisch rich, gib mir 5000 Franke
          füer e Stell als Dokter ze üewernemme, wo mir angebotte isch worre.""

        
",27,clemens-gift,62,6,0.0,0.0967741935483871
55,comedy,Steinle,M,rentier,rentiers,upper_class,"
          
Steinle:

          
Un dr Unkel wurd die Hand erab mache vun sinere Achsel, wurd Dir de Buckel drähje un wurd saue :
          ""Min liewer Herr Dokter: Nix ze mache.""

        
",27,clemens-gift,34,4,0.0,0.11764705882352941
56,comedy,Robert,M,,,,"
          
Robert :

          
Unkel, dass De eso bisch gege dine Neveu, dess hätt ich nit gedenkt !— Was wurd do d' Mamme
          saue?

        
",28,clemens-gift,26,2,0.9810948990118019,0.07692307692307693
57,comedy,Steinle,M,rentier,rentiers,upper_class,"
          
Steinle :

          
(heftig)

          
Wurum isch mim Rot nit g'follit worre! Hättsch ebs rächts gelehrt, wärsch Mürer worre, wie ich,
          anstatt Dokter! — sigsch, hättsch ufs Bäufach stüdiert wie ichs hab welle hann, no hättsch min G'schäft
          kennte üewernemme, anstatt dass ich's in fremdi Händ müess genn ; — awer nein, Dokter hett-r müen wäre
          !

        
",28,clemens-gift,67,6,0.25423598385739105,0.08955223880597014
58,comedy,Robert,M,,,,"
          
Robert :

          
Unkel, ich hab kenn Luscht g'hett füer's Bäufach, ich hab vun jehär füer d'r Dokterberuef g'schwärmt
          un d' Mamme hett m'r mine Wille gelonn; es isch-ere schwer g'falle, als Wittfräu, denn 's stüdiere hett
          alles Geld verschlunge. Awer ich hab immer in dem Glauwe gelebt, d'r Unkel düet schun helfe, un Dü
          helfsch m'r jetz, gell Unkele ? !

        
",29,clemens-gift,71,9,0.21802108866928932,0.1267605633802817
59,comedy,Steinle,M,rentier,rentiers,upper_class,"
          
Steinle :

          
Brüchsch mir nit ze fladiere — ich gib nix — emol nit füer e Dokter.

        
",29,clemens-gift,18,1,0.0,0.05555555555555555
60,comedy,Robert,M,,,,"
          
Robert :

          
Ich gib d'Hoffnung nit uf. — Unkel, wenn Dü dätsch sehn, wie witt dass wirkli d' Chirurgie voran
          isch, un was alles geleischt wurd zuem Wohl vun d'r Menschheit, do bekämsch Dü e ganz anderi Meinung 
          
vun de Dokter — un gib acht, Unkel, nit dass Dü noch emol froh bisch um e Dokter.

        
",30,clemens-gift,65,12,0.8389102943883952,0.18461538461538463
61,comedy,Steinle,M,rentier,rentiers,upper_class,"
          
Steinle :

          
Ganz üsg'schlosse, niemols, do kennsch Dü mich schlecht; — do dät ich d'gröscht Wettung mache.

        
",30,clemens-gift,22,4,0.0,0.18181818181818182
62,comedy,Robert,M,,,,"
          
Robert :

          
(lustig)

          
Unkel, wett nit !

        
",31,clemens-gift,10,1,0.0,0.1
63,comedy,Steinle,M,rentier,rentiers,upper_class,"
          
Steinle :

          
Doch ich wett — — um was ass de witt.... dass de siehsch, wie sicher ich bin, wett ich mit Dir um
          die 5000 Franke geje e Flasch Schampanjer.

        
",31,clemens-gift,35,3,0.0,0.08571428571428572
64,comedy,Robert,M,,,,"
          
Robert :

          
Die Wettung nemm ich an !... Also, sobald Dü e Dokter brüchsch, bekumm ich die 5000 Franke,
          andernfalls müess ich e Flasch Schampanjer zahle. Gilt's eso? Awer ich derf alli Farce anwende ?

        
",32,clemens-gift,42,5,0.0,0.11904761904761904
65,comedy,Steinle,M,rentier,rentiers,upper_class,"
          
Steinle:

          
Alles angenumme! 
          
(lachend)
 Robert, do kannsch lang basse uf die 5000 Fränkle...; die Wettung due ich nie
          verliere !... Do betracht denne Mann mit sine 59 Johr und 364 Daa un e halwer, frisch un g'sund wie e
          Fisch im Wasser, un wenn ich noch dem Buch do läb un noch was es mir vorschriebt, kann ich hundert Johr
          alt wäre....

        
",32,clemens-gift,74,9,0.0,0.12162162162162163
66,comedy,Robert,M,,,,"
          
Robert :

          
Wenn de 's Läwe b'halsch...

        
",33,clemens-gift,8,1,2.0728899858360474,0.125
67,comedy,Steinle,M,rentier,rentiers,upper_class,"
          
Steinle :

          
Brüchsch nit ze ütze, grad ze leid wur ich so alt — un uf mini G'sundheit ane welle-mr jetz e
          Träwerle päckle mitnander. 
          
(holt ein frisches Gläschen aus dem Büffet.)

        
",33,clemens-gift,37,6,0.0,0.16216216216216217
68,comedy,Daniel,M,domestic_worker,elementary_professions,lower_class,"
          
Daniel:

          
(von links kommend, mit der Mäusefalle)

          
Mei - Meischter, e Müs haw-ich g'fange...

        
",34,clemens-gift,20,1,0.0,0.05
69,comedy,Steinle,M,rentier,rentiers,upper_class,"
          
Steinle :

          
Ja, wie hann-r se denn, ich sieh kenni ?

        
",34,clemens-gift,13,1,0.0,0.07692307692307693
71,comedy,Robert,M,,,,"
          
Robert :

          

          
(lacht)
 Ihr sin guet, — fangt Mies un losst se wieder furt.

        
",35,clemens-gift,18,2,0.0,0.1111111111111111
72,comedy,Steinle,M,rentier,rentiers,upper_class,"
          
Steinle :

          
Was hann-r denn do wieder gemacht ?

        
",36,clemens-gift,9,1,0.0,0.1111111111111111
73,comedy,Daniel,M,domestic_worker,elementary_professions,lower_class,"
          
Daniel:

          
Do, do, d' Müs isch mit-m Wäddele zwische d'r Fall ingeklämmt g'sin un ass se nit liede muess,
          haw-ich d' Fall e bissel — numme so zwei Finger breit, ufgemacht 
          
(lacht)
 un no esch se fort gewänn.

        
",36,clemens-gift,46,3,0.0,0.06521739130434782
74,comedy,Steinle,M,rentier,rentiers,upper_class,"
          
Steinle :

          
Ihr brüche noch ze lache üewer Ejere Daubheit; mache dass-r nüss kumme — 
          
(Daniel geht gekränkt hinaus ; Türe links)
 Waisch, Robert, mr hann se viel Mies do, awer
          ich grej e guets Mittel gebrocht.... un jetz wele-mr unser Schnäpsel trinke. 
          
(schenkt ein)
 G'sundheit !

        
",37,clemens-gift,57,4,1.0455381387278913,0.07017543859649122
75,comedy,Robert,M,,,,"
          
Robert :

          
Uf din Wohl, Unkel ! 
          
(beide trinken)
 E guets Tröpfel.

        
",37,clemens-gift,16,3,0.645498414273643,0.1875
76,comedy,Steinle,M,rentier,rentiers,upper_class,"
          
Steinle :

          
Jaa, e guets Schnäpsel un e gueter Humor hilft geje alli Maläschte — un morje an mim 60. Geburtsdaa,
          gitt's e kleins Stiewerle un no sing ich diss Lied'l, wie als diner Grossbabbe allewil g'sunge hett,
          wenn-r Eini stehn hett g'hett 
          
(singt)
 Wer niemals einen Rausch gehabt, der ist kein braver Mann. 
          
(stampft mit dem Fusse auf)
 D' Juchhee ! Autsch ! min-r Füess — uh!

        
",38,clemens-gift,80,12,0.0,0.15
77,comedy,Robert,M,,,,"
          
Robert :

          
(erschrocken)

          
Unkel, was hesch ? Kumm ich helf D'r.

        
",38,clemens-gift,15,3,0.0,0.2
78,comedy,Steinle,M,rentier,rentiers,upper_class,"
          
Steinle :

          
Nein, nein, eweg, Dü bisch e Dokter ! Ich geh in d' Kiche, dr Daniel muess mr e warmer Socke anzeje
          un de Füess inriewe. 
          
(hinkt links ab)
 Ah, stell doch d' Schnapsbudell in's Büffet, wenn D' so guet witt
          sinn.

        
",39,clemens-gift,54,5,0.0,0.09259259259259259
79,comedy,Robert,M,,,,"
          
Robert :

          
Unkel, kumm ich helf D'r, ich weiss e guets Mittel geje Rumatisse —

        
",39,clemens-gift,17,5,0.0,0.29411764705882354
80,comedy,Steinle,M,rentier,rentiers,upper_class,"
          
Steinle :

          
Ich will Din Mittel nit wisse. 
          
(An der Tür sich umdrehend)
 Ich denk noch an d' Wettung, ja, ja. 
          
(ab)

        
",40,clemens-gift,30,3,0.0,0.1
81,comedy,Robert,M,,,,"
          
Robert:

          
Eijesinniger Unkel! — Er isch jo e gueter, liewer Mann, wenn-'r numme dene Idee-fix nit hätt mit dem
          verfluchte Buch : dess isch schuld, dass m'r 
          
d'r Unkel dess Geld nit gitt, un ich muess-'s hann, sunsch schnappt mr e-n-anderer die
          güet Stell eweg. — Wenn ich numme kennt mache, dass der Unkel e Dokter brücht, no hätt ich d' Wettung
          gewunne un bekäm die 5000 Fr., no wär alles güet. 
          
(Denkt nach)
 Was numme mache ? — Es fallt m'r nix in; sunsch hawi hunderti von Infäll
          g'hett, wenn’s als Stüdent hett g'heisse e Lumpestreich anstelle ; do bin ich nie verläje g'sinn, un
          jetz, wo's füer min Glüeck gilt, fallt mir nix in ! Un schun will dr Unkel d'r Dokterstand so schlacht
          gemacht hett, g'hert-m e kleini Lexion. — Ah! ja, d' Schnapsbudell soll ich eweg stelle. — Halt!
          Juchhee ! Ich hab e-n-Idee ! — Die Schnapsbudell muess helfe ; — jetz mäche-mr üss dem Schnaps ""Gift"".
          Ich hab züfälli noch so Etikette üss-m Laboratorium 
          
(sucht in der Tasche),
 wo hawich se numme ? Do sinn se, im Notizbüechel — e Dotekopf
          drowe un ""Gift"". 
          
(klebt eine Etikette auf die Flasche, zeigt es dem Publikum)
 So, dess Pfläschterle zejt !
          
          
(Die Flasche gegen die Türe haltend, lachend)
 G'sundheit Unkel ! — Jetz die Budell an de
          Platz gstellt, dr Rescht geht von ase. 
          
(Stellt die Flasche ins Büffet, geht an die Türe links, ruft hinaus :)
 Unkel, ich geh in
          min Zimmer, mini Sache üspacke un e Kart schriewe an d' Mamme !

        
",40,clemens-gift,315,29,0.06766171717322772,0.09206349206349207
82,comedy,Steinle,M,rentier,rentiers,upper_class,"
          
Steinle :

          
(hinter der Bühne)

          
's isch erecht, ich kumm grad, ich bin wieder herg'stellt.

        
",41,clemens-gift,20,2,0.0,0.1
83,comedy,Robert,M,,,,"
          
Robert :

          
So, so, es freijt mich, Unkel ! 
          
(Geht lustig pfeifend nach rechts ab.)

        
",41,clemens-gift,21,1,0.0,0.047619047619047616
84,comedy,Steinle,M,rentier,rentiers,upper_class,"
          
Steinle :

          
(nachdem die Bühne ein Moment leer war, kommt Steinle, an beiden Füssen Pantoffeln, von
          rechts.)

          
So, es geht jetz wieder. — Dass ich grad hitt so Maläschte muess hann — 
          
(setzt sich in den Fauteuil)
 d' Schnapsbudell isch eweg. D'r güet Robert, er dürt mich
          doch. — 
          
(es schellt)
 Daniel, Daniel !

        
",42,clemens-gift,70,4,0.0,0.05714285714285714
86,comedy,Steinle,M,rentier,rentiers,upper_class,"
          
Steinle :

          
Mache-n-em uf, sunsch risst-r noch d'r Schällezug erab. 
          
(Daniel ab.)

        
",43,clemens-gift,19,1,0.0,0.05263157894736842
87,comedy,Barasoll,M,barber,crafts,lower_middle_class,"
          
Barasoll :

          
(hinter der Bühne)

          
Worum mache-n-'r denn nit uf, Dunderwetter noch-emol, ich bin pressiert ! 
          
(Kommt zur Tür herein, rechts.)
 Salü, salü, Monsieur Steinle, d'r Coiffeur isch ici. — Ze
          welle-m'r glich anfange ; nemme grad do Platz uf dem Stuhl, voilà. 
          
(Hat einen Stuhl nach vorn gestellt.)
 Ich bin e bissel spot hit, awer ich hab schon viel
          g'schafft, viel g'schafft hit.

        
",43,clemens-gift,86,5,0.0,0.05813953488372093
88,comedy,Steinle,M,rentier,rentiers,upper_class,"
          
Steinle :

          
Salü Barasoll ! 
          
(nimmt Platz auf dem Stuhl).
 Wenn Ejeri Messer au so güet gschliffe sin wie Ejer Mül, no
          gehts guet hit.

        
",44,clemens-gift,30,3,0.0,0.1
89,comedy,Barasoll,M,barber,crafts,lower_middle_class,"
          
Barasoll :

          
(hatt inzwischen sein Rasierkästchen geöffnet und nimmt sein Rasierzeug heraus.)

          
Ja, ich bin allewill vivant 
          
(ruft)
 Daniel, e Serviette, s'il vous plaît ! — Un füer was haw-ich's Mül ? füer ze rede,
          denn wenn ich emol nimi red — no bin ich dot !

        
",44,clemens-gift,58,4,0.0,0.06896551724137931
91,comedy,Barasoll,M,barber,crafts,lower_middle_class,"
          
Barasoll :

          
Merci bien ! Gälle, der lehrt Note, dass'r als do, do, do macht. 
          
(Legt die Serviette um)
 So, d'r Kopf e bissel hoch, Monsieur Steinle — Was gits Nejs,
          Monsieur ? Nit viel, gelle! 
          
(Schlägt Schaum.)

        
",45,clemens-gift,53,2,0.0,0.03773584905660377
92,comedy,Steinle,M,rentier,rentiers,upper_class,"
          
Steinle :

          
Min'r Neveu, d'r Robert, isch uf B'suech kumme, es isch e Bue vun minere Schwester. er hett sine
          Exame gemacht als Doktor.

        
",46,clemens-gift,29,6,0.3807710606621184,0.20689655172413793
93,comedy,Barasoll,M,barber,crafts,lower_middle_class,"
          
Barasoll :

          
A la bonheur, do kenne Sie stolz sin ; e Dokter in der Familie, do isch's e Pläsier krank ze sin, —
          kenn besser's Métier, wie Dokter!

        
",46,clemens-gift,36,6,0.0,0.16666666666666666
94,comedy,Steinle,M,rentier,rentiers,upper_class,"
          
Steinle :

          
(böse)

          
Was saue-n-Ihr .... 's isch nit wohr, nix isch e Dokter; ich hab welle hann, er soll Mürer
          lehre.

        
",47,clemens-gift,30,4,0.0,0.13333333333333333
95,comedy,Barasoll,M,barber,crafts,lower_middle_class,"
          
Barasoll :

          
(einseifend)

          
Jaa, do hann Sie recht, ganz erecht, Monsieur Steinle, nix besseres hittzedaa's wie 
          
Mürer, die verdiene e hüffe Geld, ich bin ganz vun Ihrer Meinung. —

        
",47,clemens-gift,39,7,0.38329994719425015,0.1794871794871795
96,comedy,Steinle,M,rentier,rentiers,upper_class,"
          
Steinle:

          
Un min G'schäft... 
          
(spuckt)
 pfui, Seif ins Müll!...

        
",48,clemens-gift,16,2,0.0,0.125
97,comedy,Barasoll,M,barber,crafts,lower_middle_class,"
          
Barasoll :

          
Pardon, exküsiere Se; Monsieur Steinle, awer Sie derfe nit rede üwer-m Inseife ! Ja, die junge
          Burscht vun hitt sin nimi so wie mir Alti; do isch kenn Läwe meh, kenn Kürasch — Joo — geje uns ! Wenn
          ich noch dran denk, wie ich in d'r Legion bin g'sinn, 
          
(zieht das Rasiermesser auf der Hand ab)
 Herrschaft mille-de-pippe ! Wenn ich so 's
          Rasiermesser abzieh, ze fahrt's m'r als uf d' Nerve, ich main als grad, ich hab so e-n-Araber unter de
          Händ un will-em de Hals abschnide...

        
",48,clemens-gift,108,10,0.20728899858360475,0.09259259259259259
98,comedy,Steinle,M,rentier,rentiers,upper_class,"
          
Steinle :

          
(aufstehend)

          
He, he, Barasoll, lon die Plän eweg, sunsch derfe-n-Ihr mich nim rasiere.

        
",49,clemens-gift,24,2,1.8783476057815698,0.08333333333333333
99,comedy,Barasoll,M,barber,crafts,lower_middle_class,"
          
Barasoll :

          
(lachend, drückt Steinle auf den Stuhl nieder)

          
Ich glaub, Sie hann Angscht, Monsieur Steinle, allez, — ich mach jo nur Plän, numme kenn Ängschte,
          diss haw-ich noch gar nie kennt in mim Läwe — Angscht, ha, nit emol vor 10 Arawer, mort du diable !!! 
          
(Man hört hinter der Bühne Geschirr fallen.)
 Was isch denn los ? !

        
",49,clemens-gift,77,11,0.5313101321355472,0.14285714285714285
101,comedy,Barasoll,M,barber,crafts,lower_middle_class,"
          
Barasoll :

          
(springt in einem Satz auf den Tisch, fuchtelt mit dem Rasiermesser in der Luft herum, duckt
          sich ängstlich.)

        
",50,clemens-gift,25,2,1.7126896377041059,0.08
102,comedy,Steinle,M,rentier,rentiers,upper_class,"
          
Steinle :

          
(springt auf, mit eingeseiftem Gesicht, will die Maus fangen)

          
Wo isch se — — wo?

        
",51,clemens-gift,22,1,0.0,0.045454545454545456
103,comedy,Daniel,M,domestic_worker,elementary_professions,lower_class,"
          
Daniel :

          
Do, do, im Eck 
          
(deutet in die rechte Ecke.)

        
",51,clemens-gift,16,1,0.0,0.0625
104,comedy,Steinle,M,rentier,rentiers,upper_class,"
          
Steinle :

          
Wart, dü Kaib, ich gib d'r füer d' Wändle 
          
(tritt nach der Maus).

        
",52,clemens-gift,20,3,1.3595653477108725,0.15
105,comedy,Daniel,M,domestic_worker,elementary_professions,lower_class,"
          
Daniel :

          
Wäck, wäck, ich schlaa se hin! 
          
(schlägt Steinle.)

        
",52,clemens-gift,16,2,0.0,0.125
106,comedy,Steinle,M,rentier,rentiers,upper_class,"
          
Steinle :

          
Autsch ! Basse doch uff, e Nuntebuckel !

        
",53,clemens-gift,11,1,0.0,0.09090909090909091
107,comedy,Daniel,M,domestic_worker,elementary_professions,lower_class,"
          
Daniel :

          
(sieht Barasoll auf dem Tisch)

          
Hahaha! — Barasoll, was mache denn Ihr uf'm Disch ? Ich hab gemaint, Ihr kenne kenn Angscht ?

        
",53,clemens-gift,31,2,0.0,0.06451612903225806
108,comedy,Barasoll,M,barber,crafts,lower_middle_class,"
          
Barasoll :

          
Ich hab au kenn Angscht, parole d'honneur ! Sie hett chance kett, dass se nit do ruf isch kumme, ich
          hätt-ere minsex d'r Schädel abg'schnitte. 
          
(kommt vom Tisch herunter).

        
",54,clemens-gift,39,5,1.6995532710587447,0.1282051282051282
109,comedy,Steinle,M,rentier,rentiers,upper_class,"
          
Beide :

          
(lachen ihn aus).

        
",54,clemens-gift,8,1,0.0,0.125
110,comedy,Daniel,M,domestic_worker,elementary_professions,lower_class,"
          
Beide :

          
(lachen ihn aus).

        
",55,clemens-gift,8,1,0.0,0.125
111,comedy,Daniel,M,domestic_worker,elementary_professions,lower_class,"
          
Daniel :

          
Ja, jo, mit-em Müll, alter Hosseloddel !

        
",55,clemens-gift,12,3,0.0,0.25
112,comedy,Barasoll,M,barber,crafts,lower_middle_class,"
          
Barasoll :

          
Daniel, mache mich nit wüeti ! Wenn mir diss aner vor 30 Jahr g'saat hätt, Herrschaft, mille pots de
          confiture — denne hätt ich genumme bim Kopf und am Arm un hätt ne e pique tête mache sitze, ass'r
          gemeint hätt, Oschtere un Pfingschte falle uf aine Daa ! 
          
(macht einige Sprünge wie volte de fasse usw. — Gelächter.)

        
",56,clemens-gift,70,7,0.0,0.1
113,comedy,Steinle,M,rentier,rentiers,upper_class,"
          
Steinle :

          
Barasoll, jetz steck-es awer uf mit dene Plän un rasiere mich.

        
",56,clemens-gift,15,2,0.0,0.13333333333333333
114,comedy,Barasoll,M,barber,crafts,lower_middle_class,"
          
Barasoll :

          
Avec plaisir, Monsieur Steinle... Miner Wüet isch schun wieder eweg. 
          
(seift noch ein wenig ein, rasiert dann)
 E bissel de Kopf in d'Höh, s'il vous plaît — so
          — voilà ; noch e bissel rüewer — e bissel nüewer — un do — un noch do — so, voilà ! fini — isch ferti,
          Monsieur Steinle !... Diss isch gange, wie g'schmiert, gälle-se, Monsieur Steinle ! — Jaa... d'r
          Barasoll hett noch e lichti Hand... un e trucketi Läwer ! 
          
(trocknet Steinle ab und macht sein Rasierzeug zusammen.)

        
",57,clemens-gift,110,7,0.0,0.06363636363636363
115,comedy,Steinle,M,rentier,rentiers,upper_class,"
          
Steinle :

          
Ich schmeck de Büchon, alter Schikanebuckel ! ... Daniel, lange de Trawere un zwei Gläs'le im Büffet
          !

        
",57,clemens-gift,22,3,0.0,0.13636363636363635
117,comedy,Steinle,M,rentier,rentiers,upper_class,"
          
Steinle :

          
Zwei — füer d'r Barasoll un füer mich ; Dü trinksch genuej dervun im Versteckte.

        
",58,clemens-gift,18,1,0.0,0.05555555555555555
118,comedy,Daniel,M,domestic_worker,elementary_professions,lower_class,"
          
Daniel :

          
Mei - Meischter, noch kenn Tropfe haw-ich...

        
",59,clemens-gift,11,1,0.0,0.09090909090909091
119,comedy,Steinle,M,rentier,rentiers,upper_class,"
          
Steinle :

          
's isch schun guet, ich glaub's Ejch jo, ass-r kein Tropfe trinke. Ihr nemme immer e guete Schluck.
          Lange jetz numme d' Budell un zwei Gläsle ! ..... Barasoll, nemme noch e bissel Platz...

        
",59,clemens-gift,43,6,0.0,0.13953488372093023
120,comedy,Daniel,M,domestic_worker,elementary_professions,lower_class,"
          
Daniel :

          
(holt die Flasche und zwei Gläschen im Büffet, nimmt einen tüchtigen Schluck aus der
          Flasche.)

        
",60,clemens-gift,21,2,0.0,0.09523809523809523
121,comedy,Steinle,M,rentier,rentiers,upper_class,"
          
Steinle :

          
(schaut herum, zu Daniel)

          
Kummt der Schnaps — ja was Schinders, was mache denn Ihr an dere Budell ?

        
",60,clemens-gift,25,1,0.0,0.04
122,comedy,Daniel,M,domestic_worker,elementary_professions,lower_class,"
          
Daniel:

          
Ei, ei, der Zapfe geht so böes erab — er isch jetz hüsse. 
          
(wischt den Mund verstohlen ab mit der Schürze.)

        
",61,clemens-gift,29,2,0.0,0.06896551724137931
123,comedy,Steinle,M,rentier,rentiers,upper_class,"
          
Steinle :

          
Ich mach Ejch glich d'r Zapfe herab — schenke-n-emol in un mache nit so lang — 
          
(Daniel schenkt ein, die Etikette gegen das Publikum haltend, die Spieler dürfen sie noch nicht
          gewahr werden.)
 So, G'sundheit, Barasoll ! 
          
(trinkt)

        
",61,clemens-gift,51,5,0.0,0.09803921568627451
124,comedy,Barasoll,M,barber,crafts,lower_middle_class,"
          
Barasoll:

          
A votre santé, Monsieur Steinle! 
          
(stürzt das Gläschen auf einen Zug hinunter)
 A la bonheur, der hett e G’schmäckel, dene
          schmeckt e Blinder uf 10 Meter; diss isch au Trawere, diss isch kenn Gieges...

        
",62,clemens-gift,45,1,0.0,0.022222222222222223
125,comedy,Daniel,M,domestic_worker,elementary_professions,lower_class,"
          
Daniel:

          
Ja, ja, e famoser Schnaweretraps - - ä-ä Trawereschnaps, will ich saue. - - Meischter, welle-nr noch
          eins pfätze ?

        
",62,clemens-gift,27,2,0.0,0.07407407407407407
126,comedy,Steinle,M,rentier,rentiers,upper_class,"
          
Steinle :

          
Es pressiert nit ; Barasoll, han-r Ejere Büchs do ? Lange-n-emol e Bris !

        
",63,clemens-gift,19,2,0.0,0.10526315789473684
127,comedy,Barasoll,M,barber,crafts,lower_middle_class,"
          
Barasoll :

          
Voilà, Monsieur Steinle, ächter franzescher. 
          
(gibt Steinle sowie Daniel eine Priese)
 Sehn-r, die Büchs haw-ich noch üss d'r Legion,
          diss isch e souvenir von mim Colonel... Mit dere Büchs haw-ich emol e Löeb g'fange...

        
",63,clemens-gift,45,3,0.0,0.06666666666666667
128,comedy,Steinle,M,rentier,rentiers,upper_class,"
          
Steinle :

          
(lachend)

          
Alle, alle, Barasoll, fange-nr schun wieder an ze schnitze ; diss hann-r mir noch nit verzehlt,
          dass-r als uf d' Löewejagd sin.

        
",64,clemens-gift,32,3,0.0,0.09375
129,comedy,Barasoll,M,barber,crafts,lower_middle_class,"
          
Barasoll :

          
Na, no will ich's verzehle — wart, wie fangt's an ? — Ah ja — — also, am e schöene Daa geh ich emol
          in d'r Wüschte Sahara spaziere, ganz allein mit minere Schnupftüwaksbüchs un denk an nit Böses ...

        
",64,clemens-gift,48,7,0.5826708633046597,0.14583333333333334
130,comedy,Daniel,M,domestic_worker,elementary_professions,lower_class,"
          
Daniel:

          
War, war isch diss, die ""Wüschte Sarah"" ?

        
",65,clemens-gift,14,1,0.0,0.07142857142857142
131,comedy,Barasoll,M,barber,crafts,lower_middle_class,"
          
Barasoll :

          
Oh ""Schiff der Wüste"", ass-r sinn !... Diss isch e grosses Stück Land, wo nix wachst, as wie Sand,
          un drum nennt-mr 's die Wüschte Sahara ; un do isch so heiss, dass-mr ""Bäckenofe"" in d'r Sunn kann
          mache, so heiss isch's — jo, noch heisser, un do greijt-mr e Durscht, e Durscht greit-mr do...

        
",65,clemens-gift,73,10,0.0,0.136986301369863
133,comedy,Barasoll,M,barber,crafts,lower_middle_class,"
          
Barasoll :

          
(trinkt)

          
Also... ich geh e bissel in d' Wüschte nin, züend-mr e Sigarett'l an, klett'r uf e Dattelbaum, un
          setz mich gemüetli do nuf. — Jetz, wie ich so sitz, sieh ich uf einmol am Horizont e schwarzen Dupfe 
          
(steht auf und markiert das folgende Gespräch)
 wie als grösser wurd un geje mich züe
          kummt. Ich rutsch runter vum Dattelbaum, un wie d'r Dupfe ganz not bie mir isch, ze isch's
          e-n-Arawer-Scheik, wo in eim Schweiss ze laufe kummt un brüellt uf arawisch : ""Do hinte kummt e Löeb, e
          Löeb"" !!! Do saa ich ganz ruehig : ""Numme kenn Angscht, Monsieur le Scheik, denne fangt sich d'r
          Barasoll. — Sueche emol e grosser Stein"". — D'r Scheik suecht e Stein, ich luej, ob d'r Löeb ball do
          isch, richtig, dort kummt-r ze springe un brüelt, we e rechter Löeb : 
          
(brüllt)
""Wöööah""! — Min-r Scheik loddelt vor Angscht wie e Kühschwanz ; — awer ich geh
          jetz ane un zettel e guete Bris Schnupftüwak uf dene Stein. No laje mir zwei uns langs uf de Bode; —
          wie jetz d'r Löeb an dene Stein kummt, ze schnuffelt er dran erum un schnuffelt halt au an dene
          Schnupftüwak... Der fahrt-em in d'Nas nuf, un d'r Löeb fangt an ze niese ""Hattschi"" ! Un jed'smol, wie
          er ""Hattschi"" macht, ze schlaat er sine dicke Schädel uf d'r Stein uf, un so ebbene 15-20 mol — so
          hett-r sich selwer 's Hirn ing'schlaue, bis er zamme isch kejt — hin isch hin ! — Ich glich uf un
          geluejt, was-r macht, no isch-r do geläje uf-m Buckel un hett mich mit sini 
          
Glotzgückle so trürich angeluejt, grad as wenn-r saue hätt wotte: ""Barasoll, diss
          hättsch-mr nitt solle mache !"" — — Un no hett-r sine Geischt ufgenn. D'r Scheik isch vor Fraide schier
          e Narr worre ; er hett-mr uf die Achsel do geklopft — nein, uf die do, un hett g'saat : ""Barasoll, Anté
          maboul bé-séf !"" Diss heisst uf ditsch soviel wie : ""Barasoll, Dü bisch e gfitzter Typ !"" 
          
(Diese Erzählung muss Barasoll genau markieren und recht prahlerisch sprechen.)

        
",66,clemens-gift,424,50,0.12579403919556523,0.1179245283018868
134,comedy,Steinle,M,rentier,rentiers,upper_class,"
          
Steinle und Daniel:

          
(lachen)

          
Hahaha !

        
",67,clemens-gift,9,1,0.0,0.1111111111111111
135,comedy,Daniel,M,domestic_worker,elementary_professions,lower_class,"
          
Steinle und Daniel:

          
(lachen)

          
Hahaha !

        
",67,clemens-gift,9,1,0.0,0.1111111111111111
137,comedy,Daniel,M,domestic_worker,elementary_professions,lower_class,"
          
Daniel :

          
De - de - der lijt, ass m'r blöj wäre !

        
",68,clemens-gift,14,1,0.0,0.07142857142857142
138,comedy,Barasoll,M,barber,crafts,lower_middle_class,"
          
Barasoll :

          
Ihr kenne's ruehig glauwe, es isch sicher wohr ! Ihr kenne dene Arawerscheik fröje, obs nit so isch,
          wie ich do verzehlt hab, parole d'honneur, Monsieur Steinle. Do von dem Platz solle-n-Ihr nimmi ufstehn
          kenne, wenn's nit wohr isch !

        
",69,clemens-gift,54,5,0.4975225375811473,0.09259259259259259
139,comedy,Steinle,M,rentier,rentiers,upper_class,"
          
Steinle :

          
Alter Farçeur, dass Ihr sin — ich will Ejch noch Eins inschenke, un no mache-n-ass'r loskumme un
          verzähle Jemes andersch's die Löweg'schicht, Ihr Carotier, dass-'r sin, 
          
(nimmt die Flasche und will einschenken, plötzlich die Etikette erblickend und dieselbe ganz
          ernst und starr ansehend.)
 Was isch denn dess füer e Ding do ? — Daniel han ihr so Daubheite
          gemacht, und dess do druff gebäbbt ?

        
",69,clemens-gift,80,5,0.0,0.0625
141,comedy,Barasoll,M,barber,crafts,lower_middle_class,"
          
Barasoll :

          
(hinsehend)

          
Dess isch jo e Dotekopf ! — Ja, mort du vinaigre — dess isch jo Gift ! — 
          
(zitternd)
 ja — wie — ?!

        
",70,clemens-gift,33,3,0.0,0.09090909090909091
142,comedy,Steinle,M,rentier,rentiers,upper_class,"
          
Steinle:

          
Dü liewer Himmel! mir han Gift getrunke. Wie kummt awer nurre dess Gift do nin, — es brennt mich
          schun im Hals —

        
",71,clemens-gift,28,4,0.0,0.14285714285714285
143,comedy,Barasoll,M,barber,crafts,lower_middle_class,"
          
Barasoll :

          
Ihr hann mich vergift, Ihr kenne mich bezahle. — Mort du diable ! — Uaatsch, miner Büch !

        
",71,clemens-gift,23,1,0.0,0.043478260869565216
144,comedy,Steinle,M,rentier,rentiers,upper_class,"
          
Steinle :

          
Schnell im Buch noch gelujt. 
          
(schaut im Buche nach)
 Vergiftungen, Seite 629 — au noch so witt hinte. 
          
(schlägt im Buch nach)
 Do haw-ich's. 
          
(liest)

          
Bei schweren Vergiftungen durch Flüssigkeiten, nehme man sofort ein Brechmittel, wie Öl,
          warmes Wasser, besonders auch Milch und schicke sofort zum Arzt — Was zum e Dokter ? ! — Daniel hol
          Milich ! — Uuh, miner Hals !

        
",72,clemens-gift,82,9,0.0,0.10975609756097561
146,comedy,Daniel,M,domestic_worker,elementary_professions,lower_class,"
          
Daniel:

          
(ist schon von Anfang der Vergiftungsszene ängstlich geworden, geht nun bis an die Tür, bleibt
          dann stehen, hält sich den Leib, zieht ein Bein in die Höhe)

          
U-u-aaah!!

        
",73,clemens-gift,38,4,0.8563448188520529,0.10526315789473684
148,comedy,Daniel,M,domestic_worker,elementary_professions,lower_class,"
          
Daniel :

          
Ja, ja Meischter, vor wie ich se üss-'m Büffet gelangt hab.

        
",74,clemens-gift,17,3,0.0,0.17647058823529413
149,comedy,Steinle,M,rentier,rentiers,upper_class,"
          
Steinle:

          
Dü Simpel, wenn de geluejt hättsch, hättsch dene Dotekopf müen sehn — jetz g'schieht's d'r ganz
          erecht — jetz müe-m'r alli Drej sterwe !

        
",74,clemens-gift,29,3,0.8548818420192593,0.10344827586206896
153,comedy,Steinle,M,rentier,rentiers,upper_class,"
          
Steinle :

          
Un morje haw-ich au noch Geburtsdaa — uaah!

        
",76,clemens-gift,11,2,0.0,0.18181818181818182
154,comedy,Daniel,M,domestic_worker,elementary_professions,lower_class,"
          
Daniel :

          
Un am Mondaa steht's in d'r Zitung, ass m'r e so miserawel sterwe han müen, un ich kanns nit emol
          meh lese, ujeh !

        
",77,clemens-gift,30,1,0.0,0.03333333333333333
155,comedy,Barasoll,M,barber,crafts,lower_middle_class,"
          
Barasoll :

          
Un am Dienschdaa isch d'Licht — drej ledichi Burscht ! — Ojeh, ojeh, un ich hab so viel gelöje in
          mim Läwe ; die G'schicht von dere Löewejagd isch au nit wohr.

        
",77,clemens-gift,38,3,0.6909633286120158,0.07894736842105263
158,comedy,Barasoll,M,barber,crafts,lower_middle_class,"
          
Alle:

          
(rufen zum Fenster hinaus)

          
Helfe, helfe !

        
",79,clemens-gift,12,2,0.0,0.16666666666666666
159,comedy,Daniel,M,domestic_worker,elementary_professions,lower_class,"
          
Alle:

          
(rufen zum Fenster hinaus)

          
Helfe, helfe !

        
",79,clemens-gift,12,2,0.0,0.16666666666666666
160,comedy,Steinle,M,rentier,rentiers,upper_class,"
          
Alle:

          
(rufen zum Fenster hinaus)

          
Helfe, helfe !

        
",80,clemens-gift,12,2,0.0,0.16666666666666666
161,comedy,Robert,M,,,,"
          
Robert :

          
(von rechts)

          
Aha, es hett gezöje! 
          
(laut)
 Was isch denn bassiert ?

        
",80,clemens-gift,20,1,0.0,0.05
162,comedy,Steinle,M,rentier,rentiers,upper_class,"
          
Alle drei:

          
(hängen an Robert und sprechen durcheinander).

        
",81,clemens-gift,12,1,0.0,0.08333333333333333
163,comedy,Barasoll,M,barber,crafts,lower_middle_class,"
          
Alle drei:

          
(hängen an Robert und sprechen durcheinander).

        
",81,clemens-gift,12,1,0.0,0.08333333333333333
164,comedy,Daniel,M,domestic_worker,elementary_professions,lower_class,"
          
Alle drei:

          
(hängen an Robert und sprechen durcheinander).

        
",82,clemens-gift,12,1,0.0,0.08333333333333333
165,comedy,Steinle,M,rentier,rentiers,upper_class,"
          
Steinle :

          
Robert, helf, mir sin vergift !

        
",82,clemens-gift,10,1,0.0,0.1
166,comedy,Barasoll,M,barber,crafts,lower_middle_class,"
          
Barasoll :

          
Monsieur Robär, ich hab Gift — o min Büch, min Büch !

        
",83,clemens-gift,16,1,0.0,0.0625
167,comedy,Daniel,M,domestic_worker,elementary_professions,lower_class,"
          
Daniel:

          
Do, do, do, Budell Gift, Gift, Gift !

        
",83,clemens-gift,15,3,0.0,0.2
168,comedy,Robert,M,,,,"
          
Robert :

          
Ihr müen nit alli mit-e-nand rede, — stille ! Unkel, red, was isch bassiert ?

        
",84,clemens-gift,20,1,0.0,0.05
169,comedy,Steinle,M,rentier,rentiers,upper_class,"
          
Steinle :

          
Do in dere Budell isch Gift ! Mir hann gemeint, es isch Trawere un han drvun getrunke — awer ich
          kann m'r nit denke, wie häre in die Budell Gift kumme-n-isch ? !

        
",84,clemens-gift,39,3,0.7615421213242368,0.07692307692307693
170,comedy,Robert,M,,,,"
          
Robert:

          
Do han Ihr drvun getrunke? — Ei, ei, — do haw-ich e Gift nin gemacht füer Ejeri Mies ! Do drvun
          brücht m'r nurre 10 Tropfe uf e Stückel Zucker ze mache, ze gehn 100 Mies hin !

        
",85,clemens-gift,44,5,0.0,0.11363636363636363
171,comedy,Steinle,M,rentier,rentiers,upper_class,"
          
Alle drei:

          
(schreien)

          
Uaaah !

        
",85,clemens-gift,8,1,0.0,0.125
172,comedy,Barasoll,M,barber,crafts,lower_middle_class,"
          
Alle drei:

          
(schreien)

          
Uaaah !

        
",86,clemens-gift,8,1,0.0,0.125
173,comedy,Daniel,M,domestic_worker,elementary_professions,lower_class,"
          
Alle drei:

          
(schreien)

          
Uaaah !

        
",86,clemens-gift,8,1,0.0,0.125
174,comedy,Robert,M,,,,"
          
Robert :

          
Ich hab awer doch e Dotekopf uf d' Flasch gebäbbt, dass mr's jo sieht, ass Gift drinne isch.

        
",87,clemens-gift,24,3,0.0,0.125
176,comedy,Barasoll,M,barber,crafts,lower_middle_class,"
          
Barasoll und Daniel :

          
E Dokter, e Dokter ! Uuh !

        
",88,clemens-gift,12,2,0.0,0.16666666666666666
177,comedy,Daniel,M,domestic_worker,elementary_professions,lower_class,"
          
Barasoll und Daniel :

          
E Dokter, e Dokter ! Uuh !

        
",88,clemens-gift,12,2,0.0,0.16666666666666666
178,comedy,Robert,M,,,,"
          
Robert:

          
Unkel — e Dokter sell ich hole?!

        
",89,clemens-gift,11,1,0.0,0.09090909090909091
179,comedy,Steinle,M,rentier,rentiers,upper_class,"
          
Steinle :

          
Lauf doch — ebs ze spot isch — schnell, hol einer !

        
",89,clemens-gift,15,3,0.0,0.2
180,comedy,Steinle,M,rentier,rentiers,upper_class,"
          
Alle drei:

          
(halten den Leib und jammern.)

        
",90,clemens-gift,11,2,0.0,0.18181818181818182
181,comedy,Barasoll,M,barber,crafts,lower_middle_class,"
          
Alle drei:

          
(halten den Leib und jammern.)

        
",90,clemens-gift,11,2,0.0,0.18181818181818182
182,comedy,Daniel,M,domestic_worker,elementary_professions,lower_class,"
          
Alle drei:

          
(halten den Leib und jammern.)

        
",91,clemens-gift,11,2,0.0,0.18181818181818182
183,comedy,Robert,M,,,,"
          
Robert :

          
Stille! — Ich brüch kenn Dokter ze hole, ich bin jo Dokter — ich will Ejch sofort helfe. 
          
(Stellt drei Stühle vorn in eine Reihe.)
 Do setze-n-Ejch anne, do uf die Stüehl 
          
(setzen sich)
 Zaje-n-emol d'Zung! 
          
(strecken die Zunge heraus)
 Halte, halte!... nit so witt... 
          
(schaut die Zungen)
 Alli Zunge sin fierich rot. Ihr hann nit weni Gift getrunke. 
          
(hat sich hinter die Stühle gestellt, lacht für sich.)

        
",91,clemens-gift,99,11,0.1386741730131224,0.1111111111111111
184,comedy,Daniel,M,domestic_worker,elementary_professions,lower_class,"
          
Daniel :

          
(tupft auf Steinles Zunge)

          
Ga-ga-ganz rot isch se, Meischter.

        
",92,clemens-gift,15,1,1.5254159031443464,0.06666666666666667
186,comedy,Barasoll,M,barber,crafts,lower_middle_class,"
          
Barasoll:

          
Wenn ich nit halwer dot wär, ze müsst ich noch lache, hahaha.

        
",93,clemens-gift,17,2,0.9487630954694272,0.11764705882352941
187,comedy,Robert,M,,,,"
          
Robert :

          
Jaa — ruehig müen-r sin; kenn Dummheite mache, wenn Eich 's Läwe lieb isch ! —

        
",93,clemens-gift,20,4,1.439543098885398,0.2
191,comedy,Robert,M,,,,"
          
Robert :

          
Stille, — lon d' Zunge schöen hüsse, ich will in d'r Kieche e Glas Wasser hole un e Gejegift
          fawriziere, wo Ejch glich küriere wurd!

        
",95,clemens-gift,31,5,1.2009319977556445,0.16129032258064516
195,comedy,Robert,M,,,,"
          
Robert :

          
Nuere ruehig. — 
          
(geht ab; während die drei ruhig sitzen bleiben mit der heraushängenden Zunge; kommt nach
          einigen Sekunden mit einem Glase Wasser, in welchem er rührt ; lässt jeden trinken.)
 So — — jetz
          e jeder e Schluck gedrunke, un no uf min Kommando drejmol uf un-n-ab geblotzt, domit's durich de ganze
          Körper fahrt... Also, Achtung ! Eins ! — zwei ! — drej ! — So, wie isch's Ejch jetz ? 
          
(Erheben sich auf Kommando dreimal.)

        
",97,clemens-gift,99,7,0.5035913231585186,0.0707070707070707
196,comedy,Steinle,M,rentier,rentiers,upper_class,"
          
Alle drei:

          
(befühlen sich den Leib, stehen auf; Robert stellt die Stühle weg)

          
Es isch besser — ganz küriert!...

        
",98,clemens-gift,26,3,0.0,0.11538461538461539
197,comedy,Barasoll,M,barber,crafts,lower_middle_class,"
          
Alle drei:

          
(befühlen sich den Leib, stehen auf; Robert stellt die Stühle weg)

          
Es isch besser — ganz küriert!...

        
",98,clemens-gift,26,3,0.0,0.11538461538461539
198,comedy,Daniel,M,domestic_worker,elementary_professions,lower_class,"
          
Alle drei:

          
(befühlen sich den Leib, stehen auf; Robert stellt die Stühle weg)

          
Es isch besser — ganz küriert!...

        
",99,clemens-gift,26,3,0.0,0.11538461538461539
199,comedy,Barasoll,M,barber,crafts,lower_middle_class,"
          
Barasoll :

          
Ich gschpier kenn Grimmele meh, ganz wohl isch 's mr. Parole d'honneur !... Sicher un gewiss ;
          gschpier nix meh im Büech !

        
",99,clemens-gift,28,4,1.1060269826816662,0.14285714285714285
200,comedy,Daniel,M,domestic_worker,elementary_professions,lower_class,"
          
Daniel:

          
Vejele wohl isch's-mr ; ich kennt singe vor lütter Fraid !

        
",100,clemens-gift,15,4,0.48412381070523225,0.26666666666666666
201,comedy,Steinle,M,rentier,rentiers,upper_class,"
          
Steinle :

          
Dir hätt-r gar nit helfe solle füer d' Strof, will de als hinterwärts Schnaps getrunke hesch! —
          Awer-mr welle froh sin, dass-mr noch läwe, denn die Reis hann-mr d'Engel schun höere pfiffe... Un vun
          Dir, Robert, isch's e grossi Lichtsinnigkeit, in e Budell, wo mr drüss trinke duet, Gift ze mache, diss
          isch au nix vum-e Dokter, verstehsch !

        
",100,clemens-gift,75,9,0.7787065776795004,0.12
202,comedy,Robert,M,,,,"
          
Robert :

          
Diss stimmt, Unkel, awer zum Erschte hawich e Dotekopf druf gekläbt, wie's Vorschrift isch, un zuem
          Zweite — — isch gar kenn Gift in d'r Flasch gsin.

        
",101,clemens-gift,35,4,0.0,0.11428571428571428
203,comedy,Steinle,M,rentier,rentiers,upper_class,"
          
Alle drei :

          
(erstaunt):

          
Was ? ! ..... Gar kenn Gift?!

        
",101,clemens-gift,16,1,0.0,0.0625
204,comedy,Barasoll,M,barber,crafts,lower_middle_class,"
          
Alle drei :

          
(erstaunt):

          
Was ? ! ..... Gar kenn Gift?!

        
",102,clemens-gift,16,1,0.0,0.0625
205,comedy,Daniel,M,domestic_worker,elementary_professions,lower_class,"
          
Alle drei :

          
(erstaunt):

          
Was ? ! ..... Gar kenn Gift?!

        
",102,clemens-gift,16,1,0.0,0.0625
206,comedy,Robert,M,,,,"
          
Robert:

          
Nein, 's isch gar kenn Gift drinne gsinn, Ihr hann de rein unverfälschte Schnaps gedrunke; d'r
          Dotekopf hett Eich verfüehrt, dass-r hann geglaubt, es isch Gift ; un's Gejemittel isch nix gsinn als
          wie Wasser un Zucker. 
          
(lacht).

        
",103,clemens-gift,50,5,0.44959295544301653,0.1
207,comedy,Steinle,M,rentier,rentiers,upper_class,"
          
Steinle :

          
(böse)

          
Höer, Robert, diss isch doch zue starik, mit-eme alte Mann so Kabriole ze mache! — Schäm Dich !

        
",103,clemens-gift,27,4,0.0,0.14814814814814814
208,comedy,Robert,M,,,,"
          
Robert :

          
Unkel, verzej-mr.... Ich hab's ja e bissel zue starik getriewe; awer Dü hesch au e bissel e Strof
          verdient, füer diss, dass Dü d'r Dokterberuef so ungerechter Wies verdächtigt hesch, un d'rno hab ich
          mir schun ebs erlauwe derfe, isch's mir doch d'rum ze duen g'sinn, mini Wettung ze gewinne, domit ich
          vun Dir, min liebs Unkele, die 5000 Franke bekumm ; un ich hab gewunne, denn Dü hesch g'saat: ""Lauf un
          hol e Dokter."" Hahaha !

        
",104,clemens-gift,99,10,0.555832243659319,0.10101010101010101
209,comedy,Steinle,M,rentier,rentiers,upper_class,"
          
Steinle :

          
(ist auf einen Stuhl gesunken)

          
E Nuntebuckel ! — So daub bin ich do ningebatscht ! 
          
(aufstehend)
 Na, ich halt min Wort, ich hab d' Wettung verlore, awer do diss Buch isch d'
          Schuld, denn do steht selwer drinn, dass-mr e Dokter soll hole. — No brüch ich au diss Buch nimm ! 
          
(wirft es zum Fenster hinaus.)

        
",104,clemens-gift,73,5,0.0,0.0684931506849315
210,comedy,Robert,M,,,,"
          
Robert :

          
Bravo, Unkel! So isch's recht — un dass Dü trotzdem 100 Johr alt wursch, do wur ich schun min
          Mejlichscht mache, denn ich versteh min métier.

        
",105,clemens-gift,34,1,0.0,0.029411764705882353
211,comedy,Steinle,M,rentier,rentiers,upper_class,"
          
Steinle :

          
Ja, ja, Dü Wackebumm, dü bisch e ganz riewener Dokter.

        
",105,clemens-gift,16,4,0.0,0.25
212,comedy,Barasoll,M,barber,crafts,lower_middle_class,"
          
Barasoll:

          
Ah — jetz grej ich doch e Wuet wie e Hüs ; Ihr hann e Wettung mitnand gemacht, un ich d'r Barasoll,
          soldat de la Légion étrangère, muess do die Jagd mitmache un muess de Lälle erüss hänke bis uf de
          siewete Gamascheknopf ! Herrschaft, mille pots de confiture !! 
          
(Gelächter.)

        
",106,clemens-gift,61,9,0.549987564257447,0.14754098360655737
213,comedy,Robert,M,,,,"
          
Robert :

          
Monsieur Barasoll, exküsiere vielmols, awer ich will ne füer die üsg'stande Angscht gern 20 Mark
          genn, sin se no zefridde ?... 
          
(Gibt ihm das Geld.)

        
",106,clemens-gift,34,5,0.4403941225950775,0.14705882352941177
214,comedy,Barasoll,M,barber,crafts,lower_middle_class,"
          
Barasoll :

          
(erfreut)

          
Avec plaisir, Monsieur Robär — mille fois merci !

        
",107,clemens-gift,15,2,1.5724254899445655,0.13333333333333333
215,comedy,Robert,M,,,,"
          
Robert :

          
(zu Daniel)

          
Un für Ejch Daniel, isch's e Warnung un e Strof.

        
",107,clemens-gift,19,2,2.777045916301969,0.10526315789473684
216,comedy,Daniel,M,domestic_worker,elementary_professions,lower_class,"
          
Daniel :

          
Ja, ja — ich denk dran. — In mim Läwe drink ich nimmi üs-ere Budell, wie ich nit kenn. 
          
(es schellt)
 Meischter, 's hätt glauwi g'schellt.

        
",108,clemens-gift,36,4,0.5182224964590119,0.1111111111111111
217,comedy,Steinle,M,rentier,rentiers,upper_class,"
          
Steinle :

          
Gehn, un mache-n-uf ! 
          
(Daniel ab)
 Wer wurd jetzt kumme ? 
          
(Man hört Ernest hinter der Bühne weinen.)

        
",108,clemens-gift,28,4,0.5711565909931776,0.14285714285714285
218,comedy,Daniel,M,domestic_worker,elementary_professions,lower_class,"
          
Daniel :

          
(von rechts mit Ernest, welcher laut weint)

          
Do, do isch e Kneckes, wie zue Ejch will.

        
",109,clemens-gift,24,2,0.0,0.08333333333333333
219,comedy,Steinle,M,rentier,rentiers,upper_class,"
          
Steinle :

          
Was hesch denn gewellt, Männel ?

        
",109,clemens-gift,9,1,0.0,0.1111111111111111
220,comedy,Ernest,M,,,,"
          
Ernest :

          
(weinend)

          
E schöen's — hü-hü-hü — Kumpliment vom Herr Maire, un do schickt-r Ihne e Tart uf de Geburtsdaa, un
          — hü-hü-hü -

        
",110,clemens-gift,30,5,0.0,0.16666666666666666
221,comedy,Steinle,M,rentier,rentiers,upper_class,"
          
Steinle :

          
Ja, worum hielsch denn — wo hesch denn die Tart ?

        
",110,clemens-gift,14,1,0.0,0.07142857142857142
222,comedy,Ernest,M,,,,"
          
Ernest :

          
Ei, wie ich in Ihre Hoft erin bin, hett mr Jemes so e dicks Buch mittles uf d'Tart geworfe, dass se
          zue Krüt un Käs verfahre isch — im Hof lejt se im Dreck — hü-hü-hü. 
          
(Gelächter.)

        
",111,clemens-gift,47,5,0.6633633834415298,0.10638297872340426
223,comedy,Robert,M,,,,"
          
Robert :

          
Do setze mr uns grad derzüe un esse se im Hoft. 
          
(Gelächter — Ernest weint noch stärker.)

        
",111,clemens-gift,23,3,1.1056056390692162,0.13043478260869565
224,comedy,Steinle,M,rentier,rentiers,upper_class,"
          
Steinle :

          
Stille Männel — 's macht nix; ich geh no selwer zuem Herr Maire! — Do hesch ebs füer dich — Müesch
          jetz nim hiele ! 
          
(Gibt ihm ein Geldstück.)

        
",112,clemens-gift,36,5,0.0,0.1388888888888889
225,comedy,Ernest,M,,,,"
          
Ernest:

          
(das Geldstück betrachten)

          
E Franke! — 
          
(lacht)
 Wenn Sie e so mit eim rede, no kann-mr jo 
          
nimi hiele, hahaha ! Vielmols merci, guet Nacht biesamme ! 
          
(lustig rechts ab).

        
",112,clemens-gift,43,6,0.0,0.13953488372093023
226,comedy,Barasoll,M,barber,crafts,lower_middle_class,"
          
Barasoll:

          
Ja, un ich will jetz au gehn, un —

        
",113,clemens-gift,13,1,0.0,0.07692307692307693
227,comedy,Steinle,M,rentier,rentiers,upper_class,"
          
Steinle :

          
Nix do — do gebliewe ! — Ich will mir durch die Affär mit dere Tart dr Owe nit verderwe lonn. —
          Daniel, mache die Tart eweg im Hoft un gänn se im Hund, dass der au weiss, ass ich morje Geburtsdaa
          hab! — Un Ihr zwei gehn mit-mr ins Restaurant Klein. — Dort verdaxe mr e g'fitzt's Souper un breche in
          e paar Flasche Riesling dr Hals un 's erscht Glas trinke mr uf's Wohl von unserm frischgebackene Dokter
          un vom ganze Dokterstand !

        
",113,clemens-gift,95,13,0.7150037955839813,0.1368421052631579
228,comedy,Robert,M,,,,"
          
Robert :

          
Angenumme Unkel ! — Do hett dess Gift doch ebs genutzt, Dü bisch von dinere schlechte Meinung, wie
          Dü üewer d' Dokter hesch g'hett, küriert worre.

        
",114,clemens-gift,32,4,0.6707749075899377,0.125
229,comedy,Barasoll,M,barber,crafts,lower_middle_class,"
          
Barasoll :

          
Un ich kumm zuem e g'fitzte Friko — do dran isch numme di Giftbudell schuld. 
          
(Gelächter).

          
Vorhang fällt.

        
",114,clemens-gift,25,2,0.0,0.08
