2022-08-20 21:34:45 - valence lexicon length: 7864
2022-08-20 21:34:45 - Number of rows: 230
2022-08-20 21:34:46 - dominance lexicon length: 7864
2022-08-20 21:34:46 - Number of rows: 230
2022-08-20 21:34:46 - arousal lexicon length: 7864
2022-08-20 21:34:46 - Number of rows: 230
2022-08-20 21:34:47 - anger lexicon length: 7864
2022-08-20 21:34:47 - Number of rows: 230
2022-08-20 21:34:47 - anticipation lexicon length: 7864
2022-08-20 21:34:47 - Number of rows: 230
2022-08-20 21:34:48 - disgust lexicon length: 7864
2022-08-20 21:34:48 - Number of rows: 230
2022-08-20 21:34:48 - fear lexicon length: 7864
2022-08-20 21:34:48 - Number of rows: 230
2022-08-20 21:34:49 - joy lexicon length: 7864
2022-08-20 21:34:49 - Number of rows: 230
2022-08-20 21:34:49 - sadness lexicon length: 7864
2022-08-20 21:34:49 - Number of rows: 230
2022-08-20 21:34:49 - surprise lexicon length: 7864
2022-08-20 21:34:49 - Number of rows: 230
2022-08-20 21:34:50 - trust lexicon length: 7864
2022-08-20 21:34:50 - Number of rows: 230
2022-08-24 17:05:25 - valence lexicon length: 7864
2022-08-24 17:05:25 - Number of rows: 230
2022-08-24 17:05:25 - dominance lexicon length: 7864
2022-08-24 17:05:25 - Number of rows: 230
2022-08-24 17:05:25 - arousal lexicon length: 7864
2022-08-24 17:05:25 - Number of rows: 230
2022-08-24 17:05:26 - anger lexicon length: 7864
2022-08-24 17:05:26 - Number of rows: 230
2022-08-24 17:05:26 - anticipation lexicon length: 7864
2022-08-24 17:05:26 - Number of rows: 230
2022-08-24 17:05:26 - disgust lexicon length: 7864
2022-08-24 17:05:26 - Number of rows: 230
2022-08-24 17:05:27 - fear lexicon length: 7864
2022-08-24 17:05:27 - Number of rows: 230
2022-08-24 17:05:27 - joy lexicon length: 7864
2022-08-24 17:05:27 - Number of rows: 230
2022-08-24 17:05:28 - sadness lexicon length: 7864
2022-08-24 17:05:28 - Number of rows: 230
2022-08-24 17:05:28 - surprise lexicon length: 7864
2022-08-24 17:05:28 - Number of rows: 230
2022-08-24 17:05:29 - trust lexicon length: 7864
2022-08-24 17:05:29 - Number of rows: 230
