Unnamed: 0,drama_type,speaker,sex,job,job_category,social_class,text,progress,short_name,numTokens,numLexTokens,avgLexVal,lexRatio
0,comedy,Jean,M,valet,elementary_professions,lower_class,"
          
Jean :

          
(kummt mit-em Meyer sine gewichste Schueh v. 1. un reicht se zue dr Düer r. nin.)

          
Do Patron sinn d' Schueh! 
          
(geht an de Disch)
 Jetz isch schun nien Ühre un Der steht endli uf — wenn dis dr Diener
          tät mach no wär's e füler Kaib, awer dr Herr — hahaha. Der soll nächt kenni heime g'schleift hann. D'
          Stäj isch-r uf Händ un Fües eruf gegrobelt. Er wurd e schöner Katzejammer hann. Jetzt isch-r widder
          verschläckt un weiss nit wass-r esse un drinke will. Na, do hett-r jo d'Üswahl: Rollmops, Sardinle,
          Häri, Servilasalädel, Schwitzerkäs — Härz was begährsch, Stäcke wo bisch !

        
",0,clemens-a-latzi-visit,127,10,2.442541657981096,0.07874015748031496
1,comedy,J. Meyer,M,insurance_inspector,intermediate_professionals,upper_middle_class,"
          
Meyer :

          
(v.r.)

          
Uutsch — ah min-r Kopf, min-r Kopf! Do hinne brummt's grad as wenn lütter Maikafer drinne rum däte
          surre.

        
",0,clemens-a-latzi-visit,28,2,0.8547392059539444,0.07142857142857142
2,comedy,Jean,M,valet,elementary_professions,lower_class,"
          
Jean :

          
(f. s.)

          
Hattsch weniger gedrunke 
          
(lütt)
 Guete Morje, Herr Meyer ! — Do sitze se anne un esse se emol e Mumpfel, no wurd's
          ne schun besser wäre.

        
",1,clemens-a-latzi-visit,38,4,0.5262494807000927,0.10526315789473684
3,comedy,J. Meyer,M,insurance_inspector,intermediate_professionals,upper_middle_class,"
          
Meyer :

          
Was hesch dänn Guet's? 
          
(geht an de Disch)
 Häri — brr — nein — ich kann nix esse. 
          
(setzt sich).
 Schänk mr emol e Glas Soda in, ich hab e Brand. — E Stüeckel Schwitzerkäs
          kennt i glauwi esse ohne Brot. 
          
(drinkt).
 Ah, diss küehlt ! Win kann i kenner schmecke hitt morje.

        
",1,clemens-a-latzi-visit,71,6,1.7760531585834418,0.08450704225352113
4,comedy,Jean,M,valet,elementary_professions,lower_class,"
          
Jean :

          
Jo, sie wäre genuej gebüerscht hann gescht Nacht. Sie sinn gemutzt gsinn — hahaha, e Nuntebuckel
          !

        
",2,clemens-a-latzi-visit,22,1,0.0,0.045454545454545456
5,comedy,J. Meyer,M,insurance_inspector,intermediate_professionals,upper_middle_class,"
          
Meyer :

          
Was haw-i denn alles angschtellt in minere Kischt — hä?

        
",2,clemens-a-latzi-visit,13,1,1.640354750568464,0.07692307692307693
6,comedy,Jean,M,valet,elementary_professions,lower_class,"
          
Jean :

          
Ich muess jetz noch lache, wenn i dran dänk, wie se uf Händ un Fües d'Stäj eruf gegrobelt sinn — un
          e Arweit haw-i ghett mit-ne bis Sie im Bett sinn gläje. Sie hann als mit-mr welle danze un no hann se
          im Anglais un de Cilinder uf-em Kopf in's Bett welle leje — Sie hann als gsaat: ""Ich hab kalti Fües""
          !

        
",3,clemens-a-latzi-visit,73,6,1.3151671451576654,0.0821917808219178
7,comedy,J. Meyer,M,insurance_inspector,intermediate_professionals,upper_middle_class,"
          
Meyer :

          
Ei, ei — uuh min-r Kopf — was der kaiwe Risling nitt alles anstellt — — puh ich schwitz ganz —
          schenk mr e Soda in! Wenn numme dr Deifel alli Süffereje hole dät...

        
",3,clemens-a-latzi-visit,39,3,0.8271751191896954,0.07692307692307693
8,comedy,Jean,M,valet,elementary_professions,lower_class,"
          
Jean :

          
Wo Sie nitt d'rbi sinn — gelle Patron !

        
",4,clemens-a-latzi-visit,12,1,3.0897885921572827,0.08333333333333333
9,comedy,J. Meyer,M,insurance_inspector,intermediate_professionals,upper_middle_class,"
          
Meyer :

          
Verschon mich um's Himmelswille mit dine füle Witz hit. 
          
(drinkt)
 Ah, wie guet — oh, min-r Kopf ! — Brrr ! Ich muess mich vun jetzt ab meh
          zeruckhalte im drinke, ich verdraa's nimi... awer was will i als mache wenn i Gschäfte will mache füer
          d'Assurance. Wenn i emol die Generalagentür in Strossburri hab, un ich hab Üssicht ass-es ball isch, no
          kann ich meh uf-em Büro bliewe.

        
",4,clemens-a-latzi-visit,85,8,0.973466217202813,0.09411764705882353
10,comedy,Jean,M,valet,elementary_professions,lower_class,"
          
Jean :

          
Derf ich no au mit, Patron, wenn se emol uf Strosburri kumme ?

        
",5,clemens-a-latzi-visit,17,3,2.764995130183101,0.17647058823529413
11,comedy,J. Meyer,M,insurance_inspector,intermediate_professionals,upper_middle_class,"
          
Meyer :

          
Ich well noch sähne. Dü besch e bissel lichtsinni un hesch mr schun e manicher dummer Streich
          angstellt.

        
",5,clemens-a-latzi-visit,22,2,0.0,0.09090909090909091
12,comedy,Jean,M,valet,elementary_professions,lower_class,"
          
Jean :

          
E ""bissel"" lichtsinni isch jo nitt viel un ich versprech ne, nie meh e Dummheit ze mache.

        
",6,clemens-a-latzi-visit,23,3,0.0,0.13043478260869565
13,comedy,J. Meyer,M,insurance_inspector,intermediate_professionals,upper_middle_class,"
          
Meyer :

          
Na — will de mir diss verspreche duesch, will i dich mitnämme. — Was isch im Briefkäschtel
          gsinn?

        
",6,clemens-a-latzi-visit,23,1,0.0,0.043478260869565216
14,comedy,Jean,M,valet,elementary_professions,lower_class,"
          
Jean :

          
D'Zittunge — ah, un e Brief. Der isch schun gescht Owe kumme. 
          
(gibt-ne im Meyer.)

        
",7,clemens-a-latzi-visit,24,2,0.9346273488729818,0.08333333333333333
15,comedy,J. Meyer,M,insurance_inspector,intermediate_professionals,upper_middle_class,"
          
Meyer:

          
Vun Nanci, vun dr General-Direction. 
          
(lest)
 Mir wurd's schwach ! Ich sell sofort uf General-Direction kumme, wäje persönliche
          Besprechunge — wohrschin's isch's wäje dere Stell als Generalagent in Strosburri. Ei, ei un noch emol e
          Ei — mit dem Kopf soll ich uf Nanci — mit dem Katzejammer Isebahn fahre?! Lang mer emol schnell dr
          Fahrplan 
          
in minere Mapp. Wenn mejli grej ich dene Schnellzug, wo geje de zehne abfahrt, no wär ich
          geje de zweje in Nanci.

        
",7,clemens-a-latzi-visit,96,11,2.8981392768434504,0.11458333333333333
16,comedy,Jean,M,valet,elementary_professions,lower_class,"
          
Jean :

          
Voila, Patron, dr Fahrplan. 
          
(gibt ne).

        
",8,clemens-a-latzi-visit,14,1,3.0897885921572827,0.07142857142857142
17,comedy,J. Meyer,M,insurance_inspector,intermediate_professionals,upper_middle_class,"
          
Meyer :

          
(riebt sich d'Aue)

          
Es danzt mer alles vor de Aue — 9,40 fahrt dr Schnellzugg, do kennt's noch lange, dene kennt i
          nämme. Wieviel Ühr isch denn? 
          
(lüejt uf sinere Sackühr.)
 Ja do — die steht — do isch halwer drej — die haw ich vergässe
          ufzezeje.

        
",8,clemens-a-latzi-visit,60,6,1.4329063152349981,0.1
18,comedy,Jean,M,valet,elementary_professions,lower_class,"
          
Jean :

          
(luejt uf sinere Ühr)

          
Es isch jetzt genau noch e Viertel üewer Nien.

        
",9,clemens-a-latzi-visit,18,3,1.1119807002153526,0.16666666666666666
19,comedy,J. Meyer,M,insurance_inspector,intermediate_professionals,upper_middle_class,"
          
Meyer :

          
Schnell, es langt noch, ich nämm 's Velo. Lang mr miner Frack, dr Panamahuet un dr hell Bardessü im
          Kaschte. 
          
(Jean holt alles un hilft-em anzeje).
 Also, ich kumm sobald wie mejli zeruck, b'stellsch
          min Esse ab im Restaurant, duesch emol all Zimmer grüendlich brobber mache — no hesch Beschäftigung —
          un mach mr kenn Lumpestreich, sunsch raucht's !

        
",9,clemens-a-latzi-visit,74,6,1.1608298294905077,0.08108108108108109
20,comedy,Jean,M,valet,elementary_professions,lower_class,"
          
Jean :

          
Sie brüche kenn Angscht ze hann, Patron — Sie kenne ruehj reise.

        
",10,clemens-a-latzi-visit,16,4,0.7724471480393207,0.25
21,comedy,J. Meyer,M,insurance_inspector,intermediate_professionals,upper_middle_class,"
          
Meyer :

          
Bon — also, adje Jean, un mach wie ich gsaat hab. 
          
(an dr Düer)
 Hesch au's Velo gebutzt gescht?

        
",10,clemens-a-latzi-visit,28,2,0.0,0.07142857142857142
22,comedy,Jean,M,valet,elementary_professions,lower_class,"
          
Jean:

          
Ja, ja, Patron, gebutzt un ganz frischi Luft nin gebummbert.

        
",11,clemens-a-latzi-visit,16,5,2.202024366038657,0.3125
23,comedy,J. Meyer,M,insurance_inspector,intermediate_professionals,upper_middle_class,"
          
Meyer :

          
No isch guet. 
          
(a. d. M.)

        
",11,clemens-a-latzi-visit,11,1,0.0,0.09090909090909091
24,comedy,Jean,M,valet,elementary_professions,lower_class,"
          
Jean :

          
(luschti)

          
E ganzer Daa ellein. Was kennt mr do alles anstelle? Ah, ich sell jo gründlich brobber mache. 
          
(wischt e Stuehl ab mit-em Schurz)
 A füer was denn dies, es wurd jo doch widder dräcket. 
          
(luejt zuem Fänschter nüss)
 Dort vorne rädelt dr Patron. Dem isch's nitt um 's Velo fahre
          — hahaha — e Gsicht hett-r

        
",12,clemens-a-latzi-visit,73,5,1.3247157877272513,0.0684931506849315
25,comedy,Schakob,M,messenger/deliverer/helper,service_and_sales,lower_class,"
          
Schakob :

          
Aah, do bin i drbie, denn ich hab e Hunger, ass mr 's Wisse in de Aue gixt. 
          
(Gelächter).

        
",12,clemens-a-latzi-visit,28,1,1.7386233664321369,0.03571428571428571
26,comedy,Jean,M,valet,elementary_professions,lower_class,"
          
Jean :

          
Männel, Männel ! Dich möecht ich emol sähne, wenn dü kenn Hunger hesch.

        
",13,clemens-a-latzi-visit,18,3,0.5795411221440456,0.16666666666666666
27,comedy,Schakob,M,messenger/deliverer/helper,service_and_sales,lower_class,"
          
Schakob :

          
Ich kann nix drfüer, es isch e Erbstüeck vun mim Vater. Der hett immer g'saat ""Esse un drinke hebt
          dr Lieb an dr Seel zamme"" und ""Wer nicht essen will, soll auch nicht arbeiten"".

        
",13,clemens-a-latzi-visit,44,5,1.3511091011045495,0.11363636363636363
29,comedy,Schakob,M,messenger/deliverer/helper,service_and_sales,lower_class,"
          
Schakob :

          
In dr Bibel steht geschriewe: ""Der Mensch lebt nicht vom Brote allein — es muss auch Fleisch dabei
          sein"".

        
",14,clemens-a-latzi-visit,25,2,0.9794734764596865,0.08
30,comedy,Jean,M,valet,elementary_professions,lower_class,"
          
Jean :

          
Do ess emol dene Servilasalad, dü Frässbüch ! 
          
(schenkt Win in)
 Un jetz welle mr emol Gsundheit drinke. Gsundheit! 
          
(stosse an un trinke. Schakob duet g'höerich inschiewe)

        
",15,clemens-a-latzi-visit,37,3,0.0,0.08108108108108109
31,comedy,Victor,M,military_man_(war_veteran),military,,"
          
Victor:

          
Männel, Männel, isch dies e Dröpfele !

        
",15,clemens-a-latzi-visit,11,2,0.0,0.18181818181818182
32,comedy,Schakob,M,messenger/deliverer/helper,service_and_sales,lower_class,"
          
Schakob :

          
Wenn mr vun dem drinkt, meint mr grad e Engele schlupft eim mit samete Badhöesele de Hals nab.

        
",16,clemens-a-latzi-visit,22,2,0.0,0.09090909090909091
33,comedy,Jean,M,valet,elementary_professions,lower_class,"
          
Jean :

          
Jetz ess doch Victor, nämm was de Luscht hesch — un dü, bisch schun ferdi mit dim Servilasalad ?
          Bisch jetz satt ?

        
",16,clemens-a-latzi-visit,27,2,1.9635183446516433,0.07407407407407407
34,comedy,Schakob,M,messenger/deliverer/helper,service_and_sales,lower_class,"
          
Schakob :

          
Ohoo... satt! Jetz bekumm ich erscht Idee!

        
",17,clemens-a-latzi-visit,12,2,0.0,0.16666666666666666
35,comedy,Jean,M,valet,elementary_professions,lower_class,"
          
Jean :

          
Do ess denne Käs, vun uns zwei will ne doch kenner. 
          
(Alli drej esse — Paus.)

        
",17,clemens-a-latzi-visit,23,2,3.7373853032047633,0.08695652173913043
36,comedy,Jean,M,valet,elementary_professions,lower_class,"
          
Jean :

          
Weiss kenner nix ze babble? Schakob, die höert mr jetz gar nimm !

        
",18,clemens-a-latzi-visit,17,1,4.828920386645356,0.058823529411764705
37,comedy,Schakob,M,messenger/deliverer/helper,service_and_sales,lower_class,"
          
Schakob :

          
Kenn Zitt — wenn ich babbel, kann i nitt esse.

        
",18,clemens-a-latzi-visit,14,1,2.6779233238891953,0.07142857142857142
38,comedy,Victor,M,military_man_(war_veteran),military,,"
          
Victor :

          
Warde, ich verzehl ebs — ich weis ebs gelunges. Im Isebahn isch e besserer Herr g'sässe un im sälwe
          Coupé e Madame mit-eme Hundel, e nätt's Bummerle, uf-em Geere. Der Herr züend't sich e Cygarr an un 
          
näwelt druff los wie e Düerik. Die Madame reclamiert und saat sie kann's Rauche nitt
          verdraue. Der Herr saat, er verdraat's un raucht härzhaft widdersch. Do risst die Madame dem Herr d'
          Cygarr üs-em Müll un schmisst se racta zuem Coupéfänschter nüss, der Herr awer au nitt füll un schmisst
          dere Madame ihr Hündel au nüss. Die Madame isch schier in Ohnmacht kejt un an der Station geht se rüss
          ün direkt zuem chef de gare — der Herr geht awer au glich noch un allwill se do mit-nander uf-un-ab
          mache, ze kummt's Hündele ze laufe — un was meine-nr was-es im Müll hett g'hett ?

        
",19,clemens-a-latzi-visit,162,23,4.59155191554761,0.1419753086419753
39,comedy,Schakob,M,messenger/deliverer/helper,service_and_sales,lower_class,"
          
Schakob :

          
(schnell)

          
Im Herr sini Cigarr !

        
",19,clemens-a-latzi-visit,10,2,1.0524989614001854,0.2
40,comedy,Victor,M,military_man_(war_veteran),military,,"
          
Victor :

          
Aba — — — d' Zung hett's im Müll g'hett. 
          
(lache Schakob üss.)

        
",20,clemens-a-latzi-visit,20,2,1.2743378704492627,0.1
41,comedy,Schakob,M,messenger/deliverer/helper,service_and_sales,lower_class,"
          
Schakob :

          
Pah, diss sinn widder so Plän vun dir — so isch eine guet ze verwiische, wenn mer am Esse isch. 
          
(isch böes.)

        
",20,clemens-a-latzi-visit,30,3,0.8891300724315753,0.1
42,comedy,Jean,M,valet,elementary_professions,lower_class,"
          
Jean :

          
Schakob, alle rej dich nitt uf wäje dem, drinke mr liewer eins — Alle Gebott santé, ass mr
          s'franzeesch nitt vergässe.

        
",21,clemens-a-latzi-visit,28,3,1.1119807002153526,0.10714285714285714
43,comedy,Schakob,M,messenger/deliverer/helper,service_and_sales,lower_class,"
          
Schakob :

          
(hübst vor Plaisir uf-em Stuehl erum)

          
Wenn ich alle Daa so e Läwe hätt, no wott i gar nitt stärwe.

        
",21,clemens-a-latzi-visit,26,2,3.883804655996933,0.07692307692307693
44,comedy,Jean,M,valet,elementary_professions,lower_class,"
          
Jean :

          
Schakob, jetz müehsch dü emol ebs verzehle — weisch denn kenn Witz ?

        
",22,clemens-a-latzi-visit,16,1,3.506148503292564,0.0625
47,comedy,Schakob,M,messenger/deliverer/helper,service_and_sales,lower_class,"
          
Schakob :

          
Mit-em nüechtere Maue — ich glaab dü bisch gebickt — so kann ich doch nix verzehle. Lang mr noch
          Brot un Wurscht ! 
          
(Jean gibt-em).

        
",23,clemens-a-latzi-visit,31,1,2.86760620893116,0.03225806451612903
48,comedy,Victor,M,military_man_(war_veteran),military,,"
          
Victor :

          
Männel, Männel, hesch dü e Abbeditt — 
          
(blickt Jean asse-es e Witz gibt)
 Awer Schakob, im Ernscht. Ich wett mit dir um was ass
          de witt, dass dü nitt ""Kaschper mit de Nas"" kannsch saue. Awer drejmol hinter-e-nand mit züegebundene
          Aue.

        
",24,clemens-a-latzi-visit,54,4,0.876537125823141,0.07407407407407407
49,comedy,Schakob,M,messenger/deliverer/helper,service_and_sales,lower_class,"
          
Schakob :

          
Ho zell! Do mach ich gröescht Wettung — so daub bin ich doch nitt -.

        
",24,clemens-a-latzi-visit,19,1,0.0,0.05263157894736842
52,comedy,Jean,M,valet,elementary_professions,lower_class,"
          
Jean :

          
Hoho, geh nurre nitt so hoch dran.

        
",26,clemens-a-latzi-visit,11,1,0.0,0.09090909090909091
53,comedy,Victor,M,military_man_(war_veteran),military,,"
          
Victor :

          
Naan, nitt eso — um ebs, wo mr au halte kann.

        
",26,clemens-a-latzi-visit,16,1,1.912362259516414,0.0625
54,comedy,Schakob,M,messenger/deliverer/helper,service_and_sales,lower_class,"
          
Schakob :

          
Na, saue mr — um dene Häri do. Denne will ich esse, wenn ich gewinn.

        
",27,clemens-a-latzi-visit,21,1,4.4643714041642095,0.047619047619047616
55,comedy,Victor,M,military_man_(war_veteran),military,,"
          
Victor :

          
Angenumme! Dü gehsch awer witt erab vun-ere Million uf e Häri — awer es gilt! E Nastuech here füer
          d'Aue züzebinde.

        
",27,clemens-a-latzi-visit,27,1,3.335942100646058,0.037037037037037035
56,comedy,Schakob,M,messenger/deliverer/helper,service_and_sales,lower_class,"
          
Schakob :

          
(gibt sin Nastuech)

          
Do nämme min's, denn von ejere will ich kenn's im Gsicht hann.

        
",28,clemens-a-latzi-visit,23,1,0.0,0.043478260869565216
57,comedy,Victor,M,military_man_(war_veteran),military,,"
          
Victor :

          
(duet-em d' Aue zübinde)

          
So, guet zügebunde !

        
",28,clemens-a-latzi-visit,13,1,0.0,0.07692307692307693
58,comedy,Jean,M,valet,elementary_professions,lower_class,"
          
Jean :

          
(geht schnell nüss un macht sich d' Händ schwarz mit Wichs.)

        
",29,clemens-a-latzi-visit,16,3,1.5754614760388488,0.1875
59,comedy,Schakob,M,messenger/deliverer/helper,service_and_sales,lower_class,"
          
Schakob :

          
Autsch — nitt so fescht! Dü risch mr jo d' Hoor erüss do hinte.

        
",29,clemens-a-latzi-visit,18,2,0.946725777130806,0.1111111111111111
60,comedy,Jean,M,valet,elementary_professions,lower_class,"
          
Jean :

          
Ja, es mues fescht sinn, dü derisch kenn Grimmele sähne, sunsch gilt's nitt. 
          
(hebbt-em d' Händ vors's Gsicht un schwärzt ne)
 Siehsch mini Händ ?

        
",30,clemens-a-latzi-visit,35,3,0.4532339900389095,0.08571428571428572
61,comedy,Schakob,M,messenger/deliverer/helper,service_and_sales,lower_class,"
          
Schakob :

          
Naan, ich sieh nix, es isch alles schwarz vor-mr.

        
",30,clemens-a-latzi-visit,14,1,0.0,0.07142857142857142
62,comedy,Victor,M,military_man_(war_veteran),military,,"
          
Victor :

          
So, jetz muehsch drejmol Kaschper mit dr Nas saue. 
          
(stellt de Schakob in d' Mitte von d'r Scène, vorne an de Disch).
 So, jetz los !- 
          
(Die Zwei könne küm noch 's Lache verbisse.)

        
",31,clemens-a-latzi-visit,47,3,2.9448698608884523,0.06382978723404255
63,comedy,Schakob,M,messenger/deliverer/helper,service_and_sales,lower_class,"
          
Schakob :

          
(streckt d' Händ nüss, mit komischer Stimm)

          
Kaschper mit dr Nas, Kaschper mit dr Nas, Kaschper mit dr Nas! 
          
(risst's Nastuech rab)
 Gewunne, gewunne !

        
",31,clemens-a-latzi-visit,37,3,0.7507041869899843,0.08108108108108109
64,comedy,Jean,M,valet,elementary_professions,lower_class,"
          
Jean und Victor :

          
(lache-ne üss)

          
Hahaha — verlore hesch, verlore !

        
",32,clemens-a-latzi-visit,15,3,0.0,0.2
65,comedy,Victor,M,military_man_(war_veteran),military,,"
          
Jean und Victor :

          
(lache-ne üss)

          
Hahaha — verlore hesch, verlore !

        
",32,clemens-a-latzi-visit,15,3,0.0,0.2
66,comedy,Victor,M,military_man_(war_veteran),military,,"
          
Victor :

          
Dü hesch — Kaschper nitt mit dr 
          
""Nas""
gsaat, dü hesch's jo mit-em 
          
""Müll""
gsaat. 
          
(lache-ne üss).

        
",33,clemens-a-latzi-visit,29,2,0.0,0.06896551724137931
67,comedy,Schakob,M,messenger/deliverer/helper,service_and_sales,lower_class,"
          
Schakob :

          
(wüeti)

          
O, ihr eländi Kaiwe, ass-r sinn! Jetz lonn mich mit Fridde, ich geh furt, los geh-wi, ich ess kenn
          Bisse meh — ich hab e Wuet wie e drejstöecket's Hüs !

        
",33,clemens-a-latzi-visit,43,7,1.618420398962265,0.16279069767441862
68,comedy,Victor,M,military_man_(war_veteran),military,,"
          
Victor :

          
(fladiert)

          
Alle, Schakob, dü wursch doch noch Gschpass verstehn.

        
",34,clemens-a-latzi-visit,16,1,0.0,0.0625
69,comedy,Jean,M,valet,elementary_professions,lower_class,"
          
Jean :

          
Jo, sej doch kenn Kind wie e Beckeknächt — Schaköebele, da, derfsch de Häri doch noch esse.

        
",34,clemens-a-latzi-visit,23,1,2.0794663765051027,0.043478260869565216
70,comedy,Schakob,M,messenger/deliverer/helper,service_and_sales,lower_class,"
          
Schakob :

          
Alle wäje mir — ze will ich widder guet sinn. Siehsch, wenn ich jetz e böeser Karakter hätt, ze dät
          ich dr Häri gar nitt esse. 
          
(sitzt ane un fangt an ze-n-esse.)

        
",35,clemens-a-latzi-visit,43,2,1.333695108647363,0.046511627906976744
71,comedy,Jean,M,valet,elementary_professions,lower_class,"
          
Jean :

          
Ich weiss jo, dü bisch e güeter Dschori. — Zej, Victor, jetz muesch eins singe, dass Läwe in d'
          Büdick kummt !

        
",35,clemens-a-latzi-visit,29,3,1.280192683466857,0.10344827586206896
72,comedy,Victor,M,military_man_(war_veteran),military,,"
          
Victor :

          
Angenumme. — Also ufgebaset — de Refrain singe-nr mit. 
          

            
Das Rindfleisch ist teuer,

            
Das ist doch zu dumm,

            
Es laufen genug Rindviecher rum.

            
(ditt uf Schakob)

            
Refr.:

            
Drulala, drula, drulala usw. !

          

          
(Alli drej singe de Refr. un klopfe mit de Messer an Däller un Gläser.)

        
",36,clemens-a-latzi-visit,64,5,0.8834562047341847,0.078125
73,comedy,Jean,M,valet,elementary_professions,lower_class,"
          
Jean :

          

            
De Patron isch furt,

            
Diss isch zo züe schöen,

            
Jetzt halte mr zamme un lonn's Esse nitt stehn.

            
Refr.:

            
Drula — — — — !

          

        
",36,clemens-a-latzi-visit,33,6,1.875400216790555,0.18181818181818182
74,comedy,Schakob,M,messenger/deliverer/helper,service_and_sales,lower_class,"
          
Schakob :

          

            
Das Rindfleisch ist teuer,

            
Ich mach mir nix drüss,

            
Ich ess e Häri un lach Ejch no üss

            
(macht-ne e langi Nas).

            
Refr.:

            
Drula — — — - !

          

          
.(Mitte im Refrain schellt's. Schakob singt als wittersch. Jean hebt-em 's Müll zü.)

        
",37,clemens-a-latzi-visit,58,4,0.2703347307562164,0.06896551724137931
75,comedy,Jean,M,valet,elementary_professions,lower_class,"
          
Jean :

          
Stille, um Gottswille stille — es hett gschellt. 
          
(es schellt)
 Am End dr Patron. — Der hett dr Zugg verfählt. — Was jetz? Wenn der ejch do
          finde duet — er hett schun e Wuet.

        
",37,clemens-a-latzi-visit,45,5,1.2539552786459904,0.1111111111111111
77,comedy,Victor,M,military_man_(war_veteran),military,,"
          
Victor :

          
Jo, Schöide — im zweite Stock.

        
",38,clemens-a-latzi-visit,10,1,0.0,0.1
78,comedy,Schakob,M,messenger/deliverer/helper,service_and_sales,lower_class,"
          
Schakob :

          
Mansch duet's weh ?

        
",39,clemens-a-latzi-visit,7,2,0.8707134493794078,0.2857142857142857
79,comedy,Jean,M,valet,elementary_professions,lower_class,"
          
Jean :

          
Mache nitt lang, verschwinde, verstecke ejch, hopp !

        
",39,clemens-a-latzi-visit,13,2,1.43380310446558,0.15384615384615385
81,comedy,Jean,M,valet,elementary_professions,lower_class,"
          
Jean :

          
Schakob — do hinter de Fauteuil 
          
(druckt Schakob hinter de Fauteuil)
 Victor — dü gehsch unter de Disch — naan halt — in de
          Kaschte.

        
",40,clemens-a-latzi-visit,30,3,0.6720504172154543,0.1
82,comedy,Victor,M,military_man_(war_veteran),military,,"
          
Victor :

          
Awer nitt bschliese, sunsch verstick ich jo.

        
",41,clemens-a-latzi-visit,11,1,2.5174078338275474,0.09090909090909091
83,comedy,Jean,M,valet,elementary_professions,lower_class,"
          
Jean :

          
Ich loss Düer e bissel offe, hebbsch Düer am Schloss ass se nitt ufgeht — do ejeri Kappe. 
          
(gibt ne d' Kappe).
 So, un jetz mache mr uf un lueje, wer's isch. 
          
(schellt)
 Ich kumm, ich kumm ! 
          
(Geht a. d. M.)

        
",41,clemens-a-latzi-visit,58,5,1.0272230586320923,0.08620689655172414
84,comedy,Schakob,M,messenger/deliverer/helper,service_and_sales,lower_class,"
          
Schakob :

          
(luejt in d' Höeh)

          
Wie gfällt's dr im Kaschte, Victor ?

        
",42,clemens-a-latzi-visit,17,1,0.0,0.058823529411764705
86,comedy,Schakob,M,messenger/deliverer/helper,service_and_sales,lower_class,"
          
Schakob :

          
Ich hab jetz schun Kritzweh — wenn mr nurre schun drüsse wärde — Pscht — sie kumme — Salü ! 
          
(Beidi verschwinde).

        
",43,clemens-a-latzi-visit,27,2,0.9346273488729818,0.07407407407407407
87,comedy,Jean,M,valet,elementary_professions,lower_class,"
          
Jean :

          
(kummt mit Mobil d. d. M. Mobil isch belade mit acht Päkle, lajt se alli uf e Stuehl, dr
          Barablie nimmt-em dr Jean ab un stellt ne ins Eck am Kaschte.)

        
",43,clemens-a-latzi-visit,38,2,1.667971050323029,0.05263157894736842
88,comedy,Otto Mobil,M,manufacturer,industry_and_transportation,upper_class,"
          
Mobil :

          
Also da wären wir nu... rue de la liberté 39, zweiter Stock. Sind Sie Herr Inspektor Meyer?

        
",44,clemens-a-latzi-visit,23,3,1.282564926204053,0.13043478260869565
89,comedy,Jean,M,valet,elementary_professions,lower_class,"
          
Jean :

          
(redd komisch hochditsch)

          
Ja, ja — — der bin — ä — ich bin der ""Inspektor Meyer"".

        
",44,clemens-a-latzi-visit,25,3,1.812935960155638,0.12
91,comedy,Jean,M,valet,elementary_professions,lower_class,"
          
Jean :

          
(f. s.)

          
Der saat mr dü? — 
          
(lütt)
 Ja-ja, ich bin dr Johann.

        
",45,clemens-a-latzi-visit,22,2,2.08619187165577,0.09090909090909091
92,comedy,Otto Mobil,M,manufacturer,industry_and_transportation,upper_class,"
          
Mobil :

          
Aber mich kennste nich, was? Ei, herrjemersch, mach doch kein so komisches Gesichte — ich bin doch
          dein Daufpate.

        
",46,clemens-a-latzi-visit,26,1,0.0,0.038461538461538464
93,comedy,Jean,M,valet,elementary_professions,lower_class,"
          
Jean :

          
Ei — das ist aber furicht ! Sie sind mein Pate. 
          
(f. s.)
 Dies isch im Patron siner Pfetter. Der isch vun driwe.

        
",46,clemens-a-latzi-visit,30,4,2.044712088368118,0.13333333333333333
94,comedy,Otto Mobil,M,manufacturer,industry_and_transportation,upper_class,"
          
Mobil :

          
Ja — mein Gutester, ich habe dich über die Daufe gehalten. — Damals warscht de kaum so gross und
          hast ganz mörderisch geschrien, du warst damals schon kein Freund vom Wasser.

        
",47,clemens-a-latzi-visit,37,7,1.9556905274562484,0.1891891891891892
96,comedy,Otto Mobil,M,manufacturer,industry_and_transportation,upper_class,"
          
Mobil :

          
Ich verstehe nicht — wie meinste, auf der Latte?

        
",48,clemens-a-latzi-visit,13,1,4.04145556405225,0.07692307692307693
97,comedy,Jean,M,valet,elementary_professions,lower_class,"
          
Jean :

          
Ja, das heisst — nicht verbutzen, nicht leiden können. — Herr — Herr — ä — ?

        
",48,clemens-a-latzi-visit,22,4,2.444923415329553,0.18181818181818182
99,comedy,Jean,M,valet,elementary_professions,lower_class,"
          
Jean :

          
Also bitte nämmen Sie Platz, Herr Ottomobil Pfärdefabrik —

        
",49,clemens-a-latzi-visit,12,2,1.0524989614001854,0.16666666666666666
100,comedy,Otto Mobil,M,manufacturer,industry_and_transportation,upper_class,"
          
Mobil:

          
Bitte — Otto Mobil, Pferdewurstfabrik mit Dampfbetrieb.

        
",50,clemens-a-latzi-visit,11,1,0.0,0.09090909090909091
101,comedy,Jean,M,valet,elementary_professions,lower_class,"
          
Jean :

          
Herr Automo — —

        
",50,clemens-a-latzi-visit,6,1,2.104997922800371,0.16666666666666666
102,comedy,Otto Mobil,M,manufacturer,industry_and_transportation,upper_class,"
          
Mobil :

          
Um Gotteswillen, sprich meinen scheenen deutschen Namen nicht französisch aus.

        
",51,clemens-a-latzi-visit,14,2,1.185394055374108,0.14285714285714285
103,comedy,Jean,M,valet,elementary_professions,lower_class,"
          
Jean :

          
Sitzen Sie jetzt da annen, wenn's beliebt. 
          
(setzt sich, ass er de Fauteuil im Au hett, Mobil sitzt geje 's Publikum).

        
",51,clemens-a-latzi-visit,31,2,0.9797836893405156,0.06451612903225806
104,comedy,Otto Mobil,M,manufacturer,industry_and_transportation,upper_class,"
          
Mobil :

          
Danke! Ja, mein Lieber, dass hättest du dir a wees Knebbche nicht träumen lassen, dass ich noch mal
          in's Elsass komme.

        
",52,clemens-a-latzi-visit,29,6,1.9069171176901436,0.20689655172413793
106,comedy,Otto Mobil,M,manufacturer,industry_and_transportation,upper_class,"
          
Mobil :

          
Ja, ich hatte keine Ruhe nich und wollte dich un deine Eltern noch mal sehen. Als du auf die Welt
          kamst, da war ich hier im Elsass an der Post, ich ging dann nach Dräsden und fing eine
          Pferdewurstfabrik an. Jetzt in meinen alten Tagen da wollte ich doch Euch noch mal besuchen und da
          sagten mir deine Eltern, dass du hier in der rue de la liberté wohnst und Inspektor bist — na ja, und
          da bin ich nun — es freut mich, dass ich dich so frisch und munter angetroffen habe — ach ja !

        
",53,clemens-a-latzi-visit,107,12,2.1096693242322178,0.11214953271028037
107,comedy,Jean,M,valet,elementary_professions,lower_class,"
          
Jean :

          
Bitte sehr, Herr Auto — ä Herr Otto Mobil, die Freude ist ganz auf meiner Seite. 
          
(f. s.)
 Wenn-r nurre Furt wär. 
          
(lütt)
 Und nun wollen wir eins miteinander pfätzen, eins dranschütten. 
          
(schänkt Win in, dr Schakob luejt in d' Höeh. Jean winkt-em mit dr Hand nabzegehn).

        
",53,clemens-a-latzi-visit,64,9,1.5896977229343168,0.140625
109,comedy,Jean,M,valet,elementary_professions,lower_class,"
          
Jean :

          
(verschrocke)

          
Habe ich denn gefuchtelt ? Ah, eine Schnoock, eine Schnake fliest da in der Luft herum. So, nun
          wollen wir aber Gsundheit trinken ! Herr Taufpate, es soll Ihnen wohl tuhen bis in den grossen Zeh
          !

        
",54,clemens-a-latzi-visit,47,6,0.8864149225653337,0.1276595744680851
110,comedy,Otto Mobil,M,manufacturer,industry_and_transportation,upper_class,"
          
Mobil :

          
Gesundheit !

        
",55,clemens-a-latzi-visit,4,1,0.0,0.25
111,comedy,Schakob,M,messenger/deliverer/helper,service_and_sales,lower_class,"
          
Schakob :

          
(rueft)

          
Gsundheit !

        
",55,clemens-a-latzi-visit,7,1,0.0,0.14285714285714285
112,comedy,Otto Mobil,M,manufacturer,industry_and_transportation,upper_class,"
          
Mobil :

          
(verschrocke)

          
Wer hat denn da gesprochen ?

        
",56,clemens-a-latzi-visit,11,1,0.0,0.09090909090909091
113,comedy,Jean,M,valet,elementary_professions,lower_class,"
          
Jean :

          
(f. s.)

          
So e Dolle ! 
          
(lütt)
 Ei — ei — dass ist — ah, dass ist der Babaagei — in zälleren Stubb dort
          drüben.

        
",56,clemens-a-latzi-visit,33,2,0.8676397366432965,0.06060606060606061
114,comedy,Otto Mobil,M,manufacturer,industry_and_transportation,upper_class,"
          
Mobil :

          
Ein Papagei?! Ei Herrjämersch, hat der mich aber erschrocken — denn muss ich mir mal ansehen.

        
",57,clemens-a-latzi-visit,22,1,0.0,0.045454545454545456
115,comedy,Jean,M,valet,elementary_professions,lower_class,"
          
Jean :

          
(schnell)

          
Nein, Herr Mabul — ä — Mobil. Sie können ihn jetzt nicht gücken, die Tür ist verschlossen und mein
          Diener hat den Schlüssel im Sack.

        
",57,clemens-a-latzi-visit,34,3,1.8171202761012575,0.08823529411764706
116,comedy,Otto Mobil,M,manufacturer,industry_and_transportation,upper_class,"
          
Mobil :

          
Na, ich kann ihn ja später beaugapfeln. Wie heisst denn der Papagei ?

        
",58,clemens-a-latzi-visit,17,1,1.3597019701167286,0.058823529411764705
118,comedy,Otto Mobil,M,manufacturer,industry_and_transportation,upper_class,"
          
Mobil :

          
(ruft geje Düer 1.)

          
Schakob !

        
",59,clemens-a-latzi-visit,10,1,1.9595673786810313,0.1
119,comedy,Schakob,M,messenger/deliverer/helper,service_and_sales,lower_class,"
          
Schakob :

          
(brüelt)

          
Halt's Müll !

        
",59,clemens-a-latzi-visit,9,2,1.0080756258231816,0.2222222222222222
120,comedy,Otto Mobil,M,manufacturer,industry_and_transportation,upper_class,"
          
Mobil :

          
Der spricht ja französisch. — Was hat er gesagt ?

        
",60,clemens-a-latzi-visit,13,1,1.3597019701167286,0.07692307692307693
121,comedy,Jean,M,valet,elementary_professions,lower_class,"
          
Jean :

          
Er hat gesagt — — 
          
(f. s.)
 was sell i numme saue. 
          
(lütt)
 Er hatt gesagt: Sei gegrüsst! 
          
(f. s.)
 Ich schwitz vor Angscht noch Gagummere.

        
",60,clemens-a-latzi-visit,38,3,0.0,0.07894736842105263
122,comedy,Otto Mobil,M,manufacturer,industry_and_transportation,upper_class,"
          
Mobil :

          
Aber nun wollen wir anstossen — — Gesundheit!

        
",61,clemens-a-latzi-visit,11,1,0.0,0.09090909090909091
123,comedy,Victor,M,military_man_(war_veteran),military,,"
          
Victor :

          
(pfifft im Kaschte durch d' Finger).

        
",61,clemens-a-latzi-visit,11,1,0.0,0.09090909090909091
124,comedy,Otto Mobil,M,manufacturer,industry_and_transportation,upper_class,"
          
Mobil :

          
(verschrocke)

          
Hier im Zimmer hat jemand gepfiffen !

        
",62,clemens-a-latzi-visit,12,1,0.0,0.08333333333333333
125,comedy,Jean,M,valet,elementary_professions,lower_class,"
          
Jean :

          
(f. s.)

          
Jetz fangt der au an. 
          
(lütt)
 Ei — ä dass war in zällere Stubb da drüben 
          
(zeigt nach r.)
 Da drinnen hab ich eine Atzel. 
          
(f. s.)
 Denne due ich verkohle.

        
",62,clemens-a-latzi-visit,46,1,0.0,0.021739130434782608
127,comedy,Jean,M,valet,elementary_professions,lower_class,"
          
Jean :

          
Atzel? Ei e Atzel. — Das ist ein Vogel denn man dressieren kann, dass er Lieder pfeifen tun tut. 
          
(f. s.)
 Isch mr diss a lätzi Visit. 
          
(lütt)
 Awer jetz welle mir uns nicht mehr stören lassen, Gesundheit !

        
",63,clemens-a-latzi-visit,51,4,0.892654508679221,0.0784313725490196
128,comedy,Otto Mobil,M,manufacturer,industry_and_transportation,upper_class,"
          
Mobil :

          
Auf dein ganz spezielles Wohl. mein lieber Johann. 
          
(geje de Düer)
 Prosit Schakob ! 
          
(Sie drinke).

        
",64,clemens-a-latzi-visit,25,5,2.9885361451281245,0.2
130,comedy,Otto Mobil,M,manufacturer,industry_and_transportation,upper_class,"
          
Mobil :

          
Ich versteh ihn kein Wort.

        
",65,clemens-a-latzi-visit,8,1,0.0,0.125
131,comedy,Jean,M,valet,elementary_professions,lower_class,"
          
Jean :

          
(f. s.)

          
S' isch au besser. 
          
(lütt)
 Aber — mein lieber Taufpate, wollen Sie nicht ein Mumpfel ebs essen, ein Stücklein
          Käs oder e Sardinchen ?

        
",65,clemens-a-latzi-visit,35,3,2.4293654589329585,0.08571428571428572
132,comedy,Otto Mobil,M,manufacturer,industry_and_transportation,upper_class,"
          
Mobil :

          
Gieb dir keine Mühe, mein Gutester, ich habe gar keinen Hunger — Ei du blitzblaues Donnerwetter —
          die Hauptsache hätte ich beinahe vergessen. Was meinste, was ich da in den Paketen habe ?

        
",66,clemens-a-latzi-visit,39,4,1.2712465679838847,0.10256410256410256
133,comedy,Jean,M,valet,elementary_professions,lower_class,"
          
Jean :

          
Da bin ich jetz aber wunderfitzich, da bin ich gespannt wie ein Wäschseil, was da drinnen tut
          sein.

        
",66,clemens-a-latzi-visit,23,2,0.0,0.08695652173913043
134,comedy,Otto Mobil,M,manufacturer,industry_and_transportation,upper_class,"
          
Mobil :

          
Lauter Wurscht, echte Pferdewurst aus meiner Fabrik mit Dampfbetrieb — Salami-, Zungen-, Schwarz-,
          Servelat-, Fleisch-, Lyoner-, Frankfurter-, Bratwurscht — alles prima geräuchert.

        
",67,clemens-a-latzi-visit,40,5,1.999956254386668,0.125
135,comedy,Schakob,M,messenger/deliverer/helper,service_and_sales,lower_class,"
          
Schakob :

          
Pfüi Deifel !

        
",67,clemens-a-latzi-visit,5,1,0.0,0.2
136,comedy,Otto Mobil,M,manufacturer,industry_and_transportation,upper_class,"
          
Mobil :

          
Jaa, mein Gutester, die schmeckt fein, da rieche mal ran. 
          
(Jean schmeckt am e Päckel.)
 Na?

        
",68,clemens-a-latzi-visit,26,3,2.165906026086873,0.11538461538461539
137,comedy,Jean,M,valet,elementary_professions,lower_class,"
          
Jean :

          
Die schmeckt hirnwietich guet! 
          
(macht e Gsicht geje de Litt.)

        
",68,clemens-a-latzi-visit,16,5,1.9124455220443743,0.3125
138,comedy,Otto Mobil,M,manufacturer,industry_and_transportation,upper_class,"
          
Mobil :

          
Siehste Johann, solche feine Wurst gibt's nur bei uns daheim, hier im Elsass oder Frankreich gibts
          so was nicht — ausgeschlossen !

        
",69,clemens-a-latzi-visit,27,1,0.0,0.037037037037037035
139,comedy,Victor,M,military_man_(war_veteran),military,,"
          
Victor :

          
(pfifft: ""Du bist verrückt mein Kind !"")

        
",69,clemens-a-latzi-visit,14,3,1.8086097606695013,0.21428571428571427
140,comedy,Otto Mobil,M,manufacturer,industry_and_transportation,upper_class,"
          
Mobil :

          
Was — gilt das mir? ""Du bist verrückt, mein Kind"" ?

        
",70,clemens-a-latzi-visit,17,3,1.8086097606695013,0.17647058823529413
141,comedy,Jean,M,valet,elementary_professions,lower_class,"
          
Jean :

          
Nein — nein — dass pfeift er allen gälten. 
          
(f. s.)
 Wenn ich ne numme drüsse hätt. 
          
(lütt)
 Wissen Sie was, Herr Automoppel — na ich verbabble mich immer, ich kann denn
          dabbichten Namen nicht behalten.

        
",70,clemens-a-latzi-visit,47,2,1.0524989614001854,0.0425531914893617
142,comedy,Otto Mobil,M,manufacturer,industry_and_transportation,upper_class,"
          
Mobil :

          
Mein bester Johann, sage doch einfach Taufpate.

        
",71,clemens-a-latzi-visit,11,2,1.6731814527517008,0.18181818181818182
143,comedy,Jean,M,valet,elementary_professions,lower_class,"
          
Jean :

          
Mein Herr Taufpate, komm wir gehen ein wenig fort, ein paar Seidel schlänkern, wottsch ?

        
",71,clemens-a-latzi-visit,20,3,1.8171202761012575,0.15
144,comedy,Otto Mobil,M,manufacturer,industry_and_transportation,upper_class,"
          
Mobil :

          
Du bist ja zu liebenswürdig — aber ich bin ermüdet von der Reise — wir bleiben heute zu Hause und
          morgen reisen wir in die Vogesen.

        
",72,clemens-a-latzi-visit,29,6,1.5236452711052781,0.20689655172413793
145,comedy,Schakob,M,messenger/deliverer/helper,service_and_sales,lower_class,"
          
Schakob :

          
O jeh, min Kriz!

        
",72,clemens-a-latzi-visit,8,1,0.0,0.125
146,comedy,Otto Mobil,M,manufacturer,industry_and_transportation,upper_class,"
          
Mobil :

          
Das freut dich doch — was ?

        
",73,clemens-a-latzi-visit,9,1,3.450743327888174,0.1111111111111111
147,comedy,Jean,M,valet,elementary_professions,lower_class,"
          
Jean :

          
Oh, dass freut mich ganz gemein. 
          
(f. s.)
 Wänn de nur biem Deifel wärsch.

        
",73,clemens-a-latzi-visit,21,4,1.483067171364315,0.19047619047619047
148,comedy,Otto Mobil,M,manufacturer,industry_and_transportation,upper_class,"
          
Mobil :

          
Jaa — ich will die Zeit ausnützen, wo ich im Elsass bin. Meine Bauline, so heisst meine Frau, die
          wollte mich erst gar nicht fahren lassen, sie hatte solche Angst, es könnte mir was passieren — es
          passieren ja auch immer so viele Eisenbahnunglücker.

        
",74,clemens-a-latzi-visit,53,6,3.2611691128141125,0.11320754716981132
149,comedy,Jean,M,valet,elementary_professions,lower_class,"
          
Jean :

          
Da muss ich Sie jetzt aber auch dabbicht fragen, sind Sie in keiner Lebensversicherung ?

        
",74,clemens-a-latzi-visit,18,1,1.7426968558117881,0.05555555555555555
151,comedy,Jean,M,valet,elementary_professions,lower_class,"
          
Jean :

          
Aber, aber, lieber Herr Taufpate, das ist kein Plan. Wenn man in einer Lebensversicherung ist, so
          passiert einem sobald kein Unglück. Und setzen wir den Fall, es passierte Ihnen ein Unglück, dann würde
          Ihre Frau dasitzen mit ihren zwölf Kindern.

        
",75,clemens-a-latzi-visit,51,7,1.9604648998902792,0.13725490196078433
152,comedy,Otto Mobil,M,manufacturer,industry_and_transportation,upper_class,"
          
Mobil :

          
(lacht)

          
Hahaha — ich habe ja gar keine Kinder.

        
",76,clemens-a-latzi-visit,14,3,1.1463894488739437,0.21428571428571427
153,comedy,Jean,M,valet,elementary_professions,lower_class,"
          
Jean :

          
Ich setze ja nur den Fall, Sie hätten zwölf Kinder und kämen tot nach Hause, das Misere für die Frau
          mit den zwölf Kindern.

        
",76,clemens-a-latzi-visit,29,3,1.1463894488739437,0.10344827586206896
154,comedy,Otto Mobil,M,manufacturer,industry_and_transportation,upper_class,"
          
Mobil :

          
(hielt)

          
Ach Herrjämersch, die armen Kinder und kein Vater mehr.

        
",77,clemens-a-latzi-visit,16,3,0.6931554588350343,0.1875
155,comedy,Jean,M,valet,elementary_professions,lower_class,"
          
Jean :

          
Seien Sie nur getrost ruhig und heilen Sie nicht — wir können die Sache noch machen — mein Patron
          ist — das heisst, Ich, bin ja Inspektor von einer Lebensversicherung.

        
",77,clemens-a-latzi-visit,35,4,1.9489633669443533,0.11428571428571428
156,comedy,Otto Mobil,M,manufacturer,industry_and_transportation,upper_class,"
          
Mobil :

          
Na, da musst du mich gleich heute noch versichern ?

        
",78,clemens-a-latzi-visit,13,1,0.0,0.07692307692307693
157,comedy,Jean,M,valet,elementary_professions,lower_class,"
          
Jean :

          
(schätzt ne ab)

          
O — so ebbene 20 000 Frs. sind Sie schon wert, dass ist nicht zu viel.

        
",78,clemens-a-latzi-visit,26,2,2.837324069561693,0.07692307692307693
158,comedy,Otto Mobil,M,manufacturer,industry_and_transportation,upper_class,"
          
Mobil :

          
20 000 Franks? Gut, machen wir. — Ach, was wird da meine Frau, die Bauline für eine Freude haben,
          wänn ich sage, dass sie 20 000 Franks bekommt, wenn ich tot bin.

        
",79,clemens-a-latzi-visit,43,3,1.365790922670629,0.06976744186046512
159,comedy,Jean,M,valet,elementary_professions,lower_class,"
          
Jean :

          
(f. s.)

          
Do haw i im Patron e guet's Gschäft gemacht! 
          
(lütt)
 Da wird sich Ihre Frau sicher eins grunzen, wenn sie soviel Mummes bekommt. 
          
(Geste vum Geld zehle.)

        
",79,clemens-a-latzi-visit,42,10,0.6340437688476157,0.23809523809523808
160,comedy,Otto Mobil,M,manufacturer,industry_and_transportation,upper_class,"
          
Mobil :

          
Mummes ? 
          
(es schellt).

        
",80,clemens-a-latzi-visit,9,1,0.0,0.1111111111111111
161,comedy,Jean,M,valet,elementary_professions,lower_class,"
          
Jean :

          
(verschrocke)

          
Es hett gschellt ! 
          
(f. s.)
 Am End noch so e lätzi Visit ! 
          
(es schellt drej mol e kurzes Zeiche).
 Diss isch dr Patron — es isch sinn Zeiche.

        
",80,clemens-a-latzi-visit,41,3,1.0299295307190943,0.07317073170731707
162,comedy,Otto Mobil,M,manufacturer,industry_and_transportation,upper_class,"
          
Mobil :

          
Wer klingelt denn? 
          
(zuem Jean)
 Was hast du denn, du bist so blass ?

        
",81,clemens-a-latzi-visit,20,2,2.121346158671461,0.1
164,comedy,Otto Mobil,M,manufacturer,industry_and_transportation,upper_class,"
          
Mobil :

          
Nein, bleib nur sitzen, wenn dir unwohl ist, ich mache schon auf. 
          
(ab d. M.)

        
",82,clemens-a-latzi-visit,23,1,1.1504325662820318,0.043478260869565216
165,comedy,Schakob,M,messenger/deliverer/helper,service_and_sales,lower_class,"
          
Schakob :

          
(steht uf)

          
O jeh, mini Fües schlofe mr.

        
",82,clemens-a-latzi-visit,13,1,3.335942100646058,0.07692307692307693
166,comedy,Victor,M,military_man_(war_veteran),military,,"
          
Victor :

          
(kummt züem Kaschte nüss)

          
Ich bin ganz gerädert un schwitz wie e Bär.

        
",83,clemens-a-latzi-visit,18,4,1.3321484352661317,0.2222222222222222
167,comedy,Jean,M,valet,elementary_professions,lower_class,"
          
Jean :

          
(horicht an d. M.)

          
Stille! — Es isch dr Patron — guet Nacht uns !

        
",83,clemens-a-latzi-visit,20,3,1.0299295307190943,0.15
168,comedy,Schakob,M,messenger/deliverer/helper,service_and_sales,lower_class,"
          
Schakob :

          
(hielt)

          
Mir isch 's Läwe verleid't, war ich numme drüsse !

        
",84,clemens-a-latzi-visit,16,1,3.840578050400571,0.0625
169,comedy,Victor,M,military_man_(war_veteran),military,,"
          
Victor :

          
Männel, Männel, wie wurd's uns noch gehn!

        
",84,clemens-a-latzi-visit,13,2,0.0,0.15384615384615385
170,comedy,Jean,M,valet,elementary_professions,lower_class,"
          
Jean :

          
Sie kumme — versteckle Ejch un miesli stille gsinn 
          
(mr höert Stimme).
 Es isch dr Herr — jetz wurd's bitter !

        
",85,clemens-a-latzi-visit,27,4,0.9935631551365836,0.14814814814814814
171,comedy,Otto Mobil,M,manufacturer,industry_and_transportation,upper_class,"
          
Mobil :

          
(mit Meyer d. d. M.)

          
So kommen Sie nur herein — —

        
",85,clemens-a-latzi-visit,16,1,0.0,0.0625
173,comedy,Otto Mobil,M,manufacturer,industry_and_transportation,upper_class,"
          
Mobil :

          
(schnell infalle)

          
Erlauben, dass ich mich vorstelle: Otto Mobil, Pferdewurstfabrik mit Dampfbetrieb aus Dräsden — und
          hier — 
          
(zeijt uf Jean)
 Herr Johann Meyer, Inspektor.

        
",86,clemens-a-latzi-visit,36,4,1.360235005861607,0.1111111111111111
174,comedy,J. Meyer,M,insurance_inspector,intermediate_professionals,upper_middle_class,"
          
Meyer :

          
(unterbricht ne)

          
Was soll der sinn — Inspektor? 
          
(betracht Jean)
 Hesch widder e Lumpestreich geliefert? Witte dene Frack üsszeje — dü! 
          
(will uf Jean los).

        
",87,clemens-a-latzi-visit,37,4,1.7970954257615648,0.10810810810810811
175,comedy,Otto Mobil,M,manufacturer,industry_and_transportation,upper_class,"
          
Mobil :

          
(geht dezwische)

          
Mein Herr, wollen Sie ruhig sein. Was fällt denn Ihnen ein, so'n Krakeel zu machen in einer fremden
          Wohnung. 
          
(Jean zejt de Anglais üss).

        
",87,clemens-a-latzi-visit,37,2,2.725680414151886,0.05405405405405406
176,comedy,J. Meyer,M,insurance_inspector,intermediate_professionals,upper_middle_class,"
          
Meyer :

          
In-ere fremde Wohnung ? Ja, zuem Gücksel, bin ich denn als noch voll? — Ah, do geht mir a Licht uf —
          
          
(zue Mobil)
 Das ist ja Inspektor Meyer gar nicht.

        
",88,clemens-a-latzi-visit,40,5,2.221076587653539,0.125
179,comedy,J. Meyer,M,insurance_inspector,intermediate_professionals,upper_middle_class,"
          
Meyer :

          
Inspektor Meyer, das bin ich, und das ist mein Diener Jean.

        
",89,clemens-a-latzi-visit,16,1,3.3463629055034017,0.0625
180,comedy,Otto Mobil,M,manufacturer,industry_and_transportation,upper_class,"
          
Mobil :

          
Nein, so was — das ist ja ein famoser Spass. 
          
(lacht)
 Dann bin ich ja Dein Taufpate. 
          
(will Meyer umarmen)
 Komm an mein Herz, Johann !

        
",90,clemens-a-latzi-visit,36,7,1.7676842410298803,0.19444444444444445
181,comedy,J. Meyer,M,insurance_inspector,intermediate_professionals,upper_middle_class,"
          
Meyer :

          
Exküsiere se monsieur — das muss ein Irrtum sein. Mein Taufpate ist schon längst gestorben.

        
",90,clemens-a-latzi-visit,19,2,2.7264507411987506,0.10526315789473684
182,comedy,Otto Mobil,M,manufacturer,industry_and_transportation,upper_class,"
          
Mobil :

          
Ja, zum Kuckuck noch mal — da bin ich ja schön ins Döppche getreten. Ich will zu Herrn Johann Meyer,
          der Inspektor ist und rue de la liberté Nr. 39, zweiter Stock, wohnen soll.

        
",91,clemens-a-latzi-visit,43,4,2.179905542102762,0.09302325581395349
183,comedy,J. Meyer,M,insurance_inspector,intermediate_professionals,upper_middle_class,"
          
Meyer :

          
Die Adresse stimmt ja — aber — —

        
",91,clemens-a-latzi-visit,10,1,1.3597019701167286,0.1
184,comedy,Jean,M,valet,elementary_professions,lower_class,"
          
Jean :

          
(schnell)

          
Halt, ich hab's — jetzt wurd's hell! Herr Auto — äh — Herr Ottomopel — Sie sind alleweg lätz. Auf
          demselben Hausgang nach der anderen Seite zu, da wohnt auch ein Meyer, und der ist Inspektor im
          Schlaghaus 
          
(Schlachthaus).

        
",92,clemens-a-latzi-visit,54,9,1.6675474108475261,0.16666666666666666
185,comedy,J. Meyer,M,insurance_inspector,intermediate_professionals,upper_middle_class,"
          
Meyer :

          
Richtig, da habe ich im ersten Moment gar nicht daran gedacht.

        
",92,clemens-a-latzi-visit,15,1,4.143530365660362,0.06666666666666667
186,comedy,Otto Mobil,M,manufacturer,industry_and_transportation,upper_class,"
          
Mobil :

          
Ja — so wird's wohl sein! Mein Herr, entschuldigen Sie vielmals meine Störung, es tut mir sehr leid.
          Möchten Sie nicht so freundlich sein, mir ein bischen zu helfen bei meinen Sachen — es waren acht
          Pakete.

        
",93,clemens-a-latzi-visit,46,11,2.0359508126550874,0.2391304347826087
187,comedy,Jean,M,valet,elementary_professions,lower_class,"
          
Jean :

          
(hilft-em)

          
Sin's alli — 
          
(zehlt)
1, 2, 3, 4, 5, 6, 7, — es fählt jo eins.

        
",93,clemens-a-latzi-visit,32,1,0.0,0.03125
188,comedy,J. Meyer,M,insurance_inspector,intermediate_professionals,upper_middle_class,"
          
Meyer :

          
Zeij emol! 
          
(zehlt au noch)
1, 2, 3, 4, 5, 6, 7, 8, 9 — jetzt isch's eins zeviel. — Zehle mr
          noch-emol.

        
",94,clemens-a-latzi-visit,39,1,0.0,0.02564102564102564
192,comedy,Otto Mobil,M,manufacturer,industry_and_transportation,upper_class,"
          
Mobil :

          
Es stimmt ! Also nun Adjee — besten Dank für die gute Aufnahme und wenn se mal gute Pferdewurst
          wollen, meine Adresse ist: Otto Mobil, Pferdewurstfabrik mit Dampfbetrieb in Dräsden. 
          
(a. d. M).

        
",96,clemens-a-latzi-visit,42,5,0.8194745536023774,0.11904761904761904
193,comedy,J. Meyer,M,insurance_inspector,intermediate_professionals,upper_middle_class,"
          
Meyer :

          
Gottlob, ass i dene los hab.

        
",96,clemens-a-latzi-visit,10,1,3.8524396024002017,0.1
197,comedy,J. Meyer,M,insurance_inspector,intermediate_professionals,upper_middle_class,"
          
Meyer :

          
Gäll, es fallt dr kenn Löje in ?

        
",98,clemens-a-latzi-visit,11,1,2.0063850294014096,0.09090909090909091
198,comedy,Jean,M,valet,elementary_professions,lower_class,"
          
Jean :

          
Doch — ich hab welle sähn, wie mr Ihrer Anglais basst un uewer dem isch diss Ottomobil kumme un hett
          mich füer dr Inspektor Meyer ghalte un d'rno — ja un no haw-ich ne ülewerred't, dass er sieh in d'
          Läwesversicherung losst ufnämme füer 20 000 Francs.

        
",99,clemens-a-latzi-visit,53,4,1.6942505100504013,0.07547169811320754
199,comedy,J. Meyer,M,insurance_inspector,intermediate_professionals,upper_middle_class,"
          
Meyer :

          
Füer 20000 Frcs.? Na, wenn-r sich versichere losst, no will ich dr noch-emol glauwe, was de mr
          vorgelöje hesch — andere Falls — !

        
",99,clemens-a-latzi-visit,31,2,2.4752650389830286,0.06451612903225806
200,comedy,Jean,M,valet,elementary_professions,lower_class,"
          
Jean :

          
Es isch eso, Patron. Awer worum kumme se denn widder retour ?

        
",100,clemens-a-latzi-visit,16,2,2.4795216449516233,0.125
201,comedy,J. Meyer,M,insurance_inspector,intermediate_professionals,upper_middle_class,"
          
Meyer :

          
(ärjerlich)

          
Ich hab de Zugg verfählt. — Ich hab Blattfües bekumme, stells Velo zuem Abdecker nin un lauf an d'
          gare un wie ich anne kumm, fahrt mr dr Zugg vor dr Nas weg. Dr nägscht fahrt erscht noch de viere, no
          dät's doch ze spot wäre bis ich uf Nanci käm. Ich hab awer glich e Tepesch ufgänn, dass ich bestimmt
          als morje kumm. 
          
(zieht de Bardessü üss).

        
",100,clemens-a-latzi-visit,85,10,0.8991716453937475,0.11764705882352941
203,comedy,J. Meyer,M,insurance_inspector,intermediate_professionals,upper_middle_class,"
          
Meyer :

          
Do isch numme die Kischt vun nächt schuld dran. 
          
(will de Bardessü in de Kaschte hänke).

        
",101,clemens-a-latzi-visit,22,4,0.967516044846052,0.18181818181818182
204,comedy,Jean,M,valet,elementary_professions,lower_class,"
          
Jean :

          
(ängschtlich, nimmt Meyer de Bardessü ab)

          
Lonn se numme Patron — gänn se mir ne, ich hänk ne in de Kaschte. 
          
(hänkt ne nin, losst Dier e bissel offe).

        
",102,clemens-a-latzi-visit,40,6,0.7600011637211731,0.15
205,comedy,Victor,M,military_man_(war_veteran),military,,"
          
Victor :

          
Nitt ganz zü mache.

        
",102,clemens-a-latzi-visit,7,1,2.4815253575690863,0.14285714285714285
209,comedy,Jean,M,valet,elementary_professions,lower_class,"
          
Jean :

          
Ja, ja. Der hett gässe füer Zwei. 
          
(f. s.)
 Awer was füer zwei.

        
",104,clemens-a-latzi-visit,21,2,2.719403940233457,0.09523809523809523
210,comedy,J. Meyer,M,insurance_inspector,intermediate_professionals,upper_middle_class,"
          
Meyer :

          
(sieht de Kaschte halwer offe stehn)

          
Jean, worum isch dr Kaschte nitt zü ? Dü weisch, dass ich diss nitt liede kann.

        
",105,clemens-a-latzi-visit,29,3,0.0,0.10344827586206896
211,comedy,Jean,M,valet,elementary_professions,lower_class,"
          
Jean :

          
Ich — ich hab — ä — wisse se Patron — der Schlüssel schliesst so schlecht, ich bring ne fascht nitt
          erum.

        
",105,clemens-a-latzi-visit,26,2,1.5448942960786414,0.07692307692307693
212,comedy,J. Meyer,M,insurance_inspector,intermediate_professionals,upper_middle_class,"
          
Meyer :

          
(geht an de Kaschte)

          
Was de Schlüssel geht so schlächt ? 
          
(schliesst ab un steckt de Schlüssel in de Sack)
 Plän vun dir, dr Schlüssel schliesst
          ganz guet dü schicksch dich numme so daub.

        
",106,clemens-a-latzi-visit,42,5,0.49630507151381725,0.11904761904761904
213,comedy,Schakob,M,messenger/deliverer/helper,service_and_sales,lower_class,"
          
Schakob :

          
(luejt in d' Höeh)

          
O jeh — der verstickt ! 
          
(schnell wieder nab.)

        
",106,clemens-a-latzi-visit,20,1,0.0,0.05
215,comedy,Jean,M,valet,elementary_professions,lower_class,"
          
Jean :

          
(ganz niedergschlaue)

          
Ich hab nix gsaat, Patron.

        
",107,clemens-a-latzi-visit,13,2,2.7856569748631843,0.15384615384615385
216,comedy,J. Meyer,M,insurance_inspector,intermediate_professionals,upper_middle_class,"
          
Meyer :

          
Ich dät mir's au schwär verbitte dies. 
          
(sitzt in de Fauteuil).

        
",108,clemens-a-latzi-visit,18,2,0.0,0.1111111111111111
218,comedy,J. Meyer,M,insurance_inspector,intermediate_professionals,upper_middle_class,"
          
Meyer :

          
Nix wie malchance haw-ich hitt. E Kopf wie e Seschter, geschwolleni Hoor, dr Zugg verfählt — ei — ei
          
          
(nimmt e Cygarette üss-em Etui).
 Jean — Fier !

        
",109,clemens-a-latzi-visit,36,2,0.946725777130806,0.05555555555555555
220,comedy,J. Meyer,M,insurance_inspector,intermediate_professionals,upper_middle_class,"
          
Meyer :

          
Was Dejhänkers isch denn mit dir, dü riedersch jo wie Äschbelaub ? 
          
(lüejt Jean scharf an)
 Was isch los mit dir ?

        
",110,clemens-a-latzi-visit,27,2,3.6062540975680086,0.07407407407407407
221,comedy,Jean,M,valet,elementary_professions,lower_class,"
          
Jean :

          
Es isch nix los mit mr, Patron! 
          
(lejt's Schwäwelhöelzel in de Äschebächer, f. s.)
 Wenn'r nurre nitt verstickt! 
          
(lütt)
 Patron, wenn se so güet welle sinn, gänn se mr de Schlüssel vom Kaschte.

        
",110,clemens-a-latzi-visit,47,7,2.315941995861333,0.14893617021276595
224,comedy,J. Meyer,M,insurance_inspector,intermediate_professionals,upper_middle_class,"
          
Meyer :

          
Diss hett noch Zitt — rüm emol z'erscht de Disch ab.

        
",112,clemens-a-latzi-visit,14,1,2.6779233238891953,0.07142857142857142
225,comedy,Jean,M,valet,elementary_professions,lower_class,"
          
Jean :

          
Patron — ich hab gemerickt — ich — ä — ich glaub, ich hab gsähne, dass se e Fläcke im Bardessü hann,
          hinte, ja hinte.

        
",112,clemens-a-latzi-visit,32,4,1.1123726405685028,0.125
226,comedy,J. Meyer,M,insurance_inspector,intermediate_professionals,upper_middle_class,"
          
Meyer :

          
Ich glaub dü hesch e Fläcke — awer im Hirn. — Jean, ich fröj dich jetz zuem letschte Mol — was hesch
          de widder angstellt? Dü bisch so verdattert, dü hesch ebs uf-m Gewisse, glich gsteh's !

        
",113,clemens-a-latzi-visit,45,4,1.7649268960374747,0.08888888888888889
227,comedy,Jean,M,valet,elementary_professions,lower_class,"
          
Jean :

          
Was soll ich denn gstehn ? Ich hab ganz sicher nix angstellt — ich hab e Gewisse so rein wie e
          Bitschelbubbel.

        
",113,clemens-a-latzi-visit,25,3,2.1693814822756465,0.12
228,comedy,J. Meyer,M,insurance_inspector,intermediate_professionals,upper_middle_class,"
          
Meyer :

          
(mit Zwiefel)

          
Na — na! 
          
(ruckt mit-m Fauteuil geje dr Wand).

        
",114,clemens-a-latzi-visit,19,1,1.9595673786810313,0.05263157894736842
229,comedy,Schakob,M,messenger/deliverer/helper,service_and_sales,lower_class,"
          
Schakob :

          
(brüelt)

          
Uaah — Aufsch! Miner Kopf — uuh !!

        
",114,clemens-a-latzi-visit,15,1,4.097372768011887,0.06666666666666667
230,comedy,Jean,M,valet,elementary_professions,lower_class,"
          
Jean :

          
(verzwiefelt)

          
Jetzt isch's hüsse !

        
",115,clemens-a-latzi-visit,10,1,2.300990419544764,0.1
231,comedy,J. Meyer,M,insurance_inspector,intermediate_professionals,upper_middle_class,"
          
Meyer :

          
(verstümt)

          
Oho?! 
          
(steht uf, luejt hinter de Fauteuil, zejt de Schakob am Ohrläppel in d' Höeh).
 Jetz wäre
          mr's ball hüsse hann. Was mach'sch denn dü do hinte, dü Dräckgsicht ?

        
",115,clemens-a-latzi-visit,45,1,3.335942100646058,0.022222222222222223
233,comedy,J. Meyer,M,insurance_inspector,intermediate_professionals,upper_middle_class,"
          
Meyer :

          
(zuem Jean)

          
Isch diss Dräckgsicht jetzt dinn rein Gewisse, dü Galeesome ! Ich hab dr's doch angsähne, dass ebs
          nitt stimmt — awer jetz raucht's in dr Fächtschuel. Ich schmiss Ejch nüss, dass-r Hals un Bein breche 
          
(will beidi anpacke).

        
",116,clemens-a-latzi-visit,53,2,2.013309544628927,0.03773584905660377
234,comedy,Victor,M,military_man_(war_veteran),military,,"
          
Victor :

          
(klopft im Kaschte — Jean un Schakob gehn noch links).

        
",117,clemens-a-latzi-visit,15,1,0.0,0.06666666666666667
236,comedy,Victor,M,military_man_(war_veteran),military,,"
          
Victor :

          
(klopft stärker)

          
Mache uf —

        
",118,clemens-a-latzi-visit,9,2,1.667971050323029,0.2222222222222222
237,comedy,J. Meyer,M,insurance_inspector,intermediate_professionals,upper_middle_class,"
          
Meyer :

          
Diss kummt jo üss-em Kaschte — do huckt allewäj noch so e Vöjel. 
          
(macht de Kaschte-n-uf).

        
",118,clemens-a-latzi-visit,24,4,2.015581632190651,0.16666666666666666
238,comedy,Victor,M,military_man_(war_veteran),military,,"
          
Victor :

          
(im Arm e Cygarrekischtel, in dr Hand e Schnapsbudell — hett halwer e Kischt)

          
A, bonjour Monsieur Meyer, est-ce que je vous dérange ? Männel, Männel — isch diss e Schnäpsel —
          hüpp !

        
",119,clemens-a-latzi-visit,42,4,0.6590245026239199,0.09523809523809523
239,comedy,J. Meyer,M,insurance_inspector,intermediate_professionals,upper_middle_class,"
          
Meyer :

          

          
(ganz baff, no wüeti zuem Victor)
 Witt dü die Schnapsboudell un die Cigarre häre gänn ? 
          
(nimmt-em beid's ab un gitt-em Tritt hinte nin, ass-r fliejt bis nüewer in de
          Fauteuil).

        
",119,clemens-a-latzi-visit,41,2,1.2407626787845432,0.04878048780487805
240,comedy,Victor,M,military_man_(war_veteran),military,,"
          
Victor :

          
Ich bin glauwi e Flieger — hüpp.

        
",120,clemens-a-latzi-visit,10,2,1.952737166491175,0.2
241,comedy,J. Meyer,M,insurance_inspector,intermediate_professionals,upper_middle_class,"
          
Meyer :

          
Do stehn se jetzt die drej Galjevöjel. 
          
(z. Jean)
 So haltsch dü dinn Verspräche ? Hesch denn kenn Ehrgefüehl im Lieb, hein? Un
          Ihr zwei — wie kumme Ihr denn üewerhaupt do rinn ?

        
",120,clemens-a-latzi-visit,41,4,1.7722701282600286,0.0975609756097561
243,comedy,J. Meyer,M,insurance_inspector,intermediate_professionals,upper_middle_class,"
          
Meyer :

          
Na, ich wurr ganz kurze Prozess mache, ich zeij ejch alli Drej im Gendarm an.

        
",121,clemens-a-latzi-visit,20,2,1.2407626787845432,0.1
244,comedy,Jean,M,valet,elementary_professions,lower_class,"
          
Alli drej :

          
(jommere)

          
Ooh, Monsieur Meyer, nurre diss nitt !

        
",122,clemens-a-latzi-visit,15,1,0.0,0.06666666666666667
245,comedy,Victor,M,military_man_(war_veteran),military,,"
          
Alli drej :

          
(jommere)

          
Ooh, Monsieur Meyer, nurre diss nitt !

        
",122,clemens-a-latzi-visit,15,1,0.0,0.06666666666666667
246,comedy,Schakob,M,messenger/deliverer/helper,service_and_sales,lower_class,"
          
Alli drej :

          
(jommere)

          
Ooh, Monsieur Meyer, nurre diss nitt !

        
",123,clemens-a-latzi-visit,15,1,0.0,0.06666666666666667
247,comedy,Jean,M,valet,elementary_professions,lower_class,"
          
Jean :

          
Monsieur Meyer — ich hab min'r Namesdaa welle fiere. : Meyer : Was, dinner Namesdaa, hitt isch doch
          nitt Jean?

        
",123,clemens-a-latzi-visit,26,2,8.822552747430871,0.07692307692307693
248,comedy,Victor,M,military_man_(war_veteran),military,,"
          
Victor :

          
Awer hitt haw-ich grad Zitt — ich hab nitt alle Daa frej.

        
",124,clemens-a-latzi-visit,15,3,0.8926411079630651,0.2
249,comedy,Schakob,M,messenger/deliverer/helper,service_and_sales,lower_class,"
          
Schakob :

          
Herr Meyer — ich hab de Jean numme welle fröje well Zitt dass isch — un no — —

        
",124,clemens-a-latzi-visit,21,2,2.3914606233447833,0.09523809523809523
250,comedy,J. Meyer,M,insurance_inspector,intermediate_professionals,upper_middle_class,"
          
Meyer :

          
So — so — do bisch dü jo ganz unschuldi ?

        
",125,clemens-a-latzi-visit,13,2,2.406286436162744,0.15384615384615385
251,comedy,Schakob,M,messenger/deliverer/helper,service_and_sales,lower_class,"
          
Schakob :

          
Ja!

        
",125,clemens-a-latzi-visit,4,1,1.3597019701167286,0.25
252,comedy,J. Meyer,M,insurance_inspector,intermediate_professionals,upper_middle_class,"
          
Meyer :

          
Na, dü wursch jetz schun erfahre well Zitt ass isch — 
          
(es schellt).

        
",126,clemens-a-latzi-visit,19,2,1.3389616619445976,0.10526315789473684
256,comedy,J. Meyer,M,insurance_inspector,intermediate_professionals,upper_middle_class,"
          
Meyer :

          
Zeruck, un do stehn gebliewe, ich mach sälwer uf 
          
(a. d. M).

        
",128,clemens-a-latzi-visit,19,1,3.335942100646058,0.05263157894736842
257,comedy,Victor,M,military_man_(war_veteran),military,,"
          
Victor :

          
Diss gitt mir e netti Sauce — hüpp !

        
",128,clemens-a-latzi-visit,11,1,0.0,0.09090909090909091
258,comedy,Schakob,M,messenger/deliverer/helper,service_and_sales,lower_class,"
          
Schakob :

          
Ich wurr e netti Söjerej bekumme vun mim Chef. 
          
(zuem Jean)
 Awer dü bisch schuld an allem.

        
",129,clemens-a-latzi-visit,23,5,1.3401878739110935,0.21739130434782608
259,comedy,Victor,M,military_man_(war_veteran),military,,"
          
Victor :

          
Ja — dü bisch — hüpp — dran schuld.

        
",129,clemens-a-latzi-visit,12,2,0.6798509850583643,0.16666666666666666
260,comedy,Jean,M,valet,elementary_professions,lower_class,"
          
Jean :

          
Soo — jetz bin ich au noch schuld dran, isch diss dr Dank füer 's Esse un 's Drinke ?

        
",130,clemens-a-latzi-visit,23,2,0.0,0.08695652173913043
261,comedy,Schakob,M,messenger/deliverer/helper,service_and_sales,lower_class,"
          
Schakob :

          
Ich hab jo gar nix welle esse, dü hesch mich jo müen zwinge dezü.

        
",130,clemens-a-latzi-visit,18,1,4.429447205531375,0.05555555555555555
263,comedy,Jean,M,valet,elementary_professions,lower_class,"
          
Jean :

          
O Ihr eländi Kaiwe, dass-r sinn, Ihr Schmuerel !

        
",131,clemens-a-latzi-visit,13,1,0.0,0.07692307692307693
266,comedy,J. Meyer,M,insurance_inspector,intermediate_professionals,upper_middle_class,"
          
Meyer :

          
(d. d. M. mit Mobil)

          
Ja, zuem Gücksel, jetz wurd's guet!

          
(Victor un Schakob lonn Jean gehn un stelle sich 1.).

        
",133,clemens-a-latzi-visit,32,4,0.7074800900716212,0.125
267,comedy,Otto Mobil,M,manufacturer,industry_and_transportation,upper_class,"
          
Mobil :

          
Ei, Herrjämersch — Sie haben ja Besuch, Herr Meyer. — Da geht's ja ganz putzich zu bei Ihnen.

        
",133,clemens-a-latzi-visit,25,5,2.005066232167274,0.2
268,comedy,J. Meyer,M,insurance_inspector,intermediate_professionals,upper_middle_class,"
          
Meyer :

          
Ja, sehen Sie, Herr Mobil, mein Diener hat während meiner Abwesenheit seine beiden Kumpane hier
          bewirtet, und als Sie dann plötzlich hereingeschneit kamen, da hat sich dieser Dreckfink hinter 
          
den Fauteuil versteckt und dieser Poilu im Schrank dort.

        
",134,clemens-a-latzi-visit,46,8,1.523984391847114,0.17391304347826086
269,comedy,Otto Mobil,M,manufacturer,industry_and_transportation,upper_class,"
          
Mobil :

          
Ach nee, dass ist ja wees Kneppche, ganz komisch — aber nu geben Sie mir bitte meinen Schirm wieder,
          den ich habe stehen lassen.

        
",134,clemens-a-latzi-visit,30,7,0.8874307769191473,0.23333333333333334
270,comedy,Jean,M,valet,elementary_professions,lower_class,"
          
Jean :

          
Hier steht-r ja! 
          
(gibt ne Mobil)
 Und wie ist es, Herr Ottomobil, Sie wollten sich doch in die
          Lebensversicherung aufnehmen lassen. Herr Meyer wird es Ihnen besorgen.

        
",135,clemens-a-latzi-visit,36,4,2.444923415329553,0.1111111111111111
272,comedy,Otto Mobil,M,manufacturer,industry_and_transportation,upper_class,"
          
Mobil :

          
Ei du blitzblaues Donnerwetter noch mal, das hätte ich fast vergässen. Nich wahr, Herr Meyer, Sie
          sind so freundlich und nehmen mich in die Versicherung auf, damit ich keine Angst mehr zu haben brauche
          und meine Bauline, das ist se nämlich meine Frau, der will ich auch ne Freude bereiten.

        
",136,clemens-a-latzi-visit,60,11,2.0050006804891005,0.18333333333333332
273,comedy,J. Meyer,M,insurance_inspector,intermediate_professionals,upper_middle_class,"
          
Meyer :

          
Aber mit dem grössten Vergnügen, Herr Mobil, 
          
(es schellt)
 E Moment — 
          
(a. d. M.).

        
",136,clemens-a-latzi-visit,24,2,2.839925131390192,0.08333333333333333
274,comedy,Schakob,M,messenger/deliverer/helper,service_and_sales,lower_class,"
          
Schakob :

          
Worum saat-r mir denn allewill Dräckgsicht?

        
",137,clemens-a-latzi-visit,9,1,0.0,0.1111111111111111
275,comedy,Otto Mobil,M,manufacturer,industry_and_transportation,upper_class,"
          
Mobil :

          
Betrachten Sie nur mal Ihre Visage im Spiegel.

        
",137,clemens-a-latzi-visit,11,1,0.0,0.09090909090909091
276,comedy,Schakob,M,messenger/deliverer/helper,service_and_sales,lower_class,"
          
Schakob :

          
(luejt sich im e Taschespiejel)

          
Herrjeh — ich bin jo ganz verschmiert — diss sinn Ihr zwei gsinn — na, kumme numme nüss ! 
          
(butzt sich mit-em Nastuech).

        
",138,clemens-a-latzi-visit,36,2,2.175390027657525,0.05555555555555555
277,comedy,Otto Mobil,M,manufacturer,industry_and_transportation,upper_class,"
          
Mobil :

          
(lacht)

          
Ihr scheint mir ja eine ganz gelungene Sippschaft zu sein — hahaha ! Jetzt wird mir's auch klar wie
          Wurschtsuppe. 
          
(zuem Schakob)
 Sie waren der — der Papagei, der kam mir doch gleich so komisch vor mit
          seiner Stimme, und Sie 
          
(zuem Victor)
 na, wie hiess der Vogel ?

        
",138,clemens-a-latzi-visit,63,6,1.3274968521037283,0.09523809523809523
279,comedy,Otto Mobil,M,manufacturer,industry_and_transportation,upper_class,"
          
Mobil :

          
Ja — richtig die Atzel!

        
",139,clemens-a-latzi-visit,8,2,2.751616167888545,0.25
282,comedy,Otto Mobil,M,manufacturer,industry_and_transportation,upper_class,"
          
Mobil :

          
Gratüliere, Herr Meyer, gratüliere !

        
",141,clemens-a-latzi-visit,9,1,2.104997922800371,0.1111111111111111
283,comedy,Jean,M,valet,elementary_professions,lower_class,"
          
Alle drej :

          

          
(gehn uf Meyer zü)
 Mir gratüliere au.

        
",141,clemens-a-latzi-visit,13,1,3.335942100646058,0.07692307692307693
284,comedy,Victor,M,military_man_(war_veteran),military,,"
          
Alle drej :

          

          
(gehn uf Meyer zü)
 Mir gratüliere au.

        
",142,clemens-a-latzi-visit,13,1,3.335942100646058,0.07692307692307693
285,comedy,Schakob,M,messenger/deliverer/helper,service_and_sales,lower_class,"
          
Alle drej :

          

          
(gehn uf Meyer zü)
 Mir gratüliere au.

        
",142,clemens-a-latzi-visit,13,1,3.335942100646058,0.07692307692307693
290,comedy,Jean,M,valet,elementary_professions,lower_class,"
          
Jean :

          
Patron — verzeje se mr numme noch diss einte Mol — es soll mr e Warnung sinn, was ich hitt üsgstande
          hab. Ich due sicher hitt nix meh anstelle.

        
",145,clemens-a-latzi-visit,34,4,1.7051002612818913,0.11764705882352941
291,comedy,Otto Mobil,M,manufacturer,industry_and_transportation,upper_class,"
          
Mobil :

          
Na, Herr Meyer, seien Sie nich so hart wie ne Salamiwurst — Sie wissen ja: ""Jugend kennt keine
          Tugend"".

        
",145,clemens-a-latzi-visit,27,5,1.628081314282305,0.18518518518518517
292,comedy,J. Meyer,M,insurance_inspector,intermediate_professionals,upper_middle_class,"
          
Meyer :

          
Mintswäje, will ich hitt noch so Chance hab, ze will ich noch emol beidi Aue züdruecke un will's
          Ejch durich lonn gehn.

        
",146,clemens-a-latzi-visit,28,2,3.0151638405080003,0.07142857142857142
293,comedy,Jean,M,valet,elementary_professions,lower_class,"
          
Jean :

          
Vielmols merci, Patron. — Dr nej Generalagent soll läwe: vive, vive, vive! 
          
(Alli rüefe mit, Mobil schrejt ""Hurrah"").

        
",146,clemens-a-latzi-visit,32,3,2.310122214185951,0.09375
