2022-08-20 21:34:26 - valence lexicon length: 7864
2022-08-20 21:34:26 - Number of rows: 294
2022-08-20 21:34:27 - dominance lexicon length: 7864
2022-08-20 21:34:27 - Number of rows: 294
2022-08-20 21:34:27 - arousal lexicon length: 7864
2022-08-20 21:34:27 - Number of rows: 294
2022-08-20 21:34:27 - anger lexicon length: 7864
2022-08-20 21:34:27 - Number of rows: 294
2022-08-20 21:34:28 - anticipation lexicon length: 7864
2022-08-20 21:34:28 - Number of rows: 294
2022-08-20 21:34:28 - disgust lexicon length: 7864
2022-08-20 21:34:28 - Number of rows: 294
2022-08-20 21:34:29 - fear lexicon length: 7864
2022-08-20 21:34:29 - Number of rows: 294
2022-08-20 21:34:29 - joy lexicon length: 7864
2022-08-20 21:34:29 - Number of rows: 294
2022-08-20 21:34:29 - sadness lexicon length: 7864
2022-08-20 21:34:29 - Number of rows: 294
2022-08-20 21:34:30 - surprise lexicon length: 7864
2022-08-20 21:34:30 - Number of rows: 294
2022-08-20 21:34:30 - trust lexicon length: 7864
2022-08-20 21:34:30 - Number of rows: 294
2022-08-24 17:05:08 - valence lexicon length: 7864
2022-08-24 17:05:08 - Number of rows: 294
2022-08-24 17:05:09 - dominance lexicon length: 7864
2022-08-24 17:05:09 - Number of rows: 294
2022-08-24 17:05:09 - arousal lexicon length: 7864
2022-08-24 17:05:09 - Number of rows: 294
2022-08-24 17:05:09 - anger lexicon length: 7864
2022-08-24 17:05:09 - Number of rows: 294
2022-08-24 17:05:10 - anticipation lexicon length: 7864
2022-08-24 17:05:10 - Number of rows: 294
2022-08-24 17:05:10 - disgust lexicon length: 7864
2022-08-24 17:05:10 - Number of rows: 294
2022-08-24 17:05:10 - fear lexicon length: 7864
2022-08-24 17:05:10 - Number of rows: 294
2022-08-24 17:05:10 - joy lexicon length: 7864
2022-08-24 17:05:10 - Number of rows: 294
2022-08-24 17:05:11 - sadness lexicon length: 7864
2022-08-24 17:05:11 - Number of rows: 294
2022-08-24 17:05:11 - surprise lexicon length: 7864
2022-08-24 17:05:11 - Number of rows: 294
2022-08-24 17:05:12 - trust lexicon length: 7864
2022-08-24 17:05:12 - Number of rows: 294
