2022-08-20 21:35:20 - valence lexicon length: 7864
2022-08-20 21:35:20 - Number of rows: 467
2022-08-20 21:35:20 - dominance lexicon length: 7864
2022-08-20 21:35:20 - Number of rows: 467
2022-08-20 21:35:21 - arousal lexicon length: 7864
2022-08-20 21:35:21 - Number of rows: 467
2022-08-20 21:35:22 - anger lexicon length: 7864
2022-08-20 21:35:22 - Number of rows: 467
2022-08-20 21:35:23 - anticipation lexicon length: 7864
2022-08-20 21:35:23 - Number of rows: 467
2022-08-20 21:35:24 - disgust lexicon length: 7864
2022-08-20 21:35:24 - Number of rows: 467
2022-08-20 21:35:25 - fear lexicon length: 7864
2022-08-20 21:35:25 - Number of rows: 467
2022-08-20 21:35:26 - joy lexicon length: 7864
2022-08-20 21:35:26 - Number of rows: 467
2022-08-20 21:35:27 - sadness lexicon length: 7864
2022-08-20 21:35:27 - Number of rows: 467
2022-08-20 21:35:27 - surprise lexicon length: 7864
2022-08-20 21:35:27 - Number of rows: 467
2022-08-20 21:35:28 - trust lexicon length: 7864
2022-08-20 21:35:28 - Number of rows: 467
2022-08-24 17:05:56 - valence lexicon length: 7864
2022-08-24 17:05:56 - Number of rows: 467
2022-08-24 17:05:57 - dominance lexicon length: 7864
2022-08-24 17:05:57 - Number of rows: 467
2022-08-24 17:05:57 - arousal lexicon length: 7864
2022-08-24 17:05:57 - Number of rows: 467
2022-08-24 17:05:58 - anger lexicon length: 7864
2022-08-24 17:05:58 - Number of rows: 467
2022-08-24 17:05:58 - anticipation lexicon length: 7864
2022-08-24 17:05:58 - Number of rows: 467
2022-08-24 17:05:59 - disgust lexicon length: 7864
2022-08-24 17:05:59 - Number of rows: 467
2022-08-24 17:06:00 - fear lexicon length: 7864
2022-08-24 17:06:00 - Number of rows: 467
2022-08-24 17:06:00 - joy lexicon length: 7864
2022-08-24 17:06:00 - Number of rows: 467
2022-08-24 17:06:01 - sadness lexicon length: 7864
2022-08-24 17:06:01 - Number of rows: 467
2022-08-24 17:06:01 - surprise lexicon length: 7864
2022-08-24 17:06:01 - Number of rows: 467
2022-08-24 17:06:02 - trust lexicon length: 7864
2022-08-24 17:06:02 - Number of rows: 467
