Unnamed: 0,drama_type,speaker,sex,job,job_category,social_class,text,progress,short_name,numTokens,numLexTokens,avgLexVal,lexRatio
1,comedy,Oscar,MALE,merchant,service_and_sales,lower_middle_class,"
          
OSCAR:

          
Nur noch en Auesblick, Mamme. D’r letscht « Reim » zue mimm Gedicht kummt m’r nit in. 
          
(Deklamiert)

          

            
In dem himmlischen Gefilde

            
Schwebet Luna hoch und hehr;

            
Königin der Sterngebilde….

          
Weisch dü nix, wie zue « hehr » passt?

        
",0,hart-dr-poetisch-oscar,50,5,1.2707150614685188,0.1
3,comedy,Oscar,MALE,merchant,service_and_sales,lower_middle_class,"
          
OSCAR:

          
Ei hehr isch doch hoch, erhawe, majestätisch. Kennsch denn dü dies Wort nit?

        
",1,hart-dr-poetisch-oscar,19,4,0.9717709527487607,0.21052631578947367
5,comedy,Oscar,MALE,merchant,service_and_sales,lower_middle_class,"
          
OSCAR

          
(entsetzt):

          
Lina, nee awer Mamme, ich red doch vun d’r Luna, dies isch jo d’r Mond. 
          
(Zue Schakob, der in d’r Dier erschiene isch):
 Zaij, Schakob, bring m’r e schwarzer
          Kaffee uf dene Schrecke. 
          
(Schakob ab.)

        
",2,hart-dr-poetisch-oscar,54,5,1.830709772261945,0.09259259259259259
6,comedy,Madame Schweberle,FEMALE,,,,"
          
Mme SCHWEBERLE:

          
Dies haw ich jetzt wieder nit gewisst, dass de Mond e su heisst. Awer Lina, oder Luna, dies isch
          g'hüpst wie g’sprunge; ich find, Oscar, es wär besser dü dätsch e mol e Gedicht üwer d’ Suzanne
          mache.

        
",3,hart-dr-poetisch-oscar,49,2,2.1512272355443343,0.04081632653061224
7,comedy,Oscar,MALE,merchant,service_and_sales,lower_middle_class,"
          
OSCAR:

          
Uewer d’ Suzanne? Do käm ich schoen an; dies dät mich nit üwel üsslache; ebs unpoetischeres als d’
          Suzanne git’s üewerhaupt in d’r ganze Welt nit.

        
",3,hart-dr-poetisch-oscar,33,2,1.1328022340629784,0.06060606060606061
8,comedy,Madame Schweberle,FEMALE,,,,"
          
Mme SCHWEBERLE:

          
D’ Suzanne isch e verständigs Maidel, un grad will’s ken so hochi Gedanke im Kopf het wie dü, täts
          am allerbeschte zue d’r passe. Lüej, Oscar, bim Suzanne
          
wärsch dü guet uffg'hebt. Es het Vermöje, es wär e Frau for ’s G’schäft, es versteht d’
          Hüshaltung….

        
",4,hart-dr-poetisch-oscar,59,6,0.3771915752362598,0.1016949152542373
9,comedy,Oscar,MALE,merchant,service_and_sales,lower_middle_class,"
          
OSCAR:

          
Mamme, hör uf oder ich lauf furt. Red m’r denn in de Lieb vum Vermöje, un wenn m’r eini lieb het,
          denkt m’r denn dran, ob se ’n e G’schäftsfrau isch, ob se ’n ebs vun d’r Hüshaltung versteht?

        
",4,hart-dr-poetisch-oscar,48,5,2.569492924344106,0.10416666666666667
10,comedy,Madame Schweberle,FEMALE,,,,"
          
Mme SCHWEBERLE:

          
Verifer dich net, Oscar. Dass m’r in d’r Poesie an e so ebs nit denkt, dis weiss ich wohl, do tuets
          e jedi Zigienere, wenn se nur schoeni Aue het. Awer im wirikliche Läwe un wenn sich ’s um ’s Hieroote
          handelt, do muess m’r doch zuem allererschte an dies denke. Un weisch, mit’m Suzanne kännsch de grad e
          so furtläwe wie dü’s gewohnt bisch. Owets, nooch’m Nachtesse kännsch dinni Gedichtle mache, kännsch wie
          jetz e jeds Johr hie in dies Hotel kumme un e paar Wuche ganz in dinre Poesie läwe, — d’ Suzanne tät
          d’r gewiss ken Stein in de Weij leije.

        
",5,hart-dr-poetisch-oscar,124,10,2.0572778352467025,0.08064516129032258
11,comedy,Oscar,MALE,merchant,service_and_sales,lower_middle_class,"
          
OSCAR:

          
Ihr verstehn mich alli mitenander nit. Was ich suech, isch e G’fährtin, e Seel, wie mit mir ringt,
          liedt un strebt, e Herz wie sich sehnt, wie suecht, un au besoin, still mit mim Herze verbluete
          kann.

        
",5,hart-dr-poetisch-oscar,49,6,0.17624429129157837,0.12244897959183673
12,comedy,Madame Schweberle,FEMALE,,,,"
          
Mme SCHWEBERLE:

          
Geh, Oscar, red kenn so schrecklichi Sache; m’r kreijt jo e Heideangscht.

        
",6,hart-dr-poetisch-oscar,19,1,0.0,0.05263157894736842
13,comedy,Oscar,MALE,merchant,service_and_sales,lower_middle_class,"
          
OSCAR:

          
Ja, Mamme, e Poet isch allewiel trürig; « Poesie ist tiefes Schmerzen ». 
          
(Zuem Schakob, der in d’r Dier erschient):
 Kummt d’r Kaffee ball, Schakob?

        
",6,hart-dr-poetisch-oscar,37,5,0.8394318837058936,0.13513513513513514
14,comedy,Schakob,MALE,waiter,service_and_sales,lower_class,"
          
SCHAKOB:

          
Ei, Ihr were warte kenne 
          
(ab)
.

        
",7,hart-dr-poetisch-oscar,12,1,2.2873877669399607,0.08333333333333333
15,comedy,Madame Schweberle,FEMALE,,,,"
          
Mme SCHWEBERLE:

          
Dass dü awer jetzt grad dis trürig Talent müesch han. Hättsch doch liewer ebs vun Müsik verstande un
          wärsch Compositeur wore, do wärsch doch luschtig gebliewe d’rbie.

        
",7,hart-dr-poetisch-oscar,34,6,0.7069842694854196,0.17647058823529413
17,comedy,Madame Lewermann,FEMALE,,,,"
          
Mme LEWERMANN

          
(gähnt):

          
M’r kann doch nit de ganze Daa schloofe, Am niene gehn m’r jo schun in ’s Bett, am aachte schtehn
          m’r uff, do haw ich noch em Esse gar kenn Schloof meh.

        
",8,hart-dr-poetisch-oscar,42,2,1.1328022340629784,0.047619047619047616
18,comedy,Madame Schweberle,FEMALE,,,,"
          
Mme SCHWEBERLE:

          
Sie ambetiere sich e bissel, nit wohr? Awer dies Läwe schlaat ne guet an. Sie wäre alle Daa jünger;
          erscht gescht bin ich g’fröjt wore wie alt as Sie sin, un wie ich g’sait hab vierzi, do…

        
",9,hart-dr-poetisch-oscar,47,5,0.6183980484834304,0.10638297872340426
19,comedy,Madame Lewermann,FEMALE,,,,"
          
Mme LEWERMANN:

          
Achtedrissig. Bscht! Sie brüche uewerhaupt dies nit e so lütt ze sawe ich glaub, Ihr Sohn isch do
          drüsse.

        
",9,hart-dr-poetisch-oscar,26,2,0.0,0.07692307692307693
20,comedy,Madame Schweberle,FEMALE,,,,"
          
Mme SCHWEBERLE:

          
D’r Oscar hört nix, der macht e Gedicht, er het’s grad mit em Mond ze tuen. Un was ich hab saawe
          welle, — ja richtig — die Person wie mich g’fröjt het, die het g’sait, ihr Lebdaa hätt se nit gedenkt,
          dass Sie schun vierzi sin, sie het Sie for d’ ältscht Schweschter vun Ihrer Nièce g'halte.

        
",10,hart-dr-poetisch-oscar,70,5,1.9321365682319125,0.07142857142857142
21,comedy,Madame Lewermann,FEMALE,,,,"
          
Mme LEWERMANN

          
(g’schmeichelt):

          
Och, was meine Sie, Mme Schweberle. In de Läde wor ich als noch Mademoiselle tituliert, un ererscht
          d’ vorig Wuch het mer minni Stundefrau verzählt, d’r Herr Summer, d’r Locataire vum erschte Stock, het
          se g’fröjt, was dies fer e jungi Mamsell isch, wie im troisième loschiert?

        
",10,hart-dr-poetisch-oscar,63,5,0.718404495617128,0.07936507936507936
23,comedy,Madame Lewermann,FEMALE,,,,"
          
Mme LEWERMANN:

          
Meine Sie?

        
",11,hart-dr-poetisch-oscar,6,1,0.0,0.16666666666666666
24,comedy,Madame Schweberle,FEMALE,,,,"
          
Mme SCHWEBERLE:

          
Ei natierlich, er word doch Sie nit meine, wenn er vun ere junge Mamsell red. Sie sin jo noch guet
          konserviert, un vun wittem halt m’r Sie au noch fuer jung, awer bilde Sie sich jo nit in, dass Sie
          met’m Suzanne konkuriere kenne, do wärte Se’n uf’m Holzweij.

        
",12,hart-dr-poetisch-oscar,62,6,0.0,0.0967741935483871
25,comedy,Madame Lewermann,FEMALE,,,,"
          
Mme LEWERMANN:

          
Han Sie nuer kenn Angscht, Mme Schweberle, ich brüch m’r e so ebs net inzebilde; es git Männer
          genue, denne e Frau von minne Johre, vun minnere G’schtalt vun mim 
          
savoir-vivre
 besser g'fallt als e Gänsel vun zwanzig Johr.

        
",12,hart-dr-poetisch-oscar,48,3,0.0,0.0625
27,comedy,Madame Lewermann,FEMALE,,,,"
          
Mme LEWERMANN:

          
Welle Sie mich am End beleidige?

        
",13,hart-dr-poetisch-oscar,10,1,0.0,0.1
28,comedy,Madame Schweberle,FEMALE,,,,"
          
Mme SCHWEBERLE:

          
Ne, ne, Mme Lewermann, ich wott numme nit, dass Sie sich lächerlich mache.

        
",14,hart-dr-poetisch-oscar,21,1,3.254528376343011,0.047619047619047616
31,comedy,Madame Schweberle,FEMALE,,,,"
          
Mme SCHWEBERLE:

          
Was krische denn er e so?

        
",15,hart-dr-poetisch-oscar,10,1,3.8818726527521497,0.1
35,comedy,Madame Schweberle,FEMALE,,,,"
          
Mme SCHWEBERLE:

          
Ah min Sohn, er esch jetz grad nit do, was welle’n Ihr denn mit’m?

        
",17,hart-dr-poetisch-oscar,21,1,2.2631494514175587,0.047619047619047616
37,comedy,Madame Schweberle,FEMALE,,,,"
          
Mme SCHWEBERLE:

          
Was han mer grad geredt?

        
",18,hart-dr-poetisch-oscar,9,1,2.2631494514175587,0.1111111111111111
39,comedy,Madame Schweberle,FEMALE,,,,"
          
Mme SCHWEBERLE:

          
Ich mein vum Suzanne.

        
",19,hart-dr-poetisch-oscar,8,1,0.0,0.125
40,comedy,Madame Lewermann,FEMALE,,,,"
          
Mme LEWERMANN:

          
Ja un vum Oscar.

        
",20,hart-dr-poetisch-oscar,8,1,2.2572076187852907,0.125
41,comedy,Madame Schweberle,FEMALE,,,,"
          
Mme SCHWEBERLE:

          
Es isch doch au Ihr Wunsch, dass die zwei e Paar wäre?

        
",20,hart-dr-poetisch-oscar,17,1,0.0,0.058823529411764705
42,comedy,Madame Lewermann,FEMALE,,,,"
          
Mme LEWERMANN:

          
Gewiss, ich tät’s jo so gere sehn wie Sie. Awer ich muess Ihne doch saawe, d’ Suzanne het noch e
          prétendant, d’r Herr Brey; Sie kenne ne jo.

        
",21,hart-dr-poetisch-oscar,38,3,1.5266736030643226,0.07894736842105263
43,comedy,Madame Schweberle,FEMALE,,,,"
          
Mme SCHWEBERLE:

          
Der isch doch viel ze alt for ’s Suzanne. Awer 
          
raison de plus
, dass mer die Sach in Ordnung bringe. Finde Sie nit au, dass
          es gar nit vorwärts geht mit ne?

        
",21,hart-dr-poetisch-oscar,40,1,4.3024544710886685,0.025
44,comedy,Madame Lewermann,FEMALE,,,,"
          
Mme LEWERMANN:

          
D’ Suzanne findt den Oscar halt zue uewerschwänglich.

        
",22,hart-dr-poetisch-oscar,12,1,0.0,0.08333333333333333
45,comedy,Madame Schweberle,FEMALE,,,,"
          
Mme SCHWEBERLE:

          
Un er, d’r Oscar, findt d’ Suzanne ze nuechtere. Könnte Sen’m denn nit e Wink genn, dass es e bissel
          poetischer soll sin mit em?

        
",22,hart-dr-poetisch-oscar,34,1,0.0,0.029411764705882353
46,comedy,Madame Lewermann,FEMALE,,,,"
          
Mme LEWERMANN:

          
Saawe Sie doch liewer em Oscar, er soll e bissel prosaischer sin.

        
",23,hart-dr-poetisch-oscar,17,1,0.0,0.058823529411764705
47,comedy,Madame Schweberle,FEMALE,,,,"
          
Mme SCHWEBERLE:

          
D’r Oscar losst sich vun mer gar nix saawe; awer wisse Sie was? Sie könnte emol mit em rede, ich hab
          schun oft bemerikt, Sie han e grosser Influss uf ’ne. Sie könnte e bissel am stupfe, dass er sich
          ehnder decidiert.

        
",23,hart-dr-poetisch-oscar,52,2,1.8968173379124647,0.038461538461538464
48,comedy,Madame Lewermann,FEMALE,,,,"
          
Mme LEWERMANN:

          
Diss will ich gern tuen, awer ob ich ebs üssricht?

        
",24,hart-dr-poetisch-oscar,15,1,2.2976939601596476,0.06666666666666667
49,comedy,Madame Schweberle,FEMALE,,,,"
          
Mme SCHWEBERLE:

          
Seie Sie stille, do kummt er grad. Sie kenne glich mit’m rede, Ich geh einschtwiele nuf in mini
          Stub. Au revoir, Madame, un gueti Verrichtung.

        
",24,hart-dr-poetisch-oscar,36,4,0.5657873628543897,0.1111111111111111
50,comedy,Madame Lewermann,FEMALE,,,,"
          
Mme LEWERMANN:

          
Na, Monsieur Oscar, han Sie Ihr Gedicht fertig?

        
",25,hart-dr-poetisch-oscar,14,1,0.0,0.07142857142857142
51,comedy,Oscar,MALE,merchant,service_and_sales,lower_middle_class,"
          
OSCAR:

          
Nee, ich wor noch ganz e Narr druewer; ich find als noch nix wie zue « hehr » passt.

        
",25,hart-dr-poetisch-oscar,24,4,2.893487713114468,0.16666666666666666
53,comedy,Oscar,MALE,merchant,service_and_sales,lower_middle_class,"
          
OSCAR:

          
MEER? Meer? Ja wahrhaftig, ich glaub dies geht. 
          
(Denkt noch)
 Es geht, prächtig. 
          
(Denkt wieder noch, d’rno freidig):
 Es isch gange. 
          
(Deklamiert)
:
          

            
In dem himmlischen Gefilde

            
Schwebet Luna hoch und hehr;

            
Königin der Sterngebilde

            
Thront sie über’m Wolkenmeer.

          

        
",26,hart-dr-poetisch-oscar,60,6,0.8210021070995136,0.1
54,comedy,Madame Lewermann,FEMALE,,,,"
          
Mme LEWERMANN:

          
O wie schön.

        
",27,hart-dr-poetisch-oscar,7,1,2.0891687346856576,0.14285714285714285
55,comedy,Oscar,MALE,merchant,service_and_sales,lower_middle_class,"
          
OSCAR:

          
Un Sie han m’r wieder d’rzue verholfe, Madame Lewermann, Sie ellein verstehn min poetisch Empfinde. 
          
Vous êtes ma muse
.

        
",27,hart-dr-poetisch-oscar,26,3,1.0650038688848251,0.11538461538461539
57,comedy,Oscar,MALE,merchant,service_and_sales,lower_middle_class,"
          
OSCAR:

          
Ach, Mme Lewermann, wenn ich’s numme wär, awer ich bin noch witt vom Apollon weg. Wenn Sie wisste,
          wie sehr ich mich nooch’m e reinere, schönere Läwe sehn, wo ich ganz in Poesie getaucht, nuer seelischi
          Rejunge empfinde könnt.

        
",28,hart-dr-poetisch-oscar,52,8,2.4300293730426477,0.15384615384615385
58,comedy,Madame Lewermann,FEMALE,,,,"
          
Mme LEWERMANN:

          
Ach, dies kann ich Ihne noochfühle, Herr Oscar, m’r het oft dies irdisch Lewe e so satt, m’r wott
          sich emporschwinge in höheri Regione...

        
",29,hart-dr-poetisch-oscar,32,3,1.7413642170002557,0.09375
63,comedy,Oscar,MALE,merchant,service_and_sales,lower_middle_class,"
          
OSCAR

          
(geht nehder zue ihre):

          
Wenn ich doch denne Schwan finde könnt, Mme Lewermann.

        
",31,hart-dr-poetisch-oscar,19,2,2.1512272355443343,0.10526315789473684
64,comedy,Madame Lewermann,FEMALE,,,,"
          
Mme LEWERMANN

          
(ganz nod bie em):

          
Oder ich denne Adler, Herr Oscar.

        
",32,hart-dr-poetisch-oscar,17,2,1.5917627841529975,0.11764705882352941
65,comedy,Oscar,MALE,merchant,service_and_sales,lower_middle_class,"
          
OSCAR:

          
Wie däte m’r do neji Fluejel wachse?

        
",32,hart-dr-poetisch-oscar,10,1,0.0,0.1
66,comedy,Madame Lewermann,FEMALE,,,,"
          
Mme LEWERMANN:

          
Wie dät min Herz sich begeischtere.

        
",33,hart-dr-poetisch-oscar,10,1,0.0,0.1
67,comedy,Schakob,MALE,waiter,service_and_sales,lower_class,"
          
SCHAKOB

          
(der immer nehder kumme ’n isch, dicht vor alle zwei):

          
Herr! 
          
(Sie fahre üsenander.)

        
",33,hart-dr-poetisch-oscar,23,3,1.1115429140815098,0.13043478260869565
68,comedy,Oscar,MALE,merchant,service_and_sales,lower_middle_class,"
          
OSCAR

          
(wuetig):

          
Was bruehlsch denn dü e so?

        
",34,hart-dr-poetisch-oscar,12,1,0.0,0.08333333333333333
70,comedy,Oscar,MALE,merchant,service_and_sales,lower_middle_class,"
          
OSCAR:

          
Was isch denn los?

        
",35,hart-dr-poetisch-oscar,7,1,3.5476004086786523,0.14285714285714285
74,comedy,Oscar,MALE,merchant,service_and_sales,lower_middle_class,"
          
OSCAR:

          
Dies isch alles? Scheer dich zuem Kückück mit dinne dumme Fröje. Ich hab g’saijt, schwarze Kaffee
          will ich, verstande.

        
",37,hart-dr-poetisch-oscar,26,3,0.6595853884983195,0.11538461538461539
75,comedy,Schakob,MALE,waiter,service_and_sales,lower_class,"
          
SCHAKOB:

          
Ja, Herr. Awer, awer 
          
(kratzt sich hinterm Ohr)
 es isch e jeder Kaffee schwarz 
          
(ab)
.

        
",37,hart-dr-poetisch-oscar,25,3,1.2666286916841167,0.12
76,comedy,Oscar,MALE,merchant,service_and_sales,lower_middle_class,"
          
OSCAR:

          
Dauwer Simpel, eine so ze derangiere. 
          
(Zue Madame Lewermann)
 Vun was han mer denn grad geredt g'het?

        
",38,hart-dr-poetisch-oscar,24,3,0.7543831504725196,0.125
78,comedy,Oscar,MALE,merchant,service_and_sales,lower_middle_class,"
          
OSCAR:

          
Nee, ich bin ganz verwirrt, ich kumm nimmi drüss.

        
",39,hart-dr-poetisch-oscar,14,3,1.7487692138916515,0.21428571428571427
79,comedy,Madame Lewermann,FEMALE,,,,"
          
Mme LEWERMANN:

          
Ich glaub, m’r hen grad vum Suzanne geredt.

        
",39,hart-dr-poetisch-oscar,13,2,1.1315747257087794,0.15384615384615385
81,comedy,Madame Lewermann,FEMALE,,,,"
          
Mme LEWERMANN:

          
M’r hann g’sait, dass es e netti, artligi, g’sundi Mamsell isch, wie in alle Stuecke zue Ihne passe
          tät.

        
",40,hart-dr-poetisch-oscar,27,3,0.4871900312678384,0.1111111111111111
82,comedy,Oscar,MALE,merchant,service_and_sales,lower_middle_class,"
          
OSCAR:

          
Ja, zell isch wohr, wenn’s numme e bissel meh geischtige Schwung hät, wenn ’s nit e so 
          
terre à terre
 wär.

        
",41,hart-dr-poetisch-oscar,28,4,1.5516503824309047,0.14285714285714285
83,comedy,Madame Lewermann,FEMALE,,,,"
          
Mme LEWERMANN:

          
Ja, d’ Suzanne steht ze fescht uf’m Bode; sinner Geischt kann nit in d’ Höh flieje; es esch wie e
          Hüehnel, wie nit höcher kummt als sinner Hüehnerkorb.

        
",41,hart-dr-poetisch-oscar,37,5,0.9932702216879168,0.13513513513513514
84,comedy,Oscar,MALE,merchant,service_and_sales,lower_middle_class,"
          
OSCAR:

          
Wie oft haw ich’s schun flieje lehre welle, awer es will nit. Ihm isch wohl drunte in sim
          Hüehnerhoft.

        
",42,hart-dr-poetisch-oscar,25,2,0.0,0.08
85,comedy,Madame Lewermann,FEMALE,,,,"
          
Mme LEWERMANN:

          
Ja, es git Litt, die gackere liewer als dass sie singe.

        
",42,hart-dr-poetisch-oscar,17,3,0.752402539595097,0.17647058823529413
86,comedy,Suzanne,FEMALE,,,lower_middle_class,"
          
SUZANNE

          
(läbhaft un nadierlich, kummt vom Freie erin; d’ Händ voll Blüeme):

          
Tante, luej emol die schöne Blueme, wie ich g’funde hab.

        
",43,hart-dr-poetisch-oscar,30,6,0.18491604956108346,0.2
88,comedy,Suzanne,FEMALE,,,lower_middle_class,"
          
SUZANNE:

          
Nee, um ’s Hüss erum, im Feld, hinte im Garte, uewerall wachse se, ganzi Hiffe haw’ ich
          abgerupft.

        
",44,hart-dr-poetisch-oscar,26,3,0.8127865458897889,0.11538461538461539
89,comedy,Madame Lewermann,FEMALE,,,,"
          
Mme LEWERMANN:

          
Wart, ich hol e paar Wase, noo rangiere m’r se nin 
          
(ab)
.

        
",44,hart-dr-poetisch-oscar,20,2,1.3013039750471775,0.1
90,comedy,Oscar,MALE,merchant,service_and_sales,lower_middle_class,"
          
OSCAR:

          
Wenn Sie numme wisste, was Sie for e nettes Bild abgenn, mit alle denne Blueme, Mamsell Suzanne. Sie
          sehn üss, wie e Waldfee.

        
",45,hart-dr-poetisch-oscar,31,2,0.7878861295611969,0.06451612903225806
91,comedy,Suzanne,FEMALE,,,lower_middle_class,"
          
SUZANNE:

          
Jetz drechsle Sie schun wieder Komplimente, helfe Sie m’r liewer die Blueme arrangiere. 
          
(Oscar helft.)
 Awer schicke Sie sich net so dumm.

        
",45,hart-dr-poetisch-oscar,30,4,0.0,0.13333333333333333
92,comedy,Oscar,MALE,merchant,service_and_sales,lower_middle_class,"
          
OSCAR:

          
Es freit mich, Mamsell Suzanne, dass Sie wenigschtens for d’ Schönheit vun de Blueme empfänglich
          sin.

        
",46,hart-dr-poetisch-oscar,21,3,2.3001704379990664,0.14285714285714285
93,comedy,Suzanne,FEMALE,,,lower_middle_class,"
          
SUZANNE:

          
Ich hab d’ Blueme allewiel gern g'het.

        
",46,hart-dr-poetisch-oscar,10,3,0.7658979867198825,0.3
94,comedy,Oscar,MALE,merchant,service_and_sales,lower_middle_class,"
          
OSCAR:

          
Un dass Sie d’ Poesie, wie in e su ere Bluem leijt, doch anerkenne.

        
",47,hart-dr-poetisch-oscar,19,1,0.0,0.05263157894736842
95,comedy,Suzanne,FEMALE,,,lower_middle_class,"
          
SUZANNE:

          
Ja, sie rieche guet un han netti Farwe.

        
",47,hart-dr-poetisch-oscar,12,3,0.752402539595097,0.25
96,comedy,Oscar,MALE,merchant,service_and_sales,lower_middle_class,"
          
OSCAR:

          
Un schun allein ihri Näme sin voll vun köschtlicher Poesie.

        
",48,hart-dr-poetisch-oscar,13,3,1.2205569117203394,0.23076923076923078
97,comedy,Suzanne,FEMALE,,,lower_middle_class,"
          
SUZANNE

          
(rasch):

          
Ja, dies sin Fingerhuet, un dies Plapperoose, dies sin Haasemiilele un dies Katzegigele, un zell
          isch stinkigi Hoffart, rieche sen emol; un wenn ’s Frühjohr wär, hät ich gewiss au noch Schwizerhosse
          im Garte g’funde; do hen Sie ihri Poesie.

        
",48,hart-dr-poetisch-oscar,54,1,2.2572076187852907,0.018518518518518517
98,comedy,Oscar,MALE,merchant,service_and_sales,lower_middle_class,"
          
OSCAR:

          
O Mamsell Suzanne, muen Sie m’r alli Illusione nemme. Es gitt doch au Blueme wie Vergissmeinnichtle
          un Morjestern heisse. Awer Sie muen natierlich grad d’ allerprosaischte erüsssueche. Han Sie denn gar
          kenn Fantasie? Sehne Sie sich denn nit e bissel nooch ebs Höcherem?

        
",49,hart-dr-poetisch-oscar,51,6,0.6726983426392704,0.11764705882352941
99,comedy,Suzanne,FEMALE,,,lower_middle_class,"
          
SUZANNE:

          
Gottlob nee. Es g’fallt m’r ganz guet do unte. Su lang as ich guete Apetit hab un d’ ganz Nacht
          schloof, bin ich zefridde.

        
",49,hart-dr-poetisch-oscar,30,7,0.9376269211651062,0.23333333333333334
100,comedy,Oscar,MALE,merchant,service_and_sales,lower_middle_class,"
          
OSCAR:

          
Awer Suzanne? M’r han doch nit nur e Körper, m’r han doch au noch e Geischt un e Gemuet. M’r kann
          doch nit allewiel ans Esse, Trinke un Schloofe denke; es git en Aueblick, wo m’r satt esch un wo m’r
          üsg’schloofe het.

        
",50,hart-dr-poetisch-oscar,52,4,0.0,0.07692307692307693
102,comedy,Oscar,MALE,merchant,service_and_sales,lower_middle_class,"
          
OSCAR:

          
Ja, awer m’r kann au nit allewiel schaffe. Han Sie denn noch nie in ere helle Mondnacht en
          uewerwältigendi Sehnsucht nooch Ihrem Ideal g’schpiert?

        
",51,hart-dr-poetisch-oscar,29,5,1.965427379511643,0.1724137931034483
103,comedy,Suzanne,FEMALE,,,lower_middle_class,"
          
SUZANNE:

          
Nee, esu Züständ haw’ich kenni; ich geh meischtens frühj in’s Bett un schloof glich in. Do haw ich
          gar kenn Zitt an en Ideal ze denke.

        
",51,hart-dr-poetisch-oscar,33,1,1.6351576439854092,0.030303030303030304
104,comedy,Oscar,MALE,merchant,service_and_sales,lower_middle_class,"
          
OSCAR:

          
Han Sie noch nie in einsame Stunde sich am e Gedicht vum Schiller begeischtert?

        
",52,hart-dr-poetisch-oscar,17,3,0.0,0.17647058823529413
105,comedy,Suzanne,FEMALE,,,lower_middle_class,"
          
SUZANNE:

          
Dies isch m’r ze hoch. Ich les liewer’s Wocheblättel.

        
",52,hart-dr-poetisch-oscar,14,2,0.0,0.14285714285714285
106,comedy,Oscar,MALE,merchant,service_and_sales,lower_middle_class,"
          
OSCAR:

          
Un z’morjeds früij bim Sunneuffgang, füehle Sie do nit d’ Poesie vun d’r Stund, wenn d’r Sunnegott
          sini Rösser lenkt?

        
",53,hart-dr-poetisch-oscar,26,1,1.305316312618519,0.038461538461538464
107,comedy,Suzanne,FEMALE,,,lower_middle_class,"
          
SUZANNE:

          
Gehn Sie m’r eweg mit denne Visione. Ich sieh nierigs e Sunnegott. Un uewerhaupt in d’r Friehj
          isch’s Gras noch viel ze nass, do bliet m’r am beschte d’heime.

        
",53,hart-dr-poetisch-oscar,37,1,2.606026405487326,0.02702702702702703
109,comedy,Suzanne,FEMALE,,,lower_middle_class,"
          
SUZANNE:

          
Wenn Sie emol redde wie anderi Lit au, no wor ich Sie ganz guet verstehn.

        
",54,hart-dr-poetisch-oscar,19,2,0.8204235560194679,0.10526315789473684
110,comedy,Oscar,MALE,merchant,service_and_sales,lower_middle_class,"
          
OSCAR

          
(pathetisch, leijt ere d’ Hand uff d’ Achsel):

          
O Suzanne, ewiger Widerspruch; sieht üs wie d’ Poesie selwer, un in sim Herze wohnt d’
          allergewöhnlichscht Prosa. An dem Zwiespalt wäre alli minni Hoffnunge ze Schande wäre. Läb wohl,
          Suzanne, läb wohl 
          
(ab)
.

        
",55,hart-dr-poetisch-oscar,57,9,1.6361840865483146,0.15789473684210525
111,comedy,Suzanne,FEMALE,,,lower_middle_class,"
          
SUZANNE

          
(allein):

          
Ich glaub dem esch’s nit guet. M’r het e Miej mit denne Männer, nit zuem saawe. Ich bin jo gar nit e
          so prosaisch wie der meint, awer ich kann’s nit liede, wenn er esu lächerlich redt. Er dät mer au ganz
          guet g’falle, viel besser als de Brey, der isch mer viel ze alt. Awer grad der muess jetzt eso
          uewerspannti Idee im Kopf han. 
          
(Lüijt noch hinte.)
 Wer kummt denn do? Herrjeh, wenn m’r de Essel nennt, ze kummt er
          gerennt. Do isch de Brey.

        
",55,hart-dr-poetisch-oscar,112,11,0.6507749945272278,0.09821428571428571
112,comedy,Jean Brey,MALE,merchant,service_and_sales,lower_middle_class,"
          
BREY:

          
Tiens, lüij do, d’ Mamsell Suzanne, läwe Sie au noch? Ich hab gedenkt, in dem verlorene Nescht sin
          Sie am End schun lang g’storwe.

        
",56,hart-dr-poetisch-oscar,32,3,1.0306634141390507,0.09375
113,comedy,Suzanne,FEMALE,,,lower_middle_class,"
          
SUZANNE:

          
Un do han Sie zue minere Licht kumme welle.

        
",56,hart-dr-poetisch-oscar,12,2,1.5469531346724543,0.16666666666666666
115,comedy,Suzanne,FEMALE,,,lower_middle_class,"
          
SUZANNE:

          
Dies esch nett vun Inne. Sin Sie vun der Gare ze Fuess kumme?

        
",57,hart-dr-poetisch-oscar,17,2,1.9691073628356568,0.11764705882352941
116,comedy,Jean Brey,MALE,merchant,service_and_sales,lower_middle_class,"
          
BREY:

          
Ne, leider Gottes mit em Velo. Dies sin verdammti Waij do hinte. D’ halb Zitt haw’ich ’s Rad drucke
          muen. Ich schwitz awer jetz au, ken drucketer Fade haw’ich meh uff em Lieb 
          
(wischt sich d' Stirn ab)
.

        
",58,hart-dr-poetisch-oscar,48,7,0.9901867632458458,0.14583333333333334
117,comedy,Suzanne,FEMALE,,,lower_middle_class,"
          
SUZANNE:

          
Do tät ich an Ihrem Platz glich nuff gehn un schanschiere.

        
",58,hart-dr-poetisch-oscar,14,1,1.4615700938035152,0.07142857142857142
118,comedy,Jean Brey,MALE,merchant,service_and_sales,lower_middle_class,"
          
BREY:

          
Nee, nee, die Geleijeheit e mol ung’stört mit Ihne bable ze kenne, will ich m’r doch nit entgehn
          lon. Schunsch isch jo doch allewiel e Tante hinter Ihne here, oder d’r Oscar scharwenzelt um Sie herum.
          Wie geht’s denn im Oscar, macht’r brav Gedichtle?

        
",59,hart-dr-poetisch-oscar,55,3,0.7316775016667832,0.05454545454545454
120,comedy,Jean Brey,MALE,merchant,service_and_sales,lower_middle_class,"
          
BREY:

          
Er weiss w’rum. Sie täte ne jo doch numme üsslache. Ihne isch dies uewerspannt Gedues grad so
          zewieder wie mir. Sie passe e su weni zuem Oscar, as wie e Küh zuer e goldene Uehr.

        
",60,hart-dr-poetisch-oscar,42,4,1.01382131311767,0.09523809523809523
122,comedy,Jean Brey,MALE,merchant,service_and_sales,lower_middle_class,"
          
BREY:

          
Stelle Sie sich nit e so dumm. Ich weiss doch weye was Sie do here g’füehrt wore sin. Die zwei Alte
          welle Sie mit em Oscar verkupple, awer ich hab glich gedenkt, dass Sie ne nit nemme. Im Büür g’hert
          Hawerstroh, un im Suzanne g’hört e Mann wie zuem passt.

        
",61,hart-dr-poetisch-oscar,59,5,0.3489636967573252,0.0847457627118644
123,comedy,Suzanne,FEMALE,,,lower_middle_class,"
          
SUZANNE:

          
Ah, un was soll denn diess for e Mann sin?

        
",61,hart-dr-poetisch-oscar,14,1,0.0,0.07142857142857142
124,comedy,Jean Brey,MALE,merchant,service_and_sales,lower_middle_class,"
          
BREY:

          

          
Tenez, Mademoiselle Suzanne
, versteckle m’r uns. nit. Sie wisse, dass ich en
          Au uff Sie geworfe hab?

        
",62,hart-dr-poetisch-oscar,25,1,0.0,0.04
126,comedy,Jean Brey,MALE,merchant,service_and_sales,lower_middle_class,"
          
BREY:

          
Un mir zwei täte zuenander passe, wie e Paar Händschih. M’r sin kenn üwerspannti Sternegickler wie
          d’r Oscar; m’r sin zefriede so lang ass m’r guet esse un guet trinke un guet schloofe kenne, un pfiffe
          uff Poesie, Ideal un all dies G’schlamassels.

        
",63,hart-dr-poetisch-oscar,51,9,0.5603498148875882,0.17647058823529413
127,comedy,Suzanne,FEMALE,,,lower_middle_class,"
          
SUZANNE:

          
Ja, des isch alles schön un guet; awer Sie muen doch bedenke, Herr Brey, dass mer nit numme e Körper
          han; m’r han au noch e Geischt un e Gemuet.

        
",63,hart-dr-poetisch-oscar,38,6,0.9815091349563345,0.15789473684210525
128,comedy,Jean Brey,MALE,merchant,service_and_sales,lower_middle_class,"
          
BREY:

          
Plän vun Paris.

        
",64,hart-dr-poetisch-oscar,6,1,0.0,0.16666666666666666
129,comedy,Suzanne,FEMALE,,,lower_middle_class,"
          
SUZANNE:

          
Un wenn m’r satt isch un üssg’schloofe het, do sehnt m’r sich doch noch ebs Höcherem.

        
",64,hart-dr-poetisch-oscar,20,1,0.0,0.05
131,comedy,Suzanne,FEMALE,,,lower_middle_class,"
          
SUZANNE:

          
Sie verstehn mich nit, Herr Brey. Han Sie denn gar kenn Fantasie. Han Sie noch nie in ere helle
          Mondnacht e Sehnsucht noch’m Ideal g’schpiert?

        
",65,hart-dr-poetisch-oscar,32,4,1.1063747046538916,0.125
132,comedy,Jean Brey,MALE,merchant,service_and_sales,lower_middle_class,"
          
BREY:

          
B'huetes Gott, wie kumme denn Sie mir vor? Ich bin doch ken Katzeroller.

        
",66,hart-dr-poetisch-oscar,18,2,2.2732045643946392,0.1111111111111111
133,comedy,Suzanne,FEMALE,,,lower_middle_class,"
          
SUZANNE:

          
Un han Sie sich noch nie an eme schöne Gedicht begeischtert?

        
",66,hart-dr-poetisch-oscar,14,3,0.0,0.21428571428571427
134,comedy,Jean Brey,MALE,merchant,service_and_sales,lower_middle_class,"
          
BREY:

          
Lon doch Sie mich in Friede mit dem Gedings. Wenn ich e freiji Stund hab, trink ich liewer e
          Schöppel in d’r Taverne.

        
",67,hart-dr-poetisch-oscar,28,3,1.202802064675718,0.10714285714285714
135,comedy,Suzanne,FEMALE,,,lower_middle_class,"
          
SUZANNE:

          
Do sin Sie ze bedüre, Herr Brey. Wenn Sie wisste, wie schön es, 
          
par exemple
, am Morje isch, wenn d' Welt eso frisch do lejt, d’
          Vergissmeinnicht un d’ Morjestern im Tau glänze, un d’r Sunnegott sinni Rösser lenkt...

        
",67,hart-dr-poetisch-oscar,50,6,2.3657199460088134,0.12
136,comedy,Oscar,MALE,merchant,service_and_sales,lower_middle_class,"
          
OSCAR

          
(schnell, stüerzt vor Suzanne uff d’ Knie):

          
O Suzanne, wie schön, wie unüssprechlich schön dü geredt hesch, wie poetisch. Jetz ha wich die Seel
          g’funde, wie zue minere Seel passt...

        
",68,hart-dr-poetisch-oscar,41,8,2.2052796795368175,0.1951219512195122
137,comedy,Jean Brey,MALE,merchant,service_and_sales,lower_middle_class,"
          
BREY

          
(für sich):

          
Ah Matin, do bin ich jo sozesaawe uewerflüssig, ’s isch am beschte ich geh nuf un schangier; jetz
          schpier ich ererscht dass ich e nasses Hemb hab 
          
(ab)
.

        
",68,hart-dr-poetisch-oscar,40,1,3.450880591863958,0.025
138,comedy,Suzanne,FEMALE,,,lower_middle_class,"
          
SUZANNE:

          
Stehn Sie doch uff, was mache Sie denn jetz wider for e Lewesdaa?

        
",69,hart-dr-poetisch-oscar,17,1,0.0,0.058823529411764705
139,comedy,Oscar,MALE,merchant,service_and_sales,lower_middle_class,"
          
OSCAR:

          
Dies isch d’r schönscht Auesblick vun mim Läwe. Suzanne, dü bisch die G’fährtin, wie mit minere Seel
          ringt, liedt un strebt.

        
",69,hart-dr-poetisch-oscar,28,2,2.074727995083311,0.07142857142857142
140,comedy,Suzanne,FEMALE,,,lower_middle_class,"
          
SUZANNE:

          
Par exemple, Sie han uns also belüschtert, höre Sie jetz awer uf. Ihri Deklamatione gehn m’r uf d’
          Nerve. Wenn ich au nit ganz e so unpoetisch bin wie ich üssieh, su en uewerspanntes G’schöpf wie Sie
          eins üss mir mache welle, bin ich doch noch lang nit 
          
(noch hinte ins Freie)
.

        
",70,hart-dr-poetisch-oscar,63,7,0.23440673029127654,0.1111111111111111
142,comedy,Schakob,MALE,waiter,service_and_sales,lower_class,"
          
SCHAKOB

          
(rueft im Oscar un Suzane noch):

          
Herr, do isch Eier Kaffee 
          
(stellt de Kaffee uff de Disch)
. Z’erscht het er ne nit erwarte kenne, jetz lauft er
          furt vor em 
          
(luejt in Oscar un Suzanne noch)
. Ich glaub, die spiele Fangedissels mitenanger; ar
          läuft als hinger Ihre hare. Diese solle kenn Narre sin, die Stadtlitt 
          
(lacht Iütt)
.

        
",71,hart-dr-poetisch-oscar,77,7,0.22038263660957988,0.09090909090909091
143,comedy,Jean Brey,MALE,merchant,service_and_sales,lower_middle_class,"
          
BREY

          
(kummt üss em Hüss):

          
Jetz bin ich wieder trucket. Ah, do steht e Tass Kaffee, der kummt m’r grad erecht.

        
",71,hart-dr-poetisch-oscar,28,2,1.1315747257087794,0.07142857142857142
145,comedy,Jean Brey,MALE,merchant,service_and_sales,lower_middle_class,"
          
BREY:

          
Awer ich bezahl n’e, dies kummt uf eins erüss. Do han Ihr au noch e Trinkgeld.

        
",72,hart-dr-poetisch-oscar,22,1,0.0,0.045454545454545456
146,comedy,Schakob,MALE,waiter,service_and_sales,lower_class,"
          
SCHAKOB:

          
(betracht des Geld un schmunzelt)

          
Soll i Euch noch e su e Tass bringe?

        
",73,hart-dr-poetisch-oscar,19,2,0.0,0.10526315789473684
149,comedy,Jean Brey,MALE,merchant,service_and_sales,lower_middle_class,"
          
BREY:

          
Ich hab ne gere recht suess 
          
(versuecht ne)
.

        
",74,hart-dr-poetisch-oscar,13,2,0.0,0.15384615384615385
150,comedy,Schakob,MALE,waiter,service_and_sales,lower_class,"
          
SCHAKOB:

          
Er isch suess genue, ich hab ne schun versuecht 
          
(ab)
.

        
",75,hart-dr-poetisch-oscar,16,1,0.0,0.0625
151,comedy,Jean Brey,MALE,merchant,service_and_sales,lower_middle_class,"
          
BREY

          
(geht uf un ab):

          
Jetz muess ich m’r en anderi Frau sueche. D’ Suzanne isch ang’steckt wore vum Oscar sinere
          Dichteritis; brrr, wenn ich dies au noch bekumme tät. Nee, ich muess m’r e g’sundi Frau sueche, eini wo
          fescht uf em
          
Bode steht. Su e Kerl wie ich word schun en anderi finde. 
          
(Madame Lewermann kummt üss em Hüss.)

        
",75,hart-dr-poetisch-oscar,75,12,0.7378682753816834,0.16
152,comedy,Jean Brey,MALE,merchant,service_and_sales,lower_middle_class,"
          
BREY

          
(froh):

          
Ah bonjour Madame Lewermann, dies freit mich awer, dass Sie mer grad in d’ Händ laufe.

        
",76,hart-dr-poetisch-oscar,24,4,2.4843823209239897,0.16666666666666666
153,comedy,Madame Lewermann,FEMALE,,,,"
          
Mme LEWERMANN:

          
D’ Freid isch ganz uf minere Sitt, Herr Brey.

        
",76,hart-dr-poetisch-oscar,14,4,0.7958813920764988,0.2857142857142857
154,comedy,Jean Brey,MALE,merchant,service_and_sales,lower_middle_class,"
          
BREY:

          
Do han mer alli zwei e Freid.

        
",77,hart-dr-poetisch-oscar,10,1,0.0,0.1
155,comedy,Madame Lewermann,FEMALE,,,,"
          
Mme LEWERMANN:

          
Wisse Sie, in dere Einsamkeit isch eim e Visit doppelt angenehm.

        
",77,hart-dr-poetisch-oscar,16,2,0.9671790944579163,0.125
156,comedy,Jean Brey,MALE,merchant,service_and_sales,lower_middle_class,"
          
BREY:

          
Un mir wär Ihr Anblick unter alle Umständ angenehm.

        
",78,hart-dr-poetisch-oscar,12,2,0.0,0.16666666666666666
158,comedy,Jean Brey,MALE,merchant,service_and_sales,lower_middle_class,"
          
BREY:

          
Nee, gewiss nit, dies isch min Sach nit. Wenn ich saa, Sie g’falle m’r, ze g'falle Sie m’r au, do
          kenne Sie sich druff verlonn.

        
",79,hart-dr-poetisch-oscar,34,3,0.0,0.08823529411764706
159,comedy,Madame Lewermann,FEMALE,,,,"
          
Mme LEWERMANN

          
(verschämt):

          
G’fall ich Ihne wiriklich?

        
",79,hart-dr-poetisch-oscar,11,1,0.0,0.09090909090909091
161,comedy,Madame Lewermann,FEMALE,,,,"
          
Mme LEWERMANN:

          
’s Suzanne isch awer viel jünger als ich.

        
",80,hart-dr-poetisch-oscar,12,1,0.0,0.08333333333333333
162,comedy,Jean Brey,MALE,merchant,service_and_sales,lower_middle_class,"
          
BREY:

          
Dies het kenn Sach; en abgelaauerter Broote isch allewiel zarter als e frischer. Nee, Madame
          Lewermann, es isch m’r bitterer Ernscht. Sie sin d’ Frau wie ich brüch.

        
",81,hart-dr-poetisch-oscar,36,6,0.0,0.16666666666666666
164,comedy,Jean Brey,MALE,merchant,service_and_sales,lower_middle_class,"
          
BREY:

          
For was solle m’r noch langi Sparichlemente mache? M’r sinn alli zwei nimmi so jung, m’r muen uns
          dummle. Alle hoppla, schlaawe Se ihn, dass d’ Sach perfekt word.

        
",82,hart-dr-poetisch-oscar,37,4,0.6738777418486369,0.10810810810810811
165,comedy,Madame Lewermann,FEMALE,,,,"
          
Mme LEWERMANN:

          
Nee, so g’schwind geht des Ding doch nit. Sie müehn m’r wenigschtens noch zwei Daa de Hof mache.

        
",82,hart-dr-poetisch-oscar,24,1,0.0,0.041666666666666664
166,comedy,Jean Brey,MALE,merchant,service_and_sales,lower_middle_class,"
          
BREY:

          
Wie Sie welle, ich mach Ihne au noch de Hof.

        
",83,hart-dr-poetisch-oscar,14,1,0.0,0.07142857142857142
167,comedy,Madame Lewermann,FEMALE,,,,"
          
Mme LEWERMANN:

          
Fange m’r mit eme kleine Spaziergang an.

        
",83,hart-dr-poetisch-oscar,11,3,1.712339404665688,0.2727272727272727
168,comedy,Jean Brey,MALE,merchant,service_and_sales,lower_middle_class,"
          
BREY:

          

          
A vos ordres, Madame

          
(gibt' ere de Vortritt.)

          
Passez, beauté

          
(ab in ’s Freie)
.

        
",84,hart-dr-poetisch-oscar,24,2,0.0,0.08333333333333333
169,comedy,Schakob,MALE,waiter,service_and_sales,lower_class,"
          
SCHAKOB

          
(allein):

          
Jetz losst er de Kaffee stehn, un het doch ewe 3 Franke defuer bezahlt. Dies heiss ich sündhaft. 
          
(Trinkt e Schluck, luejt d’rno dene zwei noch.)
 Die spiele 
          
nit Fangedissels, die zwei. Ar het e Bichel un Sie wackelt. Jetz packt er sie gar, un jetz
          gibt er ere e Schmutz. Ha, ha.

        
",84,hart-dr-poetisch-oscar,73,6,0.0,0.0821917808219178
170,comedy,Madame Schweberle,FEMALE,,,,"
          
Mme SCHWEBERLE

          
(kummt üss em Hüss):

          
Han Ihr mine Sohn nit g’sehn?

        
",85,hart-dr-poetisch-oscar,16,2,0.0,0.125
172,comedy,Madame Schweberle,FEMALE,,,,"
          
Mme SCHWEBERLE:

          
Stelle Eich nit e su dumm, Ihr kenne ne doch; er het doch ewe Kaffee bie Eich b’stellt.

        
",86,hart-dr-poetisch-oscar,24,2,0.0,0.08333333333333333
173,comedy,Schakob,MALE,waiter,service_and_sales,lower_class,"
          
SCHAKOB:

          
Ei der, wie de Kaffee getrunke het, isch grad ewe do nüs.

        
",86,hart-dr-poetisch-oscar,17,1,2.2631494514175587,0.058823529411764705
174,comedy,Madame Schweberle,FEMALE,,,,"
          
Mme SCHWEBERLE:

          
Allein?

        
",87,hart-dr-poetisch-oscar,5,1,0.0,0.2
175,comedy,Schakob,MALE,waiter,service_and_sales,lower_class,"
          
SCHAKOB:

          
Nee; mit eme Wiebsbild.

        
",87,hart-dr-poetisch-oscar,8,1,0.0,0.125
176,comedy,Madame Schweberle,FEMALE,,,,"
          
Mme SCHWEBERLE:

          
Mit was for’m e Wiebsbild?

        
",88,hart-dr-poetisch-oscar,10,1,0.0,0.1
177,comedy,Schakob,MALE,waiter,service_and_sales,lower_class,"
          
SCHAKOB:

          
Mit ’me fatte.

        
",88,hart-dr-poetisch-oscar,6,1,0.0,0.16666666666666666
179,comedy,Schakob,MALE,waiter,service_and_sales,lower_class,"
          
SCHAKOB:

          
Sie wackelt — e su — 
          
(macht in de Mme Lewermann noch)
 un d’ Nas hebt se in d’ Höh un redt süss.

        
",89,hart-dr-poetisch-oscar,28,1,3.118337232449863,0.03571428571428571
181,comedy,Schakob,MALE,waiter,service_and_sales,lower_class,"
          
SCHAKOB:

          
Ja, mit dem, wie de Kaffee getrunke het. Ar het se gepackt — e su — un het ere e Schmutz gann — e
          su.

        
",90,hart-dr-poetisch-oscar,31,3,0.752402539595097,0.0967741935483871
182,comedy,Madame Schweberle,FEMALE,,,,"
          
Mme SCHWEBERLE:

          
Was, e Schmutz het ere genn? Hann Ihr au erecht g’sehn?

        
",91,hart-dr-poetisch-oscar,17,2,0.0,0.11764705882352941
183,comedy,Schakob,MALE,waiter,service_and_sales,lower_class,"
          
SCHAKOB:

          
Ich hab ne jo krache here 
          
(lacht verschmitzt)
.

        
",91,hart-dr-poetisch-oscar,13,2,2.029472644628723,0.15384615384615385
184,comedy,Madame Schweberle,FEMALE,,,,"
          
Mme SCHWEBERLE:

          
Dis esch awer doch unerhört. So e falschi Katz. Awer dere will ich saawe was sie esch.

        
",92,hart-dr-poetisch-oscar,23,1,0.0,0.043478260869565216
185,comedy,Schakob,MALE,waiter,service_and_sales,lower_class,"
          
SCHAKOB:

          
Do kummt sie grad, stecke’sere numme guet 
          
(ab)
.

        
",92,hart-dr-poetisch-oscar,14,2,1.1315747257087794,0.14285714285714285
186,comedy,Madame Lewermann,FEMALE,,,,"
          
Mme LEWERMANN:

          
Ich suech min Paraselele.

        
",93,hart-dr-poetisch-oscar,8,1,0.0,0.125
187,comedy,Madame Schweberle,FEMALE,,,,"
          
Mme SCHWEBERLE:

          
Ah, die Madame suecht ihr Paraselele. Es wär schad for ihr fin Hittel, wenns verbrenne tät. Sie
          könnt d’ Männer nimmi so guet anlocke.

        
",93,hart-dr-poetisch-oscar,32,6,0.6723182604246056,0.1875
188,comedy,Madame Lewermann,FEMALE,,,,"
          
Mme LEWERMANN:

          
Ich fall üss de Wolike, was esch denn los?

        
",94,hart-dr-poetisch-oscar,14,2,3.5679460393248688,0.14285714285714285
189,comedy,Madame Schweberle,FEMALE,,,,"
          
Mme SCHWEBERLE:

          
Sie fröjt noch was los esch. Het m’r minner Sohn verfuehrt un im Suzanne abspenschtig gemacht un
          stellt sich noch unschuldig d’rbie.

        
",94,hart-dr-poetisch-oscar,28,3,1.1825334695595509,0.10714285714285714
191,comedy,Madame Schweberle,FEMALE,,,,"
          
Mme SCHWEBERLE:

          
Lewermänne, bringt Sie mich nit üss em Hiesel, ich könnt ere schunscht grob kumme. Schäme sott Sie
          sich, in Ihre Johre su e junger Bue inzefange un d’r eijene Nièce de Hochzitter ze nemme.

        
",95,hart-dr-poetisch-oscar,42,5,0.765861586770958,0.11904761904761904
192,comedy,Madame Lewermann,FEMALE,,,,"
          
Mme LEWERMANN:

          
Ich denk nit dran, minnere Nièce de Hochzitter ze nemme.

        
",96,hart-dr-poetisch-oscar,15,1,0.0,0.06666666666666667
193,comedy,Madame Schweberle,FEMALE,,,,"
          
Mme SCHWEBERLE:

          
So, un w’rum isch Sie denn mit’m nüss in de Wald, un w’rum het Sie sich denn ewe vum packe un
          verschmutze lon? Isch dies au en Ufführung for e Frau vun vierzig Johr?

        
",96,hart-dr-poetisch-oscar,42,2,2.906173277070801,0.047619047619047616
195,comedy,Madame Schweberle,FEMALE,,,,"
          
Mme SCHWEBERLE:

          
So fuehrt sich e lichtsinnigi Person uff un kenn anständigs Frauezimmer, denn Sie meint doch nit
          ebe, ass er Sie hieroote word. Nee, Lewermänne, do bin ich au noch do, un ehnder als dass ich e so e
          Vieheit zueloss, ehnder schick ich ne uf Amerika. Ich pack jetz glich minni Koffer. Kenn Stund länger
          soll er meh in Ihrem Netz zawwle 
          
(ab in ’s Hüss)
.

        
",97,hart-dr-poetisch-oscar,81,6,0.37549203811605264,0.07407407407407407
196,comedy,Madame Lewermann,FEMALE,,,,"
          
Mme LEWERMANN

          
(allein):

          
Na, wart numme, dir will ich’s zeije. Wenn ich dinne Sohn au nit verfuehre will, ze will ich eich
          doch noch de Kueche versalze. Do kommt er m’r grad erecht. Dem will ich d’ Hochzitterei mit em Suzanne
          e bissel verleide 
          
(zue Oscar)
 Worum so drüürig, Herr Oscar?

        
",98,hart-dr-poetisch-oscar,65,6,1.0680726429631622,0.09230769230769231
197,comedy,Oscar,MALE,merchant,service_and_sales,lower_middle_class,"
          
OSCAR

          
(setzt sich):

          
O Madame Lewermann, ich wott gar nimmi lewe.

        
",98,hart-dr-poetisch-oscar,16,2,1.840707097366854,0.125
198,comedy,Madame Lewermann,FEMALE,,,,"
          
Mme LEWERMANN:

          
Alle, alle, Herr Oscar, nuer nit glich d’ Flüejel lapple lon. Was isch ne denn geje de Strich
          gange?

        
",99,hart-dr-poetisch-oscar,27,4,2.177765444516777,0.14814814814814814
199,comedy,Oscar,MALE,merchant,service_and_sales,lower_middle_class,"
          
OSCAR:

          
Ach, ich bin vun alle Himmel herunterg’falle. Grad ewe haw ich noch gemeint ich hab endlich im
          Suzanne min Ideal g'funde — awer es het mich hart uf de Bode zeruckgstosse.

        
",99,hart-dr-poetisch-oscar,36,5,1.5532452604543807,0.1388888888888889
200,comedy,Madame Lewermann,FEMALE,,,,"
          
Mme LEWERMANN:

          
D' Suzanne Ihr Ideal? Höre Sie, dies isch awer doch zuem Lache. ’s Suzanne kann for kenne Mensche e
          Ideal sin, es isch materiell was m’r materiell heisst.

        
",100,hart-dr-poetisch-oscar,36,1,3.340506356122227,0.027777777777777776
201,comedy,Oscar,MALE,merchant,service_and_sales,lower_middle_class,"
          
OSCAR:

          
Saawe Sie dies nit, en einzigi Minüt haw ich in sinni Seel nin g’sehn; awer jetz isch se wider ganz
          verschlosse.

        
",100,hart-dr-poetisch-oscar,26,3,0.8994376199294688,0.11538461538461539
202,comedy,Madame Lewermann,FEMALE,,,,"
          
Mme LEWERMANN:

          
Glauwe Sie mer, Oscar, es isch gar nix drinne. Meine Sie denn, dass ’s Suzanne an ebs Höcheres
          denkt, dass es nur einmol e Gedicht lest?

        
",101,hart-dr-poetisch-oscar,35,3,0.0,0.08571428571428572
203,comedy,Oscar,MALE,merchant,service_and_sales,lower_middle_class,"
          
OSCAR

          
(trürig):

          
Ja ich weiss wohl, es lest liewer ’s Wocheblättel.

        
",101,hart-dr-poetisch-oscar,16,4,0.5643019046963227,0.25
204,comedy,Madame Lewermann,FEMALE,,,,"
          
Mme LEWERMANN:

          
Jo, d'allerletschte Nejichkeite interessiere ins allein. Ich saa Ihne, ’s Suzanne isch d’
          personnifiziert Prosa. Es tuet nix als esse, trinke un schloofe.

        
",102,hart-dr-poetisch-oscar,33,2,0.0,0.06060606060606061
205,comedy,Oscar,MALE,merchant,service_and_sales,lower_middle_class,"
          
OSCAR:

          
Un schaffe. Vergesse Sie dies nit, Madame Lewermann, ’s Suzanne isch immer b’schäftigt. Uewerall wie
          ’s anne kummt, findt’s ebs ze schaffe, un wenn’s numme e Stuehl grad stellt oder e Tischteppi
          uffhebt.

        
",102,hart-dr-poetisch-oscar,44,3,0.7543831504725196,0.06818181818181818
206,comedy,Madame Lewermann,FEMALE,,,,"
          
Mme LEWERMANN:

          
Awer vun Poesie het’s kenn Schimmer. Meine Sie, es isch numme capawel Ihr Gedicht an d' Luna, wie
          Sie hitt gemacht han, ze verstehn?

        
",103,hart-dr-poetisch-oscar,33,3,0.0,0.09090909090909091
207,comedy,Oscar,MALE,merchant,service_and_sales,lower_middle_class,"
          
OSCAR:

          
Oh, des het nix uf sich.

        
",103,hart-dr-poetisch-oscar,10,1,0.0,0.1
208,comedy,Madame Lewermann,FEMALE,,,,"
          
Mme LEWERMANN:

          
Oder glauwe Sie, dass es in stille Näächt mit Ihne de Sternehimmel anlüje un sich nooch’m Höchste
          sehne word?

        
",104,hart-dr-poetisch-oscar,25,4,0.443260151104516,0.16
209,comedy,Oscar,MALE,merchant,service_and_sales,lower_middle_class,"
          
OSCAR:

          
Ach, ich denk m’r jetz, ich tät’s gere schloofe lon. So e g’sunder, unschuldiger Schloof isch au
          Poesie.

        
",104,hart-dr-poetisch-oscar,26,3,1.2188675329346217,0.11538461538461539
210,comedy,Madame Lewermann,FEMALE,,,,"
          
Mme LEWERMANN:

          
Un nie wär’s im Stand d’ majestätisch Erhaweheit vu me Sunneuffgang ze bewundere.

        
",105,hart-dr-poetisch-oscar,18,3,3.0739226098624353,0.16666666666666666
211,comedy,Oscar,MALE,merchant,service_and_sales,lower_middle_class,"
          
OSCAR:

          
B’huet es Gott, ich wor’s doch nit in aller Frühj nüsfuehre wenn’s Gras noch e so nass isch. Sehn
          Sie, Madame Lewermann, isch zelli Bluem wenjer schoen will se verzwurzelti Bried heisst? Ach, e so e
          verzwurzeltes Briedel isch au min Suzanne. s isch einfach, nadierlich, viellicht au prosaisch — awer e
          liewes, herziges Bluemel isch’s doch.

        
",105,hart-dr-poetisch-oscar,73,7,0.6186044431334575,0.0958904109589041
212,comedy,Suzanne,FEMALE,,,lower_middle_class,"
          
SUZANNE

          
(kummt schnell noch vorne):

          
Ach, Oscar; wie schön dü jetz redsch, wie poetisch.

        
",106,hart-dr-poetisch-oscar,21,2,1.0445843673428288,0.09523809523809523
213,comedy,Oscar,MALE,merchant,service_and_sales,lower_middle_class,"
          
OSCAR:

          
Suzanne, hesch mich denn e kleins bissele lieb?

        
",106,hart-dr-poetisch-oscar,12,1,2.726878205494088,0.08333333333333333
214,comedy,Suzanne,FEMALE,,,lower_middle_class,"
          
SUZANNE:

          
Ja, Oscar, vun ganzem Herze 
          
(umarmen sich)
.

        
",107,hart-dr-poetisch-oscar,14,2,1.1286038093926454,0.14285714285714285
215,comedy,Madame Schweberle,FEMALE,,,,"
          
Mme SCHWEBERLE:

          
Jetz saa ich awer nix meh. Do isch jo ’s richtig Paar binander. O ihr liewi Kinder, wie mich des
          fraijt. 
          
(Zue Frau Lewermann)
 Haw ich Ihne am End Unrecht angedon, Madame Lewermann?

        
",107,hart-dr-poetisch-oscar,44,5,1.5919396803052575,0.11363636363636363
216,comedy,Madame Lewermann,FEMALE,,,,"
          
Mme LEWERMANN:

          
Ja, un in doppelter Hinsicht. Ich hab nit allein Ihre Oscar nit verfuehrt, nee, ich hab m’r selbscht
          e ganz andere üssg’suecht.

        
",108,hart-dr-poetisch-oscar,30,4,0.9745136827060566,0.13333333333333333
217,comedy,Jean Brey,MALE,merchant,service_and_sales,lower_middle_class,"
          
BREY:

          
Ja, Madame Schweberle, ’s Julie un ich wölle ’s emol prowiere mitnander.

        
",108,hart-dr-poetisch-oscar,17,3,0.752402539595097,0.17647058823529413
218,comedy,Madame Schweberle,FEMALE,,,,"
          
Mme SCHWEBERLE:

          

          
Toutes mes félicitations
; ich wuensch eich Glueck vun ganzem Herze. 
          
(Zue Schakob)
 Un Ihr, do hinte, kumme emol here.

        
",109,hart-dr-poetisch-oscar,29,5,0.809348853933334,0.1724137931034483
219,comedy,Schakob,MALE,waiter,service_and_sales,lower_class,"
          
SCHAKOB

          
(kummt vor):

          
Was beliebt?

        
",109,hart-dr-poetisch-oscar,9,1,0.0,0.1111111111111111
220,comedy,Madame Schweberle,FEMALE,,,,"
          
Mme SCHWEBERLE:

          
Weye was saawe denn Ihr, dass min Sohn e fetti Madam verschmutzt het?

        
",110,hart-dr-poetisch-oscar,18,2,0.0,0.1111111111111111
223,comedy,Schakob,MALE,waiter,service_and_sales,lower_class,"
          
SCHAKOB:

          
Ei dar, wie ne b’stellt het, isch nit allewiel dar, wie ne trinkt.

        
",111,hart-dr-poetisch-oscar,19,1,0.0,0.05263157894736842
