Unnamed: 0,drama_type,speaker,sex,job,job_category,social_class,text,progress,short_name,numTokens,numLexTokens,avgLexVal,lexRatio
0,comedy,Lucie,F,,,,"
            
LUCIE :

            
(verstimmt)

            
Dü beeser Mann, ze witt de mich also denne Oowe schun widder ellein lonn ?

          
",0,jost-dr-erscht-handel,21,4,0.7523701461746801,0.19047619047619047
1,comedy,Pierre,M,,,,"
            
PIERRE :

            
(wichtig)

            
Ich muess, lieb’s Lucie ! Mir hann in d'r Societät e pressanti Vorstandssitzung.

          
",0,jost-dr-erscht-handel,21,2,2.55124715914246,0.09523809523809523
2,comedy,Lucie,F,,,,"
            
LUCIE :

            
Pierre, wo mir awer noch fianciert sinn g’sinn, hesch de als g’saat: «Die in d'r
              Societät solle mir de Buckel nuffkrawle!» Jetzt awer, wo mir kümm acht Wuche g’hyroot
              sinn, bisch de schier keine Oowe meh heim : gescht Stammdisch-Daa, hytt
              Vorstandssitzung, morje Wahlversammlung, iwermorje weiss d'r Gücksel was! Ich glabb
              als, ass de mich nimmi lieb hesch unn dich drüsse amesiere dhuesch !
                
(Hyllt.)

          
",1,jost-dr-erscht-handel,83,5,0.4807862760778069,0.060240963855421686
3,comedy,Pierre,M,,,,"
            
PIERRE :

            
(umarmt s’e)

            
Wo denksch dü anne, dü Närrele ? Ich habb dich noch grad so lieb wie am erschte Daa.
              Awer dü muesch bedenke, ass’s dato uff d’Fescht- unn Wahlperiod losgeht unn ass ich
              die diverse Aemtle, wo ich akzeptiert habb, au gewissehaft üssiewe muess. Diss
              Friehjohr awer gibb ich iwerall myni Demission unn no kann ich alle Oowe widder by mym
              goldiche Wyewele sinn! Gell, myn Schatzele ?

          
",1,jost-dr-erscht-handel,85,5,0.4807862760778069,0.058823529411764705
4,comedy,Lucie,F,,,,"
            
LUCIE :

            
Wie wär diss doch so scheen, myn lieb’s Männele, unn gar noch, wenn mir ’s gross Los
              im Crédit National gewinne d’häte !

          
",2,jost-dr-erscht-handel,30,7,1.4378259176313009,0.23333333333333334
5,comedy,Pierre,M,,,,"
            
PIERRE:

            
Ah, dü meinsch, wyll ich vor vierzeh Daa so e Babierele kauft habb !

          
",2,jost-dr-erscht-handel,18,1,0.0,0.05555555555555555
6,comedy,Lucie,F,,,,"
            
LUCIE :

            
Ja, unn morje isch d’Tirasch 
(trage - Ziehung)
! Was meinsch, Pierre,
              wenn unseri Nummer als erschti erüss käm ! E ganzi, bari Million dhäte mir üssbezahlt
              bekumme ! Wie kennte mir do glicklich läwe !

          
",3,jost-dr-erscht-handel,45,6,0.3821734867860405,0.13333333333333333
7,comedy,Pierre,M,,,,"
            
PIERRE:

            
Lieb’s Kind, mir hann au ohne e Million, was mir zuem Läwe brüche. Unn wenn dü mich
              dezue noch arich lieb hesch, ze pfyff ich uff alli Millione vun d'r Welt !

          
",3,jost-dr-erscht-handel,39,5,2.9253806121799015,0.1282051282051282
8,comedy,Lucie,F,,,,"
            
LUCIE :

            
O, dü Liewer ! 
(Gitt'm e Schmutz.)
 Awer nitt wohr, m'r därf doch devun
              redde, was m'r in so e’me Fall macht ? Ich habb mir schun üssgedenkt, was ich alles
              anfang, wenn mir ’s grosse Los gewinne.

          
",4,jost-dr-erscht-handel,51,8,0.6831182782701775,0.1568627450980392
9,comedy,Pierre,M,,,,"
            
PIERRE :

            
(lacht)

            
Jetzert isch die Frau wajer schun am Gewinne unn hett erscht noch vor zwei Minütte
              vum « Gewinne- dhäte» geredd! Unn unterm grosse Los macht s’e’s au noch hitt emool
              !

          
",4,jost-dr-erscht-handel,41,5,2.819425798729225,0.12195121951219512
10,comedy,Lucie,F,,,,"
            
LUCIE :

            
Warum au nitt ? Zue mym grosse Glick in d'r Lieb basst numme ’s gross Los im Crédit
              National! Jetzt saa awer emool, Alterle, wie dü diss viele Geld anleije dhätsch ?

          
",5,jost-dr-erscht-handel,37,7,1.0267695953701244,0.1891891891891892
11,comedy,Pierre,M,,,,"
            
PIERRE:

            
Na, Lucie, dir zelieb will ich emool annemme, ’s wär so wytt! Uff jede Fall dhät ich
              mir defur bombe- sicheri Staats- unn Indüschtriebabierer kaufe.

          
",5,jost-dr-erscht-handel,34,3,0.0,0.08823529411764706
12,comedy,Lucie,F,,,,"
            
LUCIE :

            
Diss will ich gelte lonn.

          
",6,jost-dr-erscht-handel,8,2,1.5047402923493602,0.25
14,comedy,Lucie,F,,,,"
            
LUCIE :

            
(vergelschtert)

            
Ynbruchssicher ? Um’s Gott's Will, so e Kaschte kummt nitt in unseri Wohnung ! Der
              dhät jo directement d’Raiwer unn d’Merder ins Ilüss locke ! Do wärde mir jo unser Läwe
              nimmi sicher !

          
",7,jost-dr-erscht-handel,44,5,0.9224483102120414,0.11363636363636363
15,comedy,Pierre,M,,,,"
            
PIERRE:

            
Dü hesch erächt, Lucie! M'r läst jo dato nix meh als wie vun Ynbrich, Mord unn
              Doodschlaa! Do isch’s am End besser, mir lehne uns e Bankfach, wo mir drinne unseri
              Wärtsache uffhewe kenne ! 
(Ohne ’s ze wisse, isch er jetzt langsam sälwer
                begeischtert worre vum Gedanke, ’s gross Los schun gewunne ze hann.)

          
",7,jost-dr-erscht-handel,69,5,0.9566911574403674,0.07246376811594203
16,comedy,Lucie,F,,,,"
            
LUCIE:

            
Gewiss, Pierre, diss isch’s sicherscht Middel! So wurd’s gemacht ! 
(Sie isch
                noch begeischterter als wie ihre Mann.)
 Awer was fange mir mit de Zinse vun
              dem viele Geld numme an ?

          
",8,jost-dr-erscht-handel,42,5,0.0,0.11904761904761904
17,comedy,Pierre,M,,,,"
            
PIERRE :

            
Diss will guet iwerleijt sinn !

          
",8,jost-dr-erscht-handel,8,2,0.0,0.25
18,comedy,Lucie,F,,,,"
            
LUCIE :

            
Arich guet sogar !

          
",9,jost-dr-erscht-handel,6,1,0.0,0.16666666666666666
21,comedy,Pierre,M,,,,"
            
PIERRE :

            
Bekanntlich läwe d’amerikanische Millionär au ganz einfach !

          
",10,jost-dr-erscht-handel,11,3,0.764346973572081,0.2727272727272727
22,comedy,Lucie,F,,,,"
            
LUCIE :

            
Ei, ’s isch jo wohr ! Mir zähle jo au zue de Mil- lionär !

          
",11,jost-dr-erscht-handel,19,2,0.0,0.10526315789473684
23,comedy,Pierre,M,,,,"
            
PIERRE :

            
Unn wie die, so mache mir’s au ! D’r wohr Rych- dum zeijt sich in d'r Einfachheit
              !

          
",11,jost-dr-erscht-handel,23,1,0.0,0.043478260869565216
24,comedy,Lucie,F,,,,"
            
LUCIE :

            
Awer so alle Johr e kleini Erholungsreis kenne mir uns doch gunne ?

          
",12,jost-dr-erscht-handel,15,1,0.0,0.06666666666666667
26,comedy,Lucie,F,,,,"
            
LUCIE:

            
Do bin ich d'accord mit dir, Mann. Awer weisch, liewer Pierre, e bissel guet angedohn
              muess m'r doch sinn, wemm’r uff Reise geht. Gell, härzig’s Männel, dü kaufsch mir
              denne wunderbar Belzmantel, wo mir gescht in d'r Stadt g’sähn hann ?

          
",13,jost-dr-erscht-handel,54,9,0.0,0.16666666666666666
27,comedy,Pierre,M,,,,"
            
PIERRE :

            
Denne kennte mir uns im Notfall noch leischte !

          
",13,jost-dr-erscht-handel,11,2,1.9279367330699264,0.18181818181818182
29,comedy,Pierre,M,,,,"
            
PIERRE :

            
Lucie, ich bin zwar fur’s Spare, awer zue’me Belzmantel g’heert nadierlich e
              anständiger Huet.

          
",14,jost-dr-erscht-handel,21,1,0.0,0.047619047619047616
30,comedy,Lucie,F,,,,"
            
LUCIE :

            
Unn denne syedich Morjerock muess ich partout au hann! Ich schwärm schun lang defur.
              Was meinsch, wie ich dir no erscht g’falle wurr, wenn d’weich Syed so um mich erum
              rüscht unn kracht !

          
",15,jost-dr-erscht-handel,41,5,0.0,0.12195121951219512
31,comedy,Pierre,M,,,,"
            
PIERRE:

            
Frau, heer uff! Meinsch denn dü, myni Million isch ohne End oder e Schlang, wo sich
              in de Waddel bysst ?

          
",15,jost-dr-erscht-handel,27,2,0.0,0.07407407407407407
32,comedy,Lucie,F,,,,"
            
LUCIE :

            
(als yefriger)

            
Unn e greesseri Wohnung miehn mir jetzt au hann — numme so sechs, siwe Zimmer meh,
              drunter au e Salon mit antike Meewel unn e Boudoir fur mich — ganz mit rosaroter Syed
              tapeziert, unn no noch...

          
",16,jost-dr-erscht-handel,47,3,0.0,0.06382978723404255
33,comedy,Pierre,M,,,,"
            
PIERRE :

            
(verzwyefelt)

            
Frau, du rüiniersch mich jo noch! 
(Er druckt syni Frau, wo’m bis do anne
                g’flattiert hett, vun sich.)
 Hesch dü am End noch meh so Winsch ?

          
",16,jost-dr-erscht-handel,40,2,1.8778476904710695,0.05
34,comedy,Lucie,F,,,,"
            
LUCIE :

            
(als noch begeischtert)

            
E Automobil muess nadier- lich au noch fur mich here !

          
",17,jost-dr-erscht-handel,19,1,0.0,0.05263157894736842
35,comedy,Pierre,M,,,,"
            
PIERRE :

            
(wietig)

            
So? Isch diss jetzt endlich alles, was de witt ? Diss fangt jo schun scheen an ! Ja,
              unn ich, unn ich ? Ich bin wohl Essi !

          
",17,jost-dr-erscht-handel,37,5,0.0,0.13513513513513514
36,comedy,Lucie,F,,,,"
            
LUCIE :

            
(erniechtert)

            
Awer Pierre! In was fur eme Ton reddsch denn dü uff’s Mool mit mir ?

          
",18,jost-dr-erscht-handel,22,1,0.0,0.045454545454545456
37,comedy,Pierre,M,,,,"
            
PIERRE :

            
’s isch au heechschti Zytt, ass ich uff myn Geld acht gibb! E greesseri Wohnung wurd
              schun gar nitt gelehnt ! Au noch ! Die scheene Zinse fur e Hüffe Zim- mer verschwende,
              wo m'r doch d’halb Zytt nitt brücht. Do, wo mir jetzt loschiere, hann mir Platz genue
              !

          
",18,jost-dr-erscht-handel,60,4,0.0,0.06666666666666667
38,comedy,Lucie,F,,,,"
            
LUCIE :

            
Mir miehn awer doch als vun Zytt ze Zytt G’sell- schafte gänn ?

          
",19,jost-dr-erscht-handel,16,1,0.0,0.0625
39,comedy,Pierre,M,,,,"
            
PIERRE:

            
Nix do! Mir sinn Millionär unn läwe waje dem ganz einfach ! Uess dem Grund wurd au
              kein Automobil ang’schafft — diss isch e ganz zweckloser Kram, wo nümme e Hüffe Geld
              fresse dhuet. Awer e grosser Ra- dio-Apperat kummt mir ins Hüss !

          
",19,jost-dr-erscht-handel,50,7,0.32757727438803474,0.14
41,comedy,Pierre,M,,,,"
            
PIERRE :

            
Gewiss, Kind! Weisch, ich bin allewyl arich müsikalisch g’sinn ! Wie scheen unn
              gemietlich muess diss sinn, wenn mir no z’oowes de Apperat laufe hann unn ’r par
              exemple spielt 
(singt)
:

          
",20,jost-dr-erscht-handel,41,4,0.6795341546567815,0.0975609756097561
42,comedy,Lucie,F,,,,"
            
LUCIE :

            
(schiebt'ne no vum sich ; ungewillig)

            
Ach geh! Loss mich gehn ! So e bleeder Babbelkaschte ! Ich will iwer- haupt kein
              Müsik heere !

          
",21,jost-dr-erscht-handel,31,3,1.0554501670908698,0.0967741935483871
43,comedy,Pierre,M,,,,"
            
PIERRE :

            
(mild)

            
Awer Lucie !

          
",21,jost-dr-erscht-handel,8,1,2.6212053620586806,0.125
44,comedy,Lucie,F,,,,"
            
LUCIE:

            
Unn no, wo solle mir denne Apperat iwerhaupt annestelle? Mir hann jo schun so kein
              rächter Platz fur unseri Meewel! In dem Fall miehn mir jo doch noch e Zimmer meh hann
              !

          
",22,jost-dr-erscht-handel,38,2,0.0,0.05263157894736842
45,comedy,Pierre,M,,,,"
            
PIERRE :

            
(ung'halte, halb grobb)

            
Babbel nitt so daub, Lucie! Am Platz fählt’s nitt. Im Notfall wärfe mir einfach denne
              alt Grimpel, wo dort steht, nüss! 
(Er zeijt uff’s Kommod bezw. uff de
                Kaschte.)

          
",22,jost-dr-erscht-handel,49,7,0.5508390665914076,0.14285714285714285
46,comedy,Lucie,F,,,,"
            
LUCIE :

            
(uffgerejt, beleidigt)

            
Was saasch dü do, Pierre ? Alter Grimpel? Was meinsch dü mit dem Üssdruck ? Doch nitt
              am End gar...

          
",23,jost-dr-erscht-handel,30,3,0.0,0.1
47,comedy,Pierre,M,,,,"
            
PIERRE :

            
(ironisch)

            
Sej doch nitt so komisch, Lucie! Na- dierlich mein ich dyni beriehmt, heilich Kommod
                
(odder «Kaschte»)
, wo noch vun dynere Ürgrossmamme stammt. Anfangs
              hett uns jo diss Stickel Mewel ganz guet g’falle — awer numme anstandshalwer unn
              dynere Mame zelieb ; ’s isch halt emool do g’sinn, unn mir hann nix anders defur kaufe
              brüche, wo mir uns yngericht hann.

          
",23,jost-dr-erscht-handel,78,11,0.42678256865388525,0.14102564102564102
48,comedy,Lucie,F,,,,"
            
LUCIE :

            
(boshaft)

            
Ah, jetzt erfahrt m'r erscht, ass der Herr andersch redd, als wie’r denke dhuet !
              Diss hätt ich vor d'r Hochzytt wisse sotte !

          
",24,jost-dr-erscht-handel,32,3,0.0,0.09375
49,comedy,Pierre,M,,,,"
            
PIERRE :

            
Geh, Lucie, verstell dich nitt so! Dü denksch jo au nitt andersch als wie ich ! De
              Alterdum in Ehre, awer fur so moderni Lytt wie mir isch’r nix. Mir läwe liewer

          
",24,jost-dr-erscht-handel,39,4,0.5732602301790608,0.10256410256410256
50,comedy,Lucie,F,,,,"
            
LUCIE :

            
(uffgerejt)

            
Was ? E alti, wacklichti Kischt ? Grum- beerekischt ? 
(Geht uff diss Meewel
                zue unn streichelt’s.)
 So e Barbar! Was verstehsch dü drucketer Bureaukrat
              vun g’erbte Sache ? was vun Pietät ? was vun Suwönir 
(souvenir)
 ? Mit
              dem ehrwirdige Meewel hängt myni ganz Kinderzytt mit z’samme !

          
",25,jost-dr-erscht-handel,64,5,0.48763680086171207,0.078125
51,comedy,Pierre,M,,,,"
            
PIERRE :

            
(wietig)

            
Herrgott ! Wär numme nitt au noch senti- mental, Lucie ! Stell myntwäje denne Plunder
              anne, wo de witt, wenn de meinsch, ass syner B’sitz dich selig macht! Hett m'r schun
              emool so e Iwerspanntheit er- läbt !

          
",25,jost-dr-erscht-handel,50,5,0.0,0.1
53,comedy,Pierre,M,,,,"
            
PIERRE :

            
(dito)

            
Ja, Iwerspanntheit ! E Radio-Apperat wurd ang’schafft, und die Arche Noah dort
              verschwind, unn dodemit basta !

          
",26,jost-dr-erscht-handel,25,2,0.0,0.08
54,comedy,Lucie,F,,,,"
            
LUCIE :

            
(als wietiger)

            
Unn die Kommod 
(oder « Kaschte »)
 blyet do stehn! Do! An dem Platz
              do!

          
",27,jost-dr-erscht-handel,26,1,0.0,0.038461538461538464
57,comedy,Pierre,M,,,,"
            
PIERRE:

            
Dyni Schwell? Dyni? Na, ich will dir zeije, wer dohinne ze kummediere hett !
                
(Haut uff de Disch.)
 Diss isch myni Wohnung ! Ich bin do Herr unn
              Meischter im Hüss! Unn ich will mir e Radio-Apperat kaufe, unn ich will, ass diss
              wurmstichig Stickel Meewel dort furtkummt, unn ich, will, ass mir g’foljt wurd!

          
",28,jost-dr-erscht-handel,71,3,0.0,0.04225352112676056
58,comedy,Lucie,F,,,,"
            
LUCIE :

            
Dü do Herr unn Meischter ? Dü machsch mich jo lache! Wo wohnsch denn dü iwerhaupt? By
              mir wohnsch dü! In myne Meewel wohnsch dü! Myn Geld hann se koscht! Ich habb’s Geld
              mitgebroocht ! 50 000 Franke sinn’s g’sinn !

          
",29,jost-dr-erscht-handel,50,4,0.621431833027395,0.08
59,comedy,Pierre,M,,,,"
            
PIERRE :

            
(ironisch)

            
Nein, numme 49 999 Franke, denn e Franke hett d'r Quittungstimbre koscht, wo mir dyni
              Mamme abgeknepft hett! LUCIE ! O, dü Undankbarer !

          
",29,jost-dr-erscht-handel,34,2,1.0097338544585626,0.058823529411764705
63,comedy,Lucie,F,,,,"
            
LUCIE :

            
O, dü Schlächter! Awer myni Mamme hett mich jo allewyll vor dir gewarnt !

          
",31,jost-dr-erscht-handel,18,3,1.792322237334508,0.16666666666666666
64,comedy,Pierre,M,,,,"
            
PIERRE:

            
Allewäj ? Die guet Frau! Ich hätt nie gedenkt, ass sie’s so guet mit mir meint!
                
(Ab nooch hinte unn schlaat d’Dier zue.)

          
",32,jost-dr-erscht-handel,33,2,0.0,0.06060606060606061
65,comedy,Lucie,F,,,,"
            
LUCIE :

            
(fallt uff e Stuehl unn hyllt)

            
O, wie bin ich doch so arich unglicklich ! Unn so härzlos verfahrt myner Mann mit mir
              — jetzt schun, wo mir kümm rächt g’hy- root sinn ? Wie soll diss erscht später wäre
              !

          
",32,jost-dr-erscht-handel,48,6,0.0,0.125
66,comedy,Pierre,M,,,,"
            
PIERRE :

            
(streckt numme de Kopf zue d'r Dier hinte eryn)

            
Unn nitt ass de dich jetzt stundelang annehucksch unn plärrsch ! Die Arweit kannsch
              dü dir spare. So e Lychte- hyllere kann mir ganz unn gar nitt imponiere ! 
(Ab
                unn schlaat d’Dier zue.)

          
",33,jost-dr-erscht-handel,53,3,0.0,0.05660377358490566
67,comedy,Lucie,F,,,,"
            
LUCIE :

            
(fahrt energisch in d’Heeche)

            
Oho-o-o! Unn diss soll ich mir biete lonn ! So redd myn Mann mit mir — der Mann, wo
              ich iwer alles lieb habb g’hett? So e Tyrann ! Unn an so e brütaler Mensch soll ich
              fur myn Läbdesdaa gebunde sinn ? Nein, diss isch furichtbar ! 
(Hyllt in ihre
                Nasdiechel nyn; nooch’re Wyll)
: Unn was hett’r mich g’heisse? E
              Lychtehyllere? Unn do soll ich noch hylle ! Nein, so e Barbar isch myni Träne gar nitt
              wärt! 
(Sie isch iwerdem im Zimmer uff unn ab gange.)
 Hoffetlich isch’r
              schun furtgange ! Ich will’ne nimmi sähne ! 
(Sie schlycht an d’Dier hinte unn
                gückt durich’s Schlisselloch.)
 Ah, er isch noch drüsse — er steht am
              Fenschter unn denkt iwer ebbs nooch — jetzt drähjt’r sich erum unn luejt dohere — er
              kummt! 
(Sie setzt sich g’schwind widder uff de Stuehl ; erwartungs-
                voll)
: Gewiss hett’r jetzt syn Unrächt yng’sähn unn will Abbitt leischte!
              Na, guet, ich will’m gern exküsiere; im Grund genumme isch’r jo doch e liewer, gueter
              Mann, unn e Meinungsverschiedeheit gitt’s schliesslich in jedere Eh emool. «Sie isch
              d'r bescht Kitt, wo z’sammehebbt d’Ehlytt !», hett als myner Babbe seli g’saat.
                
(Hinter d’Scène heert m'r, wie e Dier zueg’schlaawe wurd.)
 Was haw
              ich g’heert ? 
(Springt uff.)
 Diss isch jo d’Hüssdier g’sinn, wo ich
              habb gehn heere! Er isch furt! Awer nein, diss kann nitt sinn ! So gröjsam kann doch
              myner Pierre nitt sinn ! 
(Geht uffgerejt uff unn ab.)
 Er wurd mich doch
              nitt in mym Weh ellein lonn ? Er hett gewiss numme so gemacht, wie wenn’r furtgängt
              unn streckt jetzt glych de Kopf eryn unn gitt mir e lieb’s Wort! 
(Sie isch
                iwerdem ans Fenschter kumme unn gückt nüss'; fahrt vergelschtert zeruck)
:
              Mon Dieu, mich trefft de Schlaa ! Dort unte geht’r jo schun ! So e Be- nämme isch
              einfach ordinär, meh ass wie ordinär ! 
(Als wietiger.)
 Awer diss loss
              ich mir nitt g’falle! So loss ich mich nitt b’handle ! Jetzt bin ich’s satt! So e Mei-
              nungsverschiedeheit därf in keinere Eh vorkumme ! «Sie isch e beesi Müs, wo naat am
              Glick im Hüss! », saat als myni lieb Mamme. Awer ich will mich schun rewanschiere !
              Awer wie? Soll ich au furtgehn ? Zue mynere Mamme ? Nein, im Läwe nie! Do blyeh ich
              unn do stärb ich ! Unn wer weiss, ob’r’s am End nitt gar pro- woziere will, ass ich
              geh ? Nadierlich isch’s so! Denn so wie’r mich b’handelt hett, isch’s sicher, ass’r
              mich nimmi lieb hett. Schunscht dhät’r mich au nitt alle Oowe ellein lonn ! Wer weiss,
              wo’r sich do allewyll erum- tryebt ! Gewiss hett’r au noch e anderi, denn schunscht
              wär er nitt so lieblos mit mir verfahre ! Na, ich kumm schun noch dehinter ! — Nein,
              was muess ich nitt alles erläwe ! Ich kann schun gar nimmi hylle. Na, wenn’r die Nacht
              heime kummt, soll’r sähn, ass’r mir jetzt au Wurscht isch ! 
(Energisch ab nooch
                rächts.)

          
",33,jost-dr-erscht-handel,613,67,1.4744541515918939,0.10929853181076672
68,comedy,Albert,M,,,,"
            
ALBERT:

            
(noochdem er paar Mool geklopit hett, kummt mit eme Handkifferle eryn)

            
Na, isch denn by mym Schweschterle niemes d’heim ? Steckt am End ’s jung, verliebt
              Ehpärel noch odder schun widder in de Feddere? Ah, do kummt schynnt’s ebber !

          
",34,jost-dr-erscht-handel,51,2,0.0,0.0392156862745098
69,comedy,Lucie,F,,,,"
            
LUCIE :

            
(fur sich, ohne de Albert ze sähn)

            
Worum kann denn ich nitt au emool im Salon odder im Fremdezimmer schloofe ! Ja, ja,
              Monsieur Pierre, ich bin jetzt lang genue Ihre Sklav g’sinn ! 
(Sie sieht de
                Albert; vergelschtert)
: Herrjeh, bin ich jetzt verschrocke ! 
(Sie
                losst ’s Bettdings falle unn stirmt uff de Albert los, wo s'e um- armt)
: Ah,
              dü bisch’s, liewer Brueder! Wo kummsch denn dü so unverhofft here ?

          
",34,jost-dr-erscht-handel,96,11,0.2352319973030168,0.11458333333333333
70,comedy,Albert,M,,,,"
            
ALBERT:

            
Direkt üss Amerika, lieb’s Schweschterle ! Unser Schiff isch dato uff’re Europa-Reis,
              unn so haw ich endlich emool e paar Daa Permission bekumme. ’s hett mir jo leid genue
              gedohn, ass ich nitt by dynere Hoch- zytt habb kenne sinn !

          
",35,jost-dr-erscht-handel,49,5,0.4807862760778069,0.10204081632653061
72,comedy,Albert,M,,,,"
            
ALBERT :

            
Hoffetlich lehr ich jetzt hytt dyne Mann kenne ?

          
",36,jost-dr-erscht-handel,11,2,0.0,0.18181818181818182
74,comedy,Albert,M,,,,"
            
ALBERT :

            
Awer was sieh ich denn ? Dü hesch jo ganz ver- hyllti Aue! Hett’s am End e Gewitter
              gänn am Eh- standshimmel ?

          
",37,jost-dr-erscht-handel,29,4,0.7937245450278814,0.13793103448275862
75,comedy,Lucie,F,,,,"
            
LUCIE :

            
(verläje)

            
Jo, Albert, wo denksch dü anne !

          
",37,jost-dr-erscht-handel,14,1,0.0,0.07142857142857142
76,comedy,Albert,M,,,,"
            
ALBERT:

            
Na, na! Sej doch ehrlich, Lucie ! Box gitt’s jo in jedere Eh emool, unn zuedem isch
              jo ’s Boxe e ganz moderner, erlaubter unn au guet bezahlter Sport !

          
",38,jost-dr-erscht-handel,38,6,0.0,0.15789473684210525
77,comedy,Lucie,F,,,,"
            
LUCIE :

            
Geh, Albert, loss die Plän uff d'r Sytt !

          
",38,jost-dr-erscht-handel,13,3,1.0554501670908698,0.23076923076923078
78,comedy,Albert,M,,,,"
            
ALBERT:

            
Unn was soll do diss Bett-Inventar bedytte ? Maidel, ich root dir, mach liewer dü
              kein Plän!

          
",39,jost-dr-erscht-handel,22,4,0.0,0.18181818181818182
79,comedy,Lucie,F,,,,"
            
LUCIE :

            
Wo denksch dü anne ! Kumm, setz dich liewer unn verzehl, was dü alles erläbt hesch.
              Also z’letscht bisch de in Amerika g’sinn ? Diss soll e ganz modern’s Land sinn. Dü,
              Albert, saa emool, was fur e Läwe fiehre denn dorte d’Fraue ?

          
",39,jost-dr-erscht-handel,56,6,0.3821734867860405,0.10714285714285714
80,comedy,Albert,M,,,,"
            
ALBERT :

            
Hm, sie sinn au nitt schlächter, awer au nitt bes- ser als wie unseri.

          
",40,jost-dr-erscht-handel,20,2,0.0,0.1
81,comedy,Lucie,F,,,,"
            
LUCIE :

            
Diss will ich nitt wisse ! Ich mein, wie s’e vun de Männer b’handelt wäre ?

          
",40,jost-dr-erscht-handel,20,2,0.0,0.1
82,comedy,Albert,M,,,,"
            
ALBERT:

            
Ah so! Hm, wemm’r s’e lieb hett, arich guet ; wenn nitt, ze gitt m'r sich iwerhaupt
              nitt mit’ne ab!

          
",41,jost-dr-erscht-handel,28,2,1.2019656901945173,0.07142857142857142
83,comedy,Lucie,F,,,,"
            
LUCIE :

            
(fur sich)

            
Diss letscht stimmt exakt uff de Pierre ! Kein Zwyefel meh, ass’r mich nimmi lieb
              hett ! 
(Lütt)
 : Unn was fur Frejheite geniesse d’amerikanische Fraue
              ?

          
",41,jost-dr-erscht-handel,37,5,1.1346150293104216,0.13513513513513514
84,comedy,Albert,M,,,,"
            
ALBERT:

            
Ich glaub jetzt doch ball, ass de mit dym Mann Kippes hesch, Lucie ?

          
",42,jost-dr-erscht-handel,18,3,0.0,0.16666666666666666
85,comedy,Lucie,F,,,,"
            
LUCIE :

            
(energischer)

            
Gibb mir Antwort uff myni Fröj, Albert !

          
",42,jost-dr-erscht-handel,14,3,0.0,0.21428571428571427
86,comedy,Albert,M,,,,"
            
ALBERT :

            
Wie d’Madame kummediere kann ! Also, d’ameri- kanisch Frau hett’s nämlich Rächt als
              wie d'r Mann.

          
",43,jost-dr-erscht-handel,24,3,0.0,0.125
87,comedy,Lucie,F,,,,"
            
LUCIE :

            
(fur sich)

            
Aha! Numme mir sinn noch zeh Stund hinter'm Mond d’heim ! 
(Lütt)
: Unn
              muess s’e au de Bossel mache in d'r Hüsshaltung so wie by uns ?

          
",43,jost-dr-erscht-handel,40,1,0.0,0.025
88,comedy,Albert,M,,,,"
            
ALBERT :

            
(lacht)

            
Na, ihr zwei miehn mir jo e wieschti Ba- taille g’schlaawe hann!

          
",44,jost-dr-erscht-handel,20,3,0.0,0.15
90,comedy,Albert,M,,,,"
            
ALBERT:

            
Nitt noch meh? Diss G’ständnis langt mir ! Fur awer d’Wohret ze redde, ze muess ich
              g’stehn, ass d’amerikanisch Frau kein Hüssdier isch. Die schafft hytt genau diss, was
              d'r Mann au schafft.

          
",45,jost-dr-erscht-handel,43,3,0.0,0.06976744186046512
92,comedy,Albert,M,,,,"
            
ALBERT :

            
Au do hett sich in letschter Zytt e Usswäj g’funde. ’s gitt nämlich jetzt in Amerika
              männlichi Dienscht- maidle.

          
",46,jost-dr-erscht-handel,24,1,0.0,0.041666666666666664
93,comedy,Lucie,F,,,,"
            
LUCIE :

            
(yefrig)

            
` Was dü nitt saasch, Albert !

          
",46,jost-dr-erscht-handel,13,1,0.0,0.07692307692307693
94,comedy,Albert,M,,,,"
            
ALBERT:

            
Ja, so isch’s en effet! Diss sinn Männer üss’m Volk, wo sich, so wie by uns
              d’Dienschtmaidle, verdinge unn alli Arweite in d'r Menasch mache, fur ass d’Ma- dame
              vum Hüss zeije kann, ass s’e d'näm- liche Rächter hett als wie d'r Mann, diss heisst,
              ass sie in d'r Menasch nitt de Bos- sell ze mache brücht, wie dü dich üssgedruckt
              hesch!

          
",47,jost-dr-erscht-handel,84,8,0.0,0.09523809523809523
95,comedy,Lucie,F,,,,"
            
LUCIE :

            
(fur sich)

            
Ganz erächt so!

          
",47,jost-dr-erscht-handel,10,1,0.0,0.1
96,comedy,Albert,M,,,,"
            
ALBERT:

            
Unn wer weiss, wie lang ass’s noch geht, bis der Mode au by uns yng’fiehrt wurd ! Ja,
              d’Welt wurd alle Daa verruckter, unn am e scheene Daa halte d’Mam- selle um d’Hand vun
              de Männer an !

          
",48,jost-dr-erscht-handel,49,7,0.3416402494368617,0.14285714285714285
97,comedy,Lucie,F,,,,"
            
LUCIE :

            
(wo iwerdem noochdenklich isch g'sinn, fur sich)

            
Halt, e'n Idee! Ja, so wurd’s gemacht ! Uff e letschter Versuech will ich’s noch
              ankumme lonn ! 
(Lütt)
: Albert, horich : Ich will dir offe bychte, ass
              ich mit mym Mann unneins bin unn ass ich glaub, ass er mich nimm lieb hett!

          
",48,jost-dr-erscht-handel,68,13,0.4164163050067504,0.19117647058823528
99,comedy,Lucie,F,,,,"
            
LUCIE :

            
Diss will ich jo grad sähn, unn waje dem sollsch dü mir hälfe deby.

          
",49,jost-dr-erscht-handel,18,2,0.0,0.1111111111111111
100,comedy,Albert,M,,,,"
            
ALBERT :

            
(steht uff)

            
Ich? Ich mecht wisse, wie? Weisch, ’s isch allewyll g’fährlich, wemm’r de Kopf
              zwische zwei Puffer streckt ! Unn, offe g’stande, haw ich iwerhaupt nitt viel Zytt !
                
(Fur sich)
 : Ich muess partout diss scheen, härzig Mamsellele
              üssfindisch mache, wo im nämliche Coupé mit mir uff hie g’fahre isch !

          
",50,jost-dr-erscht-handel,68,7,0.0,0.10294117647058823
101,comedy,Lucie,F,,,,"
            
LUCIE :

            
Allons, Albert, fur so e Liewesdienscht hett m'r doch allewyl Zytt !

          
",50,jost-dr-erscht-handel,16,1,0.0,0.0625
103,comedy,Lucie,F,,,,"
            
LUCIE :

            
Ganz einfach : Dü spielsch myn Dienschtmaidel !

          
",51,jost-dr-erscht-handel,10,2,0.0,0.2
105,comedy,Lucie,F,,,,"
            
LUCIE:

            
Worum nitt? Grad so wie in Amerika !

          
",52,jost-dr-erscht-handel,11,1,0.0,0.09090909090909091
106,comedy,Albert,M,,,,"
            
ALBERT :

            
(hüpst uff unn will furt)

            
Nein, do mach ich nitt mit! Ich bin nitt so rächtshawerisch, ass ich, in andere Lytt
              ihri Rächter eweggnemm, nitt emool in de Fraue ihre Rächt uff Pflicht !

          
",53,jost-dr-erscht-handel,43,5,0.0,0.11627906976744186
107,comedy,Lucie,F,,,,"
            
LUCIE :

            
(hebbt’ne jescht)

            
Albert, ich bitt dich! ’s isch jo nitt fur lang, numme fur e Daa odder zwei. Bedenk,
              ass myn Läwes- unn Ehglick devun abhängt. Ich will myne Mann numme uff d’Prob stelle
              !

          
",53,jost-dr-erscht-handel,47,5,0.0,0.10638297872340426
109,comedy,Lucie,F,,,,"
            
LUCIE :

            
Erschtens durch diss, ass ich wie d’Amerikanere mir e männlich’s Dienschtmaidel halte
              dhue, will ich’m zeije, ass ich d’nämliche Rächter habb als wie er. Zwei- tens will
              ich glychzyttig konschtatiere, ob’r mich noch lieb hett ; isch diss d'r Fall, ze
              wurd’r gewiss schallu 
(jaloux)
 uff myn männlich’s Dienschtmaidel sinn
              unn losst mich nitt mit’m ellein !

          
",54,jost-dr-erscht-handel,74,8,0.3004914225486293,0.10810810810810811
110,comedy,Albert,M,,,,"
            
ALBERT:

            
Diss kann jo Mord unn Doodschlaa gänn !

          
",55,jost-dr-erscht-handel,10,2,0.0,0.2
111,comedy,Lucie,F,,,,"
            
LUCIE:

            
Loss mich numme mache, unn’s wurd schun nix bassiere ! D’Hauptroll haw ich ze spiele!
              Kumm, ich will dir e Zimmer rischte ; iwerdem saa ich dir no, wie mir zwei uns ze
              verhalte hann.

          
",55,jost-dr-erscht-handel,44,4,0.7915876253181524,0.09090909090909091
112,comedy,Albert,M,,,,"
            
ALBERT :

            
Mir an! Mir soll awer noch emool einer saawe, ass numme Amerika ellein ’s Land vun de
              unbegrenzte Mejlichkeite isch! Nein, iwerall do, wo e Frau isch; gitt’s kein
              Unmejlichkeite ! 
(Geht im Lucie nooch, wo mit’m Bettdings nooch links abgange
                isch.)

              
(Schluss vum erschte Akt.)

          
",56,jost-dr-erscht-handel,63,2,0.0,0.031746031746031744
113,comedy,Pierre,M,,,,"
            
PIERRE :

            
(hett e wysses Nasdiechel um de Kopf gebunde)

            
Heilich, wie dhuet mir d'r Kopf brumme ! Diss isch mir gescht oowe widder emool e
              langi unn e schwäri Sitzung g’sinn ! Unn dezue haw ich noch in de Zorn nyn ge- drunke
              waje dere kaiwe Gross-Los-Debatt mit mynere Frau! Na, do haw ich schynnt’s in e
              scheens Weschpel- nescht nyng’stoche ! Unser erscht Krach, zytter ass mir g’hyroot
              sinn! ’s Resültat devun isch, ass myni Frau die Nacht im Salon g’schloofe hett ! — Au,
              myner Kopf ! Wie der nooch eme Häri miaue dhuet! — Unn kein Blick, kein Wort hett mir
              ’s Lucie gegunnt, wo ich heime bin kumme. Wenn ich numme wisst, wie ich s’e widder
              versehne kennt, ohne ass ich mir ebbs vergibb, denn ich habb s'e jo doch gar ze lieb !
              — Jetzt wär’s awer Zytt, ass ich myne Café bekäm ! Odder schlooft d'Madame Lucie am
              End noch, odder will s’e mich durch’s Üsshungere zahm mache ? 
(Geht an de Disch
                unn nemmt e Blatt Babier, wo dorte lejt.)
 Was isch denn diss fur e Zettel?
              Ah, vum Lucie! 
(Läst)
: « Mein Herr! » 
(Fur sich)
: Hu,
              wie zeremoniell! 
(Läst wyddersch)
 : „Wenn Sie etwas wünschen, läuten
              Sie dem Dienst- mädchen ! Lucie. » 
(Fur sich, baff unn halwer wietig)
:
              Was soll denn jetzt diss heisse ! Zytter wenn hann mir denn e Dienschtmaidel ? Ah,
              diss hett’s Lucie anga- schiert, fur mir ze zeije, ass sie dohinne ze kummediere hett!
              Na, do redd ich au noch e Wertel mit ! Vorerscht will ich mir awer emool denne
              Kichedragünner angücke! 
(Schellt.)
 ’s Lucie hätt mich doch s’wennischt
              fröje kenne, wenn s’e mit d'r Arweit nimmi ellein ferti wurd unn e Hilf brücht !

          
",56,jost-dr-erscht-handel,359,22,0.47956463246526687,0.06128133704735376
114,comedy,Albert,M,,,,"
            
ALBERT :

            
(isch e bissel ängschtlich)

            
Guete Morje, Herr!

          
",57,jost-dr-erscht-handel,13,4,0.0,0.3076923076923077
115,comedy,Pierre,M,,,,"
            
PIERRE :

            
(fahrt zeruck)

            
Was isch denn diss? Wie kummt diss Mannsbild in myni Wohnung ? Bin ich denn im Kopf
              noch nitt ganz klar ?

          
",57,jost-dr-erscht-handel,29,2,0.0,0.06896551724137931
116,comedy,Albert,M,,,,"
            
ALBERT :

            
Do bring ich de Café, Herr !

          
",58,jost-dr-erscht-handel,10,1,0.0,0.1
117,comedy,Pierre,M,,,,"
            
PIERRE:

            
Ja, wer sinn Sie denn iwerhaupt? Sinn Sie e Maidel, wo Hosse an hett, oder sinn Sie e
              Bue, wo d’Hoor g’schnitte hett ? Wie heisse Sie denn ?

          
",58,jost-dr-erscht-handel,37,4,0.7480743392841628,0.10810810810810811
118,comedy,Albert,M,,,,"
            
ALBERT :

            
Albert, Herr !

          
",59,jost-dr-erscht-handel,6,1,0.0,0.16666666666666666
119,comedy,Pierre,M,,,,"
            
PIERRE:

            
Also doch e Mannsstick ! Ja, Mensch, was sueche Sie denn no do in mynere
              Gerechtigkeit ?

          
",59,jost-dr-erscht-handel,21,3,0.0,0.14285714285714285
120,comedy,Albert,M,,,,"
            
ALBERT:

            
Ei, ich bin ’s nej Dienschtmaidel, Herr !

          
",60,jost-dr-erscht-handel,12,1,0.0,0.08333333333333333
121,comedy,Pierre,M,,,,"
            
PIERRE :

            
Jetzt schlaat’s dryzeh ! Wenn’r s’wennischt noch « Dienschtmann » g’saat hätt!
                
(Fur sich)
: Entweder isch jetzt der Mensch e Narr odder e Gauner, wo
              sich by mir yng’schliche hett ! 
(Lütt)
 : Uff d'r G’stell mache Sie, ass
              Sie mir zuem Dembel nüsskumme !

          
",60,jost-dr-erscht-handel,57,3,0.0,0.05263157894736842
122,comedy,Albert,M,,,,"
            
ALBERT:

            
’s dhuet mir leid. awer ich folj numme in d’r Madame, wo mich angaschiert hett.

          
",61,jost-dr-erscht-handel,20,2,0.0,0.1
123,comedy,Pierre,M,,,,"
            
PIERRE:

            
Wie? Was? Angaschiert? Sie — als Mann ?

          
",61,jost-dr-erscht-handel,13,1,0.0,0.07692307692307693
124,comedy,Albert,M,,,,"
            
ALBERT:

            
Nein, Herr, nitt als Mann, awer als Dienschtmaidel, wie ich jo vorig schun g’saat
              habb.

          
",62,jost-dr-erscht-handel,22,2,0.0,0.09090909090909091
125,comedy,Pierre,M,,,,"
            
PIERRE :

            
(nemmt e Stuehl unn geht mit uff de Albert los)

            
Jetzt isch awer Hei genue hunte! Nüss, saa ich, als nüss !

          
",62,jost-dr-erscht-handel,29,2,1.2937759851665924,0.06896551724137931
126,comedy,Albert,M,,,,"
            
ALBERT :

            
(losst’s Tablett falle)

            
Jetzt heisst’s laufe ! 
(Gschwind ab nooch links.)

          
",63,jost-dr-erscht-handel,20,1,0.0,0.05
127,comedy,Pierre,M,,,,"
            
PIERRE :

            
Diss kapier, wer will! — Au, myner Kopf ! — Ich wurr nitt schlöj drüss ! Der Fitzer
              hett jo, weiss Gott, gemacht, wie wenn’r im Rächt wär ! Ich muess partout mit’m Lucie
              redde — ah, do kummt s’e jo!

          
",63,jost-dr-erscht-handel,53,4,0.579800157585991,0.07547169811320754
128,comedy,Lucie,F,,,,"
            
LUCIE :

            
(fur sich)

            
Kein liewe Blick unn kein guet’s Wort gunn ich’m, bis ich ne so wytt habb !

          
",64,jost-dr-erscht-handel,25,4,0.0,0.16
130,comedy,Lucie,F,,,,"
            
LUCIE :

            
Ich habb’s jo uff diss Babier g’schriwe, also stimmt’s au!

          
",65,jost-dr-erscht-handel,16,1,0.0,0.0625
131,comedy,Pierre,M,,,,"
            
PIERRE :

            
Wenn dü e Hilf brüchsch, ze will ich jo nix degeje hann .....

          
",65,jost-dr-erscht-handel,16,1,0.0,0.0625
134,comedy,Lucie,F,,,,"
            
LUCIE :

            
Monsieur, diss isch jo grad myn Dienschtmaidel !

          
",67,jost-dr-erscht-handel,11,1,0.0,0.09090909090909091
135,comedy,Lucie,F,,,,"
            
LUCIE:

            
Ass ich verruckt bin, meine Sie, Monsieur ? Nitt ass Sie sich drumbiere ! Zwische
              gescht unn hytt isch e grossi Differenz! Mir sinn d’Aue uffgange, unn ich bin nimmi so
              verruckt, ass ich mich vum e Mann unter- drucke loss. Mir Fraue hann grad so viell
              Rächter als wie ihr Männer!

          
",67,jost-dr-erscht-handel,63,11,0.28785004557023725,0.1746031746031746
136,comedy,Pierre,M,,,,"
            
PIERRE:

            
Gewiss, liewi Lucie, myn guet’s Wyewele, ich gibb jo...

          
",68,jost-dr-erscht-handel,16,2,1.7381586189259373,0.125
137,comedy,Lucie,F,,,,"
            
LUCIE:

            
So Zärtlichkeite kenne Sie wo andersch ver- schwende, Monsieur !

          
",68,jost-dr-erscht-handel,14,1,0.0,0.07142857142857142
139,comedy,Lucie,F,,,,"
            
LUCIE :

            
Ah, Sie meine, ich bin unverninftig ? Gewiss, ich bin’s g’sinn, so lang als wie ich
              gemeint habb, d’Frau wär d'r Sklav vum Mann! Awer was e Amerikanere kann, diss kann
              ich au !

          
",69,jost-dr-erscht-handel,45,4,0.0,0.08888888888888889
140,comedy,Pierre,M,,,,"
            
PIERRE:

            
Guet, ich gibb jo alles zue, awer was hett diss alles mit dem Mannsbild im Hüss ze
              schaffe ?

          
",70,jost-dr-erscht-handel,23,2,0.0,0.08695652173913043
141,comedy,Lucie,F,,,,"
            
LUCIE :

            
Was ? Ei, ich habb min halt wie alli moderni Ameri- kanere e männlich’s
              Dienschtmaidel zuegeleijt !

          
",70,jost-dr-erscht-handel,22,2,0.0,0.09090909090909091
142,comedy,Pierre,M,,,,"
            
PIERRE :

            
Hett m'r schun emool so ebbs g’heert ! Diss duld ich nitt ! Uff d'r G’stell fliejt’r
              mir nüss !

          
",71,jost-dr-erscht-handel,22,2,0.0,0.09090909090909091
143,comedy,Lucie,F,,,,"
            
LUCIE :

            
Mir ellein isch’r G’horsam schuldi.

          
",71,jost-dr-erscht-handel,8,2,0.0,0.25
144,comedy,Pierre,M,,,,"
            
PIERRE:

            
Ich bin Herr im Hüss !

          
",72,jost-dr-erscht-handel,8,2,0.0,0.25
145,comedy,Lucie,F,,,,"
            
LUCIE:

            
Unn ich habb grad so viell Rächter als wie d'r Mann !

          
",72,jost-dr-erscht-handel,14,3,0.0,0.21428571428571427
147,comedy,Lucie,F,,,,"
            
LUCIE :

            
(fur sich)

            
Aha, er wurd schun schalu! 
(Lütt)
: ’s schickt sich au nitt, ass Sie
              ganzi Nächt drüsse rumflieje !

          
",73,jost-dr-erscht-handel,30,2,0.0,0.06666666666666667
148,comedy,Pierre,M,,,,"
            
PIERRE :

            
Ich werf ejch alli zwei zuem Hüss nüss !

          
",74,jost-dr-erscht-handel,11,1,0.0,0.09090909090909091
150,comedy,Pierre,M,,,,"
            
PIERRE :

            
No geh einfach ich !

          
",75,jost-dr-erscht-handel,7,1,0.0,0.14285714285714285
151,comedy,Lucie,F,,,,"
            
LUCIE :

            
Wie d'r Herr will ! 
(Hochmietig ab nooch links.)

          
",75,jost-dr-erscht-handel,14,2,0.0,0.14285714285714285
152,comedy,Pierre,M,,,,"
            
PIERRE :

            
Mir steht d'r Verstand still! Ich habb iwer myni Frau schynnt’s alli Gewalt verlore !
              Ja, ’s schynnt so- gar, ass sie nix meh fur mich iwrig hett ! Diss wär mir e scheeni
              B’scherung! Bin ich am End gescht doch ze hart geje s’e g’sinn ? Na, egal; uff alli
              Fäll gibb ich's Lucie nitt uff, unn ich wych unn wank nitt, bis ass diss Herr
              Dienschmaidel mit Manier abg’schüfelt isch worre. Der Mensch kennt mir jo noch by
              mynere Frau g’fähr- lich wäre — schun e manichi Frau isch mit ihrem Chauf- feur odder
              mit ihrem Koch durch de Räps gange. Uff alli Fäll wurd’s guet sinn, wenn ich d’Aue
              offe b’halt !

          
",76,jost-dr-erscht-handel,136,18,0.0,0.1323529411764706
153,comedy,Albert,M,,,,"
            
ALBERT :

            
(fur sich)

            
Do haw ich mich jo in e nätti Affär yn- gelonn ! 
(Lütt)
: Do isch
              d’Poscht, Herr !

          
",76,jost-dr-erscht-handel,30,3,0.0,0.1
154,comedy,Pierre,M,,,,"
            
PIERRE :

            
(geht wietig uff’'ne los)

            
Was, dü bisch als noch do ? Wart, dir will ich zeije, wo d'r Zimmermann ’s Loch
              gelonn hett ! 
(Er will’ne packe ; d’r Albert losst d’Brief falle unn wycht
                zeruck.)

          
",77,jost-dr-erscht-handel,47,4,1.6196711758277225,0.0851063829787234
156,comedy,Pierre,M,,,,"
            
PIERRE:

            
Dü hesch grad noch Zytt g’hett, Birschtel ! Ich will numme sähn, was diss noch fur e
              End nemmt ? 
(Er hebbt d’Brief uff.)
 Was sinn denn diss fur Schryewes ?
                
(Läst)
: «Heute Nachmittag 5 Uhr wichtige Parteiver sammlung —
              unbedingtes Erscheinen erforderlich !» Unn diss ? 
(Läst)
: « Heute Abend
              8 Uhr dringende Auf- sichtsratsitzung. Fehlende werden mit einer Geldstrafe belegt!» —
              Do muess ich unbedingt anne — nein, uff keine Fall — ich blyeh d’heim ! Ich loss myni
              Frau nitt ellein mit dem Wasserstein-Kavallerischt! Mir kenne jetzt alli Societäte de
              Buckel nabbrutsche ! 
(’s klopft.)
 Wer kann jetzt diss sinn ? — Entrez
              !

          
",78,jost-dr-erscht-handel,133,11,0.6771485743172568,0.08270676691729323
158,comedy,Pierre,M,,,,"
            
PIERRE :

            
Was ? Dü bisch’s, Cousinel Alice ? Wie kummsch denn dü uff hie ? 
(Sie
                begriesse sich.)

          
",79,jost-dr-erscht-handel,24,2,0.0,0.08333333333333333
159,comedy,Alice,M,,,,"
            
ALICE :

            
Ei, mit d'r Ysebahn nadierlich, wyll mir d’Fliejerej doch noch nitt sicher genue
              isch. Ich bin schun gescht ankumme unn wohn bym Unkel Jacques, denn jungver- hyrooti
              Lytt soll m'r ellein lonn. Wo isch denn, du reste, dyni femme ? Ich mecht s’e doch au
              gern emool kenne lehre.

          
",79,jost-dr-erscht-handel,62,7,0.6921022563211094,0.11290322580645161
160,comedy,Pierre,M,,,,"
            
PIERRE :

            
(fur sich)

            
Diss isch jetzt grad dr rächt Moment dezue !

          
",80,jost-dr-erscht-handel,15,2,0.0,0.13333333333333333
161,comedy,Alice,M,,,,"
            
ALICE :

            
Na, was machsch de denn fur e G’sicht ? Isch dyni Frau dehn nitt do ?

          
",80,jost-dr-erscht-handel,19,1,0.0,0.05263157894736842
162,comedy,Pierre,M,,,,"
            
PIERRE :

            
Ich glabb, sie kummt grad ! 
(Fur sich)
: Halt, en Idee! «Rache ist
              Blutwurst!» 
(Lütt)
: Horich, lieb Cousinel, mach m'r de G’falle unn saa
              mir jetzt zue allem «ja» unn « Amen », egal was bassiert !

          
",81,jost-dr-erscht-handel,56,8,0.3004914225486293,0.14285714285714285
163,comedy,Alice,M,,,,"
            
ALICE:

            
Was soll diss heisse, Pierre ?

          
",81,jost-dr-erscht-handel,9,1,2.992297357136651,0.1111111111111111
164,comedy,Pierre,M,,,,"
            
PIERRE :

            
Stille, sie kummt! Ich explizier's dir noochher. Dü begehsch kein Verbreche ; ’s isch
              numme fur myn Glick !

          
",82,jost-dr-erscht-handel,25,2,0.0,0.08
165,comedy,Lucie,F,,,,"
            
LUCIE :

            
(unter d'r Dier, baff, fur sich)

            
Was sieh ich denn do ? Wer isch denn die Person, wo so verliebt mit mym Mann ze
              büschbre hett ?

          
",82,jost-dr-erscht-handel,34,3,0.0,0.08823529411764706
166,comedy,Pierre,M,,,,"
            
PIERRE :

            
(dätschelt im Alice d’Bäckle)

            
Wie mich diss fraid, lieb’s Kind, ass dü kumme bisch ! Hesch dü mich denn au noch
              gern ?

          
",83,jost-dr-erscht-handel,31,5,1.961673975228137,0.16129032258064516
167,comedy,Alice,M,,,,"
            
ALICE :

            
Gewiss, Pierre ! 
(Fur sich)
: Lieb awer haw ich e’n andere !

          
",83,jost-dr-erscht-handel,18,1,2.4039313803890345,0.05555555555555555
168,comedy,Lucie,F,,,,"
            
LUCIE :

            
(lätt)

            
Nein, diss iwerläw ich nitt! 
(Sie hyllt unn stirmt uff de Pierre
              zue.)

          
",84,jost-dr-erscht-handel,23,1,0.0,0.043478260869565216
169,comedy,Pierre,M,,,,"
            
PIERRE :

            
(macht, wie wenn’r s’e erscht jetzt sieht)

            
Wie meine Sie, Madame ?

          
",84,jost-dr-erscht-handel,19,3,0.0,0.15789473684210525
171,comedy,Alice,M,,,,"
            
ALICE :

            
Awer Madame !

          
",85,jost-dr-erscht-handel,5,1,0.0,0.2
172,comedy,Pierre,M,,,,"
            
PIERRE:

            
Madame, diss isch myn Kammerdiener ! 
(Fur sich)
: Ich will s’e schun
              weich mache !

          
",86,jost-dr-erscht-handel,22,2,0.0,0.09090909090909091
173,comedy,Lucie,F,,,,"
            
LUCIE:

            
Nein, diss geht ze witt! Liewer Pierre, myn guet’s Männele, ich gibb jo zue, ass
              .....

          
",86,jost-dr-erscht-handel,24,3,0.0,0.125
174,comedy,Pierre,M,,,,"
            
PIERRE :

            
Madame, so Zärtlichkeite kenne Sie sich spare ! 
(Fur sich)
: Aha, sie
              wurd schun zahm !

          
",87,jost-dr-erscht-handel,23,3,0.0,0.13043478260869565
176,comedy,Pierre,M,,,,"
            
PIERRE:

            
O, ich bin ganz verninftig ! Ich bin ’s numme so- lang nitt g’sinn, wo ich noch
              gemeint habb, ass alli Fraue Engel sinn. LUGIE : Ich duld awer einfach kein anders
              Wyebsbild im Hüss ! Uff d'r G’stell fliejt s’e mir nüss !

          
",88,jost-dr-erscht-handel,52,9,0.0,0.17307692307692307
177,comedy,Pierre,M,,,,"
            
PIERRE :

            
Mir ellein isch s’e G’horsam schuldi !

          
",88,jost-dr-erscht-handel,10,2,0.0,0.2
178,comedy,Lucie,F,,,,"
            
LUCIE :

            
So e Dienschtbott schickt sich nitt fur e Mann !

          
",89,jost-dr-erscht-handel,12,1,0.0,0.08333333333333333
180,comedy,Lucie,F,,,,"
            
LUCIE :

            
Ich werf ejch alli zwei zuem Hüss nüss !

          
",90,jost-dr-erscht-handel,11,1,0.0,0.09090909090909091
181,comedy,Pierre,M,,,,"
            
PIERRE:

            
Do bin ich d’heim, Madame !

          
",90,jost-dr-erscht-handel,10,1,0.0,0.1
182,comedy,Lucie,F,,,,"
            
LUCIE:

            
No geh einfach ich !

          
",91,jost-dr-erscht-handel,7,1,0.0,0.14285714285714285
183,comedy,Pierre,M,,,,"
            
PIERRE :

            
Wie d’Madame will !

          
",91,jost-dr-erscht-handel,7,1,0.0,0.14285714285714285
185,comedy,Lucie,F,,,,"
            
LUCIE:

            
Diss d’hät ejch zwei so g’falle! Nein, ich wych unn wank nitt. Unn Ihnne, Sie
              uffgebutzti Pupp, will ich schun bybringe, ass Sie myn Mann nix angeht! 
(Geht
                wietig uff d'Alice los, wo sich hinter de Pierre retiriert.)

          
",92,jost-dr-erscht-handel,53,5,0.517510394066637,0.09433962264150944
186,comedy,Alice,M,,,,"
            
ALICE :

            
Oh, Madame, ich habb au e Rächt am Pierre !

          
",93,jost-dr-erscht-handel,14,2,0.0,0.14285714285714285
187,comedy,Pierre,M,,,,"
            
PIERRE :

            
(fur sich)

            
Diss hett s’e guet g’saat! 
(Lütt)
: So isch’s, Madame, ich kenn die
              Mamsell schun länger als wie Sie.

          
",93,jost-dr-erscht-handel,33,4,0.0,0.12121212121212122
188,comedy,Lucie,F,,,,"
            
LUCIE :

            
(hyllt)

            
O, ich habb’s jo schun lang g’ahnt, ass dü mich hintergehsch ! Dü hesch so e gueti,
              bravi unn treji Frau wie mich gar nitt verdient! 
(Lüttersch wie
                schunscht.)

          
",94,jost-dr-erscht-handel,42,3,0.0,0.07142857142857142
189,comedy,Albert,M,,,,"
            
ALBERT :

            
(ohne d'andere ze sähn)

            
Lucie, ich habb jetzt d’Nas voll! Dü hebbsch mich kein Minütt meh ! Dyner Alt isch jo
              ..... Allmächtiger, do isch’r jo! 
(Rysst ver- gelschtert noch links ab üss.
                )

          
",94,jost-dr-erscht-handel,47,2,0.0,0.0425531914893617
190,comedy,Pierre,M,,,,"
            
PIERRE :

            
(baff)

            
Was heer ich do! «Lucie » unn «dü »? Ah, do lehrt m'r jo die trej Madame kenne! Ich
              bring’ ne um, denne miserawel Gauner! 
(Rennt im Al- bert nooch links ab
                nooch.)

          
",95,jost-dr-erscht-handel,50,3,0.0,0.06
191,comedy,Lucie,F,,,,"
            
LUCIE :

            
(vergelschtert)

            
Grosser Gott, er wurd’m doch nix andhuen ! 
(G’schwind links ab.)

          
",95,jost-dr-erscht-handel,21,1,2.319200630343964,0.047619047619047616
192,comedy,Alice,M,,,,"
            
ALICE :

            
(baff)

            
Diss soll mir kein Theater sinn in dem Hüss ! Awer was haw ich denn g’sähn ! Diss
              isch jo der nett Monsieur g’sinn, wo im nämliche Coupé mit mir isch g’fahre! Wie kummt
              denn der ins Hüss vun mym Cousin ?

          
",96,jost-dr-erscht-handel,49,3,0.7569139947756752,0.061224489795918366
193,comedy,Lucie,F,,,,"
            
LUCIE :

            
Mon Dieu, ich kann die zwei Männer im ganze Hüss nierigs finde ! Wenn diss numme e
              guet’s End nemme dhuet ! 
(Wietig zuem Alice)
: Awer do sinn numme Sie
              dran schuld, Sie gewisselosi Person ! 
(Geht uff s’e los.)

          
",96,jost-dr-erscht-handel,52,9,0.28750577448146497,0.17307692307692307
194,comedy,Alice,M,,,,"
            
ALICE :

            
(rennt ängschtlich nooch hinte ab)

            
Die bringt mich noch um in ihrem Röjes! Pierre, hälf m'r! 
(Ab nooch
                hinte.)

          
",97,jost-dr-erscht-handel,29,2,0.0,0.06896551724137931
195,comedy,Lucie,F,,,,"
            
LUCIE :

            
(lauft’re nooch)

            
Wart, dü Lueder, dich will ich « be- pierrele » ! 
(Ab nooch
              hinte.)

          
",97,jost-dr-erscht-handel,26,1,3.8911327329777046,0.038461538461538464
197,comedy,Albert,M,,,,"
            
ALBERT :

            
(unter d'r Dier)

            
Endlich haw ich’ne kenne ab- schittle !

          
",98,jost-dr-erscht-handel,15,2,0.0,0.13333333333333333
198,comedy,Alice,M,,,,"
            
ALICE :

            
(unter d'r Dier)

            
Luft! Ich kann nimmi !

          
",99,jost-dr-erscht-handel,13,1,0.0,0.07692307692307693
199,comedy,Albert,M,,,,"
            
ALBERT :

            
(im Moment, wo’r mitm Alice z’sammerennt, also jetzt erscht sieht)

            
Ja — ja — was isch denn diss ? Sieh ich denn erächt ?

          
",99,jost-dr-erscht-handel,31,2,0.0,0.06451612903225806
200,comedy,Alice,M,,,,"
            
ALICE :

            
(grad so)

            
Mon Dieu, wie bin ich jetzt verschrocke !

          
",100,jost-dr-erscht-handel,15,2,0.0,0.13333333333333333
201,comedy,Albert,M,,,,"
            
ALBERT :

            
(fur sich)

            
Diss isch jo die nett Mamsell, wo gescht mit mir g’fahre isch !
              
(Lütt)
: Mademoiselle, Sie glauwe nitt, wie ich mich freij, ich Sie
              widdersieh ! In eim furt haw ich an Sie denke miehn !

          
",100,jost-dr-erscht-handel,49,5,0.45414839686540515,0.10204081632653061
202,comedy,Alice,M,,,,"
            
ALICE:

            
Unn diss soll ich glauwe nooch dem allem, was ich do in dem Hüss erläbt habb ?

          
",101,jost-dr-erscht-handel,20,2,0.0,0.1
203,comedy,Albert,M,,,,"
            
ALBERT :

            
Ich schweer’s'ne, Mademoiselle ! D’r Schynn isch jo allerdings geje mich, awer ich
              will’ne g’schwind ex- pliziere, wie alles kumme isch. Awer nitt do; ich mecht mich
              nitt verwitsche lonn, ebb ass alles klar g’stellt isch.

          
",101,jost-dr-erscht-handel,47,4,1.46513681306855,0.0851063829787234
205,comedy,Albert,M,,,,"
            
ALBERT :

            
Unn no mecht ich au gern erfahre, wellem Glicks- stern ass ich’s ze verdanke habb,
              Sie do so unverhofft ze finde.

          
",102,jost-dr-erscht-handel,28,4,1.1494522376712621,0.14285714285714285
208,comedy,Pierre,M,,,,"
            
PIERRE :

            
Der Schuft isch rein wie verschwunde !

          
",104,jost-dr-erscht-handel,9,1,0.0,0.1111111111111111
209,comedy,Lucie,F,,,,"
            
LUCIE:

            
Ich mecht numme wisse, wo sich diss raffiniert Mensch versteckelt hett !

          
",104,jost-dr-erscht-handel,15,1,0.0,0.06666666666666667
210,comedy,Pierre,M,,,,"
            
PIERRE :

            
(fur sich)

            
Ah, do isch jo myni süfer Frau !

          
",105,jost-dr-erscht-handel,15,1,0.0,0.06666666666666667
211,comedy,Lucie,F,,,,"
            
LUCIE :

            
(dito)

            
Ah, do isch jo myn proprer Mann ! 
(Pierre unn Lucie laufe im Lauf vun dere
                Scène wie achtlos anenand durch unn in d'r Stubb uff unn ab ; sie redde also « fur
                sich ».)

          
",105,jost-dr-erscht-handel,45,2,0.0,0.044444444444444446
213,comedy,Lucie,F,,,,"
            
LUCIE:

            
Hieser hätt ich uff’ne geböjt! Bedracht sich im e anderi hett kenne vergaffe — ich
              bin! doch kein wischti Frau! 
(Geht widder uff unn ab.)

          
",106,jost-dr-erscht-handel,33,3,0.0,0.09090909090909091
214,comedy,Pierre,M,,,,"
            
PIERRE:

            
D’bescht Frau isch nix nutz. 
(Bedracht sich im Spiejel.)
 Wie s’e sich
              numme an so e Kerl hett kenne hänge ! Ich bin doch, ma foi, e ganz scheener Mann !
                
(Geht widder uff unn ab.)
 Was soll ich numme mache ?

          
",107,jost-dr-erscht-handel,55,7,0.3674872293476104,0.12727272727272726
215,comedy,Lucie,F,,,,"
            
LUCIE :

            
Wenn ich mir numme e Root wisst !

          
",107,jost-dr-erscht-handel,10,1,0.0,0.1
216,comedy,Pierre,M,,,,"
            
PIERRE :

            
Denn was nutzt’s au, wenn ich’re bycht, ass’s Alice myn Cousinel unn alles numme e
              Farce isch ! Die Affär mit ihrem Liebhawer blyet jo no doch b’stehn !

          
",108,jost-dr-erscht-handel,35,1,0.0,0.02857142857142857
217,comedy,Lucie,F,,,,"
            
LUCIE :

            
’s hett jo doch kein Wärt, wenn ich’m g’steh, ass d'r Albert myne Brueder isch unn
              ass ich’ne numme schallu habb welle mache! Mit dem wurd die Affär mit dem Bibbele doch
              nitt üss d'r Welt g’schafft !

          
",108,jost-dr-erscht-handel,44,2,0.0,0.045454545454545456
218,comedy,Pierre,M,,,,"
            
PIERRE :

            
(lütt, energisch)

            
Ja, Madame, mir mache am beschte Schluss !

          
",109,jost-dr-erscht-handel,17,4,0.0,0.23529411764705882
219,comedy,Lucie,F,,,,"
            
LUCIE :

            
’s isch au heechschti Zytt, ass mir anfange, Schluss ze mache, Monsieur! Ich geh zue
              mynere Mammel 
(Hyllt.)

          
",109,jost-dr-erscht-handel,27,1,0.0,0.037037037037037035
220,comedy,Pierre,M,,,,"
            
PIERRE:

            
Unn ich zue mym Babbe !

          
",110,jost-dr-erscht-handel,8,1,0.0,0.125
221,comedy,Lucie,F,,,,"
            
LUCIE :

            
Ich verlang Trennung vun Disch unn Bett!

          
",110,jost-dr-erscht-handel,10,2,0.0,0.2
222,comedy,Pierre,M,,,,"
            
PIERRE :

            
No schloof ich uff’m Divan unn ess uff'm Kommod!

          
",111,jost-dr-erscht-handel,14,2,0.0,0.14285714285714285
223,comedy,Lucie,F,,,,"
            
LUCIE :

            
Ich loss mich scheide !

          
",111,jost-dr-erscht-handel,7,1,3.1663505012726096,0.14285714285714285
224,comedy,Pierre,M,,,,"
            
PIERRE:

            
Mit Fraide !

          
",112,jost-dr-erscht-handel,5,1,0.0,0.2
225,comedy,Pierre,M,,,,"
            
PIERRE :

            
(unter d'r Dier zuem Alice)

            
Gott sej Dank, ass alles so kumme isch !

          
",112,jost-dr-erscht-handel,19,4,1.2925668244798607,0.21052631578947367
226,comedy,Alice,M,,,,"
            
ALICE :

            
O, wie bin ich so glicklich !

          
",113,jost-dr-erscht-handel,10,1,0.0,0.1
227,comedy,Pierre,M,,,,"
            
PIERRE :

            
(fur sich, baff)

            
Ja, draim ich denn ?

          
",113,jost-dr-erscht-handel,14,2,0.0,0.14285714285714285
229,comedy,Albert,M,,,,"
            
ALBERT :

            
(wie vorig)

            
So? Unn worum sinn Sie denn glick- lich, Mamsell Alice ?

          
",114,jost-dr-erscht-handel,20,1,0.0,0.05
230,comedy,Alice,M,,,,"
            
ALICE :

            
(verläje)

            
Ei — ei — wyll...

          
",115,jost-dr-erscht-handel,11,1,0.0,0.09090909090909091
231,comedy,Albert,M,,,,"
            
ALBERT :

            
..... wyll Sie mir viellycht e bissel guet kennte sinn ? 
(Alice
                nickt.)
 Juchhu, jetzt bin au ich glicklich ! 
(Er umarmt
              s’e.)

          
",115,jost-dr-erscht-handel,32,3,0.0,0.09375
232,comedy,Pierre,M,,,,"
            
PIERRE :

            
(lütt)

            
Nein, diss geht jetzt doch ze wytt!

          
",116,jost-dr-erscht-handel,14,1,0.0,0.07142857142857142
233,comedy,Lucie,F,,,,"
            
LUCIE :

            
(dito)

            
Mir steht d'r Verstand still !

          
",116,jost-dr-erscht-handel,11,2,0.0,0.18181818181818182
234,comedy,Pierre,M,,,,"
            
PIERRE :

            
(zuem Lucie unn zeijt uff de Albert; ironisch)

            
Sähn Sie, Madame, was fur e trejer Galan ass Sie hann !

          
",117,jost-dr-erscht-handel,27,2,0.0,0.07407407407407407
235,comedy,Lucie,F,,,,"
            
LUCIE :

            
(zuem Pierre unn zeijt uffs Alice; ironisch)

            
Sähn Sie, Monsieur, wie uffrichtig ass’s die Mamsell do mit Ihnne meint !

          
",117,jost-dr-erscht-handel,28,1,0.0,0.03571428571428571
236,comedy,Albert,M,,,,"
            
ALBERT :

            
Awer ich bitt Sie, Monsieur ! ’s isch endlich Zytt, ass...

          
",118,jost-dr-erscht-handel,16,2,0.0,0.125
237,comedy,Pierre,M,,,,"
            
PIERRE :

            
(wietig)

            
..... ass ich mit Ihnne abreche dhue: Was fallt Ihnne erschtens yn, mir Herner
              uffzesetze ?

          
",118,jost-dr-erscht-handel,23,1,0.0,0.043478260869565216
238,comedy,Alice,M,,,,"
            
ALICE :

            
Lonn uns doch numme üssredde !

          
",119,jost-dr-erscht-handel,8,1,3.0094805846987205,0.125
239,comedy,Lucie,F,,,,"
            
LUCIE :

            
(zuem Alice, wietig)

            
Diss hett’s ball: Was fallt Ihnne erschtens yn, mir Herner uffzesetze ?

          
",119,jost-dr-erscht-handel,23,1,0.0,0.043478260869565216
241,comedy,Lucie,F,,,,"
            
LUCIE :

            
(zuem Alice)

            
Was fallt Ihnne zweitens yn, myne Mann mit dem Monsieur do ze hintergehn ?

          
",120,jost-dr-erscht-handel,21,1,0.0,0.047619047619047616
242,comedy,Albert,M,,,,"
            
ALBERT :

            
(lacht)

            
O, Lucie, wie hesch dü dich vun dym Mann am Narreseil erumfiehre lonn !

          
",121,jost-dr-erscht-handel,21,3,1.0031601948995734,0.14285714285714285
243,comedy,Alice,M,,,,"
            
ALICE :

            
(lacht au)

            
O, Pierre, dü hesch dich vun dynere Frau scheen nynleije lonn !

          
",121,jost-dr-erscht-handel,20,3,1.0031601948995734,0.15
246,comedy,Albert,M,,,,"
            
ALBERT :

            
(zuem Pierre)

            
Awer nitt, ass ich d'r Brueder vum Lucie bin !

          
",123,jost-dr-erscht-handel,17,1,0.0,0.058823529411764705
248,comedy,Albert,M,,,,"
            
ALBERT :

            
Ja, unn myni lieb fiancée !

          
",124,jost-dr-erscht-handel,9,2,1.2019656901945173,0.2222222222222222
249,comedy,Lucie,F,,,,"
            
LUCIE :

            
(starre sich an, baff)

            
PIERRE unn Isch’s denn mej- lich ? Worum denn no diss ganz Theater ?

          
",124,jost-dr-erscht-handel,25,2,0.0,0.08
250,comedy,Lucie,F,,,,"
            
LUCIE :

            
(verläje)

            
Ei, wyll ich dich schallu habb welle mache!

          
",125,jost-dr-erscht-handel,15,1,0.0,0.06666666666666667
251,comedy,Pierre,M,,,,"
            
PIERRE:

            
Unn ich dich au, lieb’s Wyewele ! O, wie sinn mir alli zwei doch so arich dumm g’sinn
              ! Welle mir uns wieder verdraawe unn alles vergesse ?

          
",125,jost-dr-erscht-handel,33,4,0.6009828450972586,0.12121212121212122
252,comedy,Lucie,F,,,,"
            
LUCIE :

            
(umarmt de Pierre)

            
Vun Härze gern ! Mir welle uns awer au allewyll widder verdröje unn .....

          
",126,jost-dr-erscht-handel,21,3,1.4349199148661318,0.14285714285714285
253,comedy,Pierre,M,,,,"
            
PIERRE :

            
(umarmt s'e au)

            
..... unn numme noch’s Bescht vun enand denke ! 
(Blyewe in dere Pos
                stehn.)

          
",126,jost-dr-erscht-handel,26,1,2.572410605433273,0.038461538461538464
254,comedy,Alice,M,,,,"
            
ALICE :

            
(zuem Albert ; neckisch)

            
Was isch, liewer Albert, welle mir uns e Lehr dran nemme ?

          
",127,jost-dr-erscht-handel,22,2,0.0,0.09090909090909091
256,comedy,E Facteur,M,messenger/deliverer/helper,service_and_sales,lower_class,"
            
FACTEUR :

            
(gitt im Pierre e Brief)

            
Bonjour, bysamme ! Do isch e Brief ! Au revoir ! 
(Ab.)

          
",128,jost-dr-erscht-handel,25,1,0.0,0.04
257,comedy,Pierre,M,,,,"
            
PIERRE :

            
(macht uff unn zejt e Zyttungsblatt erüss ; läst.)

          
",128,jost-dr-erscht-handel,14,2,0.0,0.14285714285714285
261,comedy,Pierre,M,,,,"
            
PIERRE :

            
(langsam)

            
Mir hann ’s gross Los — nitt gewunne !

          
",130,jost-dr-erscht-handel,14,3,1.5944852624006123,0.21428571428571427
262,comedy,Lucie,F,,,,"
            
LUCIE :

            
Gott sej Dank ! Mir wäre d’unglicklichschte Mensche g’sinn, wenn mir gewunne hätte
              !

          
",131,jost-dr-erscht-handel,18,3,0.7730668767813214,0.16666666666666666
263,comedy,Pierre,M,,,,"
            
PIERRE:

            
Dü hesch erächt, Lucie! ’s gitt numme ein gross Los uff dere Welt ! Der hett’s
              gewunne, wo e bravi Frau unn e gueti Mamme fur syni Kinder g’funde hett !

          
",131,jost-dr-erscht-handel,37,8,1.2354470112723674,0.21621621621621623
264,comedy,Albert,M,,,,"
            
ALBERT :

            
(zeijt uff’s Alice)

            
In dem Fall haw ich hytt in alle mejliche Lotterie vun d'r Welt gewunne ! 
(D’r
                Vorhang fallt g’schwind.)

              
 FINIS.

          
",132,jost-dr-erscht-handel,33,4,1.035228859284973,0.12121212121212122
