2022-08-20 21:52:55 - valence lexicon length: 7864
2022-08-20 21:52:55 - Number of rows: 265
2022-08-20 21:52:56 - dominance lexicon length: 7864
2022-08-20 21:52:56 - Number of rows: 265
2022-08-20 21:52:56 - arousal lexicon length: 7864
2022-08-20 21:52:56 - Number of rows: 265
2022-08-20 21:52:56 - anger lexicon length: 7864
2022-08-20 21:52:56 - Number of rows: 265
2022-08-20 21:52:57 - anticipation lexicon length: 7864
2022-08-20 21:52:57 - Number of rows: 265
2022-08-20 21:52:57 - disgust lexicon length: 7864
2022-08-20 21:52:57 - Number of rows: 265
2022-08-20 21:52:58 - fear lexicon length: 7864
2022-08-20 21:52:58 - Number of rows: 265
2022-08-20 21:52:58 - joy lexicon length: 7864
2022-08-20 21:52:58 - Number of rows: 265
2022-08-20 21:52:58 - sadness lexicon length: 7864
2022-08-20 21:52:58 - Number of rows: 265
2022-08-20 21:52:59 - surprise lexicon length: 7864
2022-08-20 21:52:59 - Number of rows: 265
2022-08-20 21:52:59 - trust lexicon length: 7864
2022-08-20 21:52:59 - Number of rows: 265
2022-08-24 17:10:57 - valence lexicon length: 7864
2022-08-24 17:10:57 - Number of rows: 265
2022-08-24 17:10:57 - dominance lexicon length: 7864
2022-08-24 17:10:57 - Number of rows: 265
2022-08-24 17:10:57 - arousal lexicon length: 7864
2022-08-24 17:10:57 - Number of rows: 265
2022-08-24 17:10:58 - anger lexicon length: 7864
2022-08-24 17:10:58 - Number of rows: 265
2022-08-24 17:10:58 - anticipation lexicon length: 7864
2022-08-24 17:10:58 - Number of rows: 265
2022-08-24 17:10:58 - disgust lexicon length: 7864
2022-08-24 17:10:58 - Number of rows: 265
2022-08-24 17:10:58 - fear lexicon length: 7864
2022-08-24 17:10:58 - Number of rows: 265
2022-08-24 17:10:59 - joy lexicon length: 7864
2022-08-24 17:10:59 - Number of rows: 265
2022-08-24 17:10:59 - sadness lexicon length: 7864
2022-08-24 17:10:59 - Number of rows: 265
2022-08-24 17:10:59 - surprise lexicon length: 7864
2022-08-24 17:10:59 - Number of rows: 265
2022-08-24 17:11:00 - trust lexicon length: 7864
2022-08-24 17:11:00 - Number of rows: 265
