2022-08-20 21:52:31 - valence lexicon length: 7864
2022-08-20 21:52:31 - Number of rows: 434
2022-08-20 21:52:31 - dominance lexicon length: 7864
2022-08-20 21:52:31 - Number of rows: 434
2022-08-20 21:52:32 - arousal lexicon length: 7864
2022-08-20 21:52:32 - Number of rows: 434
2022-08-20 21:52:33 - anger lexicon length: 7864
2022-08-20 21:52:33 - Number of rows: 434
2022-08-20 21:52:34 - anticipation lexicon length: 7864
2022-08-20 21:52:34 - Number of rows: 434
2022-08-20 21:52:35 - disgust lexicon length: 7864
2022-08-20 21:52:35 - Number of rows: 434
2022-08-20 21:52:35 - fear lexicon length: 7864
2022-08-20 21:52:35 - Number of rows: 434
2022-08-20 21:52:36 - joy lexicon length: 7864
2022-08-20 21:52:36 - Number of rows: 434
2022-08-20 21:52:37 - sadness lexicon length: 7864
2022-08-20 21:52:37 - Number of rows: 434
2022-08-20 21:52:38 - surprise lexicon length: 7864
2022-08-20 21:52:38 - Number of rows: 434
2022-08-20 21:52:38 - trust lexicon length: 7864
2022-08-20 21:52:38 - Number of rows: 434
2022-08-24 17:10:34 - valence lexicon length: 7864
2022-08-24 17:10:34 - Number of rows: 434
2022-08-24 17:10:35 - dominance lexicon length: 7864
2022-08-24 17:10:35 - Number of rows: 434
2022-08-24 17:10:36 - arousal lexicon length: 7864
2022-08-24 17:10:36 - Number of rows: 434
2022-08-24 17:10:36 - anger lexicon length: 7864
2022-08-24 17:10:36 - Number of rows: 434
2022-08-24 17:10:37 - anticipation lexicon length: 7864
2022-08-24 17:10:37 - Number of rows: 434
2022-08-24 17:10:38 - disgust lexicon length: 7864
2022-08-24 17:10:38 - Number of rows: 434
2022-08-24 17:10:38 - fear lexicon length: 7864
2022-08-24 17:10:38 - Number of rows: 434
2022-08-24 17:10:39 - joy lexicon length: 7864
2022-08-24 17:10:39 - Number of rows: 434
2022-08-24 17:10:39 - sadness lexicon length: 7864
2022-08-24 17:10:39 - Number of rows: 434
2022-08-24 17:10:40 - surprise lexicon length: 7864
2022-08-24 17:10:40 - Number of rows: 434
2022-08-24 17:10:41 - trust lexicon length: 7864
2022-08-24 17:10:41 - Number of rows: 434
