Unnamed: 0,drama_type,speaker,sex,job,job_category,social_class,text,progress,short_name,numTokens,numLexTokens,avgLexVal,lexRatio
0,comedy,Amalie Schneider,F,,,,"
          
Amelie :

          
(das Buch bei Seite legend, erhebt sich und dehnt die Glieder)

          
Oh — isch diß awwer e scheeni Gschicht gsin, — numme schad, daß sie sich nit kreijt hann — zue schad! — Die arm Gab- rielle — — 
(sieht auf die Uhr, erschrocken)
 O jr- rum! — schun so spoot? — Un ich bin noch nit emole mol coiffiert! — Sälmel! — Sälmel! 
(schellt.)

        
",0,hahn-jungi-madamme,86,7,0.0,0.08139534883720931
1,comedy,Sälmel,F,,,,"
          
Sälmel:

          
Was beliebt, Madame?

        
",0,hahn-jungi-madamme,7,2,0.0,0.2857142857142857
3,comedy,Sälmel,F,,,,"
          
Sälmel:

          
Ei, sie isch jo do gewänn, awwer d'Madame hett jo gseit, sie soll numme widder gehn, sie hätt kein Zitt.

        
",0,hahn-jungi-madamme,28,2,0.0,0.07142857142857142
4,comedy,Amalie Schneider,F,,,,"
          
Amalie:

          
Herje, ja — ‘s isch jo wohr — och mit däre dumme Gschicht — wie ischs mit'm Esse, Sälmel? jetz isch's dreiviertel uff Zwelf!

        
",1,hahn-jungi-madamme,32,4,0.0,0.125
5,comedy,Sälmel,F,,,,"
          
Sälmel:

          
Ich mein ‘s Rindfleisch wurd nem weich, wenn‘s schun so spoot isch — ich hab's erscht vor ‘re halwe Stund in de Hafe gemacht —

        
",1,hahn-jungi-madamme,30,5,0.0,0.16666666666666666
7,comedy,Sälmel,F,,,,"
          
Sälmel:

          
Ei jo, d’Madame hett jo gseit, sie bsorgt‘s — I hab halt d‘r Gang un d'Stay gebutzt, ‘s isch doch Samschdeu —

        
",1,hahn-jungi-madamme,30,3,0.0,0.1
8,comedy,Amalie Schneider,F,,,,"
          
Amelie:

          
Herrjeses — haw ich awwer jetz d‘Zitt versümt — in ‘re Stund wurd‘s Rindfleisch nit weich, hein?

        
",2,hahn-jungi-madamme,23,2,0.0,0.08695652173913043
9,comedy,Sälmel,F,,,,"
          
Sälmel:

          
Ich glöub nit, Madame!

        
",2,hahn-jungi-madamme,8,1,0.0,0.125
12,comedy,Amalie Schneider,F,,,,"
          
Amelie:

          
Dräje Sie de Gas guet uff, daß es tichtig kocht, villicht packt's es noch — ah! — warte Sie mol — ich hab schun ghört, wenn m‘r Süd an‘s Gemues macht, wurd's schneller weich, — wenn m‘r e bissel an d‘Supp mache dät — ich mein m'r dät's nit schmecke — daß ‘s Fleisch weich dät wäre —

          

		
",3,hahn-jungi-madamme,71,11,0.830420319458882,0.15492957746478872
13,comedy,Sälmel,F,,,,"
          
Sälmel :

          
(kichernd)

          
I weiß nit!

        
",3,hahn-jungi-madamme,9,1,0.0,0.1111111111111111
14,comedy,Amalie Schneider,F,,,,"
          
Amelie:

          
Scheele Si jetz emol e Will d‘Grum- beere — ich kumm d‘rno.

        
",3,hahn-jungi-madamme,18,1,0.0,0.05555555555555555
15,comedy,Sälmel,F,,,,"
          
Sälmel:

          
Ja, Madame! 
(auf die Seite)
 Deß wurd m'r widder e natts Gfraß gann.

        
",3,hahn-jungi-madamme,20,3,0.0,0.15
17,comedy,Sälmel,F,,,,"
          
Sälmel:

          
Ich mein d’Grumbeere hänn noch e bissel Zitt —ich könnt noch gscwind s‘Schloofzim- mer mache — d‘Madame hett‘s hitt doch nit ge- maacht.

        
",4,hahn-jungi-madamme,33,3,0.0,0.09090909090909091
18,comedy,Amalie Schneider,F,,,,"
          
Amelie :

          
(auffahrend)

          
Was geht deß Sie an? — 
einlenkend)
 Awwer — doch — mache Sie's noch gschwind 
(Sälmel ab nach links)
 — ich bin doch arig spoot d‘ran hitt — numme wärje däre dumme Gschicht — och, un sie isch doch e so scheen gsin. — ‘s isch au ebs mit däre dumme Ko- cherei alle Daa — — 
(es klingelt)
 —Uh! — was isch jetz? — Ich glaub ich krej noch visite. — Die kummt m‘r jetz grad recht — Sälmel — gehn Sie doch — ‘s hett gschellt 
(Sälmel kommt von links und geht einlig ab durch die Mitte)
 ah! diß isch ‘s Fanny — —

        
",4,hahn-jungi-madamme,129,8,0.41103398315524536,0.06201550387596899
20,comedy,Josefine Martel,F,,,,"
          
Josefine:

          
Guete Morje!

        
",5,hahn-jungi-madamme,5,2,0.0,0.4
21,comedy,Fanny Müschler,F,,,,"
          
Fanny:

          
M'r sin grad do verbei gange, henn m‘r dir welle bonjour sawe, so en passant —

        
",5,hahn-jungi-madamme,20,1,3.288271865241963,0.05
23,comedy,Josefine Martel,F,,,,"
          
Josefine:

          
O diß macht nix! - bi mir isch‘s als manchmol au nit andersch — awwer wenn ich emol verhirot bin — —

        
",5,hahn-jungi-madamme,26,2,2.766963233730005,0.07692307692307693
24,comedy,Fanny Müschler,F,,,,"
          
Fanny:

          
Isch's d'r nit guet, daß de d‘Hoor erab hänke hesch?

        
",6,hahn-jungi-madamme,16,3,1.26367537240469,0.1875
25,comedy,Amalie Schneider,F,,,,"
          
Amelie:

          
Nan — deß heißt — ja ich hab e bissel Kopfweh —

        
",6,hahn-jungi-madamme,14,1,0.0,0.07142857142857142
26,comedy,Josefine Martel,F,,,,"
          
Josefine:

          
A noch? — kenn Wunder, wenn m’r e so schaffe mueß. Sie hann numme an Maid'l gelte Sie?
       
		  

        
",6,hahn-jungi-madamme,24,3,0.95974141482509,0.125
27,comedy,Amalie Schneider,F,,,,"
          
Amelie:

          
Jo, unn mit dem isch nit viel los.

        
",6,hahn-jungi-madamme,12,1,1.8683205167871937,0.08333333333333333
28,comedy,Josefine Martel,F,,,,"
          
Josefine:

          
Minni Schweschter hett jetz zwei unn wenn ich emol verhirot bin — —

        
",7,hahn-jungi-madamme,15,1,2.4858747182763565,0.06666666666666667
29,comedy,Fanny Müschler,F,,,,"
          
Fanny:

          
Jo, ‘s isch wohr, fer was soll m‘r sich so ploeje uff d’r Welt? Ich bin noch jung an Johre und will mich noch amüsiere — Do — ich hab dich froeje welle, bisch au mit vun d'r Partie? M‘r welle morje früej uff d‘Hohkenigsburrj.

        
",7,hahn-jungi-madamme,54,7,0.0,0.12962962962962962
31,comedy,Fanny Müschler,F,,,,"
          
Fanny:

          
Dü? Ich froej net lang, — ich saa als, ivh geh — un wenn‘r nit mit will, soll'r miran d’heim bliewe!

        
",7,hahn-jungi-madamme,29,1,0.0,0.034482758620689655
32,comedy,Josefine Martel,F,,,,"
          
Josefine:

          
Wenn ich emol verhirot bin, ich mach's grad e so —

        
",8,hahn-jungi-madamme,15,2,2.88707329175916,0.13333333333333333
33,comedy,Sälmel,F,,,,"
          
Sälmel:

          
(streckt den Kopf zur Tür herein, mit etwas gedämpfter Stimme)
: Madame! — Soll i jetz d‘Süd an d’Supp mache?

        
",8,hahn-jungi-madamme,29,1,0.0,0.034482758620689655
34,comedy,Amalie Schneider,F,,,,"
          
Amelie:

          
Jo, macht Sie‘s numme — Sie sieht jo, ich hab jetz nitt derzit. — ‘s isch ambetant, wenn m‘r sich um alles okkupiere mueß.

        
",8,hahn-jungi-madamme,32,1,3.048051749183654,0.03125
35,comedy,Fanny Müschler,F,,,,"
          
Fanny:

          
Ich hab jetz e Maid'l, wo koche kann

        
",8,hahn-jungi-madamme,11,2,0.0,0.18181818181818182
36,comedy,Josefine Martel,F,,,,"
          
Josefine:

          
Ja, un e femme de chambre —

        
",9,hahn-jungi-madamme,10,1,0.0,0.1
37,comedy,Amalie Schneider,F,,,,"
          
Amelie:

          
Ja, wenn m'rs e so mache kennt, — awwer d'r Fernand —

        
",9,hahn-jungi-madamme,16,1,0.0,0.0625
38,comedy,Fanny Müschler,F,,,,"
          
Fanny:

          
Geh, Plän do! — Was versteht denn e Mann do dervun? Ich stell an, wenne daß ich will, un minner Mann sell‘s bezahle, do d’rfer isch er do. Ich hab mich doch net ghirote, fer in d‘Kich zu stehn, de ganze Daa ‘s dät m'r infalle.

        
",9,hahn-jungi-madamme,61,6,0.0,0.09836065573770492
39,comedy,Amalie Schneider,F,,,,"
          
Amelie:

          
Ja, awwer —

        
",9,hahn-jungi-madamme,6,1,0.0,0.16666666666666666
40,comedy,Josefine Martel,F,,,,"
          
Josefine:

          
Wenn ich emol verhirot bin, ich will au nit sälwer koche.

        
",10,hahn-jungi-madamme,15,2,1.2429373591381783,0.13333333333333333
41,comedy,Sälmel,F,,,,"
          
Sälmel :

          
(wie oben)

          
Madame! ‘s isch noch kenn Grüens un nix an d'r Supp!

        
",10,hahn-jungi-madamme,19,1,0.0,0.05263157894736842
42,comedy,Amalie Schneider,F,,,,"
          
Amelie:

          
Ze macht Sie‘s doch dran, un macht Sie Gries nin!

        
",10,hahn-jungi-madamme,15,2,6.096103498367308,0.13333333333333333
43,comedy,Sälmel,F,,,,"
          
Sälmel:

          
‘s isch kener meh do; m‘r hann d’ganz Wuch Griessupp g‘hett, soll ich Riß drin mache?

          

        
",10,hahn-jungi-madamme,22,1,0.0,0.045454545454545456
44,comedy,Amalie Schneider,F,,,,"
          
Amelie:

          
Mintwäje! 
(Sälmel ab)
 — Awwer der wurd am End nimmi weivh?

        
",11,hahn-jungi-madamme,17,1,3.96982918530906,0.058823529411764705
45,comedy,Fanny Müschler,F,,,,"
          
Fanny:

          
Was lejt's d'ran. Er soll ne hart esse, dinner Mann, wenn‘r d‘r kein Köche an- schaffe will.

        
",11,hahn-jungi-madamme,26,2,1.372172752863679,0.07692307692307693
46,comedy,Amalie Schneider,F,,,,"
          
Amelie:

          
Jo, ‘s isch wohr; ich kennt m‘r jo au eini halte, ich bin jo au guet dotiert worre vun d‘heim!

        
",11,hahn-jungi-madamme,27,3,0.0,0.1111111111111111
47,comedy,Fanny Müschler,F,,,,"
          
Fanny:

          
Muesch numme nit so dumm sin. M‘r mueß de Mannslitt d‘Zähn zaje, sunsch danze sie eim uff d’r Nas erum. Iosefine: Minni Schwester hett ganz e recht. Wisse Sie — wenn ich emol verhirot bin, mach ich's grad e so.

        
",11,hahn-jungi-madamme,51,7,0.82487808335976,0.13725490196078433
48,comedy,Amalie Schneider,F,,,,"
          
Amelie:

          
Wannee welle Sie denn hirote, Ma- demoiselle Josefine?

        
",12,hahn-jungi-madamme,13,1,0.0,0.07692307692307693
49,comedy,Josefine Martel,F,,,,"
          
Josefine:

          
I weiß net, i mein, i, derf nimm so lang warte.

        
",12,hahn-jungi-madamme,17,3,0.8155803052433059,0.17647058823529413
50,comedy,Amalie Schneider,F,,,,"
          
Aelie:

          
(bei Seite)
: Deß mein i awwer a!

        
",12,hahn-jungi-madamme,13,1,0.0,0.07692307692307693
51,comedy,Fanny Müschler,F,,,,"
          
Fanny:

          
(spöttisch)
 ‘s Josefine gitt d‘Hoff- nung nit so ball uff!

        
",12,hahn-jungi-madamme,17,2,0.0,0.11764705882352941
52,comedy,Josefine Martel,F,,,,"
          
Josefine:

          
Jetz do, nit wohr, ein‘s hirot früej un‘s ander spoot! Ich hab jo noch Zitt, ich bin allewill erscht 38 Johr.

        
",13,hahn-jungi-madamme,30,5,1.5904417004603602,0.16666666666666666
53,comedy,Amalie Schneider,F,,,,"
          
Amelie :

          
(bei Seite)

          
Uija! Allewill noch?

        
",13,hahn-jungi-madamme,11,1,3.937816690776232,0.09090909090909091
54,comedy,Sälmel,F,,,,"
          
Sälmel :

          
(wie oben)

          
Madame!

        
",13,hahn-jungi-madamme,8,1,0.0,0.125
56,comedy,Sälmel,F,,,,"
          
Sälmel:

          
M‘r mueß jetz de Disch decke, un ich hab d‘Grumbeere no nit ferti g'scheelt.

        
",14,hahn-jungi-madamme,19,1,0.0,0.05263157894736842
57,comedy,Amalie Schneider,F,,,,"
          
Amelie:

          
Ze scheelt Sie sie, un dummelt Sie sich, ich deck derwillsch de Disch!

        
",14,hahn-jungi-madamme,18,1,3.3589243632403636,0.05555555555555555
59,comedy,Amalie Schneider,F,,,,"
          
Amelie:

          
Jo, jo, mintwäje!

        
",14,hahn-jungi-madamme,8,1,3.96982918530906,0.125
60,comedy,Fanny Müschler,F,,,,"
          
Fanny:

          
M'r inkommodiere dich numme, m'r welle gehn, dinner Mann wurd ball kumme.

        
",15,hahn-jungi-madamme,17,2,0.0,0.11764705882352941
62,comedy,Fanny Müschler,F,,,,"
          
Fanny:

          
O, diß het nix ze sawe. — Do — a ja, wie isch‘s mit morje? Mir fahre mit‘m vélo. Fahrsch jetz widder? Dü kannsch doch e so guet.

          

        
",15,hahn-jungi-madamme,39,3,0.0,0.07692307692307693
63,comedy,Amalie Schneider,F,,,,"
          
Amelie:

          
Jo, d’r Fernand will‘s nit han, er sieht‘s nit gern an de Wiebslit, saat'r —

        
",15,hahn-jungi-madamme,22,1,3.263550335073114,0.045454545454545456
65,comedy,Fanny Müschler,F,,,,"
          
Fanny:

          
Eh bien, merci!

        
",16,hahn-jungi-madamme,7,1,4.286763519798438,0.14285714285714285
66,comedy,Fanny Müschler,F,,,,"
          
Fanny:

          
Weisch, ich an dim Platz dät dinne Mann emol recht in d‘Schür nämme.

        
",16,hahn-jungi-madamme,18,2,0.0,0.1111111111111111
67,comedy,Josefine Martel,F,,,,"
          
Josefine:

          
Ich a, — ho jerum — wenn ich emol verhirot bin —

        
",16,hahn-jungi-madamme,15,1,2.4858747182763565,0.06666666666666667
68,comedy,Amalie Schneider,F,,,,"
          
Amelie:

          
Min Rad isch üwerhaupt ganz kapüt.

        
",17,hahn-jungi-madamme,9,2,0.0,0.2222222222222222
69,comedy,Fanny Müschler,F,,,,"
          
Fanny:

          
Lehn d‘r ein's, hörsch? — No treffe m‘r uns in Schlettstadt. Wenn dinner Mann nit will, kummsch allan. —

        
",17,hahn-jungi-madamme,27,2,0.0,0.07407407407407407
70,comedy,Amalie Schneider,F,,,,"
          
Amelie:

          
I will emol sehn. Weisch was, i schick d‘r ‘s Sälmel fer ze sawe wie oder wenn.

        
",17,hahn-jungi-madamme,22,1,0.0,0.045454545454545456
71,comedy,Fanny Müschler,F,,,,"
          
Fanny:

          
Guet, guet! Kumm, Finnel, m‘r gehn. — Au revoir, Amélie — loß di numme nit unterkreje vun dim Mann, mach, daß du Meischter wursch, uffträte, daß'r Reschpekt krejt vor d'r. Josfine: Nadierlich, ich dät's au e so mache — O jerum, wenn ich emol verhirot bin —

        
",17,hahn-jungi-madamme,64,6,0.4143124530460594,0.09375
72,comedy,Amalie Schneider,F,,,,"
          
Amelie:

          
Enfin, ich will sehn, au revoir — bon appétit. Fanny, Josefine: Merci, pareillement!

        
",18,hahn-jungi-madamme,22,1,0.0,0.045454545454545456
75,comedy,Amalie Schneider,F,,,,"
          
Amelie:

          
Jetz heißt‘s awwer gedummelt! — Jerum, wie siehts do noch üß — awer ‘s Fanny het recht, ich bin viel zu guet, was brüch ich mich denn um alles ze kümmere — minni Mamme isch au allewill so einfältig un meint m'r mueßt de Mannslit um de Bart striche, — ‘s lejt m'r an, ich bin au nimmi so dumm —

        
",18,hahn-jungi-madamme,70,6,1.439951931286388,0.08571428571428572
76,comedy,Sälmel,F,,,,"
          
Sälmel:

          
Madame, m'r hann jo gar kein Ripple fer an‘s Krütt, wie ich s'Rindfleisch g‘holt hab, sinn sie noch nit abkocht gsin.

          

        
",19,hahn-jungi-madamme,29,1,0.0,0.034482758620689655
77,comedy,Amalie Schneider,F,,,,"
          
Amelie:

          
Och du liewi Zitt, ze laaft Sie schnell!— sä! — do esch Geld! — Hett Sie d’Grum- beere uffgstellt?

        
",19,hahn-jungi-madamme,29,4,1.009452077572109,0.13793103448275862
78,comedy,Sälmel,F,,,,"
          
Sälmel:

          
Grad haw i's welle mache!

        
",19,hahn-jungi-madamme,9,1,3.288271865241963,0.1111111111111111
79,comedy,Amalie Schneider,F,,,,"
          
Amelie:

          
Ze geht Sie numme, ich mach's, — 
(Sälmel ab)
 — och du gueter Himmel — wenn ich numme gschtrählt wär — 
(es schellt)
 verflixt noch e mol — do kummt‘r — ho — was lejt's mir dran — ich mach‘s a wie's Fanny — numme nit unter- kreje lonn —

        
",19,hahn-jungi-madamme,63,5,0.8860446147367069,0.07936507936507936
80,comedy,Fernand Schneider,M,,,,"
          
Fernand:

          
Guete Daa!

        
",20,hahn-jungi-madamme,5,1,0.0,0.2
82,comedy,Fernand Schneider,M,,,,"
          
Fernand:

          
Hesch visite ghett? I hab d‘Ma- dame Müschler un ihri Schweschter drunte ange- troffe.

        
",20,hahn-jungi-madamme,21,1,2.0559964073926773,0.047619047619047616
83,comedy,Amalie Schneider,F,,,,"
          
Amelie:

          
Ja, sie senn do g'sinn —

        
",20,hahn-jungi-madamme,9,1,0.0,0.1111111111111111
86,comedy,Fernand Schneider,M,,,,"
          
Fernand:

          
Bisch so flissig g'sin, daß de noch kein Zitt hesch ghett, fer dich ze schträhle?

        
",21,hahn-jungi-madamme,20,1,0.0,0.05
89,comedy,Amalie Schneider,F,,,,"
          
Amelie:

          
Ja, awwer jetz will i mi noch schnell frisiere, derwill‘sch isch‘s Esse ferti.

        
",22,hahn-jungi-madamme,19,2,0.0,0.10526315789473684
90,comedy,Fernand Schneider,M,,,,"
          
Fernand:

          
Dummel di numme, d'r Maawe heukt m'r bis uff d‘Schueh 
(Amelie ab, läßt die Tür offen, Fernand setzt sich an den Tisch)
. Was riech i denn? schun widder Sürkrütt? Schun ‘s dritt mol die Wuch, jetz, mitte im Summer! Ich glaab dü hesch Ständel voll erjets per rencontre kaaft! — — 
(Seufzt und greift nach der Zeitung)
 O du liewer Himmelbabbe, — wos esch deß fer e mizère! Do loßt m'r sich wie e Schoof an de Eh- pfoschte binde un denkt m‘r krejt guets Fueder, d'Schwejermamme macht eim‘s Müll wässerig, was ihri Doochter alles gelehrt hett un alles koche kan, un jetz kummt d‘ganz Wuch ken gschejti Supp uff de Disch. — Nix als Maggi, mueß m‘r dran schütte — — un als Maggi, un wenn ze viel dran isch, isch sie erscht e rächt nix nutz.

          

		
",22,hahn-jungi-madamme,169,15,0.4889876845988061,0.08875739644970414
92,comedy,Fernand Schneider,M,,,,"
          
Fernand:

          
Was isch, Sälmel, brav gekocht? Gitts widder Griessupp, fer d’Wuch voll ze mache?

        
",23,hahn-jungi-madamme,21,2,0.0,0.09523809523809523
93,comedy,Sälmel,F,,,,"
          
Sälmel:

          
Nän, hitt esch Riß drinne, awwer ich glöujb, ar esch nit racht weich.

        
",23,hahn-jungi-madamme,19,2,2.5177774465335876,0.10526315789473684
94,comedy,Fernand Schneider,M,,,,"
          
Fernand:

          
Ei, weiß d‘r Kücksel! Ihr hänn doch d‘r ganz morje Zitt fer ze koche.

        
",23,hahn-jungi-madamme,19,4,0.0,0.21052631578947367
95,comedy,Sälmel,F,,,,"
          
Sälmel:

          
Ich hab kenn Schuld, Harr! d‘Ma- dame weiß, daß i nit koche kann.

        
",23,hahn-jungi-madamme,21,3,0.6853321357975591,0.14285714285714285
96,comedy,Fernand Schneider,M,,,,"
          
Fernand:

          
Ei heilig nochemol, fer Riß koche ze lehre, brücht m‘r doch nit in d‘Kochschuel gehn?

        
",24,hahn-jungi-madamme,21,3,0.0,0.14285714285714285
97,comedy,Sälmel,F,,,,"
          
Sälmel :

          
(ärgelich)

          
Deß dät m'r jetz grad fahle, daß ech noch soll eruntergerisse wäre, — ech kann doch nit meh aß schaffe.

        
",24,hahn-jungi-madamme,28,2,1.6441359326209815,0.07142857142857142
98,comedy,Amalie Schneider,F,,,,"
          
Amelie :

          
(kehrt zurück)

          
Was isch denn los?

        
",24,hahn-jungi-madamme,11,1,1.8683205167871937,0.09090909090909091
99,comedy,Fernand Schneider,M,,,,"
          
Fernand:

          
Was wurd mir denn do fer e Supp uffgesehtellt, do luej e mol, grad d‘r ruei Riß —isch deß e Art, deß do? Esch deß e Art?

        
",24,hahn-jungi-madamme,35,1,3.288271865241963,0.02857142857142857
100,comedy,Amalie Schneider,F,,,,"
          
Amelie:

          
Brüel numme nit so! Was kann ich denn derfer, wenn der Riß nix nutz isch? (Sie spricht leise mit Sälmel, diese trägt die Suppe fort.

        
",25,hahn-jungi-madamme,33,1,0.0,0.030303030303030304
101,comedy,Fernand Schneider,M,,,,"
          
Fernand:

          
Ah so, — d'r Riß isch nix nutz — guet! guet! — guet! —

        
",25,hahn-jungi-madamme,20,3,0.0,0.15
105,comedy,Fernand Schneider,M,,,,"
          
Fernand:

          
A ja!

        
",26,hahn-jungi-madamme,5,1,0.0,0.2
106,comedy,Amalie Schneider,F,,,,"
          
Amelie:

          
Wenn s‘ Müschler‘s e Köche halte könne, kann ich a eini anstelle.

		  

        
",26,hahn-jungi-madamme,17,1,0.0,0.058823529411764705
107,comedy,Fernand Schneider,M,,,,"
          
Fernand :

          
(polternd)

          
Mintwaje, stell eini an, stell zwei an waje mir, — awwer jetz will ich ebs ze esse hann.

        
",26,hahn-jungi-madamme,27,3,1.4130482386752465,0.1111111111111111
108,comedy,Amalie Schneider,F,,,,"
          
Amelie :

          
(heftig)

          
Jo, krej'sch jo ebs, brüel numme nit so, ich bin doch nit daub!

        
",27,hahn-jungi-madamme,22,2,0.0,0.09090909090909091
109,comedy,Fernand Schneider,M,,,,"
          
Fernand:

          
Hör e mol, min Wiewel, schlag m‘r kein so Tonart an! Weisch, muesch nit meine, daß i einer vun dänne bin, wo sich vum e Wiebs- bild nunderdunke loßt —

        
",27,hahn-jungi-madamme,39,2,0.0,0.05128205128205128
110,comedy,Amalie Schneider,F,,,,"
          
Amelie:

          
Was isch denn do derbi, wenn i san, daß i nit daub bin? ‘s isch doch au wohr!

        
",27,hahn-jungi-madamme,24,1,0.0,0.041666666666666664
111,comedy,Fernand Schneider,M,,,,"
          
Fernand:

          
Wenn d'r Mann gschafft hett de ganze Morje un heim kummt mit me gsunde Appe- tit, un d‘Frau setz‘m kein anständige Supp vor, no brücht sie nit noch ‘s Müll uff ze risse, no hett sie sich hechstefalls ze-n-excüsiere.

        
",27,hahn-jungi-madamme,50,6,0.0,0.12
112,comedy,Amalie Schneider,F,,,,"
          
Amelie:

          
Un dü meinsch grad, dü kennsch e Schuehlumpe üß eim mache! Awwer, daß d'es weisch, ich bin grad so vill aß dü —

        
",28,hahn-jungi-madamme,30,2,6.576543730483926,0.06666666666666667
113,comedy,Fernand Schneider,M,,,,"
          
Fernand:

          
Ehein! Ehein! Zue schoen — s‘wurd immer schoener! — Ei nunde buckel noch emol — ich glaab, ich wurr hitt gschejt gemacht, hein?

        
",28,hahn-jungi-madamme,32,5,0.758205223442814,0.15625
114,comedy,Amalie Schneider,F,,,,"
          
Amelie:

          
Sej doch still jetz, ‘s Sälmel kummt. Sälmel 
(bringt die Suppe)
.

        
",28,hahn-jungi-madamme,18,1,0.0,0.05555555555555555
115,comedy,Fernand Schneider,M,,,,"
          
Fernand:

          
Was hann'r jetz gemacht?

        
",28,hahn-jungi-madamme,7,1,0.0,0.14285714285714285
116,comedy,Amalie Schneider,F,,,,"
          
Amelie:

          
Ich hab de Riß üß dr Supp mache lonn un Brod nin.

        
",29,hahn-jungi-madamme,15,1,1.0412754840527743,0.06666666666666667
117,comedy,Fernand Schneider,M,,,,"
          
Fernand:

          
Grad so Brod? Ungebäjts? Deß wurd m‘r ebs guet's sin. 
(Versucht die Suppe und fängt gleich an zu husten und zu spucken.)
 Was d‘r Kücksel isch denn in däre Supp — pfi Deiffel noch e mol!

        
",29,hahn-jungi-madamme,46,5,0.6576543730483926,0.10869565217391304
120,comedy,Fernand Schneider,M,,,,"
          
Fernand:

          
Was? Südwasser? — ich glaab ‘s Sälmel traamt! — hein? — Deß esch m‘r e schoe- ner Witz, wie kummen-ihr derzue, Süd an d‘Supp ze mache?

		  

        
",30,hahn-jungi-madamme,37,1,4.237780036751083,0.02702702702702703
121,comedy,Amalie Schneider,F,,,,"
          
Amelie:

          
Jo s' Sälmel bett ze vill genumme. Ich hab'm gsaat, es soll e bissel dran mache, daß ‘s Fleisch weich wurd — un zart.

        
",30,hahn-jungi-madamme,31,2,0.0,0.06451612903225806
122,comedy,Fernand Schneider,M,,,,"
          
Fernand:

          
Eh bien, — hett m‘r sin Daa des Leewens e so ebs g‘hört — — 
(Sälmel will das Rindfleisch bringen)
, nan, nan, deß Fleisch wurd schmecke, wie d'Supp. Numme nüß mit und bring Sie diß famose Sürkrütt. 
(Sälmel ab)
. Kannsch denn nix andersch‘s koche als allewill un allewill — och du liewer — — 
(Sälmel kommt mit Sauer- kraut und Rippchen, Fernand riecht etwas daran.)
 Deß isch jo schun widder angebrennt?

        
",30,hahn-jungi-madamme,93,6,3.946310188672916,0.06451612903225806
123,comedy,Sälmel,F,,,,"
          
Sälmel:

          
Ja— awwer, daß m'rs nit schmeckt, haw i a ganzer Wisch Peterle dran gemacht.

        
",30,hahn-jungi-madamme,20,2,0.0,0.1
126,comedy,Sälmel,F,,,,"
          
Sälmel:

          
Ha, ja, diß gitt doch e gueter G’schmack. Fernad: M'r dät awwer meine, m‘r isch do im e Narrehüß. Los mit dem Fueder, ‘s wurd am uewel, wenn m‘rs numme anloejt. —

        
",31,hahn-jungi-madamme,43,6,0.3113867527978656,0.13953488372093023
129,comedy,Sälmel,F,,,,"
          
Sälmel:

          
Sie leje noch ruej in d'r Schuessel drüsse —

        
",32,hahn-jungi-madamme,11,1,1.0466806114867124,0.09090909090909091
130,comedy,Fernand Schneider,M,,,,"
          
Fernand:

          
Jetz reicht's! — Jetz haw i genue! — Sälmel 
(trägt das Essen fort)
. Amelie 
(sitzt trotzig am Tisch, den Kopf in die Hand gestützt)
.

        
",32,hahn-jungi-madamme,36,1,0.0,0.027777777777777776
131,comedy,Fernand Schneider,M,,,,"
          
Fernand :

          
(polternd)

          
E Schand! E Sünd un e Schand so ebs! 
(nimmt den Hut)
 Sechs Wuche verhirot un mueß in‘s Restaurant esse gehn —

        
",32,hahn-jungi-madamme,32,4,0.6214686795690891,0.125
132,comedy,Amalie Schneider,F,,,,"
          
Amelie :

          
(weinerlich)

          
Ich hab doch Kopf- weh ghett!

        
",33,hahn-jungi-madamme,13,2,0.0,0.15384615384615385
133,comedy,Fernand Schneider,M,,,,"
          
Fernand:

          
Wäje dem hätt‘sch doch könnte e bissel uff's Esse uffbasse, — weisch — diß isch doch nit schön 
(Amelie weint)
 
(einlenkend)
 awer na — ich will's fer deß mol gelte lonn, will de Kopfweh hesch ghett, sorj numme jetz, daß i ebs bekumm. 
(Will sich auf die Chaiselongue setzen, da fällt das Buch herunter)
 Tiens,— luej do, e Gschichtebuech üß d'r Bibliothek — ah — deß isch dini Arweit gsinn hitt morje — deß isch dinn Kopfweh? 
(Wirft das Buch zornig auf den Tisch)
 Fi donc! schäm di numme! Schäm di!

         

		
",33,hahn-jungi-madamme,116,8,0.9067855008912197,0.06896551724137931
134,comedy,Amalie Schneider,F,,,,"
          
Amelie :

          
(trotzig)

          
eh los mich doch nit ab- kanzle, wie wenn ich e kleines Maidl wär.

        
",33,hahn-jungi-madamme,22,4,1.5387710091464077,0.18181818181818182
135,comedy,Fernand Schneider,M,,,,"
          
Fernand:

          
Nein, bi me kleine Maidl kann m'rs im Unverstand zuegänn, awwer dü bisch e verhiroti Frau!

        
",33,hahn-jungi-madamme,21,3,0.0,0.14285714285714285
136,comedy,Amalie Schneider,F,,,,"
          
Amelie:

          
Un ich loß mich awwer net schelte vun dir! Ich loß m'r nix sawe, daß de‘s weisch. ich hab mich nett verhirot, fuer in d‘Kich ze stehn de ganze Daa. Ich bin noch jung un will mich amüsiere. Morje lehn ich m‘r e vêlo un fahr uff Schlettstadt, un derno geh ich mit ‘s Müschlers uff d’Hohkenigsburj — un wenn dü. nit mit witt, kann‘sch miran d’heim bliewe!

        
",34,hahn-jungi-madamme,84,9,0.5321741220386601,0.10714285714285714
138,comedy,Amalie Schneider,F,,,,"
          
Amelie:

          
Ja!

        
",34,hahn-jungi-madamme,4,1,0.0,0.25
139,comedy,Fernand Schneider,M,,,,"
          
Fernand:

          
Guet! ze geh jetz numme glich, — geh, zej di an un mach dich heim zue dinnere Mueder. Saa‘schre, ich hätt dich gschickt, sie soll dich lehre, wie m'r sich uffzefuehre hett geje de Mann, un wie m‘r sich ze schicke hett als e gueti ménagère. — Verzähl'schre awwer au, was de m'r hitt gekocht hesch!

        
",34,hahn-jungi-madamme,69,7,0.0,0.10144927536231885
140,comedy,Amalie Schneider,F,,,,"
          
Amelie :

          
(weinerlich)

          
Guet! ich geh! — awwer ich kumm nit ender, als bis de mich widder holsch.

        
",35,hahn-jungi-madamme,24,3,0.0,0.125
141,comedy,Fernand Schneider,M,,,,"
          
Fernand:

          
Do kann‘sch awwer lang warte!

        
",35,hahn-jungi-madamme,8,2,1.223370457864959,0.25
142,comedy,Amalie Schneider,F,,,,"
          
Amelie:

          
Hesch mi nit gern! Hesch mi nie gern ghett, s'Geld welle'n‘r, un d‘Frau esch numme e Zuegab.

        
",35,hahn-jungi-madamme,25,3,4.351400446764152,0.12
143,comedy,Fernand Schneider,M,,,,"
          
Fernand:

          
Ja awer manchmol e recht schlechti.

        
",35,hahn-jungi-madamme,9,3,0.0,0.3333333333333333
145,comedy,Fernand Schneider,M,,,,"
          
Fernand:

          
Ja, — Hätt ich‘s numme gedohn, ze bekäm i uff‘s wenigscht ebs rechts ze esse — luej — deß Buech do sott m'r d‘r an de Kopf schmisse — du fülls Ding, dü!

          

		
",36,hahn-jungi-madamme,41,2,0.0,0.04878048780487805
146,comedy,Amalie Schneider,F,,,,"
          
Amelie:

          
Ah! Deß esch jetz ze vill 
(ab)
. Fernad: Naan, ze wenni! Geh numme! Geh zue din‘re Mueder! Sie wurd dich am erschte zuer raison bringe. Deß dät m'r noch fehle! Bi allem andre au noch so widderspenschtich uff ein mol! Do esch awwer neemand Schuld als em Al- fons Müschler sini Frau. Die wurd au sehn, wie witt aß sie kummt met ehre Sprueng. Em Alfons geht d‘Geduld au e mol üß. — Deß mueßt doch d'r Schinder sin! Hah, ha! — Nein, min Wiewele, — so kummsch dü mer nit! Dü muesch wisse, daß ich d’r Herr bin un daß ich d’Hose an b’halt. 
(Amelie kehrt zurück in Sommermantel und Hut)
. Aha! Schun geruescht?

        
",36,hahn-jungi-madamme,149,10,0.9588219650767918,0.06711409395973154
147,comedy,Amalie Schneider,F,,,,"
          
Amelie :

          
(weinerlich und doch trotzig)

          
Ja ich geh, — un dü kannsch lang warte, bis ich widder zue d’r kumm 
(a)
 schlägt draußen die Türe zu.

        
",36,hahn-jungi-madamme,34,6,0.40779015262165297,0.17647058823529413
148,comedy,Fernand Schneider,M,,,,"
          
Fernand:

          
C'est ca! — Sie saat eim net e mol adje — deß esch net uewel! — da — un jetzt selaat sie au noch Tuer zue, wie wenn ich im Un- recht wär. — Schoeni Üssichte — ja sechs Wuche verhirot un kummt m‘r e so 
(stützt den Kopf in die Hand)
. Heilig noch e mol! Un derbi fahrt m'r d'r Mawe im Büch erum, wie e Karoussel uff‘'m Meßti. — Sälmel! — — Sälmel!

        
",37,hahn-jungi-madamme,91,9,0.6314579729776466,0.0989010989010989
149,comedy,Sälmel,F,,,,"
          
Sälmel :

          
(mit vollen Backen kauend, kommt herein)

          
Jo, Harr!

        
",37,hahn-jungi-madamme,15,1,0.0,0.06666666666666667
151,comedy,Sälmel,F,,,,"
          
Sälmel:

          
Gebrätelti Grumbeere un Schwine- reppie. M'r mueß doch ebs asse, wenn m'r Hunger hett.

        
",37,hahn-jungi-madamme,20,1,0.0,0.05
154,comedy,Fernand Schneider,M,,,,"
          
Fernand:

          
Guet! guet! Bringt Sie m'r — u no bacht Sie m‘r hinterher e paar Eier — hört Sie?

        
",38,hahn-jungi-madamme,23,2,0.0,0.08695652173913043
155,comedy,Sälmel,F,,,,"
          
Sälmel:

          
Ja, Harr! — Sall kann i 
(ab)
.

        
",38,hahn-jungi-madamme,14,1,0.0,0.07142857142857142
156,comedy,Fernand Schneider,M,,,,"
          
Fernand:

          
Na, deß isch m'r liewer, als jetz noch in d‘Wirtschaft laufe — wenn mi jo ebber dät sehn — i mueßt mi ze dood schämme —

          

        
",39,hahn-jungi-madamme,31,2,0.0,0.06451612903225806
158,comedy,Fernand Schneider,M,,,,"
          
Fernand:

          
C'est ca, merci! Na, Grumbeere brätle, def kann Sie schun, wenn Sie sich hirot, hein?

        
",39,hahn-jungi-madamme,24,1,4.014391811525568,0.041666666666666664
159,comedy,Sälmel,F,,,,"
          
Sälmel:

          
Ja Harr! 
(geht kichernd hinaus; es schellt)
.

        
",39,hahn-jungi-madamme,14,2,0.0,0.14285714285714285
160,comedy,Fernand Schneider,M,,,,"
          
Fernand:

          
Geht Sie, luejt Sie mol, minni Frau hett sich villicht b‘sunne —

        
",40,hahn-jungi-madamme,16,1,0.0,0.0625
162,comedy,Alfons Müschler,M,,,,"
          
Alfons:

          
Was isch? Ganz allan am frouga- liere?

        
",40,hahn-jungi-madamme,12,2,0.0,0.16666666666666666
163,comedy,Fernand Schneider,M,,,,"
          
Fernand:

          
Ja — — minni Frau — hm — sie mueß ebs b'sorje — e Kommission — e pres- santi —

        
",40,hahn-jungi-madamme,23,1,0.0,0.043478260869565216
164,comedy,Alfons Müschler,M,,,,"
          
Alfons:

          
Ab, schint's geht's alle Wiewer egal — ich hab hit au allein g'esse!

        
",41,hahn-jungi-madamme,19,1,0.0,0.05263157894736842
165,comedy,Fernand Schneider,M,,,,"
          
Fernand:

          
Ja, hesch wenigstens ebs guet's kreit?

        
",41,hahn-jungi-madamme,11,2,0.0,0.18181818181818182
177,comedy,Fernand Schneider,M,,,,"
          
Fernand:

          
Hör, du mach‘sch farce.

        
",44,hahn-jungi-madamme,8,1,0.0,0.125
181,comedy,Fernand Schneider,M,,,,"
          
Fernand:

          
Geh, halt ‘s Müll!

        
",45,hahn-jungi-madamme,8,2,0.0,0.25
183,comedy,Fernand Schneider,M,,,,"
          
Fernand:

          
Mach doch kein Plän! Du mach‘sch m‘r jo langi Zähn.

        
",45,hahn-jungi-madamme,14,2,0.0,0.14285714285714285
185,comedy,Fernand Schneider,M,,,,"
          
Fernand:

          
Hör'sch no net uff?

        
",46,hahn-jungi-madamme,7,1,0.0,0.14285714285714285
193,comedy,Fernand Schneider,M,,,,"
          
Fernand:

          
Ja, wenn hesch dü deß g'esse — wannee hett dinni Frau des alles gekocht?

        
",48,hahn-jungi-madamme,18,1,0.0,0.05555555555555555
195,comedy,Fernand Schneider,M,,,,"
          
Fernand:

          
A ja, ihr hann jo jetz e Köche — un de bibele, hann‘r ‘s groß Loos gewunne?

        
",48,hahn-jungi-madamme,22,3,0.0,0.13636363636363635
196,comedy,Alfons Müschler,M,,,,"
          
Alfons:

          
Ja, Plän, unsri Köche kocht was're infallt, un d‘Madame geht spazeere!

        
",49,hahn-jungi-madamme,18,3,0.0,0.16666666666666666
198,comedy,Alfons Müschler,M,,,,"
          
Alfons:

          
Ja, was meinsch, was es hitt gänn hett?

        
",49,hahn-jungi-madamme,13,2,1.5635174231643088,0.15384615384615385
201,comedy,Fernand Schneider,M,,,,"
          
Fernand:

          
Net uewel, — isch denn hitt d’ganz Welt verruckt, un dinni Frau?

        
",50,hahn-jungi-madamme,18,2,0.0,0.1111111111111111
202,comedy,Alfons Müschler,M,,,,"
          
Alfons:

          
Die esch uewerhaupt net heime kumme; — awwer ich bin au nit füll g‘sinn, ich hab de Huet genumme un bin zuem Valentin.

        
",50,hahn-jungi-madamme,28,2,0.0,0.07142857142857142
204,comedy,Alfons Müschler,M,,,,"
          
Alfons:

          
Jo, was denk‘sch, deß esch ‘s Menü du jour g'sin, i hab m'r sunsch ebs gfetzt's gänn lonn fer e paar Fränklä.

        
",51,hahn-jungi-madamme,29,3,1.3894367767937972,0.10344827586206896
206,comedy,Alfons Müschler,M,,,,"
          
Alfons :

          
(mißmutig)

          
Awwer weisch, s‘ wurd m‘r ze dumm, deß Dings do — wenn minni Frau so witterscht macht, gitt‘s noch en-Unglueck — im beschte Fall e divorce — die meint glaw i, ich bin e Dottel!

          

        
",51,hahn-jungi-madamme,46,4,0.7620129372959135,0.08695652173913043
207,comedy,Fernand Schneider,M,,,,"
          
Fernand:

          
Weisch, deß wär m‘r noch egal — awwer wenn dinni Frau en min‘re Lectione gitt, säll haw i nit gern! —

        
",51,hahn-jungi-madamme,26,1,3.263550335073114,0.038461538461538464
208,comedy,Alfons Müschler,M,,,,"
          
Alfons:

          
Aha! Jetz wurd sich‘s finde, was dinni Madame fer Kommissione macht. —

        
",52,hahn-jungi-madamme,18,3,1.0160172497278845,0.16666666666666666
212,comedy,Alfons Müschler,M,,,,"
          
Alfons:

          
Hör uff! Ich krej Büchweh!

        
",53,hahn-jungi-madamme,9,2,0.0,0.2222222222222222
214,comedy,Alfons Müschler,M,,,,"
          
Alfons:

          
Ei Dunderwille! — Un was hesch jetz g'esse? Grumbeere un kalti Ripple? Deß esch saftig! Wo isch denn dinni Frau jetz?

        
",53,hahn-jungi-madamme,28,2,0.0,0.07142857142857142
215,comedy,Fernand Schneider,M,,,,"
          
Fernand:

          
Heim haw i sie gschickt, zue ehrer Mueder.

        
",53,hahn-jungi-madamme,12,2,0.0,0.16666666666666666
218,comedy,Alfons Müschler,M,,,,"
          
Alfons:

          
Hör, — ich glaab, mir sin angschmiert alli zwei — mir mueße erjets ebs anstelle — es mueß ebs gemacht wäre, daß uns‘ri Wiebslitt Mores kreje.

        
",54,hahn-jungi-madamme,32,3,0.0,0.09375
219,comedy,Fernand Schneider,M,,,,"
          
Fernand:

          
Nochgänn derf m'r do net, — däre Meinung bin ich a — was sölle m‘r mache? — Hett‘s nit g‘schellt — ewe?

        
",54,hahn-jungi-madamme,28,1,0.0,0.03571428571428571
220,comedy,Alfons Müschler,M,,,,"
          
Alfons:

          
Ich mein au, ich hab ebs g‘hört.

        
",55,hahn-jungi-madamme,11,1,0.0,0.09090909090909091
221,comedy,Sälmel,F,,,,"
          
Sälmel:

          
Do esch e Harr, wo mit'm Harre will redde!

        
",55,hahn-jungi-madamme,14,1,0.0,0.07142857142857142
222,comedy,Mayer,M,insurance_agent,intermediate_professionals,,"
          
Mayer :

          
(die Sprache ist etwas näselnd, jü- delnd)

          
Die Herren möchen entschuldischen, daß isvh hier eindringe —

        
",55,hahn-jungi-madamme,23,1,0.0,0.043478260869565216
223,comedy,Fernand Schneider,M,,,,"
          
Fernand:

          
Was beliebt Inne?

        
",55,hahn-jungi-madamme,6,1,0.0,0.16666666666666666
224,comedy,Mayer,M,insurance_agent,intermediate_professionals,,"
          
Mayer:

          
Geschtatten Sie, daß isch mich vor- telle. Ich haiße Mayer und bin Agent.

		  

        
",56,hahn-jungi-madamme,19,1,0.0,0.05263157894736842
226,comedy,Mayer,M,insurance_agent,intermediate_professionals,,"
          
Mayer:

          
Bin hierzu beliebt. - Ein guter Geschäfts- mann kann sich allen Verhältnissen anpassen. Kann ich Ihnen dienlich sein? Ich wollte mich erkundischen, ob die Herren vielleicht geneicht wären, ihr kostbares Leben zu versichern. Unsere Versicherung ist —

        
",56,hahn-jungi-madamme,46,8,0.0,0.17391304347826086
227,comedy,Fernand Schneider,M,,,,"
          
Fernand:

          
Nan, nan, gehn Sie numme, bi uns kumme Si hitt an d'letze.

        
",56,hahn-jungi-madamme,19,2,0.0,0.10526315789473684
229,comedy,Mayer,M,insurance_agent,intermediate_professionals,,"
          
Mayer:

          
Leider können auch wir den unan- genehmen Knochenmann nicht fernhalten, aber, wo er in einem Hause einkehrt, ist es immer ein großer Trost — — —

        
",57,hahn-jungi-madamme,32,2,0.0,0.0625
230,comedy,Fernand Schneider,M,,,,"
          
Fernand:

          
Ja, ja! m‘r wisse schun — bi uns isch nix zu mache.

        
",57,hahn-jungi-madamme,17,2,0.0,0.11764705882352941
232,comedy,Mayer,M,insurance_agent,intermediate_professionals,,"
          
Mayer:

          
Ach so, bedaure, — aber vielleicht haben Sie sonst jemand in der Verwandtschaft?

        
",58,hahn-jungi-madamme,18,3,0.0,0.16666666666666666
233,comedy,Fernand Schneider,M,,,,"
          
Fernand:

          
Nan, nan, nan lon Sie uns numme in Ruej!

        
",58,hahn-jungi-madamme,14,1,1.2955863666573342,0.07142857142857142
234,comedy,Mayer,M,insurance_agent,intermediate_professionals,,"
          
Mayer:

          
Nun, wenn es damit nischts ist, wollen die Herren vielleicht einen schönen billichen Anzug kaufen? Sehen Sie sisch doch mal die herr- lischen Muster an, alles prima Ware! Und fabel- haft billisch. 
(Zieht einen ganz langen Karton mit Stoffmustern aus der Ledertasche.)
 Fernand und Alfons 
(lachen)
.

        
",58,hahn-jungi-madamme,62,9,0.38222279782611,0.14516129032258066
235,comedy,Mayer,M,insurance_agent,intermediate_professionals,,"
          
Mayer:

          
Nun ja, heutzutage ist der Ge- schäftsmann am besten daran, der sich nicht auf einen Gegenstand versteift. — Ich bin auch Hei- ratsvermittler. Wenn einer der Herren sich den Ehehimmel erschließen will, sehen Sie dieser herr- liche Damenflor. 
(Dreht den Karton um, und man erblickt ebenso viele Damen- und Herrenbilder, als auf der anderen Seite Stoffmuster waren.)
 In je- dem Alter, von jeder Farbe 
(in einem Atem, wie ein Ausrufer)
, sehwarze, braune, rote, blonde, gut- mütige, interessante, elegante Erscheinungen, gute Hausmütterchen, reiche Waisen, alles wie man es wünscht, für Kaufleute und Beamte, Witwer ohne und mit Kinder nicht ausgeschlossen.

          

		
",58,hahn-jungi-madamme,135,15,0.3863976622535012,0.1111111111111111
236,comedy,Fernand Schneider,M,,,,"
          
Fernand :

          
(lachend)

          
Gänn Sie sich wit- tersch kein Mueij —

        
",59,hahn-jungi-madamme,14,2,1.5635174231643088,0.14285714285714285
237,comedy,Alfons Müschler,M,,,,"
          
Alfons :

          
(lachend)

          
Mir sinn schun alli zwei verwitscht worre, schun drei Monet

        
",59,hahn-jungi-madamme,16,1,0.0,0.0625
238,comedy,Fernand Schneider,M,,,,"
          
Fernand :

          
(lachend)

          
Ja, leider Gottes schun sechs Wuche!

        
",59,hahn-jungi-madamme,13,3,0.0,0.23076923076923078
239,comedy,Mayer,M,insurance_agent,intermediate_professionals,,"
          
Mayer:

          
Ach! Also quasi noch in den Honig- wochen? Nun, dafür kann isch Ihnen einen Of- ferte für ausgezeichneten Waldhonig machen 
(zeigt ein Muster)
 nur 90 Cent das Pfund.

        
",59,hahn-jungi-madamme,38,2,0.0,0.05263157894736842
240,comedy,Fernand Schneider,M,,,,"
          
Fernand:

          
E heilig noch e mool! Deß esche Gschäftsmann.

        
",60,hahn-jungi-madamme,12,1,0.0,0.08333333333333333
241,comedy,Alfons Müschler,M,,,,"
          
Alfons:

          
Wisse Sie, — mit hann de Hunni schun lang satt.

        
",60,hahn-jungi-madamme,14,2,0.0,0.14285714285714285
242,comedy,Alfons Müschler,M,,,,"
          
Alfons:

          
Ja unseri Fraue gänn uns anders als Hunni ze schlecke.

        
",60,hahn-jungi-madamme,13,4,0.7817587115821544,0.3076923076923077
243,comedy,Mayer,M,insurance_agent,intermediate_professionals,,"
          
Mayer:

          
Ei, da haben Sie wohl schon ein Haar in der Butter gefunden? — Na, da empfehle ich Ihnen die neueste Hausbuttermaschine 
(zeigt einen Prospekt)
, da kommt so etwas nicht vor. In einer Viertelstunde die feinste Tafelbutter.

        
",60,hahn-jungi-madamme,46,2,0.0,0.043478260869565216
245,comedy,Alfons Müschler,M,,,,"
          
Alfons:

          
Unseri Wiebslitt solle uns numme sunsch ebs Guets uff d‘Tafel. bringe.

        
",61,hahn-jungi-madamme,16,1,0.0,0.0625
246,comedy,Mayer,M,insurance_agent,intermediate_professionals,,"
          
Mayer:

          
Ganz recht, sehen Sie, kaufen Sie Ihrer Frau Gemahlin die berühmte Kochkiste 
(zeigt einen Prospekt)
, die feinste Suppe, den schmackhaftetsten Braten, die leckerste Sauce er- reicht die Hausfrau, ohne Feuerung. —

        
",61,hahn-jungi-madamme,43,2,0.0,0.046511627906976744
247,comedy,Fernand Schneider,M,,,,"
          
Fernand :

          
(aufgebracht)

          
Ei heilig noch e mol! Gehn Sie doch uff Belzbummre mit Ihrer Kochkischt.

        
",61,hahn-jungi-madamme,20,2,0.0,0.1
248,comedy,Alfons Müschler,M,,,,"
          
Alfons:

          
Doch, daß unseri Madamme noch meh füllenze könne!

        
",62,hahn-jungi-madamme,12,1,0.0,0.08333333333333333
249,comedy,Mayer,M,insurance_agent,intermediate_professionals,,"
          
Mayer:

          
Es scheint, die Herren sind nicht gut gelaunt. Kosten Sie doch mal die Probe von dem köstlichen Champagner, Veux Cliquot, Imitation aber fein, die ich hier bei mir führe 
(schenkte aus einem kleinen Fläschchen in ein Sektglas)
. Wie das perlt und braust, einige Tropfen heben die Lebensgeister und die Stimmung, kosten Sie, ausgezeichnetes Fabrikat, nur 10 Frcs. die Flasche. 
(Schaumwein ist leicht mit Brausepulver herzustellen. Anm. des Verf.)

          

		
",62,hahn-jungi-madamme,89,10,1.1717717089570765,0.11235955056179775
251,comedy,Mayer,M,insurance_agent,intermediate_professionals,,"
          
Mayer:

          
Wie denn, das werden Sie doch nischt verachten. —

        
",62,hahn-jungi-madamme,13,1,0.0,0.07692307692307693
252,comedy,Alfons Müschler,M,,,,"
          
Alfons:

          
Nan, awwer höre Sie, Sie sin e Al- lerweltsmensch un hänn fer alles e Mittele.

        
",63,hahn-jungi-madamme,21,1,0.0,0.047619047619047616
253,comedy,Mayer,M,insurance_agent,intermediate_professionals,,"
          
Mayer:

          
Ja, isch bin Geschäftsmann, voilà tout.

        
",63,hahn-jungi-madamme,11,1,0.0,0.09090909090909091
254,comedy,Fernand Schneider,M,,,,"
          
Fernand:

          
Ich glab, dü witt mit'm anbendle?

        
",63,hahn-jungi-madamme,11,1,0.0,0.09090909090909091
255,comedy,Alfons Müschler,M,,,,"
          
Alfons:

          
Weisch, ich mein er kennt uns vil- licht e Rot gänn.

        
",63,hahn-jungi-madamme,16,4,1.7106971425348005,0.25
256,comedy,Fernand Schneider,M,,,,"
          
Fernand :

          
(zuckt die Achseln)

          
Halt liewer ‘s Müll.

        
",64,hahn-jungi-madamme,12,3,0.0,0.25
257,comedy,Alfons Müschler,M,,,,"
          
Alfons :

          
(schüttelt den Kopf)

          
Höre Sie, Herr Mayer, was däte Sie anfange mit re Frau, wo de ganze Morje spaziere geh, d'Mägd d’heim hüse loost, daß wenn d‘r Mann heim kummt, er Grum- beeresalat un Groschewürschtle vorgstellt krejt.

        
",64,hahn-jungi-madamme,51,5,0.0,0.09803921568627451
258,comedy,Fernand Schneider,M,,,,"
          
Fernand :

          
(wird erregt)

          
Oder wo de ganze Samschdaa morje met Romanelese zuebringt, un wenn d‘r Mann heim kummt, soll‘r Südwasser fer Supp esse un als Gemues angebrennt Sürkrütt mit Peterle dran?

        
",64,hahn-jungi-madamme,37,4,0.0,0.10810810810810811
259,comedy,Mayer,M,insurance_agent,intermediate_professionals,,"
          
Mayer :

          
(lächelnd)

          
Verzeihen Sie, aber wenn das meine Frau wäre, isch glaube, isch würde ihr nur ein ganz klein wenig 
(macht eine bezeichnende Handbewegung)
 — flattieren.

        
",64,hahn-jungi-madamme,35,8,0.9107289732418421,0.22857142857142856
261,comedy,Alfons Müschler,M,,,,"
          
Alfons:

          
Mit zwei Fischt möcht m'r jo als manchmol drin schlawe, ‘s esch wohr!

        
",65,hahn-jungi-madamme,17,2,0.0,0.11764705882352941
262,comedy,Fernand Schneider,M,,,,"
          
Fernand:

          
Wenn Sie kein anders Mittel wisse?

        
",65,hahn-jungi-madamme,9,2,0.0,0.2222222222222222
263,comedy,Mayer,M,insurance_agent,intermediate_professionals,,"
          
Mayer:

          
Ich wüßte eines, wenn die Herren sich könnten für acht Tage frei machen?

        
",65,hahn-jungi-madamme,17,2,0.0,0.11764705882352941
266,comedy,Mayer,M,insurance_agent,intermediate_professionals,,"
          
Mayer:

          
Wir haben hier ein famoses Reise- büreau, ich stehe damit in geschäftlicher Verbindung. Alfons und Ferdnand: Ehein! Hm!

        
",66,hahn-jungi-madamme,26,2,1.6466073034364146,0.07692307692307693
267,comedy,Mayer,M,insurance_agent,intermediate_professionals,,"
          
Mayer:

          
Lassen Sie sich einschreiben zur Teilnahme an der nächsten Reisegesellschaft, die nach Paris geht und Sie verleben dort 8 herrliche Tage für nur 500 Francs.

          

		
",66,hahn-jungi-madamme,29,2,0.0,0.06896551724137931
268,comedy,Alfons Müschler,M,,,,"
          
Alfons:

          
Ja und derno?

        
",67,hahn-jungi-madamme,6,1,0.0,0.16666666666666666
270,comedy,Mayer,M,insurance_agent,intermediate_professionals,,"
          
Mayer:

          
Von Paris aus schreiben Sie an Ihre Frauen, daß Sie sich daselbst in das Dorado der Vergnüchungen gestürzt hätten, um sisch zu ent- schädischen für die Unannehmlischkeiten, die sie Ihnen bereitet hätten, und daß Sie nischt eher zu- rückkehren, als bis Ihnen das feierlichste Verspre- chen abgegeben wird, daß künftischhin von eigener geschulter Hand gekocht wird, und es überhaupt im Haushalt wie auf Schienen geht. —

        
",67,hahn-jungi-madamme,79,1,0.0,0.012658227848101266
273,comedy,Mayer,M,insurance_agent,intermediate_professionals,,"
          
Mayer:

          
So viel isch die Weiber kenne, kri- chen sie‘s mit der Angst, und wenn Sie überdies das verfüschbare Geld mitnehmen, so werden Sie schon in den ersten Tagen mit Briefen, Bitten und Verspreschungen überhäuft.

        
",68,hahn-jungi-madamme,43,3,0.0,0.06976744186046512
274,comedy,Fernand Schneider,M,,,,"
          
Fernand:

          
Ja, awwer wenn sie no d‘Ver- spreche nit halte?

        
",68,hahn-jungi-madamme,15,2,0.0,0.13333333333333333
275,comedy,Mayer,M,insurance_agent,intermediate_professionals,,"
          
Mayer:

          
Keine Angst! Im Wiederholungs- falle hilft eine einfache Drohung und überhaupt müssen Sie im Briefe an Ihre Frauen die dortiche Vergnüchungen recht anschaulich beschreiben und die Übertreibungsfarbe dabei tüschtisch auftragen, das wirkt Wunder, sag isch Ihnen.

        
",68,hahn-jungi-madamme,43,6,0.0,0.13953488372093023
276,comedy,Alfons Müschler,M,,,,"
          
Alfons :

          
(freudig triumphierend)

          
Guet! Guet! Was saasch dü derzue?

        
",69,hahn-jungi-madamme,15,4,0.984454172694058,0.26666666666666666
278,comedy,Mayer,M,insurance_agent,intermediate_professionals,,"
          
Mayer:

          
Sie werden wohl kaum einen bes- seren Auswesch finden, um die Frauen gründlich zu kurrieren. Ueberlechen Sie, aber rasch, denn Sie müßten eventuell noch heute mit dem Nacht- zuge reisen.

        
",69,hahn-jungi-madamme,39,4,0.0,0.10256410256410256
281,comedy,Mayer,M,insurance_agent,intermediate_professionals,,"
          
Mayer:

          
Isch werde einstweilen den Nach- barhäusern meinen Besuch machen und in kurzer Zeit bin isch zurück und leche Ihnen das Reisepro- gramm vor.

		  

        
",70,hahn-jungi-madamme,28,3,1.0010564755824902,0.10714285714285714
282,comedy,Alfons Müschler,M,,,,"
          
Alfons:

          
‘s isch recht, Herr Mayer, mir sin's zefridde!

        
",70,hahn-jungi-madamme,14,3,0.0,0.21428571428571427
284,comedy,Alfons Müschler,M,,,,"
          
Alfons:

          
Üßgezeichnet! Uff die Idee wärde mir nit kumme, heilig noch e mol, der Mensch hett ebs los! Ebs mueß gemacht wäre, un so e kleine Hochzittsreis entre nous deux, dü, deß wär nit so uewell — à

        
",71,hahn-jungi-madamme,46,8,0.6507763144517156,0.17391304347826086
285,comedy,Fernand Schneider,M,,,,"
          
Fernand:

          
Ja, — awwer weisch — ä — ä —! Weisch d’r Kücksel — ich hab halt deß nixnutzig Wiewel doch leidsmäßig gern —

        
",71,hahn-jungi-madamme,27,3,1.087850111691038,0.1111111111111111
286,comedy,Alfons Müschler,M,,,,"
          
Alfons:

          
Geh, sey doch kein Narr!

        
",71,hahn-jungi-madamme,9,1,0.0,0.1111111111111111
287,comedy,Fernand Schneider,M,,,,"
          
Fernand:

          
Ja un derno, — ich verschteh gar net, daß dü so glich derbi bisch fer so e Streich — m‘r sin doch kein jungi Buewe meh — so ebs käm doch erüß. üwerhaupt so e jungs Wiewel jaluse ze mache, ‘s isch doch im Grund e guets Kind —

        
",71,hahn-jungi-madamme,55,3,0.0,0.05454545454545454
288,comedy,Alfons Müschler,M,,,,"
          
Alfons:

          
Eh bien, wenn dü nett witt, ze geh ich allein!

        
",72,hahn-jungi-madamme,15,3,2.1968186332900075,0.2
290,comedy,Alfons Müschler,M,,,,"
          
Alfons:

          
Witt morje widder angebrennts Sürkrütt esse mit Peterle dran?

        
",72,hahn-jungi-madamme,12,1,0.0,0.08333333333333333
291,comedy,Fernand Schneider,M,,,,"
          
Fernand:

          
Jo, — jo — hesch jo e rächt, — awwer —

        
",72,hahn-jungi-madamme,15,1,0.0,0.06666666666666667
292,comedy,Alfons Müschler,M,,,,"
          
Alfons:

          
So wurd's gemacht, wie's der Herr gsaat hett, un vun Paris üß schriewe m'r e Brief —

        
",73,hahn-jungi-madamme,23,2,0.0,0.08695652173913043
293,comedy,Fernand Schneider,M,,,,"
          
Fernand:

          
Hör, m'r könnte die Sach jo au einfacher und billiger mache. Weisch wie?

        
",73,hahn-jungi-madamme,18,1,0.0,0.05555555555555555
295,comedy,Fernand Schneider,M,,,,"
          
Fernand:

          
Eh bien, m'r schriewe alli zwei e recht enragierter Brief, daß m‘r sie sitze lonn un uff Paris reise welle, fuer dort ze bliewe un daß sie no mit ihre Mägd un mit ihrem Kochgschirr an- fange könne, was sie welle —

        
",73,hahn-jungi-madamme,49,6,0.8880065006418687,0.12244897959183673
296,comedy,Alfons Müschler,M,,,,"
          
Alfons :

          
(ungeduldig)

          
Un derno?

          

        
",74,hahn-jungi-madamme,8,1,0.0,0.125
297,comedy,Fernand Schneider,M,,,,"
          
Fernand:

          
No mache m'r e Düür in d'Vogese un bliewe bis am Mondaa Midda, — bis dort anne henn unsri junge Madamme schun lang Mores krejt un sin froh, wenn sie uns widder sähn —

        
",74,hahn-jungi-madamme,39,5,0.7479937052819682,0.1282051282051282
298,comedy,Alfons Müschler,M,,,,"
          
Alfons:

          
Enfin, ich glaub deß zejt nit genüe -awwer - die Brief könne m‘r schun schriewe un ich fahr e mol schnell mit‘m vélo in‘s Gschäft, schrieb d‘r Brief dort 
(sieht nach der Uhr)
, schick de Brief in d’Wohnung un kumm widder häre, derwill‘sch isch där type do un dü?

        
",74,hahn-jungi-madamme,62,5,0.0,0.08064516129032258
299,comedy,Fernand Schneider,M,,,,"
          
Fernand:

          
Guet — un ich will minnere au glich aane annepfeffere.

        
",74,hahn-jungi-madamme,13,1,0.0,0.07692307692307693
300,comedy,Alfons Müschler,M,,,,"
          
Alfons:

          
Eh bien. Einschtwiele! Adje! 
(ab.)

        
",75,hahn-jungi-madamme,13,2,2.143381759899219,0.15384615384615385
302,comedy,Sälmel,F,,,,"
          
Sälmel :

          
(kommt mit Kehrutensilien im Arm. Sie sucht auf dem Büffet, nimmt einen Apfel und beißt daran herunter; spricht, indem sie immer ab- beißt und kaut)

          
Jetz möcht ich doch garn wisse, was die do d‘ganz Zit ze dischkeriere hann ghett? — Allewaj waje de junge Madamme. Diß isch aw- wer oeuj a z’Midda-esse gewann 
(kichert)
. Wann i numme wisse dat, ebb d’Madame ball kummt, — un i weiß au gar net — sinn die Harre alli zwei furt? — 
(Horcht an den Türen)
. M‘r hört gar nix — ich bin ganz allein Meister im Hüß 
(kichert)
, soll i jetz faje, — oder soll i net faje? 
(Wirft den Apfelrest auf den Boden und wischt die Finger an einer Tischdecke ab; es klingelt, sie läuft hinaus und stolpert über den Besen.)
 U, — wenn deß d‘Madame war!

        
",75,hahn-jungi-madamme,174,16,0.2556868414493076,0.09195402298850575
303,comedy,Mayer,M,insurance_agent,intermediate_professionals,,"
          
Mayer:

          
Also der Herr ist nicht hier?

        
",75,hahn-jungi-madamme,9,1,0.0,0.1111111111111111
305,comedy,Mayer,M,insurance_agent,intermediate_professionals,,"
          
Mayer:

          
Na, isch kann ja einen Augenblick warten — aha da klingelt es!

		  

        
",76,hahn-jungi-madamme,16,2,0.0,0.125
307,comedy,Mayer,M,insurance_agent,intermediate_professionals,,"
          
Mayer:

          
Werde misch am besten etwas reti- rieren.

        
",76,hahn-jungi-madamme,11,1,0.0,0.09090909090909091
308,comedy,Josefine Martel,F,,,,"
          
Josefine :

          
(im Hereinkommen)

          
Sälmel — jeses, do siehts jo noch net üß — wenn ich e mol verhi— 
(sehr freundlich)
 — ah, guete Daa im Herre —

        
",77,hahn-jungi-madamme,35,5,0.0,0.14285714285714285
310,comedy,Josefine Martel,F,,,,"
          
Josefine:

          
Ja, ja, merci! 
(leise zu Sälmel)
 Wer isch diß? 
(Sälmel zuckt die Achsel und geht mit dem Besen ab.)

        
",77,hahn-jungi-madamme,30,2,0.0,0.06666666666666667
311,comedy,Mayer,M,insurance_agent,intermediate_professionals,,"
          
Mayer:

          
Hab isch die Ehre, die gnädige Frau?

        
",77,hahn-jungi-madamme,11,1,5.386575829846255,0.09090909090909091
312,comedy,Josefine Martel,F,,,,"
          
Josefine:

          
(süßlich)
: Naan, ich bin noch leddi, — awwer wenn ich e mol verhirot bin —

        
",78,hahn-jungi-madamme,22,1,2.4858747182763565,0.045454545454545456
313,comedy,Mayer,M,insurance_agent,intermediate_professionals,,"
          
Mayer:

          
Sie möschten wohl gerne heiraten, wie?

        
",78,hahn-jungi-madamme,10,3,0.0,0.3
314,comedy,Josefine Martel,F,,,,"
          
Josefine:

          
O ja!

        
",78,hahn-jungi-madamme,5,1,0.0,0.2
315,comedy,Mayer,M,insurance_agent,intermediate_professionals,,"
          
Mayer:

          
Na, vielleicht kann isch Ihnen be- hülflich sein —

        
",78,hahn-jungi-madamme,13,1,0.0,0.07692307692307693
316,comedy,Josefine Martel,F,,,,"
          
Josefine:

          
Meine Sie?

        
",79,hahn-jungi-madamme,5,1,0.0,0.2
317,comedy,Mayer,M,insurance_agent,intermediate_professionals,,"
          
Mayer:

          
Wie alt sind Sie, wenn isch fragen darf?

        
",79,hahn-jungi-madamme,12,1,0.0,0.08333333333333333
318,comedy,Josefine Martel,F,,,,"
          
Josefine :

          
(verlegen)

          
Ich bin 38 Johr alt gewese —

        
",79,hahn-jungi-madamme,12,1,0.0,0.08333333333333333
321,comedy,Mayer,M,insurance_agent,intermediate_professionals,,"
          
Mayer:

          
Na, — da sind Sie ja immer noch Jung —

        
",80,hahn-jungi-madamme,13,3,0.0,0.23076923076923078
322,comedy,Josefine Martel,F,,,,"
          
Josefine:

          
Ja 
(rasch)
 nit wohr? — un wenn m'r e mol verhi—

        
",80,hahn-jungi-madamme,17,2,0.0,0.11764705882352941
324,comedy,Josefine Martel,F,,,,"
          
Josefine:

          
O ja, Wie minni Schweschter bekumm i 5000 livres baar‘s Vermeje un e schoens trousseau, alles selwer ghäkelt un gschtickt, diß isch doch scheen, gelle Sie?

          

		
",81,hahn-jungi-madamme,34,4,0.6110955399381267,0.11764705882352941
325,comedy,Mayer,M,insurance_agent,intermediate_professionals,,"
          
Mayer:

          
Ganz passabel, — Sie hatten ja auch Zeit dazu — und was stellen Sie für Ansprüche?

        
",81,hahn-jungi-madamme,20,5,0.0,0.25
326,comedy,Josefine Martel,F,,,,"
          
Josefine:

          
Grad. wie minni Schweschter, mein i, — e Köche un e femme de chambre. Nit — m'r will‘s doch au guet hann, wenn m‘r e mol —

        
",81,hahn-jungi-madamme,35,3,1.096090621747321,0.08571428571428572
327,comedy,Mayer,M,insurance_agent,intermediate_professionals,,"
          
Mayer:

          
Ja — ja — isch weiß — und son- stische Bedingungen stellen Sie keine?

        
",81,hahn-jungi-madamme,18,4,0.6988507741328969,0.2222222222222222
328,comedy,Josefine Martel,F,,,,"
          
Josefine:

          
Ha jo, — nit — e gueter Charak- ter — so daß m‘r mi'tm mache kann, was m'r will — un er eim gewähre loßt, — un derno — daß‘r nit raucht bsunders kenn Cigarettle — denn deß kann i nit rieche — un wenn i e mol verhirot —

        
",82,hahn-jungi-madamme,56,3,0.8286249060921188,0.05357142857142857
329,comedy,Mayer,M,insurance_agent,intermediate_professionals,,"
          
Mayer:

          
Das Weib hat einen Sparren, das. steht bombenfest!

        
",82,hahn-jungi-madamme,13,1,3.586795753997152,0.07692307692307693
330,comedy,Josefine Martel,F,,,,"
          
Josefine:

          
Wie meine Sie?

        
",82,hahn-jungi-madamme,6,1,0.0,0.16666666666666666
331,comedy,Mayer,M,insurance_agent,intermediate_professionals,,"
          
Mayer:

          
Isch meine, Ihnen kann geholfen werden — Männer, wie Sie einen suchen, habe isch massenhaft auf Lager. Josefin: Isch's mejli? O, deß isch jo mag- nifique!

        
",82,hahn-jungi-madamme,38,3,0.0,0.07894736842105263
332,comedy,Mayer,M,insurance_agent,intermediate_professionals,,"
          
Mayer:

          
Gewiß! Wenn Sie mir Ihre werte Adresse angeben wollen, so werde ich Ihnen mor- chen einen bringen.

        
",83,hahn-jungi-madamme,23,1,0.0,0.043478260869565216
333,comedy,Josefine Martel,F,,,,"
          
Josefine :

          
(sehr erfreut)

          
Morje schun?

        
",83,hahn-jungi-madamme,9,3,1.097738202290943,0.3333333333333333
334,comedy,Mayer,M,insurance_agent,intermediate_professionals,,"
          
Mayer:

          
Ja, ja, Sie ihn sich mal ansehen, ob er Ihnen gefällt.

        
",83,hahn-jungi-madamme,17,2,0.0,0.11764705882352941
335,comedy,Josefine Martel,F,,,,"
          
Josefine:

          
. O, diß wär jo zue nett. — Wisse Sie — am liebschte e chiker franzescher Offizier — je Vous serais bien obligée 
(spricht aus: Che und oblichée.)
 — Ich wohn in d‘r Langstroß mit minnere Mamme, un mini Schweschter, wo verhirot esch, wohnt a im Hüß — awwer wenn ich e mol verhirot bin —

        
",83,hahn-jungi-madamme,67,7,2.2289203132367916,0.1044776119402985
336,comedy,Mayer,M,insurance_agent,intermediate_professionals,,"
          
Mayer:

          
So weit sind wir noch nischt —

        
",84,hahn-jungi-madamme,9,1,0.0,0.1111111111111111
337,comedy,Josefine Martel,F,,,,"
          
Josefine:

          
O, wenn Sie‘s anne bringe däte, un wenn ich e mol verhirot bin — un no trinke Sie bi uns d’r Kaffee — gelte Sie? Au revoir, en attendant.

        
",84,hahn-jungi-madamme,37,2,2.6825494813758133,0.05405405405405406
338,comedy,Mayer,M,insurance_agent,intermediate_professionals,,"
          
Mayer:

          
Ihr Diener — 
(Josefine ab)
 — Ist das ein verrücktes Huhn. nee, — das hab isch ge- merkt, — an dem Geschäft wär kein Profit zu machen — — aber 
(sieht nach der Uhr)
 wenn mein neuer Kunde — aha!

          

		
",84,hahn-jungi-madamme,51,3,0.0,0.058823529411764705
340,comedy,Fernand Schneider,M,,,,"
          
Fernand:

          
Nämme Sie e bissel Platz, Herr Mayer, minner Freind wurd a glich kumme.

        
",85,hahn-jungi-madamme,18,3,0.0,0.16666666666666666
342,comedy,Fernand Schneider,M,,,,"
          
Fernand:

          
Do, — m‘r hann mitnander üßge- macht, m'r welle glich e Brief schriewe un do ze- ruck lonn, daß unseri Fraue solle sehn, m‘r sinn durch d’Latte —

        
",85,hahn-jungi-madamme,37,5,0.8178654466472857,0.13513513513513514
343,comedy,Mayer,M,insurance_agent,intermediate_professionals,,"
          
Mayer:

          
Auch gut.

        
",85,hahn-jungi-madamme,5,1,0.0,0.2
344,comedy,Fernand Schneider,M,,,,"
          
Fernand:

          
Ich hab e ziemlich gsalzener Brief gschriewe — un — ich denk, d‘r Alfons, d'r Herr Müschler kummt a ball, denn sunsch steht uff ein mol mini Frau do, un no isch alles fütsch.

        
",86,hahn-jungi-madamme,41,3,0.0,0.07317073170731707
345,comedy,Mayer,M,insurance_agent,intermediate_professionals,,"
          
Mayer:

          
Gewiß! Si müssen sich in aller Stille drücken, — könnten wir ihm nicht entgegen gehen? 
(es schellt)
 — aha, — däs wird er wohl sein.

        
",86,hahn-jungi-madamme,34,4,0.0,0.11764705882352941
346,comedy,Fernand Schneider,M,,,,"
          
Fernand:

          
Ja! — Will e mol glich sälwer sehn ob er‘s isch 
(ab.)

        
",86,hahn-jungi-madamme,19,2,0.0,0.10526315789473684
347,comedy,Alfons Müschler,M,,,,"
          
Alfons :

          
(für die Reise fertig)

          
So, Herr Mayer! Do bin i— Hänn‘r schun ebs üßgemacht? — Geh'sch mit?

        
",86,hahn-jungi-madamme,26,2,0.0,0.07692307692307693
348,comedy,Fernand Schneider,M,,,,"
          
Fernand:

          
De Brief haw i gschriwe— er lejt dort drinne uff'm offene Secrétaire.

        
",87,hahn-jungi-madamme,17,2,0.0,0.11764705882352941
350,comedy,Mayer,M,insurance_agent,intermediate_professionals,,"
          
Mayer:

          
Wenn Sie erlauben, so werde ich jetzt das Programm entwickeln, — also morgen —

        
",87,hahn-jungi-madamme,18,2,0.0,0.1111111111111111
351,comedy,Fernand Schneider,M,,,,"
          
Fernand:

          
Still! — ‘s kummt ebber 
(geht zur Türe und horcht.)
 
(Alle drei ab nach hinten links.)

		   

        
",87,hahn-jungi-madamme,25,1,0.0,0.04
352,comedy,Amalie Schneider,F,,,,"
          
Amelie :

          
(schaut vorsichtig zur Tür herein)

          
Er isch nit do, Mamme, kumm numme!

        
",88,hahn-jungi-madamme,19,3,2.232488994666173,0.15789473684210525
353,comedy,Frau Liemann,F,,,,"
          
Frau Liemann:

          
Na, do sieht's awwer nett drin, ich hab d‘r doch allewill gsaat, mach, daß de d'r salle à manger allewil schön proper hesch, wenn d'r Mann heim kummt. Amelie 
(sieht verlegen zu Boden)
.

        
",88,hahn-jungi-madamme,46,6,2.1579597764432346,0.13043478260869565
354,comedy,Frau Liemann,F,,,,"
          
Frau Liemann:

          
Saa m‘r doch jetz fran- chement, was de gemacht hesch — hörsch? — Ich mein, de hesch m'r nit alles g'saat. — Was hesch denn g‘schafft hitt morje, hein, will's Esse nit guet worre isch?

        
",88,hahn-jungi-madamme,47,4,0.0,0.0851063829787234
355,comedy,Amalie Schneider,F,,,,"
          
Amelie:

          
Jo — i weiß jo, Mamme, daß i im Unrecht bin, awwer —

        
",88,hahn-jungi-madamme,18,1,3.3552509394805305,0.05555555555555555
356,comedy,Frau Liemann,F,,,,"
          
Frau Liemann:

          
Na, do muesch‘s dim Mann au ingschtehn.

        
",89,hahn-jungi-madamme,13,1,0.0,0.07692307692307693
357,comedy,Amalie Schneider,F,,,,"
          
Amelie :

          
(weinerlich)

          
Ja, wie sall i denn diß mache? 
(Fernand will von Zeit zu Zeit hereinkommen, wird aber jedesmal von Mayer oder Müschler zu- rückgehalten.)

        
",89,hahn-jungi-madamme,35,4,0.0,0.11428571428571428
358,comedy,Frau Liemann,F,,,,"
          
Frau Liemann:

          
Weisch jetz was. Schick‘s Sälmel tripes hole, un alles was derzue ghört fer à la mode de Caen ze mache, — ich helf d’r a bissel — un no rischt‘sch e famos guets z'Nachtesse —

        
",89,hahn-jungi-madamme,43,1,0.0,0.023255813953488372
359,comedy,Amalie Schneider,F,,,,"
          
Amelie:

          
Ja, un was soll i sawe, wenn'r kummt?

        
",89,hahn-jungi-madamme,13,1,0.0,0.07692307692307693
360,comedy,Frau Liemann,F,,,,"
          
Frau Liemann:

          
Ei, dü duesch ne frindli begrueße un mach‘sch, wie wenn nix wär g‘sinn, no macht's sich schun widder.

        
",90,hahn-jungi-madamme,26,2,1.524025874591827,0.07692307692307693
361,comedy,Amalie Schneider,F,,,,"
          
Amelie:

          
Meinsch? Och, Mamme, meinsch er wurd widder guet? 
(weint.)

        
",90,hahn-jungi-madamme,18,2,1.6776254697402653,0.1111111111111111
362,comedy,Frau Liemann,F,,,,"
          
Frau Liemann:

          
Gäll, dumms Dippele jetz griensch, awwer wart numme, wenn noch e mol so ebs bassiert, no derf‘sch nim zue m‘r kumme, no kann‘sch zue din‘re famose Frinde gehn, wo d‘r so de Kopf verdrähjt hett.

        
",90,hahn-jungi-madamme,45,3,1.227291355595436,0.06666666666666667
363,comedy,Amalie Schneider,F,,,,"
          
Amelie:

          
Jo, ‘s isch wohr, i hätt nit uffs Fanny höre solle —awwer i will m‘r sicher jetz e recht Muej genn un alles guet b‘sorje.

		  

        
",90,hahn-jungi-madamme,31,5,0.0,0.16129032258064516
364,comedy,Frau Liemann,F,,,,"
          
Frau Liemann:

          
Allewäj, diß isch doch sunsch e Schand, so e nett‘s Menägel, un wenn m'r noch e Maidl hett —

        
",91,hahn-jungi-madamme,26,3,0.7678974600238616,0.11538461538461539
365,comedy,Amalie Schneider,F,,,,"
          
Amelie:

          
Hör — wenn i awwer im Fernand e Brief dät schriewe — un ‘s Sälmel dät‘s ins Gschäft trawe — weisch — no wenn'r kummt, isch'r schun besser uffgelaijt. un geht au liewer heim.

        
",91,hahn-jungi-madamme,40,2,0.0,0.05
366,comedy,Frau Liemann,F,,,,"
          
Frau Liemann:

          
Hesch recht, sunsch kummt‘r am End gar nit, er denkt er kreijt widder nix, hein?

        
",91,hahn-jungi-madamme,22,1,0.0,0.045454545454545456
367,comedy,Amalie Schneider,F,,,,"
          
Amelie:

          
E bien, ja, ich schrieb‘m eins — e reeht frindli's —

        
",91,hahn-jungi-madamme,17,2,0.0,0.11764705882352941
368,comedy,Frau Liemann,F,,,,"
          
Frau Liemann:

          
So isch rächt, — geh — ich will im Sälmel sawe, daß es die tripes holt. 
(Amalie ab nach links vorne.)

        
",92,hahn-jungi-madamme,30,1,0.0,0.03333333333333333
370,comedy,Sälmel,F,,,,"
          
Sälmel:

          
d'Madame Müschler isch do.

        
",92,hahn-jungi-madamme,8,1,0.0,0.125
371,comedy,Frau Liemann,F,,,,"
          
Frau Liemann:

          
Sie soll numme erin kumme, die kummmt m'r grad e recht 
(spricht leise mit Sälmel; Sälmel ab)
.

        
",92,hahn-jungi-madamme,25,3,1.096090621747321,0.12
372,comedy,Fanny Müschler,F,,,,"
          
Fanny :

          
(hat verweinte Augen und scheint sehr erregt)

          
Ah, Madame Liemann! Isch ‘s Amelie nit do?

        
",93,hahn-jungi-madamme,22,3,0.0,0.13636363636363635
375,comedy,Frau Liemann,F,,,,"
          
Frau Liemann:

          
Ja, ich denk, nemme Sie e bissel Platz; Sie henn glauwi gegrinne?

        
",93,hahn-jungi-madamme,19,2,0.0,0.10526315789473684
376,comedy,Fanny Müschler,F,,,,"
          
Fanny :

          
(weinerlich, heftig)

          
Jo, denke Sie, die Unverschämtheit! Minner Mann isch uff Baris! 
(Weint heftig)
.

        
",94,hahn-jungi-madamme,26,5,0.0,0.19230769230769232
378,comedy,Fanny Müschler,F,,,,"
          
Fanny:

          
Ja, denke Sie numme, — ich bin hitt morje furt gsinn — un wie i am Midda heim kumm, isch min Mann schun widder los — ich hab m'r do nix derbi gedenkt, un wie i gemuetli minner Kaffe trink, kommt uff einmol der Brief. — Ich bin betroeje — betroeje! — o was bin ich ungluecklich 
(schluchzt)
.

          

		
",94,hahn-jungi-madamme,70,8,0.2335400645983992,0.11428571428571428
379,comedy,Frau Liemann,F,,,,"
          
Frau Liemann:

          
Ja, — sehn Sie, deß kummt dervun, wenn m'r sin Sach nit b'sorjt, wie sich‘s ghört. So soll‘s denne junge Madamme alle gehn. — Zwei Mägd un doch nix gschafft, denn wo d'Frau fehlt, fehlt alles —

        
",94,hahn-jungi-madamme,51,6,0.0,0.11764705882352941
380,comedy,Fanny Müschler,F,,,,"
          
Fanny :

          
(ärgelich)

          
Ich glaub, Sie welle m'r noch Lektione gänn?

        
",95,hahn-jungi-madamme,15,2,1.5635174231643088,0.13333333333333333
381,comedy,Frau Liemann,F,,,,"
          
Frau Liemann:

          
Sie hänn sie au noeti. Ihri Mamme mueß Sie schlecht inschtruirt hann, wenn Sie bi re im Hüß wohne, un doch so mit'm Geld erumschmisse, wie wenn sie hunderttöjisig livres Rente ze verzehre hätte. Brüche Sie e Köche? Hee Ihri Mamme au e Köche ghett, wie sie als noch fer andri Litt gekocht hett? hein?

        
",95,hahn-jungi-madamme,68,5,2.6842007515844246,0.07352941176470588
383,comedy,Frau Liemann,F,,,,"
          
Frau Liemann:

          
Deß brücht m‘r niemet‘s ze sawe, daß i höfli bin, awwer ehrli un recht- schaffe haw i min Sach gschafft mit mim Mann säli ün‘s zu ebbs gebroocht. — Mir wär minner Mann nit noch drei Monet uff un dervun gange — wie Ihrere, — awwer so mueB es kumme, 
(mit Nachdruck)
 er wurd jetz ball e andri hann! —

        
",95,hahn-jungi-madamme,74,6,0.8977626383077094,0.08108108108108109
384,comedy,Fanny Müschler,F,,,,"
          
Fanny :

          
(ängstlich)

          
Meine Sie, daß deß d'r Alfons macht? — Meine Sie? — Könnt so ehbs moejli sinn? Frau Liemann 
(zuckt die Achseln)
. 
(Alfons macht es, wie vordem Fernand, wird aber auch immer zurückgehalten.)

        
",96,hahn-jungi-madamme,49,5,2.438441399346923,0.10204081632653061
385,comedy,Fanny Müschler,F,,,,"
          
Fanny:

          
Madame Liemann! Liewi Madame Liemann, lehne Sie m‘r 500 France!

        
",96,hahn-jungi-madamme,15,3,1.3459361034294786,0.2
387,comedy,Fanny Müschler,F,,,,"
          
Fanny:

          
Daß i mim Mann nochreise kann uff Baris.

        
",96,hahn-jungi-madamme,11,2,0.0,0.18181818181818182
388,comedy,Frau Liemann,F,,,,"
          
Frau Liemann:

          
Ja, hänn sie kein Geld?

        
",97,hahn-jungi-madamme,10,2,0.0,0.2
389,comedy,Fanny Müschler,F,,,,"
          
Fanny :

          
(schüttelt den Kopf)

          
Er hett gschri- we, daß‘r alles Geld mitgenumme het.

        
",97,hahn-jungi-madamme,19,1,0.0,0.05263157894736842
390,comedy,Frau Liemann,F,,,,"
          
Frau Liemann:

          
So isch recht! Un Ihri Mamme?

        
",97,hahn-jungi-madamme,11,2,1.6776254697402653,0.18181818181818182
393,comedy,Fanny Müschler,F,,,,"
          
Fanny:

          
Hab ne uffgekuennt alle zwei Maidle — 
{weinend)
 i wott jo alles ganz allein schaffe, wen numme d‘r Alfons noch do wär! 
(Schluchzt heftig)

        
",98,hahn-jungi-madamme,32,5,0.0,0.15625
394,comedy,Frau Liemann,F,,,,"
          
Frau Liemann:

          
Hänn m'r sie so witt, die Junge Madamme? DeB haw i gedenkt, daß es do noch andersch kummt. Jetz mueß i awwer noch'm Ameli lueje, deß kummt jo gar nit. 
(ab)
.

        
",98,hahn-jungi-madamme,44,2,0.0,0.045454545454545456
395,comedy,Frau Liemann,F,,,,"
          
Frau Liemann :

          
(ruft von innen)

          
Hilf! Hilf! Madame Müschler!

        
",98,hahn-jungi-madamme,15,1,0.0,0.06666666666666667
396,comedy,Fanny Müschler,F,,,,"
          
Fanny:

          
Jesses, was isch do bassiert? 
(ab)
. 
(Sie bringen Amelie, die ohnmächtig ist)
.

        
",99,hahn-jungi-madamme,23,2,0.0,0.08695652173913043
397,comedy,Frau Liemann,F,,,,"
          
Frau Liemann:

          
Schnell Essig! — Wärd numme ‘s Sälmel do — 
(Fernand will wieder vorkommen wie oben)
.

        
",99,hahn-jungi-madamme,22,1,0.0,0.045454545454545456
398,comedy,Fanny Müschler,F,,,,"
          
Fanny:

          
Wie isch diß kumme?

        
",99,hahn-jungi-madamme,7,1,0.0,0.14285714285714285
399,comedy,Frau Liemann,F,,,,"
          
Frau Liemann:

          
Ich weiß nit — ich will lueje, ob i eau de Cologne find im Schlofzimmer 
(ab)
. 
(Fernand ringt heftig mit den beiden andern, wird aber immer noch, besonders von Mayer, zu- rückgehalten.)

        
",99,hahn-jungi-madamme,46,2,0.0,0.043478260869565216
400,comedy,Fanny Müschler,F,,,,"
          
Fanny:

          
Herrje, so ebs 
(ruft der Kranken)
, Amelie! — Großer Gott! — Frau Liemann 
(kommt zurück)
.

        
",100,hahn-jungi-madamme,26,2,1.8438223595367471,0.07692307692307693
402,comedy,Frau Liemann,F,,,,"
          
Frau Liemann:

          
Ja, un do, der Brief isch

        
",100,hahn-jungi-madamme,11,1,0.0,0.09090909090909091
403,comedy,Fanny Müschler,F,,,,"
          
Fanny :

          
(neugierig)

          
Der Brief? Soll i lese? 
(liest)
 Uh! Denke Sie! Im Amelie sin Mann isch uff Baris!

        
",100,hahn-jungi-madamme,28,3,0.0,0.10714285714285714
405,comedy,Fanny Müschler,F,,,,"
          
Fanny:

          
Do könne Sie's sehn —

        
",101,hahn-jungi-madamme,8,1,0.0,0.125
406,comedy,Frau Liemann,F,,,,"
          
Frau Liemann:

          
Och, arm‘s Kind — un ‘s hett doch alles widder welle guet mache.

        
",101,hahn-jungi-madamme,19,3,0.0,0.15789473684210525
407,comedy,Fanny Müschler,F,,,,"
          
Fanny:

          
Un ich doch aa — ‘s isch wohr! — Och Gott! Och Gott! — Wenn‘s numme zue sich käm — soll i d‘r Docter hole?

		  

        
",101,hahn-jungi-madamme,32,4,3.6876447190734942,0.125
408,comedy,Frau Liemann,F,,,,"
          
Frau Liemann:

          
Sehn Sie, do sinn Sie dran schuld, gehn Sie numme zum Docter. 
(Fernand reißt sich los.)

        
",102,hahn-jungi-madamme,25,4,0.4670801291967984,0.16
409,comedy,Fanny Müschler,F,,,,"
          
Fanny:

          
Zuem nächste, beschte, ich laaf, was i kann. O jerum, nein, was isch deß e Kriz! 
(wil] gehen.)

        
",102,hahn-jungi-madamme,31,2,0.0,0.06451612903225806
410,comedy,Fernand Schneider,M,,,,"
          
Fernand :

          
(kommt leise hervor und hält Fanny zurück)

          
Nan — bliewe Sie numme do — Frau Liemann und Fanny schreien auf: Dü bisch do, Fernand?

        
",102,hahn-jungi-madamme,31,2,0.0,0.06451612903225806
411,comedy,Fernand Schneider,M,,,,"
          
Fernand:

          
Wie de sieh‘sch, Mamme. Ich hab welle im Amelie e Leetion gänn 
(ruft der Kranken)
. Amelie! — Kind! — Ich bin doo, d'r Fernand!

        
",102,hahn-jungi-madamme,35,4,1.6205714464522871,0.11428571428571428
412,comedy,Amalie Schneider,F,,,,"
          
Amelie :

          
(wacht auf)

          
D‘r — Fernand? — Ja — geh'sch nit — uff — Baris? —

        
",103,hahn-jungi-madamme,21,3,0.0,0.14285714285714285
413,comedy,Fernand Schneider,M,,,,"
          
Fernand:

          
Naan — naan — isch's dr jetz widder guet?

        
",103,hahn-jungi-madamme,13,1,0.0,0.07692307692307693
414,comedy,Amalie Schneider,F,,,,"
          
Amelie:

          
Ja — oh ja — 
(umschlingt mit beiden Armen seinen Hals)
. Gäll dü blie‘sch do?

        
",103,hahn-jungi-madamme,21,3,0.0,0.14285714285714285
415,comedy,Fernand Schneider,M,,,,"
          
Fernand:

          
Witt m'r denn alle Daa ebs guets koche?

        
",103,hahn-jungi-madamme,11,1,0.0,0.09090909090909091
416,comedy,Amalie Schneider,F,,,,"
          
Amelie:

          
Ja, o ja! ich will alles mache, was de witt, blie numme do! 
(Kuß, Umarmung.)
 Fanny 
(weint heftig)
.

        
",104,hahn-jungi-madamme,32,4,0.9026833439552436,0.125
419,comedy,Alfons Müschler,M,,,,"
          
Alfons:

          
Ja awwer um's Härel wär i furt g‘sinn, luej, ich bin schun geruescht und do sie‘sch, diß isch d'r Agent vum Reisebureau üß d'r Blöi- wolkegaß, wenn de m‘r nit verschprich‘sch —

        
",104,hahn-jungi-madamme,40,2,2.100821910460832,0.05
420,comedy,Fanny Müschler,F,,,,"
          
Fanny:

          
Alles, was di witt 
(hält ihn krampf- haft um den Hals fest)
 — awwer blie numme doo. De Maidle haw i alli zwei uffgekuennt. 
(Kuß, Um- armung)
.

        
",105,hahn-jungi-madamme,40,3,1.1126299996088436,0.075
421,comedy,Frau Liemann,F,,,,"
          
Frau Liemann:

          
Gottlowedank. ze isch doch widder alles guet. Jetz seije numme recht flissig, ihr jungi Madämle. Deile ejri Zitt guet in, 
 no koenne ihr alles guet b’sorje un derbi zue Ab- wechslung au lese oder schpaziere gehn. Wenn ihr ejier Sach gschafft hann, hänn eijeri Männer gar nix dergeje, gelte nit? 
(Küßt Amelie und reicht Müschlers die Hand.)

        
",105,hahn-jungi-madamme,73,9,0.3199138049416967,0.1232876712328767
424,comedy,Alfons Müschler,M,,,,"
          
Alfons:

          
(Verlegen zu Mayer)

          
Ja, - Herr Mayer -

        
",106,hahn-jungi-madamme,13,3,0.0,0.23076923076923078
425,comedy,Fernand Schneider,M,,,,"
          
Fernand:

          
Es duet uns leid.

        
",106,hahn-jungi-madamme,7,1,0.0,0.14285714285714285
426,comedy,Mayer,M,insurance_agent,intermediate_professionals,,"
          
Mayer:

          
Ja, isch sehe, es ist nischt zu machen und bleibt mir nur noch eine Offerte übrig. Hier 
(zieht aus der Tasche zwei Haushaltungsschürzen)
 die schönste Zierde des weiblichen Geschlechts, gut waschecht, schützt die Kleider, das Stück 20 Frcs. Da neueste elsässische Kochbuch gebe ich gratis dazu.

        
",106,hahn-jungi-madamme,58,4,0.9477565293035176,0.06896551724137931
428,comedy,Fernand Schneider,M,,,,"
          
Fernand:

          
Un glich angedohn. 
(Die Herren ziehen den Damen die Schürzen an und geben jeder das Kochbuch)
.

        
",107,hahn-jungi-madamme,22,3,0.6853321357975591,0.13636363636363635
430,comedy,Josefine Martel,F,,,,"
          
Josefine:

          
Ah — do sin jo die Herre — ich hab gemeint 
(zu Alfons)
 sie sin uff Baris, hett d‘Mamme g'saat — ah — 
(zu Mayer, freundlich)
 un Sie sinn au widder do?

        
",107,hahn-jungi-madamme,42,4,0.8388127348701326,0.09523809523809523
431,comedy,Mayer,M,insurance_agent,intermediate_professionals,,"
          
Mayer:

          
Diener! Habe dem Fräulein ver- sprochen 
(unter Verbeugungen)
 einen Mann zu versorgen, der sie in allem gewähren läßt —

        
",107,hahn-jungi-madamme,26,5,1.4137930363760343,0.19230769230769232
432,comedy,Josefine Martel,F,,,,"
          
Josefine:

          
Ja, ja —‘s isch superb — morje, gelte Sie? Denk e mol, Fanny, wo net raucht un net trinkt!

        
",108,hahn-jungi-madamme,28,4,0.7198060611188175,0.14285714285714285
433,comedy,Mayer,M,insurance_agent,intermediate_professionals,,"
          
Mayer:

          
Habe zufällig einen bei mir, hier — lasse ihn Ihnen zu 1,50 Francs. 
(Er zieht einen Hampelmann heraus und läßt ihn strampeln.)
 Josefine 
(schreit auf und geht ab. Unter allgemeinem Lachen der Spieler fällt der Vorhang)
. 
— Schluß —

        
",108,hahn-jungi-madamme,49,5,0.25911727333146684,0.10204081632653061
