2022-08-20 21:53:16 - valence lexicon length: 7864
2022-08-20 21:53:16 - Number of rows: 100
2022-08-20 21:53:16 - dominance lexicon length: 7864
2022-08-20 21:53:16 - Number of rows: 100
2022-08-20 21:53:17 - arousal lexicon length: 7864
2022-08-20 21:53:17 - Number of rows: 100
2022-08-20 21:53:17 - anger lexicon length: 7864
2022-08-20 21:53:17 - Number of rows: 100
2022-08-20 21:53:17 - anticipation lexicon length: 7864
2022-08-20 21:53:17 - Number of rows: 100
2022-08-20 21:53:17 - disgust lexicon length: 7864
2022-08-20 21:53:17 - Number of rows: 100
2022-08-20 21:53:17 - fear lexicon length: 7864
2022-08-20 21:53:17 - Number of rows: 100
2022-08-20 21:53:17 - joy lexicon length: 7864
2022-08-20 21:53:17 - Number of rows: 100
2022-08-20 21:53:18 - sadness lexicon length: 7864
2022-08-20 21:53:18 - Number of rows: 100
2022-08-20 21:53:18 - surprise lexicon length: 7864
2022-08-20 21:53:18 - Number of rows: 100
2022-08-20 21:53:18 - trust lexicon length: 7864
2022-08-20 21:53:18 - Number of rows: 100
2022-08-24 17:11:16 - valence lexicon length: 7864
2022-08-24 17:11:16 - Number of rows: 100
2022-08-24 17:11:16 - dominance lexicon length: 7864
2022-08-24 17:11:16 - Number of rows: 100
2022-08-24 17:11:17 - arousal lexicon length: 7864
2022-08-24 17:11:17 - Number of rows: 100
2022-08-24 17:11:17 - anger lexicon length: 7864
2022-08-24 17:11:17 - Number of rows: 100
2022-08-24 17:11:17 - anticipation lexicon length: 7864
2022-08-24 17:11:17 - Number of rows: 100
2022-08-24 17:11:17 - disgust lexicon length: 7864
2022-08-24 17:11:17 - Number of rows: 100
2022-08-24 17:11:17 - fear lexicon length: 7864
2022-08-24 17:11:17 - Number of rows: 100
2022-08-24 17:11:17 - joy lexicon length: 7864
2022-08-24 17:11:17 - Number of rows: 100
2022-08-24 17:11:18 - sadness lexicon length: 7864
2022-08-24 17:11:18 - Number of rows: 100
2022-08-24 17:11:18 - surprise lexicon length: 7864
2022-08-24 17:11:18 - Number of rows: 100
2022-08-24 17:11:18 - trust lexicon length: 7864
2022-08-24 17:11:18 - Number of rows: 100
