Unnamed: 0,drama_type,speaker,sex,job,job_category,social_class,text,progress,short_name,numTokens,numLexTokens,avgLexVal,lexRatio
0,comedy,Charlot,M,shoemaker,crafts,lower_middle_class,"
          
Charlot:

          
(kommt durch die Mitte und singt)

          
""Maiatzel, Dräckspatzel, drej Elle Güggück, es kumme drej Wiewer un esse Sürkrüt."" — 
          
(spricht)
 Drej Maiatzle haw i gedüscht für e Stüeckel Bäredräck — Was kennt m'r mit dene
          jetz anstelle? 
          
(schaut sich in der Stube um)
 Lüej do steht jo dr Meischtere ihri Schnupftüwaksbüchs!
          Wartich setz-ere Maiatzle drin — 
          
(lacht)
 Höhöhöhö! Wurd die e Schrecke bekumme wenn se e Bries nämmt. Awer sie hett's
          verdient — diss isch derfüer, will se dene Middaa am Esse so wüescht geje mich isch gsinn — die
          Madülle, die alt Kratzbüerscht, die Linsespaltere. Dene Middaa hett's min Leibgericht gänn, Dampfnüdle
          — hmm — diss müess mr ganz langsam saue — Dampfnüdle! Jetzt müess i schlucke ich hab ganz Wasser im
          Müll — un wie ich s' vierzeht Dampfnüdel lange will, ze macht se ""Kurzschluss"" un nimmt d'Platt ewäck
          un wie ich hab gsaat: ""Ich hab noch Hunger"" — no hett se de Deppiklopfer gelangt un hett gsaat: ""Do
          isch noch Hewwelandiffi un Stocksalad"" un dr Meischter hett dezü gelacht, der Knüppelüj, der hett jo
          nix ze saue, denn in dem Hüss hett d'Meischtere d'Hose an. Awer ich hab dr Meischtere ewichi Rache
          gschwore. ""Ich, dr Charlot,der König des Kino!"" 
          
(setzt die Maikäfer in die Schnupftabaksbüchse)
 So, diss isch füer Dampfnüdle, Madame
          Knüppe! Jetzt haw i noch einer — diss isch e Köenigin. 
          
(singt)
""Maikäfer, fliej, dr Vater isch im Kriej, d'Mueter isch im Pummerland,
          s'Pummerland isch abgebrannt, Maikäfer fliej!"" 
          
(markiert als wenn der Maikäfer fliegt, geht ihm nach, als wollte er ihn
          fangen.)
 Öhöhöhöö ! Jetzt fliejt er mr furt — Aah, dü setsch dich dort nuff uff de Däller —
          meinsch dert verwitsch ich dich nitt dü Drächspatzel — wart ich nämm d'Leiter vum Elektricien, no griej
          ich dich. 
          
(stellt die Doppelleiter vor die Mitteltür, so dass man, 
          
unten durch gehen kann).
 So jetzt wurr ich dich glich hann. 
          
(geht die Leiter hinauf und will den Maikäfer fangen, überdem kommt der Meister herein, durch d.
          M., der Porzellanteller fällt Knüppe auf den Cylinder.)

        
",0,clemens-charlot,427,28,1.3793271061082966,0.06557377049180328
2,comedy,Knüppe,M,shoemaker,crafts,lower_middle_class,"
          
Knüppe:

          
Diss isch e Zeiche vun Owe 
          
(lüejt)
 Naan es isch e Däller — ja, wie kummt der här? Do steht e Leiter un uff dere
          Leiter steht Einer. 
          
(geht hinauf — Charlot geht hinunter)
 Ich hab doch Einer uff dr Leiter gsähne, isch denn
          der Elektrisch noch nit ferti? 
          
(geht herunter, Charlot hinauf)
 Ja, jetz isch-r widder drowe. Bisch dü e Mensch oder e
          Geischt? Redd oder ich schiess! 
          
(zielt mit dem Schirm).

        
",1,clemens-charlot,94,11,4.804318999023349,0.11702127659574468
3,comedy,Charlot,M,shoemaker,crafts,lower_middle_class,"
          
Charlot:

          
Meischter nit schiesse — ich bin's, dr Charlot!

        
",1,clemens-charlot,13,1,0.0,0.07692307692307693
4,comedy,Knüppe,M,shoemaker,crafts,lower_middle_class,"
          
Knüppe:

          
Dü bisch's — jaa, was machsch denn dü do howe? Worum kummt der Däller uff mine Cylinder?

        
",2,clemens-charlot,23,3,2.0739779824865483,0.13043478260869565
5,comedy,Charlot,M,shoemaker,crafts,lower_middle_class,"
          
Charlot:

          
Meischter, ich bin nitt Schuld, do dr Maiatzel, er hett sich do uf de Däller gsetzt, awer er frisst
          se wenn ich ne verwitscht, mit eim Streich schlaa ich ne hin.

        
",2,clemens-charlot,39,4,0.7096634998785081,0.10256410256410256
6,comedy,Knüppe,M,shoemaker,crafts,lower_middle_class,"
          
Knüppe:

          
(holt den Knieriemen)

          
Witt dü do rab kumme, awer uf dr Gschtell!

        
",3,clemens-charlot,18,2,0.6967794526978695,0.1111111111111111
7,comedy,Charlot,M,shoemaker,crafts,lower_middle_class,"
          
Charlot:

          
Meischter ich kumm, laje numme de Rieme ewäck, ich wär doch kumme — Meischter ich berej's vom Grunde
          meines Herzens. 
          
(kummt ängstlich herunter).

        
",3,clemens-charlot,32,5,1.4561207798483,0.15625
8,comedy,Knüppe,M,shoemaker,crafts,lower_middle_class,"
          
Knüppe:

          
Dü müesch emol ghöeri abgschmiert sinn, denn dü wursch alle Daa liederlicher — Aaah, dü fangsch
          Maikäfer, allwill ich mit dr Licht geh, statt ass de Schueh ferti machsch. Do kumm häre! 
          
(Knüppe stellt sich breitspurig hin)
 Do de Kopf zwische d'Fües! 
          
(Charlot kommt auf Händen und Füssen laufend, steckt den Kopf Knüppe zwischen die Beine — Knüppe
          versohlt ihm das Hinterteil mit dem Riemen.)

        
",4,clemens-charlot,81,5,0.7953959278404904,0.06172839506172839
9,comedy,Charlot,M,shoemaker,crafts,lower_middle_class,"
          
Charlot:

          
(schreit)

          
Uuaah — Meischter, nitt so schnell — langsam — Uutsch! 
          
(witscht dem Meister durch die Beine, reibt sich das Hinterteil)
""Charlot- der König des
          Kino"" — Mensch, Maier!

        
",4,clemens-charlot,43,2,1.933823959881865,0.046511627906976744
10,comedy,Knüppe,M,shoemaker,crafts,lower_middle_class,"
          
Knüppe:

          
Mach die Leiter ewäck — der Elektrisch hätt se schun hole kenne, er isch jo ferti mit sinere Arweit
          — un rüm die Schärwe zamme un no an d'Arweit, sunscht rauchts noch emol in dr Fächtschuel.

        
",5,clemens-charlot,42,6,1.9017108991474039,0.14285714285714285
11,comedy,Charlot,M,shoemaker,crafts,lower_middle_class,"
          
Charlot:

          
Naan, naan Meischter, es brücht nimmi ze rauche. 
          
(stellt die Leiter weg, holt in der Küche, r. Tür, Schaufel und Handbesen, fegt die Scherben
          zusammen, alles mit komischen Gesten).

        
",5,clemens-charlot,42,5,1.0682417507507993,0.11904761904761904
12,comedy,Knüppe,M,shoemaker,crafts,lower_middle_class,"
          
Knüppe:

          
(geheimnisvoll)

          
Es hängt ebs in der Luft — es schwäwe unsichtbare Geischter mit durchsichtige Flüejel durich d'Luft,
          umgaukle uns un mir kenne se nitt sähne, nit mit ne redde. — Dr Geischt vun mim verstorwene Friend
          Quätschel, wie mr ewe begrawe hann, schwäbt villicht jetzert schun um mich. Wenn ich's ferti dät bringe
          mit de Geischter in Verbindung ze trätte, do dran difftli schun lang. Ich hab mit mine zwei Friend
          Schmätterle un Lastique, wo auch so Spiritiste sinn, do hinne schun e paar Sitzunge abghalte, awer bis
          jetz ohne Erfolg, mir hann noch kenn Geischt banne könne. Es gitt Bücher üwer de Spiritismus, un noch
          denne Büecher soll mr mit de Geischter vun Verstorwene redde kenne un so e Büech haw ich entdeckt. Ich
          hab bie dr Licht e Herr lehre kenne, wo au Spiritist isch un der will mr diss Büech lehne für e Owe.
          Oh, ich brenn ganz vor Verlange mit de Geischter ze redde, ich gschpier schun e Griwle uff-em Buckel un
          e Schücker durichlauft mich vum Kopf bis zum grosse Zeh.

        
",6,clemens-charlot,202,26,0.8466578032277007,0.12871287128712872
13,comedy,Charlot,M,shoemaker,crafts,lower_middle_class,"
          
Charlot:

          
(schmeisst die Scherben zum Fenster hinaus und ruft dann)

          
""Achtung, es kumme Stüecker!"" 
          
(Man hört Lastique draussen schreien ""Mille des gratteaus, miner chapeau!)

        
",6,clemens-charlot,36,5,2.0930141082712397,0.1388888888888889
14,comedy,Knüppe,M,shoemaker,crafts,lower_middle_class,"
          
Knüppe:

          
Was hesch denn widder gemacht?

        
",7,clemens-charlot,8,1,0.0,0.125
15,comedy,Charlot,M,shoemaker,crafts,lower_middle_class,"
          
Charlot:

          
Ich hab d'Schärwe nüssgschmisse.

        
",7,clemens-charlot,8,1,2.3107536378203455,0.125
16,comedy,Lastique,M,,,,"
          
Lastique:

          
(wütend durch die M., den Cylinder in der Hand)

          
Oh ces filous, ces canailles — mini schöeni chapeau! Il est fütti, ganz kapüt. — Vun die la fenêtre
          schmisse e Portion Däller uf mini tête — Ou est le gamin? Ich riss-em erüss alli Hoor mit die
          Zangbiss.

        
",8,clemens-charlot,59,6,0.6436974867525292,0.1016949152542373
17,comedy,Knüppe,M,shoemaker,crafts,lower_middle_class,"
          
Knüppe:

          
Calmiere sie sich, Monsieur Lastique, do dr Charlot isch's gsinn, er hett e verhejter Däller
          nüssgschmisse, s'isch zuem verknelle. 
          
(nimmt den Riemen).

        
",8,clemens-charlot,34,1,0.0,0.029411764705882353
18,comedy,Lastique,M,,,,"
          
Lastique:

          
Oh dü Wackesbum, ich bring dich um, dü Lüsgarçon! 
          
(sucht das Taschenmesser)
 Ich schnied dir ab e oreille mit mini couton de poche! 
          
(Beide gehen Charlot nach, welcher gegen die Mitteltür läuft).

        
",9,clemens-charlot,44,2,1.3167242065631253,0.045454545454545456
19,comedy,Charlot,M,shoemaker,crafts,lower_middle_class,"
          
Charlot:

          
Charlot, jetzt heist's Päch kauft. 
          
(rennt unter der Tür mit Schmätterle zusammen, welcher hinfällt, Charlot ab. Lastique und Knüppe
          heben ihn auf.)

        
",9,clemens-charlot,33,3,1.0392511298621367,0.09090909090909091
20,comedy,Schmätterle,M,musician,professionals_scientific_technical,lower_middle_class,"
          
Schmätterle:

          
Jetz bin i glauwi anegfalle, anegfalle un hab grad so e schöeni Ouvertüre im Kopf ghett ghett, füer
          zue re Licht un die gäng eso 
          
(markiert, als wenn er Piston bläst)
 Träääräräää u.s.w.

        
",10,clemens-charlot,40,4,0.8698474895931403,0.1
21,comedy,Knüppe,M,shoemaker,crafts,lower_middle_class,"
          
Knüppe:

          
(hält ihm den Mund zu)

          
Pst, Monsieur Schmätterle, stille jetz. Guet, das sie kumme sinn un au sie, Monsieur Lastique 
          
(geheimnisvoll)
 Ich hab e découverte gemacht, do wäre sie spanne wie Häftelmacher. Ich
          hab ewe bie dr Licht e Herr getroffe, wo au spiritistischi Sitzunge macht, un schun mit succès. Er will
          mr sin Buech lehne fuer hitt Owe, no kenne mr de Geischt vun unserem verstorwene Friend Quätschel
          erschiene mache un kenne mit-em redde. Mr hann au noch die chance, dass hitt grad Vollmond isch un dr
          drizehnt, do glüeckt's am beschte, hett der Herr gsaat.

        
",10,clemens-charlot,120,16,1.4386807464775957,0.13333333333333333
22,comedy,Lastique,M,,,,"
          
Lastique:

          
Ah, quelle chance, mir kenne macke kumme les spectres. Oh, ich schun bekumme ganzi Hütt vun die
          Gans.

        
",11,clemens-charlot,25,5,1.9236326461968551,0.2
23,comedy,Schmätterle,M,musician,professionals_scientific_technical,lower_middle_class,"
          
Schmätterle:

          
Was e Pläsier, Knüppe, sie sinn e Kaib, e Kaib, lonn jetz diss Buech hole, ich komponier ejch au e
          Fantasie Allegro, die dät eso anfange: Trärätärä, düdel, düdel, tsching-bumm — —

        
",11,clemens-charlot,44,6,0.34101371293545446,0.13636363636363635
24,comedy,Lastique,M,,,,"
          
Lastique:

          
Silence, mit Tschingbumm un hole sie diss livre, ass mir macke e soirée spiritueux un e
          necromancie.

        
",12,clemens-charlot,22,1,2.65441395534567,0.045454545454545456
25,comedy,Knüppe,M,shoemaker,crafts,lower_middle_class,"
          
Knüppe:

          
Diss wurd gemacht — mr schicke mini Frau furt zue dr Nähjere, no kummt se so ball nimmi heim. Mir
          sinn no ungstöert un könne die spiritistisch Sitzung do in dere Stub abhalte 
          
(geheimnisvoll)
 D'Geischter schwärme durich d'Luft un geheimnisvolli Wäse süüse um uns
          erum, un wenn mr die Macht hann, die Geischter erschiene ze mache, ze sinn mir an unserem Ziel, wo mir
          schun so lang sueche ze erreiche.

        
",12,clemens-charlot,83,13,0.9885169517876068,0.1566265060240964
26,comedy,Schmätterle,M,musician,professionals_scientific_technical,lower_middle_class,"
          
Schmätterle:

          
Oh, gäb diss e schöeni Müsik dezü, so geischterhaft: Trüdüü — drüüdü — tärä — —

        
",13,clemens-charlot,21,3,1.507621809110896,0.14285714285714285
27,comedy,Lastique,M,,,,"
          
Lastique:

          
Mille des gratteous, mache sie mich nitt massick mit sini Düderlüdü, halte sie dini Müll —
          tais-toi!

        
",13,clemens-charlot,22,2,0.9276768636158029,0.09090909090909091
28,comedy,Knüppe,M,shoemaker,crafts,lower_middle_class,"
          
Knüppe:

          
Awer, mes amis, ihr derfe nitt als dezwische redde, ihr müen ruehj sinn. Höere doch numme, was diss
          fuer e Effekt mache duet, wenn ich denne Owe in dr Sitzung saue wur: ""Geischt vum Quätschel, mir zwinge
          dich, ze erschiene, un d'Düer geht uff 
          
(alle drei stehen eng beisammen links und schauen auf die Tür l.)
 un erin kummt — — — - 
          
(Charlot kommt v. r. herein).

        
",14,clemens-charlot,87,7,1.829295019619247,0.08045977011494253
30,comedy,Knüppe,M,shoemaker,crafts,lower_middle_class,"
          
Alle drei:

          
(sind erschrocken)

          
Dr Charlot?!

        
",15,clemens-charlot,11,2,1.6687306796836492,0.18181818181818182
31,comedy,Schmätterle,M,musician,professionals_scientific_technical,lower_middle_class,"
          
Alle drei:

          
(sind erschrocken)

          
Dr Charlot?!

        
",15,clemens-charlot,11,2,1.6687306796836492,0.18181818181818182
32,comedy,Lastique,M,,,,"
          
Alle drei:

          
(sind erschrocken)

          
Dr Charlot?!

        
",16,clemens-charlot,11,2,1.6687306796836492,0.18181818181818182
33,comedy,Knüppe,M,shoemaker,crafts,lower_middle_class,"
          
Knüppe :

          
Wart — wo isch dr Rieme, dü hesch se noch ze guet.

        
",16,clemens-charlot,16,3,1.2636140850087638,0.1875
34,comedy,Schmätterle,M,musician,professionals_scientific_technical,lower_middle_class,"
          
Schmätterle:

          
Mich hesch mache anekeje — wart ich will dr de Marsch blose.

        
",17,clemens-charlot,15,2,1.061247409347772,0.13333333333333333
35,comedy,Lastique,M,,,,"
          
Lastique:

          
Wo isch miner coutau de poche — wart, dü Buewespitzel.

        
",17,clemens-charlot,14,2,2.4985573735307236,0.14285714285714285
36,comedy,Charlot,M,shoemaker,crafts,lower_middle_class,"
          
Charlot:

          
(frech)

          
Wie ihr mich anrüere, ze saa ich's dr Meischtere, ass ihr Spiritüs welle mache do hinne, un
          Geischterles welle spücke, ich hab alles ghöert an dr Düer. 
          
(Alle drei sind ganz niedergeschlagen).

        
",18,clemens-charlot,46,4,1.9372979801171328,0.08695652173913043
37,comedy,Knüppe,M,shoemaker,crafts,lower_middle_class,"
          
Knüppe:

          
Charlot — witte stille sinn, dü derfsch nix dr Meischtere saue, mr mache dir nix. Komm, sitz do häre
          un schaff, no macht dr nieme nix.

        
",18,clemens-charlot,34,3,0.9125783563733588,0.08823529411764706
38,comedy,Lastique,M,,,,"
          
Lastique:

          
Charlot, silence, nix saue in Madame. Dü bisch au e garçon brav, kenn Lüsgarçon — do hesch Drinkgeld
          fuer Chocolat. 
          
(gibt ihm Geld).

        
",19,clemens-charlot,33,3,0.0,0.09090909090909091
39,comedy,Schmätterle,M,musician,professionals_scientific_technical,lower_middle_class,"
          
Schmätterle:

          
Sapristi, no dät jo unseri ganz Sitzung zue Essi wäre, denn d'Madam Knüppe kann mich schun nitt
          verbutze, sie isch kenn Frind vun dr Müsik — do hesch e Cigarettel, Charlot, un ich lehr dich au
          umesunsch Piston blose, so gfitzt: Träträträ — —

        
",19,clemens-charlot,54,8,0.47290105389464054,0.14814814814814814
40,comedy,Knüppe,M,shoemaker,crafts,lower_middle_class,"
          
Knüppe:

          
Jojo, jetz fange nitt widder an, ze müsike, mr müen jetz handle.

        
",20,clemens-charlot,18,2,1.1482741748725875,0.1111111111111111
41,comedy,Charlot,M,shoemaker,crafts,lower_middle_class,"
          
Charlot:

          
Meischter, wenn ich ebs helfe soll? Charlot macht alles — ""Charlot, der König des Kino!"" Mensch —
          Maier!

        
",20,clemens-charlot,27,2,1.3688675345600383,0.07407407407407407
42,comedy,Knüppe,M,shoemaker,crafts,lower_middle_class,"
          
Knüppe:

          
Dort sitz ane un mach im Herr Doktor e Rieschter hinte druff, die Schuhj muen hitt noch furt. 
          
(Charlot sitzt an den Schustertisch und arbeitet).
 Un jetz will i diss Buech hole bie dem
          Herre, er wohnt in dr Zapfegass Nr. 11, er heisst — er heisst — na, wie heisst-r widder? Jetz weiss ich
          jo dr Namme nimmi — er isch doch so guet ze b'halte, mr kann ne jo gar nitt vergässe — ei, ei, ei, un
          noch emol e ei — —

        
",21,clemens-charlot,101,6,0.74054147228378,0.0594059405940594
43,comedy,Lastique,M,,,,"
          
Lastique:

          
Mille des gratteaus — Si han verlore le nom de Monsieur vun dem livre? C'est ça — jetz isch ze
          macksen nix.

        
",21,clemens-charlot,26,1,0.0,0.038461538461538464
44,comedy,Knüppe,M,shoemaker,crafts,lower_middle_class,"
          
Knüppe:

          
(denkt nach)

          
Ruehj, numme d'Ruehj kann's bringe — ich kumm schun druff, dr Name fahrt mr im Müll erum.

        
",22,clemens-charlot,28,4,1.0788681747254323,0.14285714285714285
45,comedy,Charlot,M,shoemaker,crafts,lower_middle_class,"
          
Charlot:

          
Meischter, mache s'Müll uff, ich gück.

        
",22,clemens-charlot,12,2,1.2159507378072514,0.16666666666666666
46,comedy,Knüppe,M,shoemaker,crafts,lower_middle_class,"
          
Knüppe:

          
Halt's Müll, wenn d'reddsch. — S'isch e Name, grad wie e Name, enfin, wie e Deil e Name hann, sisch
          ebs vun dr Küh, so e Wort isch's — Küh — Küh. —

        
",23,clemens-charlot,47,4,1.1477024966589937,0.0851063829787234
50,comedy,Knüppe,M,shoemaker,crafts,lower_middle_class,"
          
Knüppe:

          
Kühschwanz, dü Pfohl! — Halts Müll un schaff. 
          
(Charlot hämmert fest)
 Klopf nitt, ich kann nitt dänke. — Küh —

        
",25,clemens-charlot,29,4,2.644002882678884,0.13793103448275862
52,comedy,Knüppe,M,shoemaker,crafts,lower_middle_class,"
          
Knüppe:

          
Naan! Geh'n zuem Güggück! — S'isch ebs wie mit Küh zamme hängt.

        
",26,clemens-charlot,18,1,1.8949158278651521,0.05555555555555555
53,comedy,Charlot,M,shoemaker,crafts,lower_middle_class,"
          
Charlot:

          
Meischter, ich habs — diss hängt mit dr Küh zamme.

        
",26,clemens-charlot,14,1,1.8949158278651521,0.07142857142857142
55,comedy,Charlot,M,shoemaker,crafts,lower_middle_class,"
          
Charlot:

          
Heisst dr Herr ..... Ütter?

        
",27,clemens-charlot,8,1,1.851718515364562,0.125
56,comedy,Knüppe,M,shoemaker,crafts,lower_middle_class,"
          
Knüppe:

          
(rennt wie verrückt umher, Lastique immer hinterdrein. Schmätterle steht rechts vorn am kleinen
          Tisch und schlägt Takt).

        
",28,clemens-charlot,24,2,0.0,0.08333333333333333
57,comedy,Knüppe,M,shoemaker,crafts,lower_middle_class,"
          
Knüppe:

          
O, hewe mi, — Ütter — — wenn de noch ein Wort saasch, drähj ich dr de Hals zweimol rum. — — Jetz
          kenne mir dene Owe kenn Sitzung mache! — — Küh — Küh! — —

        
",28,clemens-charlot,45,2,0.0,0.044444444444444446
58,comedy,Schmätterle,M,musician,professionals_scientific_technical,lower_middle_class,"
          
Schmätterle:

          
Heisst-r villicht Kühhorn oder Kühkummet?

        
",29,clemens-charlot,8,1,0.0,0.125
59,comedy,Knüppe,M,shoemaker,crafts,lower_middle_class,"
          
Knüppe:

          
Naan — naan, ich wurr e Narr, ich hänk mich uff, wänn ich diss Wort nitt find — 
          
(bleibt plötzlich stehen).
 Stille — psst — ich habs fascht — ganz ruehj — 
          
(brüllt)
 Charlot, hämmer nitt! — Ganz stille, jetz kumm i druff. 
          
(Charlot und Lastique stehen vor ihm und staunen ihn gespannt an).

        
",29,clemens-charlot,71,14,1.6221899139573728,0.19718309859154928
60,comedy,Lastique,M,,,,"
          
Lastique:

          
O, wie bonne chance, er hett's, er isch kumme druff.

        
",30,clemens-charlot,17,2,2.3070989345719974,0.11764705882352941
62,comedy,Schmätterle,M,musician,professionals_scientific_technical,lower_middle_class,"
          
Schmätterle:

          
(fängt an zu singen ganz feierlich)

          
Trääräää, trääräää.

        
",31,clemens-charlot,14,3,1.7018077193463943,0.21428571428571427
63,comedy,Knüppe,M,shoemaker,crafts,lower_middle_class,"
          
Knüppe:

          
Da — jetz — e Nuntebuckel! — Jetz hett der mrs mit sim Trärä widder ewäkgeblose — ich habs uf dr
          Zung leje ghett.

        
",31,clemens-charlot,28,2,1.8221714697594542,0.07142857142857142
64,comedy,Charlot,M,shoemaker,crafts,lower_middle_class,"
          
Charlot:

          
Ei spitze's erüss, Meischter.

        
",32,clemens-charlot,9,1,3.2263896045763283,0.1111111111111111
65,comedy,Schmätterle,M,musician,professionals_scientific_technical,lower_middle_class,"
          
Schmätterle:

          
Knüppe, ich weiss e Wort vun dr Küh, es kummt in dr Oper Wilhelm Tell vor — Rotschäck — gelle?

        
",32,clemens-charlot,25,2,1.4799952314570313,0.08
66,comedy,Knüppe,M,shoemaker,crafts,lower_middle_class,"
          
Knüppe:

          
Jetz hett i ball ebs gsaat. — Ihr mache mich noch ganz kumfüs.

        
",33,clemens-charlot,17,1,1.563106169930075,0.058823529411764705
68,comedy,Knüppe,M,shoemaker,crafts,lower_middle_class,"
          
Knüppe:

          
Oui, oui — ebs vun dr Küh, es kann kaan einfacher Wort gänn, diss Wort kann mr gar nitt vergässe, —
          awer ich weiss es nimmi — ich kumm nitt druff.

        
",34,clemens-charlot,38,6,0.0,0.15789473684210525
69,comedy,Lastique,M,,,,"
          
Lastique:

          
Mir isch ebs ningfahre in mini tête vun der Küh, — so vun dr Küh, wo lejt uf dr Stros.

        
",34,clemens-charlot,25,1,0.0,0.04
70,comedy,Charlot,M,shoemaker,crafts,lower_middle_class,"
          
Charlot:

          
(lacht)

          
Höhöhöhö! — Diss isch Kühpfläbber — dr Monsieur Kühpfläbber!

        
",35,clemens-charlot,16,1,0.0,0.0625
71,comedy,Knüppe,M,shoemaker,crafts,lower_middle_class,"
          
Knüppe:

          
Ich stell mich noch uf dr Kopf — 
          
(schreit)
 Naan, ich machs nitt — Ich mues diss Wort han, — diss Wort — —

        
",35,clemens-charlot,30,4,0.0,0.13333333333333333
73,comedy,Knüppe,M,shoemaker,crafts,lower_middle_class,"
          
Knüppe:

          
Aba — nix eso — nix eso! Halt, im Lexikon, 
          
(nimmt ein Buch vom kleinen Tisch, geht mit an den Tisch in der Mitte).
 Unter Ka — A — B
          — C D---F--J. Ka — kaka — Kuckuck — Kunde, Kugel, Kultus, Kunst, Kupfer. —

        
",36,clemens-charlot,64,5,0.8653837541447409,0.078125
75,comedy,Knüppe,M,shoemaker,crafts,lower_middle_class,"
          
Knüppe:

          
Es mues drinne sinn — es isch doch e Wort un do sinn alli Wöerter drinne unter Küh mues-es stehn 
          
(liest)
 Kuranzen, Kur 
          
(liest heimlich weiter).

        
",37,clemens-charlot,34,3,1.0735578721745755,0.08823529411764706
76,comedy,Schmätterle,M,musician,professionals_scientific_technical,lower_middle_class,"
          
Schmätterle:

          
Am End wisse Sie's nimmi rächt. — Heisst-r villicht Stier oder Ochs, oder Kühschtall, Kühfues,
          Biffdeck, oder Kuttlett, Kühmaue, Kühhütt? Jetz weiss i au nix meh, nix meh.

        
",38,clemens-charlot,41,2,0.0,0.04878048780487805
77,comedy,Knüppe,M,shoemaker,crafts,lower_middle_class,"
          
Knüppe:

          
""(trostlos)

          
Unter Ka steht's nitt, — jetz stehn mr do. — Ich Dolle, ich Pfohl, ich Pläbbs, ich Mops — e Härzwuet
          bekumm i — ebs eso ze vergässe! — Hewe mich, i wur massig. 
          
(nimmt das Buch und wirft es fort, trifft Charlot an den Fuss).

        
",38,clemens-charlot,65,6,1.5395205146048552,0.09230769230769231
78,comedy,Charlot,M,shoemaker,crafts,lower_middle_class,"
          
Charlot:

          
Autsch, miner Fues! Was kann denn der derfüer. — Jetz haw i genuej Millichsupp!

        
",39,clemens-charlot,20,1,2.874619928365903,0.05
79,comedy,Knüppe,M,shoemaker,crafts,lower_middle_class,"
          
Knüppe:

          
(stösst einen Schrei aus)

          
Diss isch's, diss isch's! Ich bin erlöest — dr Charlot hett's geroote.

        
",39,clemens-charlot,26,2,0.0,0.07692307692307693
80,comedy,Lastique,M,,,,"
          
Lastique:

          
Was hett er verroote?

        
",40,clemens-charlot,7,1,0.0,0.14285714285714285
82,comedy,Knüppe,M,shoemaker,crafts,lower_middle_class,"
          
Knüppe:

          
Gott-lowe-Dank! So heisst-r, — ass mr so e Name vergässe kann! — jetz haw ich's — Millichsupp
          heisst-r.

        
",41,clemens-charlot,25,1,0.0,0.04
83,comedy,Charlot,M,shoemaker,crafts,lower_middle_class,"
          
Charlot:

          
(stolz)

          
Jaa, dr Charlot kann alles, weiss alles, ""Charlot, der König des Kino"", Mensch-Maier!

        
",41,clemens-charlot,26,2,1.8950162359225713,0.07692307692307693
84,comedy,Lastique,M,,,,"
          
Lastique:

          
Oh, wie bin ich joyeux, ass isch hüsse diss Wort missérable — Milliksupp!

        
",42,clemens-charlot,18,2,0.0,0.1111111111111111
85,comedy,Knüppe,M,shoemaker,crafts,lower_middle_class,"
          
Alle:

          
(mit Freude)

          
Millichsupp — Millichsupp!

        
",42,clemens-charlot,10,1,0.0,0.1
86,comedy,Lastique,M,,,,"
          
Alle:

          
(mit Freude)

          
Millichsupp — Millichsupp!

        
",43,clemens-charlot,10,1,0.0,0.1
87,comedy,Schmätterle,M,musician,professionals_scientific_technical,lower_middle_class,"
          
Alle:

          
(mit Freude)

          
Millichsupp — Millichsupp!

        
",43,clemens-charlot,10,1,0.0,0.1
89,comedy,Knüppe,M,shoemaker,crafts,lower_middle_class,"
          
Knüppe:

          
Jetz glich diss Buech gholt biem Monsieur Millichsupp. — Awer z'erscht mues ich noch e Versel singe
          üewer mini Vergässlichkeit. — Schmätterle, s'Instrument erüss un dr Lauterbacher gspielt 
          
(es geschieht, Knüppe singt.)

          

            
""Jetz hann mir diss Wort, wie so lang ich hab gsuecht,

            
""Millichsupp"" heisst jo der Mann.

            
Es stammt vun der Küh, doch bin ich e Ochs,

            
Dass i so ebs vergässe nur kann.""

          

          
(Den Refrain spielt Schmätterle weiter, Knüppe und Lastique tanzen komisch, Charlot klopft den
          Takt dazu).

        
",44,clemens-charlot,105,7,0.0,0.06666666666666667
90,comedy,Urschel,F,,,,"
          
Urschel:

          
Jaa, dr Gücksel, bin ich denn im e Narrehüss? — Miner Mann hüpst do erum, wie e gstochener Geisbock,
          un die zwei süfere Friend sinn in minere Menage! 
          
(Alle erschrecken, Lastique und Schmätterle setzen sich schnell auf einen Stuhl und zeigen
          Knüppe die Schuhe; Knüppe kniet vor sie).
 Dü weisch, ass ich die nitt in minere Hüshaltung will
          hann. Die mache dich noch voll's maschücke, dü kannsch so wie so z'nachts nitt schlofe un babbelsch als
          Dings vun Geischter un fuchtelsch als mit de Ärm in dr Luft erum, wie e Gans, wenn se flieje will. Was
          welle den ihr zwei do?

        
",45,clemens-charlot,124,11,1.2266659963674214,0.08870967741935484
91,comedy,Lastique,M,,,,"
          
Lastique:

          
(höflich)

          
Ma chère Madame Knüppé, nix schelte, — ich will lonn anmesse e Portion de Soulier, — oui, Madame
          Knüppé.

        
",45,clemens-charlot,29,4,0.5115205694031817,0.13793103448275862
92,comedy,Urschel,F,,,,"
          
Urschel:

          
(nachspottend)

          
Nix, wüj, Madame Knüppe! Do mit dem do will ich ejch e Portion Soulier anmässe, nix wie nüss,
          Monsieur Gummi!

        
",46,clemens-charlot,31,1,0.0,0.03225806451612903
93,comedy,Schmätterle,M,musician,professionals_scientific_technical,lower_middle_class,"
          
Schmätterle:

          
Madame Knüppe, ich geh grad, ich hab mir nurre welle e Nauel in de Schueh schlaue lonn.

        
",46,clemens-charlot,22,4,1.0967866490742169,0.18181818181818182
94,comedy,Urschel,F,,,,"
          
Urschel:

          
Ihne schlaa ich e Nauel ins Hirn, in ihr verruckts, wänn ich sie noch emol do hinne antriff, sie
          Sparregagges. Ihr zwei sinn noch e Nauel an mim Totebaum, un do miner süfer Mann, der bringt mich noch
          vor dr Zitt unter de Bodde.

        
",47,clemens-charlot,53,7,0.6707210738302853,0.1320754716981132
96,comedy,Urschel,F,,,,"
          
Urschel:

          
(schlägt mit dem Teppichklopfer fest auf den Tisch.)

          
Stille, alter Knüppelüj! 
          
(Knüppe fällt vor Schreck in einen Stuhl, Charlot fällt vom Schemel auf den Boden, die beiden
          anderen verduften durch d. M.)

        
",48,clemens-charlot,43,4,1.363367559032409,0.09302325581395349
97,comedy,Charlot,M,shoemaker,crafts,lower_middle_class,"
          
Charlot:

          
(auf dem Boden sitzend)

          
Meischtere, es esch ebs gfalle!

        
",48,clemens-charlot,15,1,2.403985215260664,0.06666666666666667
98,comedy,Urschel,F,,,,"
          
Urschel:

          
Witte ufstehn, oder soll ich dr helfe, — kännsch die Bewegung? 
          
(fuchtelt mit dem Teppichklopfer).

        
",49,clemens-charlot,23,1,0.0,0.043478260869565216
99,comedy,Charlot,M,shoemaker,crafts,lower_middle_class,"
          
Charlot:

          
(sitzt schnell auf den Schemel)

          
Meischtere, — ich will se gar net kenne lehre.

        
",49,clemens-charlot,20,2,0.0,0.1
104,comedy,Urschel,F,,,,"
          
Urschel:

          
Jerum, jerum, was haw ich bie dr Madame Pfätzer erfahre müen, — naan, so ebs, — ich kann nimi redde
          vor Ärjer.

        
",52,clemens-charlot,30,2,0.0,0.06666666666666667
106,comedy,Urschel,F,,,,"
          
Urschel:

          
Sie hett mr gsaat d'Madame Pfätzer — un wenn die ebs saat, no isch's wohr, — üewerall verzehle se,
          du dätsch mit-em Schmätterle un mit dem Gummielastique geheimi Spiritüssitzunge abhalte mit
          Geischterbschwöerunge un Häxedänz.

        
",53,clemens-charlot,42,5,0.740400840815898,0.11904761904761904
108,comedy,Urschel,F,,,,"
          
Urschel:

          
(schlägt mit dem Teppichklopfer auf den Tisch).

          
Stille, wenn ich redd! 
          
(Knüppe fällt in den Stuhl, Charlot wieder auf den Boden).

        
",54,clemens-charlot,32,1,0.0,0.03125
109,comedy,Charlot,M,shoemaker,crafts,lower_middle_class,"
          
Charlot:

          
Meischtere, es isch schun widder ebs gfalle!

        
",54,clemens-charlot,11,1,2.403985215260664,0.09090909090909091
110,comedy,Urschel,F,,,,"
          
Urschel:

          
(droht)

          
Witte! — 
          
(zu Knüppe)
 Dü bisch e Nauel an mim Dotebaum — dü — dü Diss un dü Zäll — dü oh, ich find
          kenn Wöerter meh! Ich mach dir Spiritüssitzunge, bis d'ganz Menage abbrännt, drum saa ich dir
          Knüppelüj, wänn ich die zwei noch emol in minere Hüshaltung antriff, no brüchsch nitt ze saue
          Gott-strof-mi — denn no 
          
(holt mit dem Teppichklopfer zum Schlag aus).

        
",55,clemens-charlot,84,4,2.2364099114032068,0.047619047619047616
111,comedy,Charlot,M,shoemaker,crafts,lower_middle_class,"
          
Charlot:

          
(f. s.)

          
Jetz schlaat's in! 
          
(hält sich fest am Schemel).

        
",55,clemens-charlot,19,2,1.9843257302069455,0.10526315789473684
112,comedy,Knüppe,M,shoemaker,crafts,lower_middle_class,"
          
Knüppe:

          
Liewi Urschel, nitt schlaue — nit schlaue.

        
",56,clemens-charlot,11,3,0.9415091048207667,0.2727272727272727
113,comedy,Urschel,F,,,,"
          
Urschel:

          
Du weisch jetz dini Ordre! Naan, eine so in Verruf ze bringe — ich mues e Bris nämme, ass ich mich
          widder calmiere due vun dere Uffrejung. Wo isch denn mini Schnupfdüwaksbüechs?

        
",56,clemens-charlot,39,2,2.4368955527637284,0.05128205128205128
114,comedy,Charlot,M,shoemaker,crafts,lower_middle_class,"
          
Charlot:

          
(f. s)

          
Jetz kumme d'Maiatzle. 
          
(laut)
 Meischtere, dort steht se, ich sieh se vun do — Meischter, d'Schueh sinn
          ferdi.

        
",57,clemens-charlot,33,2,0.6967794526978695,0.06060606060606061
115,comedy,Urschel,F,,,,"
          
Urschel:

          
Ah, do isch se jo — ich mues als hin un widder e Bries nämme 
          
(nimmt eine Prise, schreit erschreckt auf, wirft die Büchse fort. Charlot verschwindet d. d.
          M.)
 Uh — was isch in dem Bries, ebs krawlich's, es schückert mi ganz!

        
",57,clemens-charlot,55,7,1.1007299322937432,0.12727272727272726
117,comedy,Urschel,F,,,,"
          
Urschel:

          
Diss isch kenn anderer, wie dr Charlot gsinn, wart, Bürschtel! — gäll er isch schun durich d'Latte?
          Was mich der Bue verzüernt. Awer natirli, wenn dr Meischter nix isch, was soll no dr Lehrbüe erscht
          sinn. Oh, der Wackes, der isch au e Nauel an mim Dotebaum. 
          
(hebt die Büchse auf).

        
",58,clemens-charlot,69,3,2.135625782704698,0.043478260869565216
118,comedy,Knüppe,M,shoemaker,crafts,lower_middle_class,"
          
Knüppe:

          
(f. s.)

          
Ich mues mache, ass ich furt kumm, s'Buech hole. 
          
(laut)
 Frau, ich tra die Schueh furt zum Herr Dokter Schlänzer, do gitt's s'Geld glich. 
          
(Wickelt die Schuhe in ein schwarzes Tuch.)

        
",59,clemens-charlot,51,6,0.7260394542156723,0.11764705882352941
119,comedy,Urschel,F,,,,"
          
Ursehel:

          
Awer ich will's Geld sähn un glich heime, nitt inkehrt.

        
",59,clemens-charlot,15,1,0.0,0.06666666666666667
120,comedy,Knüppe,M,shoemaker,crafts,lower_middle_class,"
          
Knüppe:

          
Jaja, Urschel, uf dr Centime bekummsch's Adjeh! 
          
(a. M.).

        
",60,clemens-charlot,18,2,1.495230531544392,0.1111111111111111
121,comedy,Urschel,F,,,,"
          
Urschel:

          
Ich will gehn, d'Millich hole un Schnupfdüwack, ich mues e Bries hann. 
          
(a. r.).

        
",60,clemens-charlot,23,1,0.0,0.043478260869565216
122,comedy,Charlot,M,shoemaker,crafts,lower_middle_class,"
          
Charlot:

          
(streckt den Kopf durch d. M.)

          
D'Luft isch widder süfer. D'Meischtere geht furt Millich hole. Ich bin zitter in dr Küeche gsinn un
          hab Dampf- 
          
nüdle gstücht im Küechekänschterle un hab d'Katz nin gsperrt, no meint mr d'Katz hett se
          gfrässe. Höhöhöhö! Ich hab Kohldampf, zitter dene Middaa isch schun lang 
          
(nimmt eine Dampfnudel aus dem Sack und isst)
 Aah, sinn die fein — Mensch — Maier! Die
          schmecke im Charlot. So Schuehpächeslehrbue isch halt kaan Läwe, bin ich froh, wenn i üssgelehrt hab.
          No hänk ich der Schuehpäches an de Nauel un geh an de Kines un wurr Kinoschauspieler, no spiel ich als
          so gelungeni Rolle wie dr Charlot — no wurr ich dr Charlot un üwerall hängt als derno min Portrait mit
          grosse Buechstawe drunter: ""Charlot, der König des Kino!"" — Mensch — Maier! 
          
(greift in die Tasche)
 Diss isch's s'lescht Dampfnüdel. 
          
(isst)
 Jaa, ich hab Talent. Ihr sotte mich emol sähne wenn ich als Kino spiel im Hoft bi
          uns, mini Kamerade lache sich als halwer krumm so gelunge mach ich diss. Warte, ich spiel ejch emol ebs
          vor, s'nejschte Stüeckel vun mir, es heisst: ""Le premier Cygarette"" oder ""Ojeeh, ich bekumm Büchweh.""
          Attention! 
          
(stellt einen Stuhl vor den Tisch in d. M.)
 Also e Kneckes hett e Cigarettel gfunde 
          
(nimmt die Cigarette vom Schmätterle, zündet sie an und raucht mit spitzem Munde wie ein Junge,
          welcher zum ersten Male raucht)
 Er zünd't's an un raucht ganz vergnüejt aan Zugg noch-em andere.
          
          
(er raucht nun, alles mit grossen Gesten begleitend — nimmt einen langen Zug, blässt den Rauch
          gravitätisch aus, immer grosses Vergnügen zeigend und ohne zu sprechen, alles pantomimisch, — er nimmt
          wieder einen grossen Zug, hält plötzlich inne, betrachtet argwöhnisch die Cigarette, lacht aber dann
          und raucht weiter. Plötzlich dasselbe Spiel wie vorher, verzieht das Gesicht schmerzhaft, greift an den
          Leib, schüttelt den Kopf, lacht und raucht weiter. Er ist ganz entzückt, plötzlich greift er mit beiden
          Händen an den Leib, verzieht das Gesicht, zieht die Beine schmerzhaft in die Höhe, wirft die Cigarette
          fort, hält sich den Leib und läuft durch d. M. a.)

        
",61,clemens-charlot,432,40,1.9786187734691527,0.09259259259259259
123,comedy,Urschel,F,,,,"
          
Urschel:

          
(d. d. M.)

          
Achtung, d'Millich — dü Lüsangel, jetz hett i noch ball de Hafe keje lonn, so hett der mich
          verschreckt — Charlot! 
          
(ruft laut)
 Charlot — ja do — Oh, diss isch noch e Nauel an mim Dotebaum. Na awer so wie
          der se dissmol bekummt, so hett-r se noch nie bekumme — Ich will jetz in d'Küeche s'Znachtässe rischte
          denn dr Knüppe wurd au glich kumme un no mues er mr dr Charlot so versohle, awer doppelsohle, ass-r
          nimi sitze un nimi leje kann, der Erzmalefixmilldebibbnundebuckels — oh ich weiss kenn Name meh füer
          dene — — — Dejfel! 
          
(a. r.)

        
",61,clemens-charlot,126,12,1.681058514138323,0.09523809523809523
124,comedy,Charlot,M,shoemaker,crafts,lower_middle_class,"
          
Charlot:

          
(steckt den Kopf zur Tür M. herein)

          
Isch's g'hier? Ähä s'isch nieme do! 
          
(kommt herein)
 Jetz was saue-nr? Haw i nitt gelunge gspielt, hä? — Wo | isch denn
          d'Meischtere? Ich will emol lüeje. 
          
(schaut r.)
 Aaaha, do sitz se in dr Küeche un schält Grummbeere. Na, no kann mr noch e
          bissel Kino spiele. Warte jetz hol ich miner Kamerad dr Charlot Nummero Zwei. 
          
(Holt von links eine Puppe, welche genau so aussieht wie Charlot, dieselbe hat einen Hut, sog.
          Schweller auf)
 Voilà, Messieurs-Dames: Charlot Nummero Zwei! 
          
(spricht mit der Puppe)
 Mach dini Révérence 
          
(verneigt die Puppe gegen das Publikum)
 Es kommt zum Vortrag ""Charlot ""Eins"" un Charlot
          ""Zwei""! 
          
(singt):

          

            
1.

            
""Ich bin dr Charlot Nummero Eins. Zwiwele ...

            
Diss isch dr Charlot Nummero Zwei. Zwiwele ...

            
Ob Charlot Eins oder Charlot Zwei, Zwiwele . . .

            
Sinn mir doch nur Einerlei. Refrain.

          

          

          

            
2.

            
Charlot Zwei isch nur e Bubb, Zwiwele...

            
Er isst kein Fleisch un au keine Supp, Zwiwele...

            
Doch kann er danze hochmodern. Zwiwele . . .

            
Drum haw ich ihne au so gern. Refrain.

          

          
(Melodie: Ich bin der Doktor Eisenbart.)

          
(Den Refrain spielt die Musik zweimal. Charlot tanzt mit seiner Puppe komisch auf der Bühne
          herum, dann hört man draussen die Meisterin aufschreien und eine Katze miauen.)

        
",62,clemens-charlot,278,15,1.0153189902956634,0.0539568345323741
125,comedy,Charlot,M,shoemaker,crafts,lower_middle_class,"
          
Charlot:

          
(hält inne mit tanzen)

          
Was isch diss? Aha, d'Meischtere hett d'Katz im Känschterle gfunde. Jetz gitt's glich widder e
          Dunderwetter — Sie wurd jetz glich kumme. Wart, diss mache mr eso, diss gitt e gelungener Farce. 
          
(setzt die Puppe auf den Stuhl an den Tisch)
 So — diss bin jetz ich. Armer Charlottel
          ""Zwei"" — jetz griejsch Schmier. Derfsch ebs liede füer mich, griejsch au e Schmutz. 
          
(küsst die Puppe)
 Salü Charlottel! Ich geh jetz un setz mich unter zelle Disch un
          schpannief was jetz kummt. 
          
(setzt sich unter den kl. Tisch r. dem Publikum gut sichtbar)
 Aha, ich höer se schun!

        
",62,clemens-charlot,133,12,0.9118840052356866,0.09022556390977443
126,comedy,Urschel,F,,,,"
          
Urschel:

          
(hört man draussen raisonieren, kommt dann herein v. r.)

          
Diss isch doch zeviel was zeviel isch — un diss isch zeviel! Dampfnüdle hett-r gässe un hett d'Katz
          ins Känschterle gsperrt. Ich saa jo — ich sterb noch vor Ärjer, dr Charlot isch e Nauel an mim Dotebaum
          — naan so ebs isch doch noch nitt do gsinn in dr Weltgschicht, diss isch noch ärjer wie Sodoma un
          Gagumera. Wenn ich jo dene Charlot unter d'Händ bekumm — no —

        
",63,clemens-charlot,91,5,0.9313041571888986,0.054945054945054944
128,comedy,Urschel,F,,,,"
          
Urschel:

          
Wer redd denn do? 
          
(schaut herum)
 Do sitzt jo dr fräch Spatz am Disch un macht ""ähä"", Wart jetz mach ich
          emol ""ähä"". Numme sitze gebliewe un nitt üssgerisse. 
          
(nimmt den Teppichklopfer und schlägt der Puppe damit auf den Hut.)
 So, dü Galeesome, dü
          Dieb, dü Katzemoller. Dampfnüdelstücher — So, jetz hesch se emol bekumme, awer diss isch erscht dr
          Anfang, jetz gitt's dr Rescht füer d'Maikäfer.

        
",64,clemens-charlot,92,6,2.64081351408033,0.06521739130434782
130,comedy,Urschel,F,,,,"
          
Urschel:

          
So e Frächheit, 
          
(haut noch einige Male auf den Hut, welcher der Puppe in den Kopf hinein fällt.)
 So un
          jetz marsch los in's Bett, ohne Znachtässe. Stehsch ball uff?

        
",65,clemens-charlot,41,3,2.7076424315206746,0.07317073170731707
134,comedy,Urschel,F,,,,"
          
Urschel:

          
Was hesch denn, hesch denn arich weh?

        
",67,clemens-charlot,11,1,3.998158450496503,0.09090909090909091
136,comedy,Urschel,F,,,,"
          
Urschel:

          
Charlot — steh doch uff — Dü bisch awer au so e böeser Bue un stellsch alles an. Alle steh uff. 
          
(ängstlich)
 Der mückst sich jo nitt — am End haw ich-em ebs verletzt. Charlottel 
          
(streichelt die Puppe am Rücken)
 Charlottel, läbsch noch?

        
",68,clemens-charlot,54,5,4.429034461073078,0.09259259259259259
138,comedy,Urschel,F,,,,"
          
Urschel:

          
Bisch dot ?

        
",69,clemens-charlot,5,1,2.8916381636618476,0.2
140,comedy,Urschel,F,,,,"
          
Urschel:

          
Jerum, jerum — dü bisch awer au so e ungarschticher Bue, mr muess dir jo als Schläj gänn. Kumm ich
          will dr Luft mache, mach de Hut erunter — 
          
(will den Hut abnehmen, der ganze Kopf geht aber mit. Der Kopf ist eine sog.
          Dirlipse.)

        
",70,clemens-charlot,57,5,0.504461315207604,0.08771929824561403
141,comedy,Urschel,F,,,,"
          
Urschel:

          
(lässt einen Schrei aus, wirft den Kopf in die Ecke und sinkt in einen Stuhl)

          
Helfe, helfe! Gschpänschter, Häxe, Geister, 
          
(ruft)
 Knüppelüj, Knüppe — oh ich kann nimm — Lüj !!

        
",70,clemens-charlot,45,6,0.6941114574707375,0.13333333333333333
142,comedy,Knüppe,M,shoemaker,crafts,lower_middle_class,"
          
Knüppe:

          
(d. d. M.)

          
Was isch denn Frau — liewi Urschel redd?

        
",71,clemens-charlot,16,1,2.8245273144623,0.0625
143,comedy,Urschel,F,,,,"
          
Urschel:

          
(ganz schwach)

          
Ooooh! Do lüej am Disch, ich hab gemeint es isch dr Charlot — er isch verhäxt.

        
",71,clemens-charlot,25,2,0.7815530849650375,0.08
144,comedy,Knüppe,M,shoemaker,crafts,lower_middle_class,"
          
Knüppe:

          
(geht ängstlich zurück)

          
Ver-hä-häxt! — Ja liewi Urschel, es gitt Sache zwische Himmel un Erd wie mir kenn Ahnung dervun
          hänn.

        
",72,clemens-charlot,28,5,3.0836827974008596,0.17857142857142858
147,comedy,Urschel,F,,,,"
          
Urschel:

          
Ich hab doch nix gsaat, ich bring jo kenn Wort erüss vor Schwäche.

        
",73,clemens-charlot,17,2,0.0,0.11764705882352941
148,comedy,Knüppe,M,shoemaker,crafts,lower_middle_class,"
          
Knüppe:

          
(geht ängstlich näher)

          
Dem fählt jo dr Kopf.

        
",74,clemens-charlot,13,2,2.1093487787575067,0.15384615384615385
151,comedy,Urschel,F,,,,"
          
Urschel:

          
(brüllt)

          
Loss mich doch emol mit Fridde — ich hab jo nix gsaat, hörsch denn nitt ass ich kenn Wort erüss
          bring vor Schräcke.

        
",75,clemens-charlot,30,4,1.0680164446842932,0.13333333333333333
152,comedy,Knüppe,M,shoemaker,crafts,lower_middle_class,"
          
Knüppe:

          
Doch mr höert's — awer ich hab grad gemeint dü hesch Ähä gemacht. 
          
(betrachtet die Puppe genauer)
 Diss isch jo e üssgstopfti Bubb, wie grad so üssieht wie
          dr Charlot un vor dere Bubb hesch dü Angscht ghett, Urschel?

        
",76,clemens-charlot,48,5,1.872851454947313,0.10416666666666667
153,comedy,Urschel,F,,,,"
          
Urschel:

          
Was isch's, e Bubb! Jerum, jerum, was stellt dr Charlot alles an — er muess mr zuem Hüss nüss oder
          dü fliehsch nüss, so mach i nimi witterscht — der isch jo e Nauel an mim Dotebaum.

        
",76,clemens-charlot,46,1,0.0,0.021739130434782608
155,comedy,Urschel,F,,,,"
          
Urschel:

          
Was hesch widder ze brummle, dü alter Pfohl. Naan was macht der Mann mich redde, ich muess mich
          verzüerne! 
          
(wirft die Puppe nach Knüppe.)

        
",77,clemens-charlot,33,4,1.742444313100466,0.12121212121212122
156,comedy,Charlot,M,shoemaker,crafts,lower_middle_class,"
          
Charlot:

          
(f. s.)

          
Armer Charlottel !

        
",78,clemens-charlot,9,1,0.0,0.1111111111111111
157,comedy,Knüppe,M,shoemaker,crafts,lower_middle_class,"
          
Knüppe:

          
(wirft die Puppe 1. hinaus)

          
Sej doch nitt so uffgerejt — rejt dich doch widder ab, ich mach jo alles was de witt han. Ah, ass
          ich d'Redd nitt vergäss, dü sollsch's zue dr Mamselle Bergall kumme anbrowiere, awer glich — sie hett
          mir's vori gsaat.

        
",78,clemens-charlot,59,2,0.6967794526978695,0.03389830508474576
158,comedy,Urschel,F,,,,"
          
Urschel:

          
Na ze will ich glich gehn. — In dr Küeche isch 's Ässe gerischt — ich hab kenn Hunger meh, ich drink
          noch e bissel Kaffi wenn i kumm un dr Charlot glich nuff ins Bett, ohne Znachtässe.

        
",79,clemens-charlot,44,3,1.0183472543389527,0.06818181818181818
160,comedy,Urschel,F,,,,"
          
Urschel:

          
Ich geh jetz — ich geh durich d'Küeche. — Ah, wie hesch au s' Geld vun de Schueh?

        
",80,clemens-charlot,24,1,0.0,0.041666666666666664
161,comedy,Knüppe,M,shoemaker,crafts,lower_middle_class,"
          
Knüppe:

          
Grad haw ich dr's welle gänn — do liewi Frau, 6 Franke — un dü brüchsch nitt so glich heim ze kumme,
          wenn de e bissel babble witt, ich bsorri alles, gäll Frau?

        
",80,clemens-charlot,41,4,1.639787634635545,0.0975609756097561
162,comedy,Urschel,F,,,,"
          
Urschel:

          
S'isch rächt Knüppelüj. — Ich hab doch viel mit-ere ze redde mit dr Mamselle Bergall üewer dene Fall
          vun dr Hochzitt vum Gluckser Salome un no weiss i noch ebs vun dr Madame Kräjer ihrem Mann, na ich geh
          jetz. 
          
(a. r.)

        
",81,clemens-charlot,50,5,0.0,0.1
163,comedy,Knüppe,M,shoemaker,crafts,lower_middle_class,"
          
Knüppe:

          
Gottlowedank ass se los isch. 
          
(glücklich)
 Ich hab's Buech bekumme, ich hab's versteckelt unter dr Kellerstäj. Jetz
          kenne mir e spiritistischi Sitzung mache un mit em Geischt vun unserem verstorwene Friend Quätschel in
          Verbindung trätte. Ich bin ganz uffgerejt — wenn's numme glüeckt? O ja, dr Monsieur Millichsupp hett's
          gsaat, wenn mr's genau mache wie's im Buech steht. Ich will au im Lastique un Schmätterle ruefe no
          fange mr glich an. 
          
(im Abgehen)
 Es isch doch so e wunderbar's Emfinde mit Geister in Berührung zu kumme. 
          
(a. d. d. M.)

        
",81,clemens-charlot,115,18,0.7946581825548501,0.1565217391304348
164,comedy,Charlot,M,shoemaker,crafts,lower_middle_class,"
          
Charlot:

          
(kommt unter dem Tisch hervor)

          
Hahaha, Höhöhöhöhö! Hihihihihi!! Jetz muess ich erscht emol lache, diss soll nitt gelunge sinn
          gsinn, Mensch, Maier! Wie d'Meischtere als mim Charlottel de Äpfel getroffe hett. 
          
(sitzt auf einen Stuhl und lacht mit komischen Gebärden).
 Awer jetz kummt s'nättscht, dr
          Meischter will do hinne in dere Stubb e Spiritüssitzung abhalte un will mit-em Geischt vum Quätschel
          redde — Ah, do hinne soll gspückt wäre — na warte, ich will au mitspücke, dr Charlot kann alles,
          Mensch, Maier! Was kennt mr do los lonn? 
          
(sucht in den Taschen)
 E Messer — e Lädel — ah, do isch Juckpulver drinne, diss haw ich
          bim Drogischt kauft. Was kennt mr do mit anstelle? — Ich höer se kumme. Ich geh widder unter de Disch,
          ich wurr die Sach schun schmisse — ich dr ""Charlot, der König des Kino!"" Mensch — Maier! 
          
(setzt sich wieder unter den Tisch, r.)

        
",82,clemens-charlot,192,15,1.2478303252209755,0.078125
165,comedy,Knüppe,M,shoemaker,crafts,lower_middle_class,"
          
Knüppe:

          
(d. d. M. mit Lastique und Schmätterle)

          
Kumme numme erin, mini Frau isch furt, s'isch nieme do hinne, wie mir drej. 
          
(hat das Buch in der Hand.)

        
",82,clemens-charlot,39,1,1.393558905395739,0.02564102564102564
167,comedy,Lastique,M,,,,"
          
Lastique:

          
(ängstlich)

          
Isch die gueti Madame ne pas ici?

        
",83,clemens-charlot,13,3,1.4062325191716711,0.23076923076923078
169,comedy,Schmätterle,M,musician,professionals_scientific_technical,lower_middle_class,"
          
Schmätterle:

          
Isch's au sicher ass se nitt kummt allwill ich do bin, denn ich möcht nitt hann, ass se uff mim
          Bueckel Grossdrumm dät schlaue.

        
",84,clemens-charlot,30,5,0.48638029512290054,0.16666666666666666
170,comedy,Knüppe,M,shoemaker,crafts,lower_middle_class,"
          
Knüppe:

          
Ruehj ihr Friend! Meine ihr ich dät do e Sitzung abhalte wänn's nitt ganz ghier wär! Mini Frau isch
          bi dr Nähjere un kummt vor zwei Stund 
          
nitt. Nieme wurd uns jetz stöere wenn mir mit de Geischter redde welle — Friend, ich hab's
          Buech — s'Buech wie uns Gewalt in d'Hand gitt d'Geischter ze banne un se unserm Wille ze unterwerfe. 
          
(liest im Buch)
""Der Spiritismus"" vun Professor Giggax. Do steht jetz: Zue-re Sitzung un
          Geischterbeschwörung mues mr e Tisch mit-eme schwarze Tuech bedecke. Do isch eins 
          
(nimmt das schwarze Schustertuch aus der Tasche und legt es auf den Tisch).
 Jetz noch
          zwei Kerze, in dr Küeche sinn. 
          
(a. r.)
 D'Frau hett se am letschte Generalstreik kauft.

        
",85,clemens-charlot,146,17,0.6971863928141775,0.11643835616438356
171,comedy,Lastique,M,,,,"
          
Lastique:

          
Ich hab doch un peu Angscht, ich hab schun Schwitz uff dr tête.

        
",85,clemens-charlot,17,3,2.126842917713954,0.17647058823529413
172,comedy,Schmätterle,M,musician,professionals_scientific_technical,lower_middle_class,"
          
Schmätterle:

          
Es isch mir au so dumm im Lieb — hätt ich numme s'Piston mitgenumme, no kennt ich glich Alarm blose
          wänn's gfährli wurd.

        
",86,clemens-charlot,29,5,1.021392082149922,0.1724137931034483
174,comedy,Schmätterle,M,musician,professionals_scientific_technical,lower_middle_class,"
          
Schmätterle, Lastique:

          
| 
          
(fahren erschrocken herum)
 Wer hett do ""Ahä"" gemacht?

        
",87,clemens-charlot,18,2,0.0,0.1111111111111111
175,comedy,Lastique,M,,,,"
          
Schmätterle, Lastique:

          
| 
          
(fahren erschrocken herum)
 Wer hett do ""Ahä"" gemacht?

        
",87,clemens-charlot,18,2,0.0,0.1111111111111111
178,comedy,Knüppe,M,shoemaker,crafts,lower_middle_class,"
          
Knüppe:

          
Mer welle jo ken Fier mache — kenn Bricketl, Schwäwehöelzle, Allumette!

        
",89,clemens-charlot,16,1,0.0,0.0625
180,comedy,Knüppe,M,shoemaker,crafts,lower_middle_class,"
          
Knüppe:

          
Jetz müen mr alli drej näwenand sitze, so steht's do im Buech, s'Gsicht geje Sunneuntergang — diss
          isch — voilà ich hab's, do nüss müen mr lüeje 
          
(stellt drei Stühle hinter den Tisch M., so dass alle gegen das Publikum schauen).
 Jetz
          setze mir uns. 
          
(Sie nehmen am Tische Platz)
 — Kenn Kopfbedeckung derfe mr uffhann — so — Jetz sitze ganz
          stille un kenn Wort redde wie nitt notwendi isch.

        
",90,clemens-charlot,87,6,0.6061974274313638,0.06896551724137931
181,comedy,Charlot,M,shoemaker,crafts,lower_middle_class,"
          
Charlot:

          
(laut)

          
Ähä!

        
",90,clemens-charlot,7,1,0.0,0.14285714285714285
183,comedy,Lastique,M,,,,"
          
Lastique:

          
Ich nix gemacht ähä, do Monsieur Schmätterle.

        
",91,clemens-charlot,11,1,0.0,0.09090909090909091
184,comedy,Schmätterle,M,musician,professionals_scientific_technical,lower_middle_class,"
          
Schmätterle:

          
S'isch doch nitt wohr, kenn Ton haw i vun mr gänn.

        
",92,clemens-charlot,16,2,0.0,0.125
185,comedy,Knüppe,M,shoemaker,crafts,lower_middle_class,"
          
Knüppe:

          
Allons, allons — wie ihr nitt stille sinn, hew i d'Sitzung uff. 
          
(ganz geheimnisvoll).
 Ich gspier schun d'Nähde vun de Geischter, e Schücker durichrieselt
          mine Köerper vum Kopf bis in' der grosse Zeh. Ich rieder vor Spannung was wäre d'nächschte Minüte jetz
          füer Geheimnisse offebare un ihr müen ganz in dr Stimmung bliewe un de feschte Glauwe an d'Geischter
          hann, sunscht erschiene se nitt. Ich fröj ejch jetzt, gänn mir lütt un dittli Antwort: ""Glauwe Se
          fescht un mit üwerzejtem Härze an d'Geischter?

        
",92,clemens-charlot,104,25,1.0465122745950266,0.2403846153846154
187,comedy,Knüppe,M,shoemaker,crafts,lower_middle_class,"
          
Knüppe:

          
(schlägt wütend auf das Buch)

          
Sapristi, mache doch ken Viehheite, isch diss e Antwort, ""Ähä""! Ihr sinn doch kenn Buewe.

        
",93,clemens-charlot,31,1,0.0,0.03225806451612903
191,comedy,Lastique,M,,,,"
          
Lastique:

          
(wütend)

          
Wie kumme sie mir devant, mille des gratteaus.

        
",95,clemens-charlot,15,2,0.6967794526978695,0.13333333333333333
192,comedy,Knüppe,M,shoemaker,crafts,lower_middle_class,"
          
Knüppe:

          
(abwehrend)

          
Ihr liewi Friend seje doch verständi, sunscht kenne mir jo kenn Sitzung mache. Ich bitt ejch sinn
          ruehj. Also mr gehn jetz wittersch. 
          
(liest im Buch)
 D'Händ krizwies uewer d'Bruscht gelajt — munke drejmol mit-em Kopf. 
          
(alle drei tun es).
 So — jetz wittersch — mr müen d'Stirn uff de Disch laje un drejmol e
          Gsetzel saue wie do steht — warte ich läs-es vor: 
          

          

            
""Gälrüewesaft un Wiedegrund,

            
Düdelsack, e Stück vum Hund,

            
Fleddermüs un Mondeschien,

            
Drejmol drej isch ungrad nien.

            
Güeter Geischt kumm un erschien !""

          
So laje de Kopf, diss heist d'Stirn uff's Dischplatt un saue diss drej mol. 
          
(Alle drei tun es.)

        
",96,clemens-charlot,138,13,1.6534470863661406,0.09420289855072464
193,comedy,Charlot,M,shoemaker,crafts,lower_middle_class,"
          
Charlot:

          
(f. s.)

          
Die sinn jo mabull. Do kennt s'Juckpulver helfe.

        
",96,clemens-charlot,17,1,0.0,0.058823529411764705
194,comedy,Knüppe,M,shoemaker,crafts,lower_middle_class,"
          
Knüppe:

          
Fange mr an! 
          
(Sie sagen den Spruch langsam mit tiefer Stimme her, während dessen kommt Charlot vor, geht
          hinter sie und streut jedem Juckpulver auf die Glatze, dann geht er wieder in sein Versteck, indem er
          vergnügt lacht. — Bei dem dritten Mal hersagen kommt einer nach dem andern mit dem Arm in die Höhe und
          kratzt sich mit dem Zeigefinger auf der Glatze.)

        
",97,clemens-charlot,75,5,1.46764073291696,0.06666666666666667
195,comedy,Knüppe,M,shoemaker,crafts,lower_middle_class,"
          
Knüppe:

          
Mericke-nr noch nix? Wie stille ass-es isch, mr gspiert schun d'Nähde vun de Geischter gälle?

        
",97,clemens-charlot,21,3,0.529170233438538,0.14285714285714285
196,comedy,Lastique,M,,,,"
          
Lastique:

          
Ich schun gspier uff der tête, so gribbeli-grabbeli.

        
",98,clemens-charlot,12,1,2.4319014756145028,0.08333333333333333
198,comedy,Knüppe,M,shoemaker,crafts,lower_middle_class,"
          
Knüppe:

          
Mich au. 
          
(alle drei kratzen)
 Awer diss muen d'Geischter sinn wie um uns erumschwäwe.

        
",99,clemens-charlot,21,1,0.0,0.047619047619047616
199,comedy,Schmätterle,M,musician,professionals_scientific_technical,lower_middle_class,"
          
Schmätterle:

          
Wenn diss eso bisst no solle se glich zuem Deifel schwäwe.

        
",99,clemens-charlot,14,1,0.0,0.07142857142857142
200,comedy,Charlot,M,shoemaker,crafts,lower_middle_class,"
          
Charlot:

          
(kann sich vor lachen nicht mehr halten, lacht laut)

          
Höhöhöhöhö!

        
",100,clemens-charlot,16,3,0.0,0.1875
201,comedy,Knüppe,M,shoemaker,crafts,lower_middle_class,"
          
Knüppe:

          
Scht — welle ihr nitt lache, diss kann unser Dot sinn — wenn mr d'Geischter verzüerne. — Diss sell
          nitt bisse, e Nuntebuckel — 
          
(kratzen wie verrückt)
 Awer lonn mr bisse was bisst — bisse mr dergeje un bisse d'Zähn
          zamme. Jetz kummt d' Hauptsach! Do steht's im Buech, also gänn acht — Setze ejch grad wie e Stock,
          d'Aue geje de Himmel un d'Händ in d'Höh — —

        
",100,clemens-charlot,86,15,1.0598487839149484,0.1744186046511628
204,comedy,Knüppe,M,shoemaker,crafts,lower_middle_class,"
          
Knüppe:

          
Herrschaft, noch emol, schäme ejch, nitt emol so viel kenne ihr üsshalte! 
          
(kratzt sich mit beiden Händen).
 Also jetz isch genuej, diss müen mr verschmerze kenne. 
          
(Steht auf, hält die Arme in die Höhe, ebenso die andern und spricht in beschwörendem
          Tone)
""Dü Geischt, wo schwebt do in dr Luft, wie zittert, ringelt sich do nuff. Geischt vum
          Schakob Qüätschel, bisch du do hinne? Ich bschwör dich jetz — do ze erschinne.""

        
",102,clemens-charlot,96,4,0.0,0.041666666666666664
205,comedy,E Kaminfäjer,M,chimney_sweeper,elementary_professions,lower_class,"
          
Kaminfeger:

          
(kommt durch d. M., geht ganz vor l.)

          
Was Deifels?!

          
(Lastique un Schmätterle schlüpfen unter den Tisch.)

        
",102,clemens-charlot,27,2,0.7815530849650375,0.07407407407407407
206,comedy,Knüppe,M,shoemaker,crafts,lower_middle_class,"
          
Knüppe:

          
Wer bisch dü, ich fröj dich, redd!

        
",103,clemens-charlot,12,1,2.865893385104016,0.08333333333333333
207,comedy,E Kaminfäjer,M,chimney_sweeper,elementary_professions,lower_class,"
          
Kaminfeger:

          
Ich? Ich bin dr Kaminfäjer — morje früehj am acht wurd's Kamin gebutzt. Guet Nacht! 
          
(f. s.)
 Ich glaub, die hann e Fummel. 
          
(ab d. d. M.)

        
",103,clemens-charlot,39,4,1.009593076513263,0.10256410256410256
208,comedy,Charlot,M,shoemaker,crafts,lower_middle_class,"
          
Charlot:

          
(f. s.)

          
Jetz haw i ball sälwer Angscht bekumme.

        
",104,clemens-charlot,14,2,0.0,0.14285714285714285
209,comedy,Lastique,M,,,,"
          
Lastique:

          
(kommt unter dem Tisch hervor)

          
Oh hab ich bekumme e grosser Verschrocke von dem schwarze Fäjer de cheminée.

        
",104,clemens-charlot,23,4,0.0,0.17391304347826086
210,comedy,Schmätterle,M,musician,professionals_scientific_technical,lower_middle_class,"
          
Schmätterle:

          
Awer liewer e Ochs Piston lehre blose.

        
",105,clemens-charlot,10,3,0.0,0.3
211,comedy,Knüppe,M,shoemaker,crafts,lower_middle_class,"
          
Knüppe:

          
Jetz kenn Plän gemacht. Ihr brüche doch kenn Ängschte ze hann, e Geischt macht doch eim nix. — Ihr
          sinn doch Männer. — Der Kaminfäjer hett jetzt alles verdorwe, jetz müen mr noch emol die Bschwöerung
          mache, mr derfe uns d'Muehj nitt verdriese lonn. — Awer jetz will i Düer bschliese, 
          
diss hann mr vergesse. Alle ze mache d'Händ widder in d'Höeh, d'Aue geje de Himmel, ich
          will dr Geischt vun unserm Friend noch emol bschwöere, ich gspier's in mir, es glückt uns hitt Owe! 
          
(sagt den Spruch wieder her):

          

            
""Gälrüewesaft un Wiedegrund,

            
Düdelsack, e Stück vum Hund,

            
Fleddermüs un Mondeschien,

            
Drejmol drej isch ungrad nien.

            
Güeter Geischt kumm un erschien !""

          
Dü Geischt, wo schwebt do in dr Luft, wie zittert, ringelt sich do nuff, Geischt vum Quätschel —
          bisch dü do hinne?

        
",105,clemens-charlot,170,19,0.4519567538675535,0.11176470588235295
212,comedy,Charlot,M,shoemaker,crafts,lower_middle_class,"
          
Charlot:

          
(laut)

          
Ähä! 
          
(Alle drei fahren zusammen).

        
",106,clemens-charlot,14,2,0.0,0.14285714285714285
213,comedy,Knüppe,M,shoemaker,crafts,lower_middle_class,"
          
Knüppe:

          
Friend — hann-er ghöert?! S'isch dr Quätschel, es isch sinni Stimm.

        
",106,clemens-charlot,18,1,0.0,0.05555555555555555
215,comedy,Lastique,M,,,,"
          
Lastique:

          
Er hett gemacht ähä.

        
",107,clemens-charlot,7,1,0.0,0.14285714285714285
216,comedy,Knüppe,M,shoemaker,crafts,lower_middle_class,"
          
Knüppe:

          
Ich ruehj nitt — er mues uns erschinne, mr hann sinne Geischt do hinne. — Dü, Geischt vum Quätschel,
          gieb e Zeiche — min Wille duet dich zwinge, dü muesch!

        
",108,clemens-charlot,38,4,1.3796089734151427,0.10526315789473684
217,comedy,Charlot,M,shoemaker,crafts,lower_middle_class,"
          
Charlot:

          
(f. s.)

          
Wart, ejch due ich spücke, 
          
(klopft drei Mal an den Tisch, unter welchem er sitzt)

        
",108,clemens-charlot,26,3,1.6570397366222338,0.11538461538461539
218,comedy,Lastique,M,,,,"
          
Lastique:

          
Entrez, Monsieur Geischt!

        
",109,clemens-charlot,7,1,0.0,0.14285714285714285
219,comedy,Knüppe,M,shoemaker,crafts,lower_middle_class,"
          
Knüppe:

          
(entzückt)

          
Er hett e Zeiche gänn, er will erschinne. 
          
(liest im Buch — die beiden andern halten die Arme in die Höhe).

          

            
""Geischterfüerscht,

            
Entechrischt,

            
Häxebäse,

            
Seelewäse,

            
Gspänschterheer,

            
Do muesch her,

            
Geischt, bisch do hinne?

            
Ze due erschinne!""

          

          
(mit lauter Stimme)
 Ze due erschinne!! 
          
(alle drei rufen)
 Ze due erschinne!

        
",109,clemens-charlot,76,3,0.0,0.039473684210526314
221,comedy,Urschel,F,,,,"
          
Alle drej:

          
O jeeh! 
          
(können vor Schreck nicht aufstehen.)

        
",110,clemens-charlot,14,1,0.0,0.07142857142857142
222,comedy,Schmätterle,M,musician,professionals_scientific_technical,lower_middle_class,"
          
Alle drej:

          
O jeeh! 
          
(können vor Schreck nicht aufstehen.)

        
",111,clemens-charlot,14,1,0.0,0.07142857142857142
223,comedy,Lastique,M,,,,"
          
Alle drej:

          
O jeeh! 
          
(können vor Schreck nicht aufstehen.)

        
",111,clemens-charlot,14,1,0.0,0.07142857142857142
224,comedy,Charlot,M,shoemaker,crafts,lower_middle_class,"
          
Charlot:

          
Diss isch kenn lätzer Geischt — jetzt spückt's erscht!

        
",112,clemens-charlot,13,2,0.0,0.15384615384615385
225,comedy,Urschel,F,,,,"
          
Urschel:

          
Ich hab mir's doch halwer gedänkt, ass die widder do sinn — un was sieh ich do? Bougie brenne? Ah do
          wurd Spiritüs gemacht — ah, do wurd gspückelt! Awer jetzt spückt's au. — Ah, ihr hann gemeint, will ich
          furt bin, köenne ihr widder erin kumme? Isch diss de Respekt, wie ihr vor mir hann?

        
",112,clemens-charlot,72,3,0.46451963513191297,0.041666666666666664
226,comedy,Schmätterle,M,musician,professionals_scientific_technical,lower_middle_class,"
          
Schmätterle:

          
Ich kann vor Schrecke uff kein Baan stehn!

        
",113,clemens-charlot,11,2,1.2159507378072514,0.18181818181818182
227,comedy,Lastique,M,,,,"
          
Lastique:

          
Wenn ich nur wär e Geist, mille des gratteaus!

        
",113,clemens-charlot,13,1,1.2328064532467213,0.07692307692307693
228,comedy,Urschel,F,,,,"
          
Urschel:

          
Wart, Knüppelüj, dü hesch mich zue dr Nähjere gschickt, un die isch gar nitt d'heime gsinn, dü
          Löjebittel. Un hinter mim Rüecke wurd in minere Menage so Hanswurschteldings gemacht? Awer so isch's,
          wenn mr ze guet isch — du Knüppelüj, verdiensch gar kenn so Frau, wie ich eini bin — dü, dü bisch noch
          e Nauel an mim Dotebaum. 
          
(Holt den Teppichklopfer).

        
",114,clemens-charlot,80,5,0.4244989637391088,0.0625
229,comedy,Charlot,M,shoemaker,crafts,lower_middle_class,"
          
Charlot:

          
(f. s.)

          
Widder e Naul! — Wart, jetz mach ich e Geischt.

        
",114,clemens-charlot,19,2,1.061247409347772,0.10526315789473684
230,comedy,Urschel,F,,,,"
          
Urschel:

          
Un jetz nüss, ihr Spiritüsbrüeder, sunsch mach ich ejch Fier unter d'Hose. 
          
(will auf sie los hauen, Schmätterle und Lastique springen auf. Charlot kommt in dem Moment
          unter dem Tisch hervor, der Tisch fällt um. Er hat die weisse Tischdecke um sich, über den Kopf
          geschlagen, hält die Decke mit den übereinander geschlagenen Armen fest, geht einige Schritte gegen d.
          M., die andern ziehen sich ganz r. hinüber und schreien: E Gspänscht, e Gspänscht!)

        
",115,clemens-charlot,93,14,2.2751346522746503,0.15053763440860216
231,comedy,Charlot,M,shoemaker,crafts,lower_middle_class,"
          
Charlot:

          
(mit hohler Stimme)

          
Halt! Im Namme vun de Geischter! Jetz bin ich do Meischter!

        
",115,clemens-charlot,21,2,1.1248728339759169,0.09523809523809523
232,comedy,Knüppe,M,shoemaker,crafts,lower_middle_class,"
          
Alle:

          
(knien r. nieder, vor Angst fangen sie an zu sagen)

          
""Gälruewesaft un Wiedegrund u.s.w.""

        
",116,clemens-charlot,21,2,1.6032786710325957,0.09523809523809523
233,comedy,Lastique,M,,,,"
          
Alle:

          
(knien r. nieder, vor Angst fangen sie an zu sagen)

          
""Gälruewesaft un Wiedegrund u.s.w.""

        
",116,clemens-charlot,21,2,1.6032786710325957,0.09523809523809523
234,comedy,Schmätterle,M,musician,professionals_scientific_technical,lower_middle_class,"
          
Alle:

          
(knien r. nieder, vor Angst fangen sie an zu sagen)

          
""Gälruewesaft un Wiedegrund u.s.w.""

        
",117,clemens-charlot,21,2,1.6032786710325957,0.09523809523809523
235,comedy,Urschel,F,,,,"
          
Alle:

          
(knien r. nieder, vor Angst fangen sie an zu sagen)

          
""Gälruewesaft un Wiedegrund u.s.w.""

        
",117,clemens-charlot,21,2,1.6032786710325957,0.09523809523809523
236,comedy,Charlot,M,shoemaker,crafts,lower_middle_class,"
          
Charlot:

          
Ruehj — un höere jetzt was ich saa: Ihr, Meischter Knüppe un Lastique un Schmätterle verspreche do
          vor mir, dass ihr d'Geischter vun de Verstorwene ruehje lonn, denn, wenn ihr d'Geischter verzürne, ze
          isch diss ejer Dot — wenn nitt noch meh!

        
",118,clemens-charlot,53,6,1.0027647693333346,0.11320754716981132
237,comedy,Knüppe,M,shoemaker,crafts,lower_middle_class,"
          
Knüppe:

          
(zitternd)

          
Hochverehrter Herr Geischt, so wohr, wie ich do steh, ich will kenn Geischt meh anruefe!

        
",118,clemens-charlot,24,4,0.4629296288411405,0.16666666666666666
238,comedy,Schmätterle,M,musician,professionals_scientific_technical,lower_middle_class,"
          
Schmätterle:

          
Ich due min Läwe nimi spücke, spücke.

        
",119,clemens-charlot,11,3,4.9806099545401255,0.2727272727272727
241,comedy,Lastique,M,,,,"
          
Alle drei:

          
(weinend)

          
Mir schwöere!

        
",120,clemens-charlot,9,1,3.596061616744507,0.1111111111111111
242,comedy,Schmätterle,M,musician,professionals_scientific_technical,lower_middle_class,"
          
Alle drei:

          
(weinend)

          
Mir schwöere!

        
",121,clemens-charlot,9,1,3.596061616744507,0.1111111111111111
243,comedy,Knüppe,M,shoemaker,crafts,lower_middle_class,"
          
Alle drei:

          
(weinend)

          
Mir schwöere!

        
",121,clemens-charlot,9,1,3.596061616744507,0.1111111111111111
244,comedy,Urschel,F,,,,"
          
Urschel:

          
(zu Knüppe)

          
So isch's rächt. Der dressiert di!

        
",122,clemens-charlot,15,1,0.0,0.06666666666666667
245,comedy,Charlot,M,shoemaker,crafts,lower_middle_class,"
          
Charlot:

          
Stille! — Jetz kummt's an ejch! — —

        
",122,clemens-charlot,13,1,0.0,0.07692307692307693
246,comedy,Urschel,F,,,,"
          
Urschel:

          
Liewer Herr Heisch-wie-de-witt, ich bin e gueti Seel, un hab noch kenn Wurm beleidigt.

        
",123,clemens-charlot,19,6,1.6189088641440519,0.3157894736842105
247,comedy,Charlot,M,shoemaker,crafts,lower_middle_class,"
          
Charlot:

          
Stille!

        
",123,clemens-charlot,4,1,0.0,0.25
248,comedy,Urschel,F,,,,"
          
Urschel:

          
Ja!

        
",124,clemens-charlot,4,1,2.8271067047907557,0.25
249,comedy,Charlot,M,shoemaker,crafts,lower_middle_class,"
          
Charlot:

          
Ihr muen do vor mir verspreche — —

        
",124,clemens-charlot,10,1,0.0,0.1
250,comedy,Urschel,F,,,,"
          
Urschel:

          
Ich versprech alles!

        
",125,clemens-charlot,6,1,0.0,0.16666666666666666
251,comedy,Charlot,M,shoemaker,crafts,lower_middle_class,"
          
Charlot:

          
Stille — wenn ihr noch e Wort redde, ze mues ejch d'Häxemueter pfätze!

        
",125,clemens-charlot,18,2,0.0,0.1111111111111111
253,comedy,Charlot,M,shoemaker,crafts,lower_middle_class,"
          
Charlot:

          
Stille — zuem letschte Mol jetz! — Verspreche-n-ihr geje ejere Mann, andersch ze wäre, ihne nie meh
          ze chikaniere, noch ze schlaue.

        
",126,clemens-charlot,31,5,0.4148156789316215,0.16129032258064516
254,comedy,Knüppe,M,shoemaker,crafts,lower_middle_class,"
          
Knüppe:

          
(z. Publik.)

          
Der Geischt hett Verstand!

        
",127,clemens-charlot,12,2,0.0,0.16666666666666666
255,comedy,Urschel,F,,,,"
          
Urschel:

          
Ich versprech alles.

        
",127,clemens-charlot,6,1,0.0,0.16666666666666666
256,comedy,Charlot,M,shoemaker,crafts,lower_middle_class,"
          
Charlot:

          
Noch ebs! Verspreche-n-ihr, jede Wuch drejmol un alle Sunndaa einmol Dampfnüdle ze mache un de
          Charlot so lang ässe ze lonn, wie er Luscht hett?

        
",128,clemens-charlot,33,4,1.5391062402986668,0.12121212121212122
258,comedy,Charlot,M,shoemaker,crafts,lower_middle_class,"
          
Charlot:

          
Guet, ihr hann's gschwore. Jetz schwöere noch alli, dass ihr de Charlot nitt anrühere un ihm nix
          nochtraue wäje dene Stöess, wie er ejch hett losgelonn.

        
",129,clemens-charlot,34,2,0.0,0.058823529411764705
263,comedy,Charlot,M,shoemaker,crafts,lower_middle_class,"
          
Charlot:

          
So — un wenn ihr nitt halte, was ihr gschwore 
          
(mit drohender Stimme)
""Wehe, wehe, wehe!!!"" 
          
(Knüppe, Urschel, Schmätterle, Lastique vor Angst zitternd, halten die Hände bittend in die
          Höhe.)

        
",131,clemens-charlot,49,6,7.137197127875766,0.12244897959183673
265,comedy,Urschel,F,,,,"
          
Urschel:

          
Oh, min Härz, min Härz!

        
",132,clemens-charlot,10,2,0.0,0.2
266,comedy,Schmätterle,M,musician,professionals_scientific_technical,lower_middle_class,"
          
Schmätterle:

          
Ich blos ejch d'schöenscht Müsik.

        
",133,clemens-charlot,9,2,0.0,0.2222222222222222
268,comedy,Charlot,M,shoemaker,crafts,lower_middle_class,"
          
Charlot:

          
(mit natürlicher Stimme)

          
Mensch, Maier! 
          
(wirft das Tuch ab, mit gravitätischer Haltung)
""Charlot, der König des Kino!""

        
",134,clemens-charlot,30,1,2.740675195966691,0.03333333333333333
