,drama_type,speaker,sex,job,job_category,social_class,text,progress,short_name
0,comedy,Marie,F,cook,service_and_sales,,"
          
Marie

          
(rechts bi dr Thüre vom zweite Plan rieft üse)

          
Mache-n-ass Ihr jetz emol furt kämme, Schlüch!...

          
Gott, wie thüet mich dà Mensch efange-n-agaciere!...

          
Güet, jetz thüet er si schwarze Nase noch in mi hintere
                        Kochhafe stosse... höre-n-Ihr denn nitt, ass dr Herr
                        dert in sim Zimmer isch un sich alegt... fahre-n-ab
                        jetz, nitt ass er I hit scho wieder do atrifft, er ka
                        wohl denke, ass mi Kàmi nitt alle Tag z'putze-n-isch...

        
",0,lustig-d-singstund
1,comedy,Herr TANNEZAPFE,M,rentier,rentiers,,"
          
Herr Tannezapfe

          
(voruse, links)

          
Marie!...

        
",0,lustig-d-singstund
2,comedy,Marie,F,cook,service_and_sales,,"
          
Marie.

          
Höre-n'-r!... dr Herr, wo mr rieft...
(antwortet)

          
Was b'liebt, Herr?

        
",0,lustig-d-singstund
3,comedy,Herr TANNEZAPFE,M,rentier,rentiers,,"
          
Herr Tannezapfe

          
(voruse)

          
Wo hasch mine Hosetràger ane tho?

        
",1,lustig-d-singstund
4,comedy,Marie,F,cook,service_and_sales,,"
          
Marie.

          
Ihre Hosetràger, Herr...
(fir sich)
 sine Hosetràger wo
                        känne jetz sine Hosetràger si?
(lüt)
 Aha, se sin 
in dr
                        Zuckerbichse, Herr...
(wàhrend ass se antwortet' links,
                        kunnt dr Schlüch ine, rechts, zweiter Plan, un hat in
                        jeder Hand e Kochläffel un schlàckt se-n-ab)
 So! jetz
                        versüecht er noch mine Sauce... Wenn dr Herr Tannezapfe
                        das thàt sàh...

        
",1,lustig-d-singstund
5,comedy,Herr SCHLÜCH,M,chimney_sweeper,elementary_professions,,"
          
Schlüch.

          
Eüer Herr, Marie, Eüer Herr Tannebibele.

        
",1,lustig-d-singstund
6,comedy,Marie,F,cook,service_and_sales,,"
          
Marie.

          
Zapfe...

        
",2,lustig-d-singstund
7,comedy,Herr SCHLÜCH,M,chimney_sweeper,elementary_professions,,"
          
Schlüch.

          
Eüer Zapfe, das isch mir doch eithüen, wo-n-Ihr alles
                        mit em mache, was Ihr wànn... er hat jo ne kurz
                        G'sicht, Ihr sage-n-em, ich sei's Wiehnàchtskindle,
                        wenn er kunnt, awer er isch jo erst an de Hosetràger, i
                        ha dr Zit... nur noch e Wort, Marie...

        
",2,lustig-d-singstund
8,comedy,Marie,F,cook,service_and_sales,,"
          
Marie.

          
Awer gschwind e wenig!...

        
",2,lustig-d-singstund
9,comedy,Herr SCHLÜCH,M,chimney_sweeper,elementary_professions,,"
          
Schlüch.

          
Grad ha-n-i d'Kuche ne wenig g'mustert, als Kàmifeger
                        ha-n-i 's Fir untersüecht... awer als Mensch wott i
                        gern wisse, was dert hinte ne so güet's druf brotet?...

        
",3,lustig-d-singstund
10,comedy,Marie,F,cook,service_and_sales,,"
          
Marie.

          
'isch e welscher Hahne...

        
",3,lustig-d-singstund
11,comedy,Herr SCHLÜCH,M,chimney_sweeper,elementary_professions,,"
          
Schlüch.

          
Kännt' ich em nitt e wenig Milhüserditsch lehre im Platz
                        vo Eürem Herr?...

        
",3,lustig-d-singstund
12,comedy,Marie,F,cook,service_and_sales,,"
          
Marie.

          
Awer Schlüch! Ihr sin doch züe àrg verfresse!...

        
",4,lustig-d-singstund
13,comedy,Herr SCHLÜCH,M,chimney_sweeper,elementary_professions,,"
          
Schlüch.

          
I müess es gsteh... Pardon, noch ebbes...

        
",4,lustig-d-singstund
14,comedy,Marie,F,cook,service_and_sales,,"
          
Marie.

          
G'schwind, g'schwind, g'schwind.

        
",4,lustig-d-singstund
15,comedy,Herr SCHLÜCH,M,chimney_sweeper,elementary_professions,,"
          
Schlüch.

          
I ha ebbes versüecht, wo dert mischotiert im e Hafe uf
                        em Ofe, was mag das si?

        
",5,lustig-d-singstund
16,comedy,Marie,F,cook,service_and_sales,,"
          
Marie.

          
Ah! un wie finde-n-ihr das Ding?

        
",5,lustig-d-singstund
17,comedy,Herr SCHLÜCH,M,chimney_sweeper,elementary_professions,,"
          
Schlüch.

          
Fin, delizios!...

        
",5,lustig-d-singstund
18,comedy,Marie,F,cook,service_and_sales,,"
          
Marie

          
Das isch Caout wie dr Kückücks sàit em doch dr Herr
                        wieder? Caout... Caout...

        
",6,lustig-d-singstund
19,comedy,Herr SCHLÜCH,M,chimney_sweeper,elementary_professions,,"
          
Schlüch.

          
Chouc... Caoutchouc...

        
",6,lustig-d-singstund
20,comedy,Marie,F,cook,service_and_sales,,"
          
Marie.

          
Jo, i glaüb; der Herr hat das Ding kaüft.

        
",6,lustig-d-singstund
21,comedy,Herr SCHLÜCH,M,chimney_sweeper,elementary_professions,,"
          
Schlüch

          
(mit Verwunderung)

          
Ne Caoutchouc-Suppe?...

        
",7,lustig-d-singstund
22,comedy,Marie,F,cook,service_and_sales,,"
          
Marie.

          
Dr Herr sàit, 's thàt eim feist mache... Das wàr nit fir
                        Eüch, Schlüch, Ihr kännte sunscht nimm in d'Löcher
                        schlupfe!...

        
",7,lustig-d-singstund
23,comedy,Herr SCHLÜCH,M,chimney_sweeper,elementary_professions,,"
          
Schlüch.

          
's isch doch sunderbar, was me-n-efange mit em
                        Caoutchouc macht!....

          

            
G'sang

            
(Madame Angot)

            
Mit Caoutchouc ka me mache,

            
Was d'Aüge nur wànn sàh,

            
Nitt nur allei Spielsache

            
Ka-n-er de Kinder gà,

            

            
Make sich omit kleide noch,

            
Me macht Strumpfbàndel mit,

            
Un sunst so Dings, das alles doch

            
Isch g'macht vo Caoutchouc hit!

            
Un die Sache alle z'sàmmme 
(bis)

            
We me se nimm brüche thüet,

            
Ka me jetz in d'Kuche nàmme,

            
's isch noch fir dr Hunger güet.

          

        
",7,lustig-d-singstund
24,comedy,Marie,F,cook,service_and_sales,,"
          
Marie

          
(nimmt 'm sine Läffel)

          
Zeige, fahre-n-ab jetz in d'Halle, Ihr kämme wieder,
                        wenn dr Herr furt isch...

        
",8,lustig-d-singstund
25,comedy,Herr SCHLÜCH,M,chimney_sweeper,elementary_professions,,"
          
Schlüch.

          
Geht er furt?

        
",8,lustig-d-singstund
26,comedy,Marie,F,cook,service_and_sales,,"
          
Marie.

          
Glich, wie-n-er z'Nacht g'gesse hat... er geht in's
                        Concert... un wenn Ihr brav sin un jetz gli geh'n, so
                        versprich i Eüch e-n-Iwerraschung, wenn Ihr z'ruck
                        kämme.

        
",8,lustig-d-singstund
27,comedy,Herr SCHLÜCH,M,chimney_sweeper,elementary_professions,,"
          
Schlüch.

          
Bekumm i e Stätzle vom Hahne?

        
",9,lustig-d-singstund
28,comedy,Marie,F,cook,service_and_sales,,"
          
Marie.

          
Besser noch... dr ganze Hahne un dr Caoutchouc noch
                        drzüe....

        
",9,lustig-d-singstund
29,comedy,Herr SCHLÜCH,M,chimney_sweeper,elementary_professions,,"
          
Schlüch.

          
Was! 's Nachtesse vo Eürem Herr?... o Marie, wenn Ihr
                        das mache, so hirothe mr vierzeh' Tàg frieiher, ich
                        gang gli Morn uf's G'meinhüs, fir is lo aschlage.

        
",9,lustig-d-singstund
30,comedy,Marie,F,cook,service_and_sales,,"
          
Marie.

          
G'wiss?

        
",10,lustig-d-singstund
31,comedy,Herr TANNEZAPFE,M,rentier,rentiers,,"
          
Herr Tannezapfe

          
(voruse)

          
Marie!

        
",10,lustig-d-singstund
32,comedy,Marie,F,cook,service_and_sales,,"
          
Marie.

          
Was b'liebt, Herr?

        
",10,lustig-d-singstund
33,comedy,Herr TANNEZAPFE,M,rentier,rentiers,,"
          
Herr Tannezapfe

          
(voruse)

          
I find' mine Hàndschig niene.

        
",11,lustig-d-singstund
34,comedy,Herr SCHLÜCH,M,chimney_sweeper,elementary_professions,,"
          
Schlüch.

          
Bigr! er isch scho an de Hàndschig... jetz isch's glaüb
                        Zit, Pech z'kaüfe. I will noch g'schwind geh' ne Kàmi
                        putze, derno kumm i wieder, wenn i denk ass er furt
                        isch...

        
",11,lustig-d-singstund
35,comedy,Herr TANNEZAPFE,M,rentier,rentiers,,"
          
Herr Tannezapfe

          
(voruse)

          
Awer Marie...

        
",11,lustig-d-singstund
36,comedy,Marie,F,cook,service_and_sales,,"
          
Marie

          
(züem Schlüch)

          
Gehn denn emol!

        
",12,lustig-d-singstund
37,comedy,Herr SCHLÜCH,M,chimney_sweeper,elementary_professions,,"
          
Schlüch.

          
Adie.

          
Er geht hinte-n-üse, rechts. 's Marie thüet d'Läffel
                        uf's Tischle rechts.

        
",12,lustig-d-singstund
38,comedy,Marie,F,cook,service_and_sales,,"
          
Marie.

          
So, jetz isch er emol furt!

        
",12,lustig-d-singstund
39,comedy,Herr TANNEZAPFE,M,rentier,rentiers,,"
          
Herr Tannezapfe

          
(kunnt ine dur d'zweite Thüre rechts)

          
He, Marie... ah! de bisch do Màgdle. Ich ha Dr g'rüefe,
                        hasch mi denn nitt g'hört?
(Er legt si Stock, si Hüet
                        un sine Hàndschig uf dr Tisch.)

          

        
",13,lustig-d-singstund
40,comedy,Marie,F,cook,service_and_sales,,"
          
Marie.

          
Ich ha 's G'hör halt e wenig härt...

        
",13,lustig-d-singstund
41,comedy,Herr TANNEZAPFE,M,rentier,rentiers,,"
          
Herr Tannezapfe.

          
Wenn nur Di Herz nitt so härt isch, as wie 's G'hör.

        
",13,lustig-d-singstund
42,comedy,Marie,F,cook,service_and_sales,,"
          
Marie.

          
Wo will das üse, Herr...

        
",14,lustig-d-singstund
43,comedy,Herr TANNEZAPFE,M,rentier,rentiers,,"
          
Herr Tannezapfe.

          
Zeig, Marie, bisch doch nitt so spröd, ich bi jo ledig
                        un ha ne ziemlig rund Vermöge, wie De weisch...

        
",14,lustig-d-singstund
44,comedy,Marie,F,cook,service_and_sales,,"
          
Marie.

          
Jo, awer Sie lehn sich allewil iwerschwàtze vo Ihrer
                        alte Cüsine, d'Madame Ribise, wo Ihne ne Last Dummheite
                        verzehlt iwer mich...

        
",14,lustig-d-singstund
45,comedy,Herr TANNEZAPFE,M,rentier,rentiers,,"
          
Herr Tannezapfe.

          
Was frogsch cloch Dü no miner Cüsine un no dem, was sie
                        sàit, Marie!...

        
",15,lustig-d-singstund
46,comedy,Marie,F,cook,service_and_sales,,"
          
Marie.

          
Oh! ich ha nit z'ferchte, ich bi ne brave Person.

        
",15,lustig-d-singstund
47,comedy,Herr TANNEZAPFE,M,rentier,rentiers,,"
          
Herr Tannezapfe.

          
Ich weiss es, wege dem g'fallsch mr eso... denk' nur,
                        alle-n-andere Käche, wo-n-i g'ha ha vor Dir, hàn
                        Liebster g'ha...

        
",15,lustig-d-singstund
48,comedy,Marie,F,cook,service_and_sales,,"
          
Marie.

          
Ah!...

        
",16,lustig-d-singstund
49,comedy,Herr TANNEZAPFE,M,rentier,rentiers,,"
          
Herr Tannezapfe.

          
Soldate-n-un so Dings...

        
",16,lustig-d-singstund
50,comedy,Marie,F,cook,service_and_sales,,"
          
Marie.

          
Oh! pfui!

        
",16,lustig-d-singstund
51,comedy,Herr TANNEZAPFE,M,rentier,rentiers,,"
          
Herr Tannezapfe.

          
O bi-n-i als gli fertig gsi mit Ihne : mi Cüsine hat als
                        nog'frogt iwer se un wenn i 's G'ringste g'sàh' ha, so
                        ha-n-ise vor d'Thüre g'stellt Nümero eis! Awer, Dü,
                        Marie, Dü bisch brav...

        
",17,lustig-d-singstund
52,comedy,Marie,F,cook,service_and_sales,,"
          
Marie.

          
Uf jedefall, Herr, bi-n-i brav, un wenn i mr wott lo dr
                        Hof mache vo Eim, so wàr's nur fir dr bon motif...

        
",17,lustig-d-singstund
53,comedy,Herr TANNEZAPFE,M,rentier,rentiers,,"
          
Herr Tannezapfe.

          
Heisch Dü d'Hiroth dr bon motif?

        
",17,lustig-d-singstund
54,comedy,Marie,F,cook,service_and_sales,,"
          
Marie.

          
Natirlig, Herr, was meine Sie denn?

        
",18,lustig-d-singstund
55,comedy,Herr TANNEZAPFE,M,rentier,rentiers,,"
          
Herr Tannezapfe.

          
Dü hasch ganz recht, Marie, doch möcht i jetz z'Nacht
                        esse

        
",18,lustig-d-singstund
56,comedy,Marie,F,cook,service_and_sales,,"
          
Marie

          
(fir sich)

          
Jetz geht's los.
(lüt)
 Z'Nacht esse! jà, jà, 's isch
                        noch wit dervo, vom z'Nachtesse, dà Caoutchouc, da
                        müess ewe lang koche.

        
",18,lustig-d-singstund
57,comedy,Herr TANNEZAPFE,M,rentier,rentiers,,"
          
Herr Tannezapfe.

          
Wie sàisch, Caoutchouc?... Racahout witt sage... 's isch
                        schint's excellent, das Ding, fir d'magere Lit, 's
                        füllt e wenig d'Ecke-n-üs... i ha's vom e-n-alte
                        Schüelkamerad, wo-n-i gestert atroffe ha... dà ha-n-i
                        gar nimm kennt, sa dick isch er worde, 's isch wohr, i
                        ha-n-en scho vierzig Johr nimm g'sàh g'ha, un das hat
                        er im Racahout z'verdanke...

        
",19,lustig-d-singstund
58,comedy,Marie,F,cook,service_and_sales,,"
          
Marie.

          
Ass Sie-n-en scho sa lang nimm g'sàh hàn, Herr?

          

        
",19,lustig-d-singstund
59,comedy,Herr TANNEZAPFE,M,rentier,rentiers,,"
          
Herr Tannezapfe.

          
Nei, ass er so dick worde-n-isch... Dü serviersch mir
                        jetz alle Tag dervo, Marie.

        
",19,lustig-d-singstund
60,comedy,Marie,F,cook,service_and_sales,,"
          
Marie.

          
Jo, Herr, awer e-n-andermol müess i frieiher afange
                        koche, denn hit geht's allewil noch e Stund, bis Se
                        känne z'Nacht esse.

        
",20,lustig-d-singstund
61,comedy,Herr TANNEZAPFE,M,rentier,rentiers,,"
          
Herr Tannezapfe.

          
Noch e Stund... das geht viel z'lang. De weisch, ass ich
                        gern vorne sitz im e Concert, ass i d'Sàngere ka
                        b'schaüe... Dr Boursesaal isch ewe lang un mi G'sicht
                        kurz... ich möcht nitt z'spot ku.

          

            
G'sang

            
('s freit mi nitt ass das)

            
Wenn ich in's Concert gang,

            
So b'sinn ich mich nitt lang

            
Un mach' mi glich ganz nooch derzüe,

            
Um dass ich alles höre thüe

            
O d'Sàng're zieh'n mich a,

            
Mehr as ich sage ka.

            
Wie wird's hit wieder lustig si,

            
I frei mi scho druf hi!

          

          
Awer wege dem gieng ich doch nitt gern mit em leere
                            Mage... Ich kännt awer eigentlig in's Restaurant
                            geh' esse?...

        
",20,lustig-d-singstund
62,comedy,Marie,F,cook,service_and_sales,,"
          
Marie

          
(fir sich)

          
Endlig packt's jetz emol...
(lüt)
 Jo, jo, ich glaüb, dr
                        Herr thàt viel besser.

        
",20,lustig-d-singstund
63,comedy,Herr TANNEZAPFE,M,rentier,rentiers,,"
          
Herr Tannezapfe.

          
C'est çà!

        
",21,lustig-d-singstund
64,comedy,Marie,F,cook,service_and_sales,,"
          
Marie.

          
Awer Ihr Nachtesse, wo jetz uf em Fir isch?

        
",21,lustig-d-singstund
65,comedy,Herr TANNEZAPFE,M,rentier,rentiers,,"
          
Herr Tannezapfe.

          
Ich loss Dir's, Mariettle, stell mr nur e wenig Racahout
                        z'ruck, fir wenn's Concert üs isch.
(Er nimmt si Hüet
                        un si Stock un geht.)

        
",21,lustig-d-singstund
66,comedy,Marie,F,cook,service_and_sales,,"
          
Marie.

          
Jo, Herr.

        
",22,lustig-d-singstund
67,comedy,Herr TANNEZAPFE,M,rentier,rentiers,,"
          
Herr Tannezapfe.

          
Ah! i ha doch g'wisst, ass mr ebbes fehlt! mine
                        Brille... gang, hol mr se doch, denn die derf i nitt
                        vergesse.

        
",22,lustig-d-singstund
68,comedy,Marie,F,cook,service_and_sales,,"
          
Marie.

          
Sie brüche se jo nitt, Herr, Se hàn je Ihre Lorgnette.

        
",22,lustig-d-singstund
69,comedy,group,sex_unknown,job_unknown,job_category_unknown,social_class_unknown,"
          
Herr Tahnezapfe

          
(grifft sine Säck)

          
Jo, 's isch wohr... un mi Hüsschlissel... i ha-n-en...
                        güet, De brüchsch nitt uf mi z'warte.

        
",23,lustig-d-singstund
70,comedy,Marie,F,cook,service_and_sales,,"
          
Marie.

          
Do sin Ihre Hàndschig.

        
",23,lustig-d-singstund
71,comedy,Herr TANNEZAPFE,M,rentier,rentiers,,"
          
Herr Tannezapfe.

          
Merci Mariettle.

        
",23,lustig-d-singstund
72,comedy,Marie,F,cook,service_and_sales,,"
          
Marie.

          
Amüsiere Sie sich güet.

        
",24,lustig-d-singstund
73,comedy,Herr TANNEZAPFE,M,rentier,rentiers,,"
          
Herr Tannezapfe.

          
Oh, im Concert in dr Bourse ha-n-ich nie kei lange
                        Zit.

        
",24,lustig-d-singstund
74,comedy,Marie,F,cook,service_and_sales,,"
          
Marie.

          
Ich fir mi Theil gang liewer in dr Cercle... 's isch
                        viel luschtiger dert.

        
",24,lustig-d-singstund
75,comedy,Herr TANNEZAPFE,M,rentier,rentiers,,"
          
Herr Tannezapfe

          
(lüegt uf d'Uehre)

          
Bol Siewene... i ha grad noch dr Zit, ane z'ku... i
                        müess halt nochher z'Nacht esse... 's schmeckt mr derno
                        desto besser... Adie, Marie...

          

        
",25,lustig-d-singstund
76,comedy,Marie,F,cook,service_and_sales,,"
          
Marie.

          
Adie, Herr...

          

            
G'sang

            
(rutsch hi, rutsch her)

            
's isch d'höchste Zit,

            
Wenn Sie ne güeter Platz wànn ha,

            
Denn 's isch noch wit,

            
Drum g'schwind e Tràpple g'schla,

            
Ich wärm Ene derwilst Ihr Bett.

          

        
",25,lustig-d-singstund
77,comedy,Herr TANNEZAPFE,M,rentier,rentiers,,"
          
Herr Tannezapfe.

          

            
Dü kunnsch in's Testament, Mariett',

          

        
",25,lustig-d-singstund
78,comedy,Marie,F,cook,service_and_sales,,"
          
Beide.

          

            
Doch jetz isch's Zit,

            
Denn 's isch misegs noch wit.

            
(Herr Tannezapfe geht hinte-n-üse, links.)

          

        
",26,lustig-d-singstund
79,comedy,Herr TANNEZAPFE,M,rentier,rentiers,,"
          
Beide.

          

            
Doch jetz isch's Zit,

            
Denn 's isch misegs noch wit.

            
(Herr Tannezapfe geht hinte-n-üse, links.)

          

        
",26,lustig-d-singstund
80,comedy,Marie,F,cook,service_and_sales,,"
          
Marie

          
(allei, deckt dr Tisch)

          
Endlig, i ha g'meint, er kunnt nitt furt!... Dà güete
                        Herr! wenn er wisse thàt, ass sie Nachtesse g'rischtet
                        isch un ass ich's verzehre will mit em Schlüch... 's
                        isch halt, fir mi Hochzit z'avanciere... Dà Idee wàr in
                        mine zwe erste, wo-n-i g'ha ha, nie iku... im Herr
                        Gager üs dr Fresheweid un im Herr Papegài üs dr Cité...
                        schöne Mànner, i müess es sage... awer Farceurs, wo
                        glaüb eher im Mond wàre geh' d'Kàminer putze, ebb se mr
                        vom Hirothe g'redt hätte... I ha miesse do ane ku züe
                        der Giesserei üse, fir das z'finde... 's isch g'wiss
                        possig, scho dreimol ha-n-i jetz dr Platz g'changiert
                        un allemol hat, sich's troffe, ass e Kàmifeger dernàwe
                        wohnt... was mir 
gar nit g'macht hat, denn mi Herz hat
                        vo jeher fir Kàmifeger stärker g'schla... zwei Sache
                        b'sunders gfalle mr bi dere Sorte Lit... ihre wisse
                        Zähn un ihre schrecklige-n-Aüge...

          

            
G'sang

	    
(müess i denn) bis.

            
Schaüt mich e Kàmifeger a - feger a,

            
So klopft mr 's Herz von Freid,

            
Vor Lust ha-n-ich scho Gàns'hüt g'ha - Gàns'hüt g'ha,

            
Wenn Ein' mr ebbes sàit,

            
Un zeigt er erst noch sine Zähn,

            
Derno erst isch er schön,

            
Schäut mich e Kàmifeger a - feger a,

            
So kunnt mi d'Gàns'hüt a.

          

          
So, jetz isch dr Tisch deckt, jetz wird mi dr Schlüch
                        gli noch mache z'warte...
(Me klopft a hinte, rechts.)

                        Aha, do isch er... ich kenn 'n, er schmeckt vo zeh'
                        Schritt scho no Rüess... Entrez!...

        
",26,lustig-d-singstund
81,comedy,Marie,F,cook,service_and_sales,,"
          
Marie

          
(fir sich)

          
Was sieh-n-i? mi Kàmifeger üs der Frescheweid!

        
",27,lustig-d-singstund
82,comedy,Herr GAGER,M,chimney_sweeper,elementary_professions,,"
          
Gager.

          
Ah! do isch Se jo!

        
",27,lustig-d-singstund
83,comedy,Marie,F,cook,service_and_sales,,"
          
Marie.

          
Herr Gager!

          

        
",27,lustig-d-singstund
84,comedy,Herr GAGER,M,chimney_sweeper,elementary_professions,,"
          
Gager.

          
Jà, dr Gager, dr unglicklige Gager! dass isch nitt schön
                        vo Eüch, Jumpfer Marie!

        
",28,lustig-d-singstund
85,comedy,Marie,F,cook,service_and_sales,,"
          
Marie.

          
Was denn?

        
",28,lustig-d-singstund
86,comedy,Herr GAGER,M,chimney_sweeper,elementary_professions,,"
          
Gager.

          
Ihr hàn g'wiss schlecht g'handelt gege mir... Ich, wo
                        wàhrend drei Monet in Eüch ganz vernarrt gsi bi' wo fir
                        Eüch in's engste Kàmi g'schlupft wàr, ich sieh' am e
                        schöne Morge, ass Ihr furt sin üs Eürem Platz, ohne mir
                        nur e Wörtle z'schnüfe dervo... Nun-de-bib noch emol!
                        Ihr hàn Eüch g'wiss schlecht ufg'fiehrt gege mir...

        
",28,lustig-d-singstund
87,comedy,Marie,F,cook,service_and_sales,,"
          
Marie.

          
Ich will's I expliziere, Herr Gager...
(fir sich)

                        Herrje, wenn der Schlüch jetz kunnt.

        
",29,lustig-d-singstund
88,comedy,Herr GAGER,M,chimney_sweeper,elementary_professions,,"
          
Gager.

          
Tag un Nacht ha-n-i g'frogt und g'süecht un ha endlig
                        erfahre, ass Ihr bi dr Giesserei hinte im e-n-alte
                        Knochepeter sine Suppe koche, und do ha-n-i mi halt
                        glich uf dr Weg g'macht, un do bi-n-i...

        
",29,lustig-d-singstund
89,comedy,Marie,F,cook,service_and_sales,,"
          
Marie.

          
Ohne mich z'preveniere...

        
",29,lustig-d-singstund
90,comedy,Herr GAGER,M,chimney_sweeper,elementary_professions,,"
          
Gager.

          
Bi-n-i ebbe nitt recht ku, oder bi-n-i z'viel do?

        
",30,lustig-d-singstund
91,comedy,Marie,F,cook,service_and_sales,,"
          
Marie.

          
Nei, awer...

        
",30,lustig-d-singstund
92,comedy,Herr GAGER,M,chimney_sweeper,elementary_professions,,"
          
Gager.

          
Isch dr Alt viellicht e Hitzkopf?

        
",30,lustig-d-singstund
93,comedy,Marie,F,cook,service_and_sales,,"
          
Marie.

          
Ich sag' nitt...

        
",31,lustig-d-singstund
94,comedy,Herr GAGER,M,chimney_sweeper,elementary_professions,,"
          
Gager.

          
Marie, ich sieh scho, siter ass ich do bi, thien Ihr
                        mich grad nitt mit Liewenswörtle iwerhiffe...
                        Nun-de-bib noch emol!... Hat ebbe einer mi Platz ignu
                        bi Euch?

        
",31,lustig-d-singstund
95,comedy,Marie,F,cook,service_and_sales,,"
          
Marie.

          
Herr Gager!

        
",31,lustig-d-singstund
96,comedy,Herr GAGER,M,chimney_sweeper,elementary_professions,,"
          
Gager.

          
Ah! jetz kunnt's mr... 's wird dà Kàmifeger üs dr Cité
                        si, wo Eüch als vor mir dr Hof g'macht hat, wo mir
                        schade thüet...

        
",32,lustig-d-singstund
97,comedy,Marie,F,cook,service_and_sales,,"
          
Marie

          
(fir sich)

          
Was, er weisst's?

        
",32,lustig-d-singstund
98,comedy,Herr GAGER,M,chimney_sweeper,elementary_professions,,"
          
Gager.

          
Ich kenn 'n nitt, awer ich will Achtung gà uf sine
                        Manöver, und wenn i ne verwitsch do ummenander, sao hat
                        er si letscht Kàmi üsg'rackelt...

        
",32,lustig-d-singstund
99,comedy,Marie,F,cook,service_and_sales,,"
          
Marie

          
(fir sich)

          
Nu jo! wenn er dr Schlüch sieht...
(lüt)
 das isch
                        awer...

        
",33,lustig-d-singstund
100,comedy,Herr GAGER,M,chimney_sweeper,elementary_professions,,"
          
Gager.

          
Kalt mach i ne, Nun-de-bib noch emol!

        
",33,lustig-d-singstund
101,comedy,Marie,F,cook,service_and_sales,,"
          
Marie

          
(geht rechts)

          
Jà, worum denn mache-n-Ihr ne kalt, dà Mann? wil er
                        ordentliger gsi isch as Ihr, un mir si Herz un si Hand
                        offriert hat?

        
",33,lustig-d-singstund
102,comedy,Herr GAGER,M,chimney_sweeper,elementary_professions,,"
          
Gager.

          
Was, Ihr sin g'hirothe?...

        
",34,lustig-d-singstund
103,comedy,Marie,F,cook,service_and_sales,,"
          
Marie.

          
Eh bien, jà, i bi g'hirothe, un wenn Eüch mi Mann do
                        atrifft...

          

        
",34,lustig-d-singstund
104,comedy,Herr GAGER,M,chimney_sweeper,elementary_professions,,"
          
Gager

          
(salütirt)

          
Ah! derno isch's ebbes anders... Do blibt mr nur noch,
                        si Courage z'bewundere, wo-n-er g'ha hat,
(fir sich)
 so
                        ne Dummheit hätt Kein g'macht üs dr Frescheweid.

        
",34,lustig-d-singstund
105,comedy,Marie,F,cook,service_and_sales,,"
          
Marie

          
(thüet lose)

          
Herrje! 's kunnt ebber d'Stege-n-ufe.

        
",35,lustig-d-singstund
106,comedy,Herr GAGER,M,chimney_sweeper,elementary_professions,,"
          
Gager.

          
's isch viellicht Eüer Mann
(dr Herr Papagài kunnt
                        hinte-n-ine, rechts)
. Was ha-n-i g'sàit?

        
",35,lustig-d-singstund
107,comedy,Marie,F,cook,service_and_sales,,"
          
Marie

          
(fir sich)

          
O je!... mi Feger üs der Cité...

        
",35,lustig-d-singstund
108,comedy,Herr PAPEGAI,M,chimney_sweeper,elementary_professions,,"
          
Papegài

          
(fir sich)

          
Ne Co... Colleg!

        
",36,lustig-d-singstund
109,comedy,Herr GAGER,M,chimney_sweeper,elementary_professions,,"
          
Gager

          
(lislig züem Marie)

          
Ihr brüche kei Angst z'ha... I will I nitt
                        compromettiere.

        
",36,lustig-d-singstund
110,comedy,Marie,F,cook,service_and_sales,,"
          
Marie

          
(lislig züem Papegài, ditet uf der Gager)

          
Mi Mann!

        
",36,lustig-d-singstund
111,comedy,Herr PAPEGAI,M,chimney_sweeper,elementary_professions,,"
          
Papegài

          
(lislig züem Marie)

          
Eüer Ma... a... ann!

        
",37,lustig-d-singstund
112,comedy,Marie,F,cook,service_and_sales,,"
          
Marie

          
(lislig züem Papegài)

          
Siter drei Monet
(lislig züem Gager)
 Er isch nitt recht
                        z'friede, ass Ihr do sin...

        
",37,lustig-d-singstund
113,comedy,Herr GAGER,M,chimney_sweeper,elementary_professions,,"
          
Gager

          
(fir sich)

          
Ich glaüb's scho.

        
",37,lustig-d-singstund
114,comedy,Marie,F,cook,service_and_sales,,"
          
Marie

          
(lislig züem Papegài)

          
's geht 'm glaüb nur halwer, Eüch do az'treffe.

        
",38,lustig-d-singstund
115,comedy,Herr PAPEGAI,M,chimney_sweeper,elementary_professions,,"
          
Papegài

          
(fir sich)

          
Ich dà... dà... danks wohl.

        
",38,lustig-d-singstund
116,comedy,Marie,F,cook,service_and_sales,,"
          
Marie

          
(in alle Beide lislig)

          
Sin still... sin still...
(lüt un wàhrend ass Beide sich
                        dr Ricke kehre un sich nitt traüe alüege)
 Liewer
                        Mann...

        
",38,lustig-d-singstund
117,comedy,Herr GAGER,M,chimney_sweeper,elementary_professions,,"
          
Gager

          
(fir sich)

          
Se thüet 'm e Bàre-n-abinde.

        
",39,lustig-d-singstund
118,comedy,Herr PAPEGAI,M,chimney_sweeper,elementary_professions,,"
          
Papegài

          
(fir sich)

          
Se losst en bla... bla... blaü alaüfe.

        
",39,lustig-d-singstund
119,comedy,Marie,F,cook,service_and_sales,,"
          
Marie.

          
Dà Herr isch dr Cüsin, wo-n-ich Dr scho vielmol vo-n-'m
                        g'redt ha...

        
",39,lustig-d-singstund
120,comedy,Herr GAGER,M,chimney_sweeper,elementary_professions,,"
          
Gager

          
(fir sich)

          
Ich bi-n-en, dr Cüsin...

        
",40,lustig-d-singstund
121,comedy,Herr PAPEGAI,M,chimney_sweeper,elementary_professions,,"
          
Papegài

          
(fir sich)

          
Ich bi dr Cü... Cü...

        
",40,lustig-d-singstund
122,comedy,Marie,F,cook,service_and_sales,,"
          
Marie.

          
Er isch mr ku ne kleine Visite abstatte. 's isch

          
g'wiss 's erstemol. Dü sàisch nit?...

        
",40,lustig-d-singstund
123,comedy,Herr PAPEGAI,M,chimney_sweeper,elementary_professions,,"
          
Papegài

          
(fir sich)

          
Er isch we... we... wexiert.

        
",41,lustig-d-singstund
124,comedy,Herr GAGER,M,chimney_sweeper,elementary_professions,,"
          
Gager

          
(fir sich)

          
Was fir e Hundscharacter!

        
",41,lustig-d-singstund
125,comedy,Marie,F,cook,service_and_sales,,"
          
Marie.

          
Dü brietelsch ebbes... ich kenn Di... De wirsch jetz
                        glich in Zorn g'rothe un uf eimol wird's üsbreche...

          

        
",41,lustig-d-singstund
126,comedy,Herr PAPEGAI,M,chimney_sweeper,elementary_professions,,"
          
Papegài

          
(fir sich)

          
Bi-biger...

        
",42,lustig-d-singstund
127,comedy,Herr GAGER,M,chimney_sweeper,elementary_professions,,"
          
Gager

          
(fir sich)

          
Er isch in sim Recht... 's isch dr Mann .. . ich will mi
                        üs em Staüb mache...
(Er geht uf de Zeche gege dr
                        Thüre).

        
",42,lustig-d-singstund
128,comedy,Herr PAPEGAI,M,chimney_sweeper,elementary_professions,,"
          
Papegài

          
(fir sich)

          
Ich gang a-ab...
(Er macht 's Gliche).

        
",42,lustig-d-singstund
129,comedy,Marie,F,cook,service_and_sales,,"
          
Marie

          
(fir sich)

          
Güet!... se mache si dervo.

        
",43,lustig-d-singstund
130,comedy,Herr SCHLÜCH,M,chimney_sweeper,elementary_professions,,"
          
Schlüch

          
(voruse)

          
Jetz kämme d'Illziger Jàger, trà là là là là.

          
(D'Kamifeger bliwe beide steh.)

        
",43,lustig-d-singstund
131,comedy,Marie,F,cook,service_and_sales,,"
          
Marie

          
(fir sich)

          
Das isch im Schlüch si Stimm'.
(Se geht geh 's Riegele
                        stosse. Lüt)
 's isch mi Herr... Wenn er Eüch do
                        findet...

        
",43,lustig-d-singstund
132,comedy,Herr GAGER,M,chimney_sweeper,elementary_professions,,"
          
Gager.

          
Wo soll i mi verstecke.

        
",44,lustig-d-singstund
133,comedy,Marie,F,cook,service_and_sales,,"
          
Marie.

          
Do in das Cabinet...
(Se stosst ne in's linke Cabinet,
                        erster Plan)
 un sin rüehig.
(zum Papegài)
 Un Ihr...

        
",44,lustig-d-singstund
134,comedy,Herr PAPEGAI,M,chimney_sweeper,elementary_professions,,"
          
Papegài.

          
Thien mi nur nitt züe Eürem Ha-halbwilde vo Mann...

        
",44,lustig-d-singstund
135,comedy,Marie,F,cook,service_and_sales,,"
          
Marie

          
(macht 's Cabinet uf rechts, erster Plan)

          
In das do, un mücke-n-I nitt...

        
",45,lustig-d-singstund
136,comedy,Herr SCHLÜCH,M,chimney_sweeper,elementary_professions,,"
          
Schlüch

          
(klopft)

          
He... Marie!

          
(Marie macht d'Thüre-n-nf hinte, rechts.)

        
",45,lustig-d-singstund
137,comedy,Herr SCHLÜCH,M,chimney_sweeper,elementary_professions,,"
          
Schlüch

          
(kunnt ine)

          
Do bi-n-i jetz... fröhlig wie ne Vogel in dr Luft... un
                        mit eme Appetit... tiens, isch dr Brotes no nitt uf em
                        Tisch?...

        
",45,lustig-d-singstund
138,comedy,Marie,F,cook,service_and_sales,,"
          
Marie.

          
's isch unmöglich fir hit z'Owe, dr Herr isst d'heim..

        
",46,lustig-d-singstund
139,comedy,Herr SCHLÜCH,M,chimney_sweeper,elementary_professions,,"
          
Schlüch.

          
Was verzähle-n-Ihr do!... i ha-n-en grad g'sah abfahre
                        in's Concert.

        
",46,lustig-d-singstund
140,comedy,Marie,F,cook,service_and_sales,,"
          
Marie.

          
's macht nit, er kunnt wieder...

        
",46,lustig-d-singstund
141,comedy,Herr SCHLÜCH,M,chimney_sweeper,elementary_professions,,"
          
Schlüch.

          
Awer hit nimm, so g'schwind kunnt me nitt dervo, vom e.
                        Concert... 's isch e Hahne do z'verwichse, er müess
                        verwichst si...

        
",47,lustig-d-singstund
142,comedy,Marie,F,cook,service_and_sales,,"
          
Marie.

          
Wenn i sag...

        
",47,lustig-d-singstund
143,comedy,Herr SCHLÜCH,M,chimney_sweeper,elementary_professions,,"
          
Schlüch.

          
Sunscht gang i uns geh lo abschla' uf em G'meinhüs...
                        Kei Hahne, kei Hochzit!...

        
",47,lustig-d-singstund
144,comedy,Marie,F,cook,service_and_sales,,"
          
Marie

          
(fir sich)

          
Un d'Andere, wo dert inne krüppe!...

        
",48,lustig-d-singstund
145,comedy,Herr SCHLÜCH,M,chimney_sweeper,elementary_professions,,"
          
Schlüch.

          
Allons, üse mit, mit dem Federvieh, ich will 'n g'laüb'
                        selwer hole in dr Kuche.
(Er stigt rechts).

          

        
",48,lustig-d-singstund
146,comedy,Marie,F,cook,service_and_sales,,"
          
Marie.

          
Gehn wege mir...

        
",48,lustig-d-singstund
147,comedy,Herr SCHLÜCH,M,chimney_sweeper,elementary_professions,,"
          
Schlüch.

          
Das isch gli g'schàh.
(Er geht in d'Kuche zweite Plan
                        rechts.)

        
",49,lustig-d-singstund
148,comedy,Marie,F,cook,service_and_sales,,"
          
Marie

          
(züem Papegài, wo d'Thüre ufmacht)

          
Dr Herr wird jetz gli an dr Tisch geh.

        
",49,lustig-d-singstund
149,comedy,Herr PAPEGAI,M,chimney_sweeper,elementary_professions,,"
          
Papegài

          
(zeigt si)

          
Sa-sapristi... ich verstick...

        
",49,lustig-d-singstund
150,comedy,Marie,F,cook,service_and_sales,,"
          
Marie

          
(züem Gager, wo si zeigt)

          
s' isch der Herr, wo kunnt zu z'Nacht esse

        
",50,lustig-d-singstund
151,comedy,Herr GAGER,M,chimney_sweeper,elementary_professions,,"
          
Gager.

          
Mache-n-ass er si dummelt.

        
",50,lustig-d-singstund
152,comedy,Herr SCHLÜCH,M,chimney_sweeper,elementary_professions,,"
          
Schlüch

          
(kunnt ine mit em Hahne un mit dr Supne)

          
Do isch das Dings, 's schint mr nitt iwel g'rothe
                        z'si!...
(Er stellt alles uf dr Tisch.)

        
",50,lustig-d-singstund
153,comedy,Marie,F,cook,service_and_sales,,"
          
Marie.

          
Das stopft... me müess e-n-aparter Mage ha fir dr
                        Caoutchouc.
(Se mache dr Tisch in d'Mittle.)

        
",51,lustig-d-singstund
154,comedy,Herr SCHLÜCH,M,chimney_sweeper,elementary_professions,,"
          
Schlüch.

          
Einer, wo si ziege losst... jetz züe g'sesse.
(Se setze
                        sich.)

        
",51,lustig-d-singstund
155,comedy,Marie,F,cook,service_and_sales,,"
          
Marie

          
(sitzt an's andre End' vom Tisch)

          
Jo, un g'schwind e wenig.
(Dr Schlüch nimmt
                        d'Suppeschüssle un isst mit em grosse Löffel.)
 Oh a,
                        Ihr esse jo d'Suppe-n-alle, lehn doch e wenig fir der
                        Herr...

        
",51,lustig-d-singstund
156,comedy,Herr SCHLÜCH,M,chimney_sweeper,elementary_professions,,"
          
Schlüch.

          
Fir was, Ihr mache-n-'m e-n-andere...

        
",52,lustig-d-singstund
157,comedy,Herr GAGER,M,chimney_sweeper,elementary_professions,,"
          
Gager

          
(macht d'Thüre ne wenig uf)

          
Das isch e G'schrnàckle... nun-de-bib...
(macht züe).

        
",52,lustig-d-singstund
158,comedy,Herr SCHLÜCH,M,chimney_sweeper,elementary_professions,,"
          
Schlüch.

          
Ihr mache-n-'m zwei andere...

        
",52,lustig-d-singstund
159,comedy,Herr PAPEGAI,M,chimney_sweeper,elementary_professions,,"
          
Papegài

          
(macht d'Thüre uf)

          
Das schmeckt fi- fi-fin
(Er macht wieder züe).

        
",53,lustig-d-singstund
160,comedy,Herr SCHLÜCH,M,chimney_sweeper,elementary_professions,,"
          
Schlüch

          
(ssellt d'Schüssle-n-ab)

          
So, jetz isch d'Schüssle süfer... wenn Eüer Herr do wàr,
                        so wàr er g'wiss z'friede mit dr Arwet... jetz wà mr
                        hinter's Hàhnle
(Er film si Teller.)

        
",53,lustig-d-singstund
161,comedy,Marie,F,cook,service_and_sales,,"
          
Marie.

          
Was, Ihr wànn?...

        
",53,lustig-d-singstund
162,comedy,Herr SCHLÜCH,M,chimney_sweeper,elementary_professions,,"
          
Schlüch

          
(füllt d'Gläser)

          
Awer z'erscht, vor allem, wà mr nf Eüre G'sundhcit
                        trinke, Marie, un uf unsre Liewe!
(Se stosse-n-a).

        
",54,lustig-d-singstund
163,comedy,Marie,F,cook,service_and_sales,,"
          
Marie.

          
Uf unser Hochzit!

          

            
G'sang

            
(trutz nitt so)

            
G'sundheit denn uf d'Hochzit hi,

            
G'sundheit uf unsre Liewe,

            
Bol wà mr jetz glicklig si,

            
Mr wànn's nimm üse schiewe.

          

        
",54,lustig-d-singstund
164,comedy,Herr SCHLÜCH,M,chimney_sweeper,elementary_professions,,"
          
Schlüch.

          

            
's isch so güet, wenn Herz un Hand

            
Uf Erde sich thien finde,

            
Un wenn d'Liewe-n-isch ihr Band,

            
Wo sie thüet z'sàmme binde.

          

          

        
",54,lustig-d-singstund
165,comedy,Marie,F,cook,service_and_sales,,"
          
Beide.

          

            
Drum G'sundheit uf d'Hochzit hi,

            
G'sundheit uf unsre Liewe,

            
Bol wà mr jetz glicklig si,

            
Bol wà mr glicklig si.

          

          
(Se schlage an ihre Gläser dr Tact.)

        
",55,lustig-d-singstund
166,comedy,Herr SCHLÜCH,M,chimney_sweeper,elementary_professions,,"
          
Beide.

          

            
Drum G'sundheit uf d'Hochzit hi,

            
G'sundheit uf unsre Liewe,

            
Bol wà mr jetz glicklig si,

            
Bol wà mr glicklig si.

          

          
(Se schlage an ihre Gläser dr Tact.)

        
",55,lustig-d-singstund
167,comedy,Herr TANNEZAPFE,M,rentier,rentiers,,"
          
Herr Tannezapfe

          
(kunnt hinte ine rechts)

          
Was sieh-n-i do?

        
",55,lustig-d-singstund
168,comedy,Marie,F,cook,service_and_sales,,"
          
Marie.

          
Dr Herr!
(Se steht uf.)

        
",56,lustig-d-singstund
169,comedy,Herr SCHLÜCH,M,chimney_sweeper,elementary_professions,,"
          
Schlüch

          
(ohne sich z'derangiere)

          
Dr Herr... i bi verwischt!

        
",56,lustig-d-singstund
170,comedy,Herr TANNEZAPFE,M,rentier,rentiers,,"
          
Herr Tannezapfe

          
(kunnt fire)

          
Ne Kàmifeger an mim Tisch?

        
",56,lustig-d-singstund
171,comedy,Herr SCHLÜCH,M,chimney_sweeper,elementary_professions,,"
          
Schlüch.

          
Derangiere Sie sieh nitt wege mir, Herr Tannebi...

        
",57,lustig-d-singstund
172,comedy,Herr TANNEZAPFE,M,rentier,rentiers,,"
          
Herr Tannezapfe

          
(züem Marie)

          
So, so... kasch Dü mir expliziere, Marie...

        
",57,lustig-d-singstund
173,comedy,Herr SCHLÜCH,M,chimney_sweeper,elementary_professions,,"
          
Schlüch

          
('s Mül voll)

          
Ich will's Ihne sage, Herr...

        
",57,lustig-d-singstund
174,comedy,Herr TANNEZAPFE,M,rentier,rentiers,,"
          
Herr Tannezapfe.

          
Ich red' nitt mit Eüch...

        
",58,lustig-d-singstund
175,comedy,Marie,F,cook,service_and_sales,,"
          
Marie.

          
Herr... ich ha's Ihne nitt traüe sage bis dohi.. eh
                        bien...

        
",58,lustig-d-singstund
176,comedy,Herr TANNEZAPFE,M,rentier,rentiers,,"
          
Herr Tannezapfe.

          
Eh bien?

        
",58,lustig-d-singstund
177,comedy,Marie,F,cook,service_and_sales,,"
          
Marie.

          
Ich bi...

        
",59,lustig-d-singstund
178,comedy,Herr TANNEZAPFE,M,rentier,rentiers,,"
          
Herr Tannezapfe.

          
Ich bi... er isch... kunnt's bol üse-n-endlig?

        
",59,lustig-d-singstund
179,comedy,Marie,F,cook,service_and_sales,,"
          
Marie

          
Mi Mann!

        
",59,lustig-d-singstund
180,comedy,Herr TANNEZAPFE,M,rentier,rentiers,,"
          
Herr Tannezapfe.

          
Di Mann?

        
",60,lustig-d-singstund
181,comedy,Herr SCHLÜCH,M,chimney_sweeper,elementary_professions,,"
          
Schlüch.

          
Das isch jetz wieder emol e güete...

        
",60,lustig-d-singstund
182,comedy,Herr TANNEZAPFE,M,rentier,rentiers,,"
          
Herr Tannezapfe.

          
Hein?

        
",60,lustig-d-singstund
183,comedy,Herr SCHLÜCH,M,chimney_sweeper,elementary_professions,,"
          
Schlüch

          
(redt si üs)

          
I ha die Hüehn do 'g'meint
(wàhrend der Zit isst er
                        allewil furt un furt).

        
",61,lustig-d-singstund
184,comedy,Marie,F,cook,service_and_sales,,"
          
Marie.

          
Jo, Herr, verzeihe Se mr, wenn ich's Ihne nitt frieiher
                        scho g'stande ha, ich weiss ewe, ass viel Persone
                        d'g'hirothene Màgd nitt gern hàn...

        
",61,lustig-d-singstund
185,comedy,Herr TANNEZAPFE,M,rentier,rentiers,,"
          
Herr Tannezapfe.

          
Doch, doch, ich ha se recht gern... ich ha Dr jo sogar
                        emol züeg'redt...
(fir sich)
 's isch güet, ass i's
                        weiss...
(lüt)
 und das isch...
(zïem Schlüch, wo nitt
                        bougiert)
 Derangier Di nitt, mi Liewer, mach nur furt.

        
",61,lustig-d-singstund
186,comedy,Herr SCHLÜCH,M,chimney_sweeper,elementary_professions,,"
          
Schlüch

          
('s Mül voll)

          
Sie sin gar sa güet...

        
",62,lustig-d-singstund
187,comedy,Herr TANNEZAPFE,M,rentier,rentiers,,"
          
Herr Tannezapfe.

          
Er hat kei iwel G'sicht... vo witem, ohne Brille,
                        g'fallt er mr eso ziemlig... Allons Marie, mach Dr 
kei
                        bös Gebliet... un kumm do zwische-n-uns Zwei ku sitze.
                       
(Er sitzt am Marie si Platz.)

        
",62,lustig-d-singstund
188,comedy,Marie,F,cook,service_and_sales,,"
          
Marie

          
(bringt e Couvert un e Stüehl)

          
Was, Sie erlaüwe?... O, was sin Sie fir e güeter Herr.
                       
(Se sitzt in d'Mittle.)

        
",62,lustig-d-singstund
189,comedy,Herr SCHLÜCH,M,chimney_sweeper,elementary_professions,,"
          
Schlüch.

          
Das isch wohr... 's isch g'wiss e-n-Ehr...

        
",63,lustig-d-singstund
190,comedy,Marie,F,cook,service_and_sales,,"
          
Marie.

          
Ah ça, sin Sie denn nitt in's Concert gange?

        
",63,lustig-d-singstund
191,comedy,Herr TANNEZAPFE,M,rentier,rentiers,,"
          
Herr Tannezapfe.

          
Doch, doch... das heisst, i bi scho uf em neüe
                        Quartierplatz gsi, uf eimol rieft mr ebber, un wo-n-i
                        lüeg, isch's e güeter Frind, wo optirt hat un jetz
                        z'Basel wohnt, un dà hat mir e Last Dings verzählt... i
                        bi gar nimm vo-n-'m ku... un wo-n-i derno in d'Bourse
                        ku bi, so hat's scho lang ag'fange g'ha... derno bi-n-i
                        halt wieder umkehrt, denn de weisch, wenn i nitt fire
                        ka...

        
",63,lustig-d-singstund
192,comedy,Marie,F,cook,service_and_sales,,"
          
Marie.

          
Un Sie hàn sich doch eso g'freit druf.

        
",64,lustig-d-singstund
193,comedy,Herr TANNEZAPFE,M,rentier,rentiers,,"
          
Herr Tannezapfe.

          
Jà do, was witt halt... un derno ha-n-i o denkt, mi
                        Racahout-Suppe erwartet mi d'heim... wottsch mr
                        d'Suppeschüssle passiere...

        
",64,lustig-d-singstund
194,comedy,Marie,F,cook,service_and_sales,,"
          
Marie

          
(embarrassiert)

          
D'Suppeschüssle?

        
",64,lustig-d-singstund
195,comedy,Herr SCHLÜCH,M,chimney_sweeper,elementary_professions,,"
          
Schlüch.

          
D'Suppeschüssle?... do isch se, Herr...
(Er git's 'm.)

        
",65,lustig-d-singstund
196,comedy,Herr TANNEZAPFE,M,rentier,rentiers,,"
          
Herr Tannezapfe

          
(will si serviere)

          
's isch jo gar nit drin !

        
",65,lustig-d-singstund
197,comedy,Marie,F,cook,service_and_sales,,"
          
Marie.

          
's isch halt mi Mann... Herr...

        
",65,lustig-d-singstund
198,comedy,Herr TANNEZAPFE,M,rentier,rentiers,,"
          
Herr Tannezapfe.

          
Ah! mi Alter, Dü hasch alle g'gesse.

        
",66,lustig-d-singstund
199,comedy,Herr SCHLÜCH,M,chimney_sweeper,elementary_professions,,"
          
Schlüch.

          
Se mien mr halt verzeihe, Herr, 's Marie hat mr ewe
                        g'sàit, se thàt eirn feisst mache...

        
",66,lustig-d-singstund
200,comedy,Herr TANNEZAPFE,M,rentier,rentiers,,"
          
Herr Tannezapfe.

          
's isch wohr, Dü bisch scho nitt so dick... enfin, macht
                        nit, làng mr dr Hahne...

        
",66,lustig-d-singstund
201,comedy,Marie,F,cook,service_and_sales,,"
          
Marie.

          
Mi Mann hàt en grad entàmiert; wo Sie ine ku sin...

        
",67,lustig-d-singstund
202,comedy,Herr SCHLÜCH,M,chimney_sweeper,elementary_professions,,"
          
Schlüch.

          
I ha noch nit dervo g'gesse as zwei Stätzle., zwei
                        Fattig, d'Làwere un 's Hintere...

        
",67,lustig-d-singstund
203,comedy,Herr TANNEZAPFE,M,rentier,rentiers,,"
          
Herr Tannezapfe.

          
Un 's G'stell, das wird doch noch bliwe?

        
",67,lustig-d-singstund
204,comedy,Herr SCHLÜCH,M,chimney_sweeper,elementary_professions,,"
          
Schlüch.

          
Mr wànn's hoffe... Mr theile's mitnander.
(Er serviert
                        dr Herr Tannezapfe un sich nochher.)

        
",68,lustig-d-singstund
205,comedy,Herr TANNEZAPFE,M,rentier,rentiers,,"
          
Herr Tannezapfe

          
(fir sich)

          
Er hat e güeter Schluck, si Mann.

        
",68,lustig-d-singstund
206,comedy,Marie,F,cook,service_and_sales,,"
          
Marie

          
(fir sich)

          
Das geht e Länge, un d'Andere...

        
",68,lustig-d-singstund
207,comedy,Herr SCHLÜCH,M,chimney_sweeper,elementary_professions,,"
          
Schlüch

          
(wo ig'schànkt hat)

          
G'sundheit, Herr... ich weiss nitt... awer Sie geh'nr
                        jetz emol recht... Sie hàn e güeter Keigel...

          

        
",69,lustig-d-singstund
208,comedy,Herr TANNEZAPFE,M,rentier,rentiers,,"
          
Herr Tannezapfe

          
(lustig)

          
Er findet, ich heb e güeter Keigel...

        
",69,lustig-d-singstund
209,comedy,Herr SCHLÜCH,M,chimney_sweeper,elementary_professions,,"
          
Schlüch.

          
Wo Sie inne ku sin, so ha-n-ich grad 's Marie...

        
",69,lustig-d-singstund
210,comedy,Herr TANNEZAPFE,M,rentier,rentiers,,"
          
Herr Tannezapfe.

          
So hasch Dü grad 's Marie?...

        
",70,lustig-d-singstund
211,comedy,Herr SCHLÜCH,M,chimney_sweeper,elementary_professions,,"
          
Schlüch.

          
Mache singe, 's isch schad, ass Sie's nitt g'hört hàn.

        
",70,lustig-d-singstund
212,comedy,Herr TANNEZAPFE,M,rentier,rentiers,,"
          
Herr Tannezapfe.

          
Eh bien! singe's noch emol...

        
",70,lustig-d-singstund
213,comedy,Herr SCHLÜCH,M,chimney_sweeper,elementary_professions,,"
          
Schlüch.

          
's Marie wird Ihne das Dings astimme.

        
",71,lustig-d-singstund
214,comedy,Marie,F,cook,service_and_sales,,"
          
Marie.

          

            
G'sang

            
(trutz nitt so)

            
's isch so schön, wenn Herz un Hand

            
Uf Erde sich thien finde,

            
Un wenn d'Liewe-n-isch ihr Band,

            
Wo sie thüet z'sàmme binde.

          

        
",71,lustig-d-singstund
215,comedy,Marie,F,cook,service_and_sales,,"
          
Mitnander.

          

            
's isch so schön, wenn Herz un Hand

            
Uf Erde sich thien finde,

            
Un wenn d'Liewe-n-isch ihr Band,

            
Wenn d'Liewe-n-isch ihr Band.

            
(Se schlage dr Takt an de Gläser.)

          

        
",71,lustig-d-singstund
216,comedy,Herr TANNEZAPFE,M,rentier,rentiers,,"
          
Mitnander.

          

            
's isch so schön, wenn Herz un Hand

            
Uf Erde sich thien finde,

            
Un wenn d'Liewe-n-isch ihr Band,

            
Wenn d'Liewe-n-isch ihr Band.

            
(Se schlage dr Takt an de Gläser.)

          

        
",72,lustig-d-singstund
217,comedy,Herr SCHLÜCH,M,chimney_sweeper,elementary_professions,,"
          
Mitnander.

          

            
's isch so schön, wenn Herz un Hand

            
Uf Erde sich thien finde,

            
Un wenn d'Liewe-n-isch ihr Band,

            
Wenn d'Liewe-n-isch ihr Band.

            
(Se schlage dr Takt an de Gläser.)

          

        
",72,lustig-d-singstund
218,comedy,Herr TANNEZAPFE,M,rentier,rentiers,,"
          
Herr Tannezapfe.

          
Eh bien! güeter Frind, Dü gehsch mr jetz...

        
",72,lustig-d-singstund
219,comedy,Herr SCHLÜCH,M,chimney_sweeper,elementary_professions,,"
          
Schlüch.

          
Se hàn keine Vorurtheil'... ich o nitt, e Kàmifeger
                        kennt das nitt.

        
",73,lustig-d-singstund
220,comedy,Herr TANNEZAPFE,M,rentier,rentiers,,"
          
Herr Tannezapfe.

          
Sag emol, mi Held, verzähl mr emol, was Dich azoge hat,
                        fir Kàmifeger z'lehre...

        
",73,lustig-d-singstund
221,comedy,Herr GAGER,M,chimney_sweeper,elementary_professions,,"
          
Gager

          
(macht e wenig uf, fir sich)

          
Tiens, dr Herr isst mit em Mann
(macht züe).

        
",73,lustig-d-singstund
222,comedy,Herr TANNEZAPFE,M,rentier,rentiers,,"
          
Herr Tannezapfe.

          
Was i ho nie ha kanne begriffe, das isch, ass Ihr frieih
                        scho so schwarz sin, vor ebb Ihr im e Kàmi gsi sin.

        
",74,lustig-d-singstund
223,comedy,Herr SCHLÜCH,M,chimney_sweeper,elementary_professions,,"
          
Schlüch.

          
Eh! grad das mache mr, ass mr in de Kàmi nitt schwarz
                        werde... Was mi Lewensg'schichte abelangt... soll i se
                        afange?...

        
",74,lustig-d-singstund
224,comedy,Marie,F,cook,service_and_sales,,"
          
Marie

          
(fir sich)

          
Die schwàtze doch noch bis morn am Morge... das isch
                        sicher...

        
",74,lustig-d-singstund
225,comedy,Herr TANNEZAPFE,M,rentier,rentiers,,"
          
Herr Tannezapfe.

          
Das Ding wird interessant... Wart e wenig... 's Marie
                        holt jetz 's Kaffee... Trinksch Dü's gern, 's Kaffee?

        
",75,lustig-d-singstund
226,comedy,Herr SCHLÜCH,M,chimney_sweeper,elementary_professions,,"
          
Schlüch.

          
Ich spei grad nitt druf...

        
",75,lustig-d-singstund
227,comedy,Herr TANNEZAPFE,M,rentier,rentiers,,"
          
Herr Tannezapfe.

          
Wàhrend der Zit will ich geh mi Frack üszieh' un dr
                        Nachtrock alege...

        
",75,lustig-d-singstund
228,comedy,Herr SCHLÜCH,M,chimney_sweeper,elementary_professions,,"
          
Schlüch.

          
Geniere Sie sich nitt... mache. Se nur, wie wenn Se
                        d'heim wàre.

        
",76,lustig-d-singstund
229,comedy,Herr TANNEZAPFE,M,rentier,rentiers,,"
          
Herr Tannezapfe.

          
Wart mr do... nur zwei Minüte.
(Er geht dur d'zweite
                        Thüre links.)

          

        
",76,lustig-d-singstund
230,comedy,Marie,F,cook,service_and_sales,,"
          
Marie.

          
Jetz fahre-n-ab...
(fir sich)
 ass d'Andere o känne
                        üsrisse...

        
",76,lustig-d-singstund
231,comedy,Herr SCHLÜCH,M,chimney_sweeper,elementary_professions,,"
          
Schlüch.

          
Was, abfahre... ohne 's Kaffee z'erscht z'trinke... jà
                        nei...

        
",77,lustig-d-singstund
232,comedy,Marie,F,cook,service_and_sales,,"
          
Marie.

          
Ich kenn ewe dr Herr Tannezapfe, er wird nie fertig mit
                        froge, er isch so wunderfitzig!... Do, gehn do ine
(se
                        zeigt 'm d'Thüre hinte links)
. Ich sag 'm, Ihr seige
                        furt, derno geht er geh schlofe, un nochher...

        
",77,lustig-d-singstund
233,comedy,Herr SCHLÜCH,M,chimney_sweeper,elementary_professions,,"
          
Schlüch.

          
Un nochher nàmme mr 's Kaffee, un noch em Kaffee...

        
",77,lustig-d-singstund
234,comedy,Marie,F,cook,service_and_sales,,"
          
Marie

          
(stosst 'n)

          
Jo, jo, sin z'friede
(er geht ine, se macht d'Thüre
                        züe)
. Un jetz g'schwind furt mit de-n-Andere.

        
",78,lustig-d-singstund
235,comedy,Herr TANNEZAPFE,M,rentier,rentiers,,"
          
Herr Tannezapfe

          
(voruse)

          
Do bi-n-i jetz wieder.

        
",78,lustig-d-singstund
236,comedy,Marie,F,cook,service_and_sales,,"
          
Marie

          
(kunnt wieder z'ruck)

          
's geht nitt.
(Se geht in d'Kuche, zweite Thüre
                        rechts.)

        
",78,lustig-d-singstund
237,comedy,Herr GAGER,M,chimney_sweeper,elementary_professions,,"
          
Gager

          
(macht si Thüre uf)

          
Er will jetz noch 's Kaffee nàh?.. Nun-de-bib! was fir e
                        Faction!

        
",79,lustig-d-singstund
238,comedy,Herr PAPEGAI,M,chimney_sweeper,elementary_professions,,"
          
Papegài

          
(kunnt züem Cabinet üse)

          
Me-n-isch doch wiethig schlecht: do inne... I will
                        e-n-andrer Pla-atz süeche...
(Er isch ganz duss un
                        macht d'Thüre züe.)

        
",79,lustig-d-singstund
239,comedy,Herr GAGER,M,chimney_sweeper,elementary_professions,,"
          
Gager

          
(hat welle-n-üse ku)

          
Oho! dr Mann!

          
(Papegài geht gege-n-em Cabinet vom Gager, dà macht
                        g'schwind si Thüre züe.)

        
",79,lustig-d-singstund
240,comedy,Herr TANNEZAPFE,M,rentier,rentiers,,"
          
Herr Tannezapfe

          
(kunnt ine)

          
Eh bien! Marie, isch 's Kaffee g'rischtet?...

        
",80,lustig-d-singstund
241,comedy,Herr PAPEGAI,M,chimney_sweeper,elementary_professions,,"
          
Papegài

          
(fir sich)

          
Oho! dr He-err
(er blibt hinte steh).

        
",80,lustig-d-singstund
242,comedy,Herr TANNEZAPFE,M,rentier,rentiers,,"
          
Herr Tannezapfe

          
(züem Papegài, wo-n-er fir dr Schlüch nimmt)

          
Allons, mi Alter, kumm setz Di an Tisch.

        
",80,lustig-d-singstund
243,comedy,Herr PAPEGAI,M,chimney_sweeper,elementary_professions,,"
          
Papegài.

          
An Ti-i-isch.

        
",81,lustig-d-singstund
244,comedy,Herr TANNEZAPFE,M,rentier,rentiers,,"
          
Herr Tannezapfe.

          
Zeig... kumm... sitz wieder an Di Platz
(er setzt si).

        
",81,lustig-d-singstund
245,comedy,Herr PAPEGAI,M,chimney_sweeper,elementary_professions,,"
          
Papegài.

          
I-i kumm
(fir sich)
 er nimmt mi fir dr A-Ander...

        
",81,lustig-d-singstund
246,comedy,Herr TANNEZAPFE,M,rentier,rentiers,,"
          
Herr Tannezapfe.

          
Allons denn!

          

        
",82,lustig-d-singstund
247,comedy,Herr PAPEGAI,M,chimney_sweeper,elementary_professions,,"
          
Papegài

          
(fir sich)

          
We-wenn's halt nitt anderscht ka si...
(Er setzt si am
                        Schlüch si Platz un isst, 's G'sicht ganz nooch bim
                        Teller.)

        
",82,lustig-d-singstund
248,comedy,Herr TANNEZAPFE,M,rentier,rentiers,,"
          
Herr Tannezapfe.

          
Marie, eh bien! kunnt das Kaffee bol?...

        
",82,lustig-d-singstund
249,comedy,Marie,F,cook,service_and_sales,,"
          
Marie

          
(kunnt üs dr Küche mit eme Plateau, mit Kaffee,
                        Tasse un Zucker druf)

          
Do, Herr...
(fir sich)
 Was! dr Schlüch isch wieder an dr
                        Tisch z'ruckku?
(Se stellt dr Plateau uf dr Tisch.)

        
",83,lustig-d-singstund
250,comedy,Herr TANNEZAPFE,M,rentier,rentiers,,"
          
Herr Tannezapfe

          
(b'schaüt dr Papegài, wo isst)

          
Ah ça... er fangt wieder a z'esse, halt' 'n doch ab...
                        er macht si sunscht weh...

        
",83,lustig-d-singstund
251,comedy,Marie,F,cook,service_and_sales,,"
          
Marie

          
(kunnt uf d'linke Site vom Papegài)

          
Ihr verspringe noch, 's isch sicher
(erkennt 'n, fir
                        sich)
 dr Papegài! Jetz wird's schön geh züem Glick hat
                        dr Herr e kurz G'sicht...
(Se geht hinter dr Tisch
                        z'ruck.)

        
",83,lustig-d-singstund
252,comedy,Herr TANNEZAPFE,M,rentier,rentiers,,"
          
Herr Tannezapfe

          
(serviert dr Kaffee un dr Zucker)

          
Versüech mr jetz emol das Kaffee do... mr wànn lüege,
                        was De sàisch derzüe
(er git im Papegài e Tasse, er
                        trinkt)
. Eh bien! was haltsch dervo?

        
",84,lustig-d-singstund
253,comedy,Herr PAPEGAI,M,chimney_sweeper,elementary_professions,,"
          
Papegài.

          
's isch güet, Ihr' Ka-Ka...

        
",84,lustig-d-singstund
254,comedy,Herr TANNEZAPFE,M,rentier,rentiers,,"
          
Herr Tannezapfe.

          
Hein?

        
",84,lustig-d-singstund
255,comedy,Herr PAPEGAI,M,chimney_sweeper,elementary_professions,,"
          
Papegài.

          
fee...

        
",85,lustig-d-singstund
256,comedy,Herr TANNEZAPFE,M,rentier,rentiers,,"
          
Herr Tannezapfe.

          
Er redt eso possig, was hat er denn?

        
",85,lustig-d-singstund
257,comedy,Marie,F,cook,service_and_sales,,"
          
Marie.

          
Er wird... er wird z'viel g'gesse ha.

        
",85,lustig-d-singstund
258,comedy,Herr TANNEZAPFE,M,rentier,rentiers,,"
          
Herr Tannezapfe.

          
's isch mögli... zeig jetz, güeter Frind, loss jetz Di
                        Kaffee fir e Minüte un verzahl mr jetz das Ding
                       
(b'schaüt 'n)
 's schint mr allewil... eh.. alleweg
                        isch's 'n nitt!...

        
",86,lustig-d-singstund
259,comedy,Marie,F,cook,service_and_sales,,"
          
Marie

          
(fir sich)

          
Do hà mr's...
(lüt un herzhaft)
 Wer das, Herr?...

        
",86,lustig-d-singstund
260,comedy,Herr TANNEZAPFE,M,rentier,rentiers,,"
          
Herr Tannezapfe.

          
Di Mann!

        
",86,lustig-d-singstund
261,comedy,Marie,F,cook,service_and_sales,,"
          
Marie.

          
Ah bah!

        
",87,lustig-d-singstund
262,comedy,Herr TANNEZAPFE,M,rentier,rentiers,,"
          
Herr Tannezapfe.

          
Eh,lüeg emol, 's isch dà Kàmifeger nitt vo vorig.

        
",87,lustig-d-singstund
263,comedy,Marie,F,cook,service_and_sales,,"
          
Marie.

          
Dr Herr will mich glaüb ha?

        
",87,lustig-d-singstund
264,comedy,Herr PAPEGAI,M,chimney_sweeper,elementary_professions,,"
          
Papegài.

          
Dr Herr spa-spa-spasst.

        
",88,lustig-d-singstund
265,comedy,Marie,F,cook,service_and_sales,,"
          
Marie.

          
Doch, doch, 's isch ne.

        
",88,lustig-d-singstund
266,comedy,Herr TANNEZAPFE,M,rentier,rentiers,,"
          
Herr Tannezapfe.

          
Ich ha halt mine Brille nitt. Enfin, wenn Dü sicher
                        bisch...

        
",88,lustig-d-singstund
267,comedy,Marie,F,cook,service_and_sales,,"
          
Marie.

          
Natirlig bi-n-i sicher... awer 's isch jetz glaüb Zit,
                        ass er heim geht.

          

        
",89,lustig-d-singstund
268,comedy,Herr PAPEGAI,M,chimney_sweeper,elementary_professions,,"
          
Papegài

          
(steht uf)

          
I ga-gang...

        
",89,lustig-d-singstund
269,comedy,Herr TANNEZAPFE,M,rentier,rentiers,,"
          
Herr Tannezapfe.

          
Nitt, vor eb er mir die G'schichte verzählt hat.

        
",89,lustig-d-singstund
270,comedy,Herr PAPEGAI,M,chimney_sweeper,elementary_professions,,"
          
Papegài.

          
Was fir e G'schi-G'schi-G'schichte?

        
",90,lustig-d-singstund
271,comedy,Herr TANNEZAPFE,M,rentier,rentiers,,"
          
Herr Tannezapfe.

          
Ah ça, er stosst glaüb a jetz?

        
",90,lustig-d-singstund
272,comedy,Marie,F,cook,service_and_sales,,"
          
Marie.

          
Das kunnt üs em Mage
(lislig züem Papagài)
 fahre-n-ah
                       
(Se kunnt fire rechts).

        
",90,lustig-d-singstund
273,comedy,Herr PAPEGAI,M,chimney_sweeper,elementary_professions,,"
          
Papegài

          
(steht uf)

          
Güe - güetnacht...

        
",91,lustig-d-singstund
274,comedy,Herr TANNEZAPFE,M,rentier,rentiers,,"
          
Herr Tannezapfe

          
(macht 'n z'bliwe)

          
Nur noch e wenig... das alles ist nitt recht klar
(züem
                        Marie)
 gib mr mine Brille...

        
",91,lustig-d-singstund
275,comedy,Marie,F,cook,service_and_sales,,"
          
Marie

          
(verwirrt)

          
Ihre Brille... i ha se verlegt... weiss nitt, wo se
                        sìn...

        
",91,lustig-d-singstund
276,comedy,Herr TANNEZAPFE,M,rentier,rentiers,,"
          
Herr Tannezapfe.

          
Ich will se scho finde... Zind mr...

        
",92,lustig-d-singstund
277,comedy,Marie,F,cook,service_and_sales,,"
          
Marie.

          
Ich soll...

        
",92,lustig-d-singstund
278,comedy,Herr TANNEZAPFE,M,rentier,rentiers,,"
          
Herr Tannezapfe.

          
Hör'sch mi oder nitt?...

        
",92,lustig-d-singstund
279,comedy,Marie,F,cook,service_and_sales,,"
          
Marie.

          
Jo, Herr
(lislig züem Papegài)
 mache-n-ass Ihr furt
                        kämme, sunscht bi-n-i verlore
(se geht in d'Mittle).

          

        
",93,lustig-d-singstund
280,comedy,Herr TANNEZAPFE,M,rentier,rentiers,,"
          
Herr Tannezapfe.

          

            
Ich will's jetz wisse!

            
's liege, das nutzt nit meh,

            
Nur e schlecht G'wisse

            
Thüet widersteh.

          

        
",93,lustig-d-singstund
281,comedy,Marie,F,cook,service_and_sales,,"
          
Marie.

          

            
Er will's jetz wisse!

            
Drum will ich mit 'm geh,

            
Ass er mi G'wisse

            
Glaübt wiss wie Schnee.

          

        
",93,lustig-d-singstund
282,comedy,Herr PAPEGAI,M,chimney_sweeper,elementary_professions,,"
          
Papegai.

          

            
Er will's jetz wisse!

            
's liege, das nutzt nit meh,

            
Ich, uf mi G'wisse,

            
Blib nitt do steh.

          

        
",94,lustig-d-singstund
283,comedy,Herr PAPEGAI,M,chimney_sweeper,elementary_professions,,"
          
Papegài.

          
Kunnsch mo-orn dure, ass ich do wart... wo isch d'Thüre?
                       
(Er geht mit vorg'streckte Hànd links, vor em Tisch
                        verbi.)

        
",94,lustig-d-singstund
284,comedy,Herr GAGER,M,chimney_sweeper,elementary_professions,,"
          
Gager.

          
(kunnt züe sim Cabinet üse)

          
Ich gieng jetz gern emol ab
(cr sieht im Dunkle e
                        Kàmifeger, fir sich)
 wer isch' das? nun-de-bib! 's isch 

                        dr Mann.
(Er geht hintere, dr Schlüch kunnt züem
                        hintere Zimmer üse, links, un geht rechts.)

        
",94,lustig-d-singstund
285,comedy,Herr SCHLÜCH,M,chimney_sweeper,elementary_professions,,"
          
Schlüch

          
(geht immer vorsichtig rechts)

          
Wenn i nur d'Kuche kännt finde...

        
",95,lustig-d-singstund
286,comedy,Herr TANNEZAPFE,M,rentier,rentiers,,"
          
Herr Tannezapfe

          
(voruse)

          
Jetz wà mr emol sàh...

        
",95,lustig-d-singstund
287,comedy,alle,B,,,,"
          
Alle.

          
Ah!

        
",95,lustig-d-singstund
288,comedy,Herr GAGER,M,chimney_sweeper,elementary_professions,,"
          
Gager.

          
G'schwind do ine.
(Er geht ins linke Cabinet hinte, wo
                        d'Thüre-n-uf isch.)

        
",96,lustig-d-singstund
289,comedy,Herr PAPEGAI,M,chimney_sweeper,elementary_professions,,"
          
Papegài.

          
Dert...
(Er geht links ine, erster Plan.)

        
",96,lustig-d-singstund
290,comedy,Herr SCHLÜCH,M,chimney_sweeper,elementary_professions,,"
          
Schlüch.

          
's isch nit z'mache...
(Er geht rechts iue, erster Plan.
                        Alle mache-n-ihre Thüre züe.)

        
",96,lustig-d-singstund
291,comedy,Marie,F,cook,service_and_sales,,"
          
Marie

          
(kunnt z'erscht ine, stellt 's Liecht uf dr Tisch,
                        un sieht dr Papegai nimmig)

          
Ah! er isch furt!
('s Theater wird heiter.)

        
",97,lustig-d-singstund
292,comedy,Herr TANNEZAPFE,M,rentier,rentiers,,"
          
Herr Tannezapfe

          
(kunnt ine, er hat sine Brille-n-uf dr Nase)

          
Jetz, wo-n-i mine Brille ha, wà mr emol lüege... Eh
                        bien! wo isch er denn? hasch g'sàh, ass er si dervo
                        g'macht hat... er wird wohl wisse worum... Oh! ich merk
                        ebbes... Marie... do steckt ebbes derhinter.

        
",97,lustig-d-singstund
293,comedy,Marie,F,cook,service_and_sales,,"
          
Marie.

          
Ich merk' o, ass Sie nitt heiter sàhn un ass Sie allewil
                        Sache fire bringe...

        
",97,lustig-d-singstund
294,comedy,Herr TANNEZAPFE,M,rentier,rentiers,,"
          
Herr Tannezapfe.

          
Worum isch er denn furt, das bezigt doch...

        
",98,lustig-d-singstund
295,comedy,Marie,F,cook,service_and_sales,,"
          
Marie.

          
Das bezigt gar nit
(fir sich)
 Oh! ne güeter Idee! Dr
                        Schlüch isch jo dert...
(lüt)
 Un züedàm isch er gar
                        nitt furt, er isch dert in mim Zimmer.
(Se zeigt 's
                        Cabinet hinte links.)

        
",98,lustig-d-singstund
296,comedy,Herr TANNEZAPFE,M,rentier,rentiers,,"
          
Herr Tannezapfe.

          
In Dim Zimmer?

        
",98,lustig-d-singstund
297,comedy,Marie,F,cook,service_and_sales,,"
          
Marie.

          
Worum nitt, mi Mann?

        
",99,lustig-d-singstund
298,comedy,Herr TANNEZAPFE,M,rentier,rentiers,,"
          
Herr Tannezapfe.

          
Eh bien, zeig, rief 'm...
(er geht links).

        
",99,lustig-d-singstund
299,comedy,Marie,F,cook,service_and_sales,,"
          
Marie

          
(geht hintere)

          
Wenn Se nur das brüche, fir sich z'versichere... putze
                        Se nur Ihre Brille... Se wàrde sàh, eb's nitt mi Mann
                        isch.
(Se macht d'Thüre vom Cabinet uf hinte links.)

                        Kumm, Schlüch, dr Herr will mit Dr rede.
(Se nimmt dr
                        Gager bi dr Hand un fiehrt 'n ine.)

        
",99,lustig-d-singstund
300,comedy,Herr TANNEZAPFE,M,rentier,rentiers,,"
          
Herr Tannezapfe.

          
Kumm emol nächer, güeter Frind...

        
",100,lustig-d-singstund
301,comedy,Marie,F,cook,service_and_sales,,"
          
Marie

          
(fiehrt dr Gager, ohne z'lüege)

          
Do, sàhn Se...

          

        
",100,lustig-d-singstund
302,comedy,Herr TANNEZAPFE,M,rentier,rentiers,,"
          
Herr Tannezapfe

          
(b'schaüt 'n ganz nooch)

          
Scho wieder e-n-Anderer?...

        
",100,lustig-d-singstund
303,comedy,Herr GAGER,M,chimney_sweeper,elementary_professions,,"
          
Gager.

          
Se mien mi excüsiere...

        
",101,lustig-d-singstund
304,comedy,Marie,F,cook,service_and_sales,,"
          
Marie

          
(fir sich, wo 'n erkennt)

          
Dr Gager anstatt dr Schlüch?...

          

            
G'sang

            
(Ich bin der Doktor Eisenbart)

            
Ich bi glaüb nimm recht bi Vernunft!

            
Was isch mit mim Hüs?

            
's isch glaüb e Kàmifegerzunft,

            
Ich kumm gar nimm drüs!

            
's hat küm als Ein dr Tisch verlo,

            
So sitzt e-n-And'rer wieder do!

            
Wo me hi nur stellt dr Füess,

            
Sieht me nit as Rüess!

            
(züem Marie)

            
Zeig, lüeg mi a, 
(bis)

            
Marie, Dü bisch schuld do dra!

            
Zeig, lüeg mi a, 
(bis)

            
Dü bisch schuld do dra.

            
(züem Marie)

            
Eh bien, Marie?

          

        
",101,lustig-d-singstund
305,comedy,Marie,F,cook,service_and_sales,,"
          
Marie.

          
Eh bien... was?

        
",101,lustig-d-singstund
306,comedy,Herr TANNEZAPFE,M,rentier,rentiers,,"
          
Herr Tannezapfe.

          
Isch en jetz das o, Di Mann?...

        
",102,lustig-d-singstund
307,comedy,Marie,F,cook,service_and_sales,,"
          
Marie

          
(blickt im Gager)

          
I mein's emol, Herr, ass es ne isch...

        
",102,lustig-d-singstund
308,comedy,Herr GAGER,M,chimney_sweeper,elementary_professions,,"
          
Gager

          
(lislig züem Marie)

          
Verstande...

        
",102,lustig-d-singstund
309,comedy,Herr TANNEZAPFE,M,rentier,rentiers,,"
          
Herr Tannezapfe.

          
Was... dà Dicke do?

        
",103,lustig-d-singstund
310,comedy,Marie,F,cook,service_and_sales,,"
          
Marie.

          
Isch's e Wunder, Herr? Sie hàn 'n so viel mache
                            z'esse.

          
(Se stupft dr Gager.)

        
",103,lustig-d-singstund
311,comedy,Herr GAGER,M,chimney_sweeper,elementary_professions,,"
          
Gager.

          
Nun-de-bib noch emol... das isch wohr... Se hà mich
                            g'schoppt...

        
",103,lustig-d-singstund
312,comedy,Herr TANNEZAPFE,M,rentier,rentiers,,"
          
Herr Tannezapfe.

          
Was... Dü bisch's, wo...

        
",104,lustig-d-singstund
313,comedy,Marie,F,cook,service_and_sales,,"
          
Marie

          
(bloost im Gager i)

          
Dr Hahne g'gesse hat...

        
",104,lustig-d-singstund
314,comedy,Herr GAGER,M,chimney_sweeper,elementary_professions,,"
          
Gager.

          
Dr Hahne g'gesse hat.

        
",104,lustig-d-singstund
315,comedy,Marie,F,cook,service_and_sales,,"
          
Marie

          
(lislig im Gager)

          
Un dr Racahout.

        
",105,lustig-d-singstund
316,comedy,Herr GAGER,M,chimney_sweeper,elementary_professions,,"
          
Gager.

          
Un dr Raca... was?

        
",105,lustig-d-singstund
317,comedy,Marie,F,cook,service_and_sales,,"
          
Marie

          
(bloost 'm)

          
Hout.
(Se geht in d'Mittle hinter dr Tisch.)

        
",105,lustig-d-singstund
318,comedy,Herr GAGER,M,chimney_sweeper,elementary_professions,,"
          
Gager.

          
Un dr Racahout... un 's hat mi nitt iwel uftriwe...
                            Nun-de-bib noch emol!

        
",106,lustig-d-singstund
319,comedy,Herr TANNEZAPFE,M,rentier,rentiers,,"
          
Herr Tannezapfe.

          
Do hat mi denn mi Schüelkamerad nitt trumpiert... 's
                            macht feist, nur hat er mr nitt g'sàit, ass es so
                            g'schwind geht...

          

        
",106,lustig-d-singstund
320,comedy,Herr GAGER,M,chimney_sweeper,elementary_professions,,"
          
Gager.

          
Eh bien, mr wànn wieder an dr Tisch sitze. Nunde-bib
                            noch emol...

        
",106,lustig-d-singstund
321,comedy,Herr TANNEZAPFE,M,rentier,rentiers,,"
          
Herr Tannezapfe.

          
's isch sunderbar, jetz schwört er, un noch ohne
                            az'stosse.

        
",107,lustig-d-singstund
322,comedy,Marie,F,cook,service_and_sales,,"
          
Marie.

          
Er hat allemol die G'wohnet am Dessert.

        
",107,lustig-d-singstund
323,comedy,Herr TANNEZAPFE,M,rentier,rentiers,,"
          
Herr Tannezapfe.

          
Ich ha das nitt ungern... Eh bien, 's isch mr recht,
                            kumm Alter, wieder an dr Tisch, me ka besser
                            schwàtze.

        
",107,lustig-d-singstund
324,comedy,Herr GAGER,M,chimney_sweeper,elementary_professions,,"
          
Gager.

          
C'est ça 
(se sitze, dr Gager am Platz vom Papegài)
 Kännt i viellicht die Platte ha dert?

        
",108,lustig-d-singstund
325,comedy,Herr TANNEZAPFE,M,rentier,rentiers,,"
          
Herr Tannezapfe

          
(zieht se z'ruck)

          
Jà halt! nei, Dü hasch jetz g'nüe g'gesse...
(züem Marie)
do, rüm das alles eweg... 
(Marie tràit's ufs Tischle links, mit dr Bouteille.)

        
",108,lustig-d-singstund
326,comedy,Herr GAGER,M,chimney_sweeper,elementary_professions,,"
          
Gager.

          
Nun-de-bib!...

        
",108,lustig-d-singstund
327,comedy,Herr TANNEZAPFE,M,rentier,rentiers,,"
          
Herr Tannezapfe.

          
Ich wott ewe nitt, ass es Dir sott schlecht werde...
                        De bisch jetz scho ganz bleich.
(züem Marie)
Nimm o d'Kaffeekanne furt... 
(Marie nimmt dr Plateau mit em Kaffee.)

        
",109,lustig-d-singstund
328,comedy,Herr GAGER,M,chimney_sweeper,elementary_professions,,"
          
Gager.

          
Was, sogar noch...

        
",109,lustig-d-singstund
329,comedy,Herr TANNEZAPFE,M,rentier,rentiers,,"
          
Herr Tannezapfe.

          
Jo, jo... Dü hasch Di Kaffee g'ha... De nimmsch jetz
                            nit meh as e Glasle Rhum... denn dr Rhum, dà thüet
                            eim das Ding als wieder e wenig vertriwe...

        
",109,lustig-d-singstund
330,comedy,Herr GAGER,M,chimney_sweeper,elementary_professions,,"
          
Gager.

          
Bi mir isch nit z'vertriwe-n-as dr Hunger...

        
",110,lustig-d-singstund
331,comedy,Herr TANNEZAPFE,M,rentier,rentiers,,"
          
Herr Tannezapfe.

          
A propos... De hasch mr die G'schichte noch allewil
                            nitt verzahlt!...

        
",110,lustig-d-singstund
332,comedy,Marie,F,cook,service_and_sales,,"
          
Marie

          
(wo in d'Kuche will geh mit em Kaffeeg'schirr, blibt
                        steh', fir sich)

          
Allons, bon 
(lislig züem Gager)
Sage-n-Ihr hewe 's Zahnweh un mache-n-I fremd...

        
",110,lustig-d-singstund
333,comedy,Herr GAGER,M,chimney_sweeper,elementary_professions,,"
          
Gager

          
(hebt si Backe)

          
Aïe, aïe, sapristi...

        
",111,lustig-d-singstund
334,comedy,Herr TANNEZAPFE,M,rentier,rentiers,,"
          
Herr Tannezapfe.

          
Wo fehlt's?...

        
",111,lustig-d-singstund
335,comedy,Herr GAGER,M,chimney_sweeper,elementary_professions,,"
          
Gager

          
(steht uf)

          
Mi Zahn, wo mr scho so lang Malàschte macht... awer
                            jetz gang i ne geh lo üsrisse, jetz schiew i's nimm
                            uf... ich verzähl Ihne das Ding morn... jetz müess
                            er üse...

        
",111,lustig-d-singstund
336,comedy,Herr TANNEZAPFE,M,rentier,rentiers,,"
          
Herr Tannezapfe.

          
Das isch jetz doch ärgerlig, enfin, De kunnsch
                            wieder.

        
",112,lustig-d-singstund
337,comedy,Herr GAGER,M,chimney_sweeper,elementary_professions,,"
          
Gager.

          
Eb i wieder kumm!
(lislig züem Marie)
 derno...

        
",112,lustig-d-singstund
338,comedy,Marie,F,cook,service_and_sales,,"
          
Marie

          
(lislig züem Gager)

          
Nix do!

        
",112,lustig-d-singstund
339,comedy,Herr GAGER,M,chimney_sweeper,elementary_professions,,"
          
Gager

          
(lislig züem Marie)

          
Oder i sag alles!...

        
",113,lustig-d-singstund
340,comedy,Herr TANNEZAPFE,M,rentier,rentiers,,"
          
Herr Tannezapfe

          
(hat si Stüehl eweg g'stellt un kunnt jetz wieder an
                        dr Tisch)

          
Do, nimm noch e Gläsle Rhum, 's isch o güet fir's
                            Zahnweh...

          

        
",113,lustig-d-singstund
341,comedy,Herr GAGER,M,chimney_sweeper,elementary_professions,,"
          
Gager.

          
Nun-de-bib! noch nie hat e Kàmifeger refüsiert, e
                            Gläsle z'iwernachte... nitt emol e Glas...

          
(er trinkt ei Gläsle no-n-em andere üs)

        
",113,lustig-d-singstund
342,comedy,Marie,F,cook,service_and_sales,,"
          
Marie

          
(fir sich)

          
Das isch emol e Feger!...

        
",114,lustig-d-singstund
343,comedy,Herr GAGER,M,chimney_sweeper,elementary_professions,,"
          
Gager.

          
Allons... Güetnacht Herr Tannebibele.

        
",114,lustig-d-singstund
344,comedy,Herr TANNEZAPFE,M,rentier,rentiers,,"
          
Herr Tannezapfe.

          
Tannezapfe, güeter Frind, Herkül Tannezapfe...

        
",114,lustig-d-singstund
345,comedy,Herr GAGER,M,chimney_sweeper,elementary_professions,,"
          
Gager

          
(lacht)

          
Ah! Sie sin e Herkül, Sie 
(er schlat em uf d'Achsle un an dr Büch)
 Farceur...

        
",115,lustig-d-singstund
346,comedy,Herr TANNEZAPFE,M,rentier,rentiers,,"
          
Herr Tannezapfe

          
(züem Marie)

          
Er isch charmant... un ganz güet uferzoge...

        
",115,lustig-d-singstund
347,comedy,Herr GAGER,M,chimney_sweeper,elementary_professions,,"
          
Gager.

          
Güetnacht Marie... làwe Se wohl, Herr.
(fir sich im hinteregeh)
Ass ich furtgang... sàll sin Schnàcketànz 
(singt fir sich)

          

            
Nei, nei, das thüet dr Gager nitt,

            
Er möcht noch ebbes esse hit...

          

          
Ich will emol prawiere, in d'Kuche z'witsche...

        
",115,lustig-d-singstund
348,comedy,Herr GAGER,M,chimney_sweeper,elementary_professions,,"
          
Gager.

          

            
Güetnacht, ich müess jetz scheide,

            
's wàr mir no nitt verleide,

            
Doch ha-n-i Weh am Zahn. 
(bis)

            
's isch mir jetz leid, 
(bis)

            
Verderbt isch jetz mi Freid.

          

          

        
",116,lustig-d-singstund
349,comedy,Marie,F,cook,service_and_sales,,"
          
Marie, Herr Tannezapfe.

          

            
'isch uns jetz leid, 
(bis)

            
Verderbt isch unser Freid.

          

          
(Dr Gager macht dr gliche, as gieng er furt un schlicht awer in d'Kuche, zweite Thüre rechts).

        
",116,lustig-d-singstund
350,comedy,Herr TANNEZAPFE,M,rentier,rentiers,,"
          
Marie, Herr Tannezapfe.

          

            
'isch uns jetz leid, 
(bis)

            
Verderbt isch unser Freid.

          

          
(Dr Gager macht dr gliche, as gieng er furt un schlicht awer in d'Kuche, zweite Thüre rechts).

        
",116,lustig-d-singstund
351,comedy,Marie,F,cook,service_and_sales,,"
          
Marie.

          
Endlig ha-n-i Di jetz ab 
(lüt)
 's isch efange spot, Herr... wenn Se jetz giengte geh schlofe?...

        
",117,lustig-d-singstund
352,comedy,Herr TANNEZAPFE,M,rentier,rentiers,,"
          
Herr Tannezapfe.

          
Sag... Marie... 's isch doch possig... grad denk i
                            jetz no iwer ebbes... Ass Einer ka uf eimol feisst
                            werde, wenn er züem Exempel Racahout isst, das ka
                            me viellicht noch versteh...

        
",117,lustig-d-singstund
353,comedy,Marie,F,cook,service_and_sales,,"
          
Marie.

          
Jo... dr Herr hat's jo g'sàh.

        
",117,lustig-d-singstund
354,comedy,Herr TANNEZAPFE,M,rentier,rentiers,,"
          
Herr Tannezapfe.

          
Di Mann hat Racahout g'gesse, güet, awer explizier
                            mr emol, wie sine Kleider, wo kei Racahout g'gesse
                            hàn, sich känne versteh züem eso ne Wachsthum?

        
",118,lustig-d-singstund
355,comedy,Marie,F,cook,service_and_sales,,"
          
Marie.

          
Sine Kleider? er hat jo schier nit a ass e Girtel un
                            dà hat er nur derfe ne wenig ufmache...

        
",118,lustig-d-singstund
356,comedy,Herr TANNEZAPFE,M,rentier,rentiers,,"
          
Herr Tannezapfe.

          
's isch eigentlig wohr... er wird dr Girtel
                            ufg'macht ha... doch i will jetz glaüb geh schlofe,
                            awer z'erscht will i die zwei Briefe lese, wo mr dr
                            Portner gà hat im ufegeh
(er nimmt se-n-üs em Sack un b'schaüt se)
Tiens, dà do isch vo miner Cüsine Ribise 
(er steckt dr ander wieder in Sack)

        
",118,lustig-d-singstund
357,comedy,Marie,F,cook,service_and_sales,,"
          
Marie.

          
Se wird wieder e Bosheit ufbringe... lese Sie's
                            morn.

        
",119,lustig-d-singstund
358,comedy,Herr TANNEZAPFE,M,rentier,rentiers,,"
          
Herr Tannezapfe.

          
Nei, denn 's isch viellicht pressiert... zind mr e
                        wenig.
(Marie nimmt 's Liecht un zindet, Er liest)
Liewer Cüsin, ich ha schöne Sache erfahre iwer Eüer Marie 
(er haltet)
 Hein?

        
",119,lustig-d-singstund
359,comedy,Marie,F,cook,service_and_sales,,"
          
Marie

          
(fir sich)

          
Aïe! aïe!

          
(Se zieht 's Liecht z'ruck.)

        
",119,lustig-d-singstund
360,comedy,Herr TANNEZAPFE,M,rentier,rentiers,,"
          
Herr Tannezapfe.

          
Zind mr denn
(liest)
Se hat schint's Liebschafte...

        
",120,lustig-d-singstund
361,comedy,Marie,F,cook,service_and_sales,,"
          
Marie

          
(kunnt mit em Liecht nächer, fir sich)

          
Die hat wohrschinlig alles erfahre!...

        
",120,lustig-d-singstund
362,comedy,Herr TANNEZAPFE,M,rentier,rentiers,,"
          
Herr Tannezapfe

          
(liest)

          
Mit drei Kàm...
(er kehrt 's Blätt um).

        
",120,lustig-d-singstund
363,comedy,Marie,F,cook,service_and_sales,,"
          
Marie

          
(fir sich)

          
Ich bi verlore
('s kunnt ere ne Idee)
Ah !

        
",121,lustig-d-singstund
364,comedy,Herr TANNEZAPFE,M,rentier,rentiers,,"
          
Herr Tannezapfe.

          
Mit drei Kàm... was will se mit dem sage?

        
",121,lustig-d-singstund
365,comedy,Marie,F,cook,service_and_sales,,"
          
Marie

          
(zindet dr Brief a)

          
Oh! Bosheite will se sage.

        
",121,lustig-d-singstund
366,comedy,Herr TANNEZAPFE,M,rentier,rentiers,,"
          
Herr Tannezapfe.

          
Das wà mr jetz gli sàh... Herrje! ich brenn!
(schreit)
Firio! Firio!... 
(Er wirft dr Brief an Bode un schreit, wie wenn 's ganze Hüs in Flamme wàr. Uf si Gschrei kämme-n-alle drei Kàmifeger üse ku z'springe uf dr Herr Tannezapfe.)

        
",122,lustig-d-singstund
367,comedy,Herr SCHLÜCH,M,chimney_sweeper,elementary_professions,,"
          
Schlüch

          
(kunnt ku z'springe)

          
Firio!

        
",122,lustig-d-singstund
368,comedy,Herr GAGER,M,chimney_sweeper,elementary_professions,,"
          
Gager.

          
Firio!

        
",122,lustig-d-singstund
369,comedy,Herr PAPEGAI,M,chimney_sweeper,elementary_professions,,"
          
Papegài.

          
Firio! Firio!...

        
",123,lustig-d-singstund
370,comedy,Herr TANNEZAPFE,M,rentier,rentiers,,"
          
Herr Tannezapfe

          
(ganz verstört)

          
A ça... schneits denn Kàmifeger hit?

        
",123,lustig-d-singstund
371,comedy,Herr SCHLÜCH,M,chimney_sweeper,elementary_professions,,"
          
Mitnander.

          
Wott me nitt grad meine,

          
's sin sunscht niene Keine -

          
Nit as Kàmifeger hit

          
Trifft me-n-a bi jedem Schritt!

          
Alles schmeekt no Kohle,

          
's isch züem Kückück hole!

          
Ich verstand kei Wort dervo,

          
Was die mache do!

        
",123,lustig-d-singstund
372,comedy,Herr GAGER,M,chimney_sweeper,elementary_professions,,"
          
Mitnander.

          
Wott me nitt grad meine,

          
's sin sunscht niene Keine -

          
Nit as Kàmifeger hit

          
Trifft me-n-a bi jedem Schritt!

          
Alles schmeekt no Kohle,

          
's isch züem Kückück hole!

          
Ich verstand kei Wort dervo,

          
Was die mache do!

        
",124,lustig-d-singstund
373,comedy,Herr PAPEGAI,M,chimney_sweeper,elementary_professions,,"
          
Mitnander.

          
Wott me nitt grad meine,

          
's sin sunscht niene Keine -

          
Nit as Kàmifeger hit

          
Trifft me-n-a bi jedem Schritt!

          
Alles schmeekt no Kohle,

          
's isch züem Kückück hole!

          
Ich verstand kei Wort dervo,

          
Was die mache do!

        
",124,lustig-d-singstund
374,comedy,Marie,F,cook,service_and_sales,,"
          
Marie

          
(fir sich)

          
Das isch 's Bouquet!

        
",124,lustig-d-singstund
375,comedy,Herr TANNEZAPFE,M,rentier,rentiers,,"
          
Herr Tannezapfe

          
(verstört)

          
Was will das sage?...

        
",125,lustig-d-singstund
376,comedy,Herr PAPEGAI,M,chimney_sweeper,elementary_professions,,"
          
Papegài.

          
Mr sin drei Kàm... Kàm...

        
",125,lustig-d-singstund
377,comedy,Herr TANNEZAPFE,M,rentier,rentiers,,"
          
Herr Tannezapfe.

          
Drei Kàm... mi Cüsine hat schint's recht g'ha in
                            ihrem Brief .

          

        
",125,lustig-d-singstund
378,comedy,Marie,F,cook,service_and_sales,,"
          
Marie

          
(geht uf 'n züe)

          
Eh bien, Herr... ich will Ihne liewer gli d'ganze
                            Wohret sage.

        
",126,lustig-d-singstund
379,comedy,Herr GAGER,M,chimney_sweeper,elementary_professions,,"
          
Gager

          
(fir sich)

          
Das will i o höre!

        
",126,lustig-d-singstund
380,comedy,Marie,F,cook,service_and_sales,,"
          
Marie.

          
's isch keiner vo dàne drei mi Mann!
(se geht züem Schlüch)
Awer das isch dà, wo-n-i hiroth mit dr Eh'stir, wo Sie mir versproche hàn...

        
",126,lustig-d-singstund
381,comedy,Herr SCHLÜCH,M,chimney_sweeper,elementary_professions,,"
          
Schlüch

          
(macht Grimasse)

          
Ah! 's git e-n-Eh'stir?...

        
",127,lustig-d-singstund
382,comedy,Herr TANNEZAPFE,M,rentier,rentiers,,"
          
Herr Tannezapfe.

          
Ich ha Dir e-n-Eh'stir versproche?

        
",127,lustig-d-singstund
383,comedy,Marie,F,cook,service_and_sales,,"
          
Marie.

          
Jo, Herr!...
(presentiert dr Schlüch)
Dr Herr Schlüch üs em Didemergàssle, d'andere zwei sin mine Cüsin, mi Cüsin Gager un mi Cüsin Pagepài.

        
",127,lustig-d-singstund
384,comedy,Herr PAPEGAI,M,chimney_sweeper,elementary_professions,,"
          
Papegài

          
(fir sich)

          
Si Cü - Cüsin?

        
",128,lustig-d-singstund
385,comedy,Herr GAGER,M,chimney_sweeper,elementary_professions,,"
          
Gager.

          
Verstande!...

        
",128,lustig-d-singstund
386,comedy,Herr SCHLÜCH,M,chimney_sweeper,elementary_professions,,"
          
Schlüch.

          
Wo mine zwei Zige gàn.
(Dr Gager git 'm d'Hand).

        
",128,lustig-d-singstund
387,comedy,Herr TANNEZAPFE,M,rentier,rentiers,,"
          
Herr Tannezapfe.

          
De hättsch's denn gli sotte sage. Eh bien, morn isch
                            's Brütesse un... doch halt, i ha jo noch e Brief
                            im Sack, wo-n-i noch g'schwind müess lese.
(Er nimmt dr Brief üs em Sack un liest
                            lislig.)

        
",129,lustig-d-singstund
388,comedy,Marie,F,cook,service_and_sales,,"
          
Marie

          
(fir sich)

          
Wenn's nur nitt wieder...

        
",129,lustig-d-singstund
389,comedy,Herr TANNEZAPFE,M,rentier,rentiers,,"
          
Herr Tannezapfe.

          
Wie-n-i gsàit ha, Ihr Herre-n-un Dame, morn isch 's
                            Esse, un mi güeter Frind in Basel ladet mi grad i,
                            fir morn ku dr Zug z'bschaüe... wenn Ihr wànn, so
                            geh mr z,Mittag uf Basel, ich zahl d'Reis'.
(fir sich)
Was frog ich derno, ich zieh's im Marie ab vo dr Eh'stir...

        
",129,lustig-d-singstund
390,comedy,Marie,F,cook,service_and_sales,,"
          
Marie.

          
Jetz isch's üs un nit meh dra,

          
Un hat das Stick eüch g'falle,

          
So thien ihr in d'Hànd recht schla

          
Un riefe Bravo! Alle.

        
",130,lustig-d-singstund
391,comedy,Herr PAPEGAI,M,chimney_sweeper,elementary_professions,,"
          
Mitnander.

          
Jetz isch's üs un nitt me dra,

          
Un hat das Stick eüch gfalle,

          
So thien ihr in d' Hànd recht schla,

          
So stark as Jeder ka.

        
",130,lustig-d-singstund
392,comedy,Herr GAGER,M,chimney_sweeper,elementary_professions,,"
          
Mitnander.

          
Jetz isch's üs un nitt me dra,

          
Un hat das Stick eüch gfalle,

          
So thien ihr in d' Hànd recht schla,

          
So stark as Jeder ka.

        
",130,lustig-d-singstund
393,comedy,Herr SCHLÜCH,M,chimney_sweeper,elementary_professions,,"
          
Mitnander.

          
Jetz isch's üs un nitt me dra,

          
Un hat das Stick eüch gfalle,

          
So thien ihr in d' Hànd recht schla,

          
So stark as Jeder ka.

        
",131,lustig-d-singstund
394,comedy,Herr TANNEZAPFE,M,rentier,rentiers,,"
          
Mitnander.

          
Jetz isch's üs un nitt me dra,

          
Un hat das Stick eüch gfalle,

          
So thien ihr in d' Hànd recht schla,

          
So stark as Jeder ka.

        
",131,lustig-d-singstund
395,comedy,Marie,F,cook,service_and_sales,,"
          
Mitnander.

          
Jetz isch's üs un nitt me dra,

          
Un hat das Stick eüch gfalle,

          
So thien ihr in d' Hànd recht schla,

          
So stark as Jeder ka.

        
",131,lustig-d-singstund
