,drama_type,speaker,sex,job,job_category,social_class,text,progress,short_name
0,comedy,Frau Marx,F,,,,"
        
 Marx: 

        
(allein, an der Mitteltüre horchend. Man hört zankende Stimmen)

        
Bon, diß isch wid’r e Leitskrambol, was mueß jetz do schun wid’r los sin?! Natierli — ich hab m’r’s doch glich gedenkt. — S’isch mini Fräu, wie mit ihrer Schweschter, mit'm Tant’l, Händel hett. — 
(Seufzt)
 Wenn äner än Fräu hett, ze reichts als for gewöhnli grad, wenn äner awer zwei um sich erum mueß han wie ich, brücht er nit ze säuje „Gott strof mi“, er isch g’stroft genue ! — 
(In befserer Laune)
 Jetzt, ’s Tantel diß erwe m’r emol oder au moins unsri King, un do kann m’r sich halt so e manches g’falle Ion. — ’s hett iwrigens Hitz koscht bis m’r so witt gewahn sin, ich hab alli Ränk und Schlich an muehn wende, um se vum Hierothe ab wendisch ze mache, Meh wi zeh Mol hawi se reujes gemacht, un wie, es isch als nit so licht gewahn. — Jetz isch d’Partie Gott sej Dank gewunne, sie isch iwwer'm Alter drüsse, sie isch e-n-alti Schachtel, un vom Hierothe kann kenn Redd meh sin.

      
",0,stoskopf-e-diplomat
1,comedy,Frau Marx,F,,,,"
        
Frau Marx: 

        
(kommt hastig in die Stube gestürmt)

        
Siehsch, ich hab noch allewyl gsäit, sie macht noch emol e Dummheit, s’ isch wäjer d’rwert, daß m’r sich so veel hett g’falle Ion um se !

      
",1,stoskopf-e-diplomat
2,comedy,Frau Marx,F,,,,"
        
Marx:

        
Ja, was Deifels isch denn do schun wid’r los?!

      
",2,stoskopf-e-diplomat
3,comedy,Frau Marx,F,,,,"
        
Frau Marx:

        
Was los isch?! — Diß Mensch isch verruckt, säuj i d'r, verruckt! — Hierothe wills! Hierothe !

      
",3,stoskopf-e-diplomat
4,comedy,Frau Marx,F,,,,"
        
Marx:

        
’s Tantel hierothe? — ’s Babette hierothe!

      
",4,stoskopf-e-diplomat
5,comedy,Frau Marx,F,,,,"
        
Frau Marx:

        
Ja, hierothe !

      
",5,stoskopf-e-diplomat
6,comedy,Frau Marx,F,,,,"
        
Marx:

        
Ich gläub, dü bisch maschokke, do möcht i awer äu d'rbie sin !

      
",6,stoskopf-e-diplomat
7,comedy,Frau Marx,F,,,,"
        
Frau Marx:

        
Ja, ewe grad im Läuf vun-ere Dischküssion hett se m’r's uff de Flade g’striche, un wie, morje hett se schun Verschriewung. Alles hett se diß Dür hinger ünserm Rücke gemacht, alles. Diß mol, hett se gsäit, macht se neemes meh röujies.

      
",7,stoskopf-e-diplomat
8,comedy,Frau Marx,F,,,,"
        
Marx:

        
Numme ruehig Bluet. — ’s Tantel hierothe?l Nee! — 
(schüttelt den Kopf und lacht)
 — loß mich numme mache, ’s wurd kenn Bruehj so heiß gesse wie se kocht wurd! —

      
",8,stoskopf-e-diplomat
9,comedy,Frau Marx,F,,,,"
        
Frau Marx:

        
Do isch neemes shuldi dran wie d’Ammej, die alt Stündlere, wie zue minere Schweschter allewyl säit, daß se-n-in kem chrischtliche Hüs Iebt. Do hesch’s jetzt! — Marx 
(schüttelt wiederholt den Kopf und lacht)
! So g'schwind scheese d’Preiße nit.

      
",9,stoskopf-e-diplomat
10,comedy,Frau Marx,F,,,,"
        
Frau Marx:

        
Ja, un weisch äu, wer’s isch ?

      
",10,stoskopf-e-diplomat
11,comedy,Frau Marx,F,,,,"
        
Marx:

        
Ja? — denne möcht i kenne, wie so e G’schmack hett 
(lacht)
,

      
",11,stoskopf-e-diplomat
12,comedy,Frau Marx,F,,,,"
        
Frau Marx:

        
’s Lutze Schlosser, d'r Stündler! Marx 
(lacht laut auf)
 : Was, der alt Bluttkopf denkt noch an’s Hierothe — Na, die täte jetzt zamme passe wie e Füscht uffe-n- Au 
(lacht)
. Diß gäb e Päärl! Denne Charivari möcht ich sehn.

      
",12,stoskopf-e-diplomat
13,comedy,Frau Marx,F,,,,"
        
Frau Marx :

        
(weinerlich)

        
Brüchsch äu noch ze lache, ’s isch ari genue ! Dü wäisch, daß wenn emol e-n-alti Schier Fier fangt, se nimmi ze lösche- n-isch.

      
",13,stoskopf-e-diplomat
14,comedy,Frau Marx,F,,,,"
        
Marx:

        
Loß mi numme mache, do wurd nix drüs: — Tiens, 
(am Fenster schauend)
 do kommt grad ’s Tantel, jetzt nit gemückst, Ioß mi mache un speel dini Roll guet, ich mach jetzt wie wenn i mit d'r Händel hätt! — 
(Babette herein; Babette ist eine alte Jungfer und steht komisch aus. Marx zu seiner Frau in heftigem Tone, wie wenn er im größten Zorn wäre)
 Ich hab d’r’s schun hundert Mol g'säit, diß Läwe hawi satt mit ejerm ewige rum un num Händle, ich will min Läwe in Fredde b’schließe un nit alle Daö de Derikekrej im Hüs han! — Dü muesch äu allewyl dini Schweschter chikaneere !

      
",14,stoskopf-e-diplomat
15,comedy,Frau Marx,F,,,,"
        
Frau Marx:

        
Nit emol von sim Mann wurd m’r meh souteneert, dü hesch noch allewyl minere Schweschter recht gen! 
(geht ab und tut dergleichen als würde sie weinen)
. Marx 
(zu Babette gewandt)
 : G’schwej, diß Ding kann un derf nimm so furt gehn! Früehjer wie i jünger gewahn bin, hett’s m’r wenjer gemacht, wenn er de ganze Daö mitander erumdeschpeteert han, awer jetzt, wie i älter wurr, möcht i mini Ruehj han, un do gitts numme-n-än Mittel, Babette, ihr muehn hierothe ! un for’s i frank erüs ze säuje, ich hab e famosi Partie in Üssicht, e junger Wittmann ohne King. Ere hett ejch g’sahn, un ihr täte sini Affär mache. Babette 
(affektiert: ’s isch ze spoot, ich bin verlobt, un im Äujieblick wurd miner Hochzitter kumme! Marx 
(tut sehr verwunden)
? Isch’s mögli? Was säujee-n-ihr do ? Tant mieux, mes félicitations schüttelt ihr kräftig die Hand)
, Am so besser, wenn’r selwer äine g’funge han. ’s isch allewyl besser m’r hieroth üs Leeb. Ich bin noch stets geje d’ verkuppelte Hochzitte gewahn, wo’s Vermeeje de Häuptüsschlag gän hett. — Kenn ich ejre Hochzitter wenigstens ? ? Babette 
(verlegen)
 : Ja — rothe-n-emol!

      
",15,stoskopf-e-diplomat
16,comedy,Frau Marx,F,,,,"
        
Marx:

        
Ja, was kann i do rothe, ich seh, daß'r recht verleebt sin. Diß isch Alles. Ich denk, wenn’r äner erüs g’suecht han, ze wurd’s e netter süferer Burscht sin, wie zue ejch paßt 
(Babette ist sehr erfreut und geberdet sich wie ein schüchternes junges Mädchen)
, Ich hab halwer Verdacht uff . . . 
(macht eine längere Pause, als wollte er die Antwort auf ihrem Gesichte ablesen)
 ’s Chrischte Marte.

      
",16,stoskopf-e-diplomat
17,comedy,Babette,F,,,,"
        
Babette :

        
(enttäuscht)

        
Jo, wie denke-n-ihr anne? — der isch veel ze jung, ich gläub ihr sin nit recht g'schied! —

      
",17,stoskopf-e-diplomat
18,comedy,Frau Marx,F,,,,"
        
Marx:

        
Was, säuje-n-ihr do, ze jung?! — Ja, sin ihr denn ebbe-n-alt?! Mit ejerm Vermeeje un ejerm Alter könnte-n-ihr noch e junger han, und for d' Wohrheit ze säuje, zett’r daß ich ejch kenn, sin’r wie m’r schient, un wenn er ejch nit e so altmodisch mutze täte un e bissl meh Toilette mache un ejch à la chien strähle täte wie's Üschenie, ze kennt m’r ejch for e Person so in de Üsgangs zwanzig nemme. Babette 
(geschmeichelt)
 : Il y a du vrai ! —

      
",18,stoskopf-e-diplomat
19,comedy,Frau Marx,F,,,,"
        
Marx:

        
Anderi sueche sich jinger ze mache, un Ihr mache-n-ejch mit Gewalt älter! — Mit dem allem weiß i jetzt als noch nit, wie ejer Hochzitter heitzt! 
(Babette zögert)
 alle-n-erüs mit d’r Sprooch! —

      
",19,stoskopf-e-diplomat
20,comedy,Babette,F,,,,"
        
Babette:

        
Et bien, daß 'r’s wisse, 's isch... 
(hält inne)
 jo, ich tröuj’s nit ze säuje — ’s isch — ’s isch s’Lutzze Schlosser! Marx 
(tut sehr verblüfft; schaut sie verwundert an und schlägt die Hände über dem Kopf zusammen)
; Wa . . . Was? — s’Lutze Schlosser, hör ich recht?! — Der hett jo e Bluttkopf! Was, Ihr nemme-n-äne mit'm e Bluttkopf ? Wenn’r noch wenigstens e Barreck hätt, daß’r nit zü alt for ejch üs thät sahn, un zue ejch passe thät! — D’rzue Schlosser, so e ruessigs Handwerik ! — Un no, fascht kenn Vermeeje un allewyl angethon, daß m’r'm e Sü möcht genn uff dr Stoß. Babette ! Babette ! Ihr mit ejerm scheene Vermeeje !! — Ihr mit ejerer Edükation — do hätt mini Partie besser for i ge- paßt — mais, d’Leeb hett emol sini appartigi Nübbe, un wenn m’r verleebt isch, isch m'r blind — Excusez- moi, ich hab meh g’säit, daß i hätt säuje selle ! —

      
",20,stoskopf-e-diplomat
21,comedy,Babette,F,,,,"
        
Babette:

        
Ho, von Leeb isch nit grad d’Redd ! Un for d' Wohrheit ze säuje, ich hab même lang nit ja welle säuje, awer d’Ammej üs’m Stünd’l hett m'r kenn Ruehj gelon.

      
",21,stoskopf-e-diplomat
22,comedy,Frau Marx,F,,,,"
        
Marx :

        
(für sich)

        
Die Canaille! 
(zu Babette)
 Ich ver- steh d’ Ammej ganz guet, wenn m’r's recht betracht, ze mache-n-r e guets Werik, wenn’r de Schlosser hie- rothe. Denn ’s isch e Misère gewahn ze sehn, wie'r verwahrlost erumgange-n-isch. — Uff alli Fäll derft'r m’r an ejrem Platz nemmi in sim ruessige Blüs un mit'm Glowe-n-im Mül erumläufe, wenn’r emol g'hieroth sin. Wenn äner e Chance hett, so e gueti Partie ze mache wie der, ze derf’r sich schun ebs g'fälle Ion, denn mit sim Vermeeje soll’s nit wytt here sin, so viel i weiß.

      
",22,stoskopf-e-diplomat
23,comedy,Babette,F,,,,"
        
Babette:

        
Diß hawi äu shun gedenkt. Kenn Ängschte, bie d'r nächste Geläjeheit wur i's’m säuje, wie’r sich ze verhalte hett, 
(Man hört Schritte von draußen)
 Babette an’s Fenster. Herrjeh, do kummt’r schun, der isch me- neidi pressiert. 
(Zu Marx)
 Säuje-n’m, er sell warte, ich kumm grad, ich will noch e bissl Toilette mache; 
(für sich)
 ’s isch wohr, min Schwöujer hett recht, ich bin noch nit so alt, un wenn i mi e bissl erüsstaffeer, ze seh i noch ganz jung üs, ich mueß im Schlosser e bissl ze verstehn gän, daß i noch jüngeri kennt han as er, un daß ich mich nit um ne riß 
(links ab)
, Marx 
(allein)
; Maintenant soyons malin! 
(es klopft)
 Entrez ! 
(Schlosser Lutz tritt herein in altmodischem Cylinder und Gehrock)
.

      
",23,stoskopf-e-diplomat
24,comedy,Lutz,M,locksmith,crafts,lower_middle_class,"
        
Lutz:

        
Nix for unguet, daß i kumm derangeere.

      
",24,stoskopf-e-diplomat
25,comedy,Frau Marx,F,,,,"
        
Marx:

        
Guete Daö, kinftiger Schwöujer ! 
(streckt ihm)

      
",25,stoskopf-e-diplomat
26,comedy,Lutz,M,locksmith,crafts,lower_middle_class,"
        
Lutz :

        
(verwundert)

        
So, ich hab eich e Nejigkeit welle bringe, un wie i seh, kenne-n-er se schun!

      
",26,stoskopf-e-diplomat
27,comedy,Frau Marx,F,,,,"
        
Marx :

        
(lacht)

        
 Diß hawi schun Iang gewißt, daß’s  e so kummt pfiffig verlicht vor ejch!

      
",27,stoskopf-e-diplomat
28,comedy,Lutz,M,locksmith,crafts,lower_middle_class,"
        
Lutz :

        
(sehr verwundert)

        
Oho!

      
",28,stoskopf-e-diplomat
29,comedy,Frau Marx,F,,,,"
        
Marx :

        
(pfiffig)

        
Schriewe-n-ejch diß hinger d’Ohre, e Metzjer weiß e jedi Küh, wie ze verkäufe-n-isch, un e jedi Partie, wie ing’fädelt wurd, 
(mysteriös)
 un b’sonders, wenn m’r selwer infädle hett helfe! —

      
",29,stoskopf-e-diplomat
30,comedy,Lutz,M,locksmith,crafts,lower_middle_class,"
        
Lutz :

        
(verwundert)

        
Was, Ihr! Ich versteh nit! —

      
",30,stoskopf-e-diplomat
31,comedy,Frau Marx,F,,,,"
        
Marx:

        
Ei jo, wie d’Sache jetzt so witt sin, ze kann i's jo g’stehn! —

      
",31,stoskopf-e-diplomat
32,comedy,Lutz,M,locksmith,crafts,lower_middle_class,"
        
Lutz:

        
Do kumm i jetzt nit drüs erüs — ejri G'schwej hett m’r doch allewyl g’säit, ihr derfe nix d'rvun wiffe, denn ihr thäte wid’r e Stecke-n-in’s Rad stecke! Marx 
(ganz vertraulich, nimmt den Schlosser unter den Arm)
; Allons voyons, löuje mich an ohne ze lache; ich e Stecke-n-in’s Rad stecke, wenn ich schon zetter zwei Johr min Möjlichst mach for se ze verschieße?! — Mäne denn ihr, daß 's e G’spaß isch, mit zwei Wiebslitt ze Iewe, wie sich de ganze Daö in de Hoore lejie! Ewe han m’r grad wid'r de Derikekrej im Hüs g'hett! — So e-n-alti Jungfer isch halt gar ze wun- derli, un mini Schuld isch’s weiß Gott nit, daß se noch nit g’hieroth isch, ich suech schon lang, wie g'sait, s’hett awer nimmi recht welle packe, s’hett kenner meh an welle bisse. s’ Tantel isch halt jetzt schun starik uff de Johre, un ’s isch bekannt, daß se s’Rejement im Hüs füehrt! Jetzt, diß weiß ich, do löuje-n-ihr nimm so druff, drum beni froh, daß ihr ejch uff denne Punkt verständigt han. Ihr passe grad zamme, ’s hätt sich nit besser treffe könne, ihr han e ruehige, guete Charakter, sin noochgäwig un sin ge- wohnt, e bissel unterm Pantoffel ze stehn vun ejere verstorwene Scweschter here. D’rno höre-n-er äu e bissl iwwel zue Zitte, so veel ich weiß. Diß isch äu vun Vorthäl, wenn se-n-ejch emol de Kawes eralest. Ich hab schun manchmol gewünscht, ich wär täub wie e Trompeterschimmel!

      
",32,stoskopf-e-diplomat
33,comedy,Lutz,M,locksmith,crafts,lower_middle_class,"
        
Lutz:

        
Oho, so täub bin i mit! — Ich hoer numme-n-iwel, wenn’s andersch Wetter gitt.

      
",33,stoskopf-e-diplomat
34,comedy,Frau Marx,F,,,,"
        
Marx:

        
Ich mach numme G’spaß, wie g’säit, ihr passe guet zamme, ihr hätte schwer e-n-andri g'funge un sie noch difffciler e-n-andre, un diß isch e famoser Grund, daß zwei enander nemme; alli Hierothe, mache sich so. — Hett nit d’vorig Woch d'r krumm Krämbeschängel d’scheel Nähjermej g’hieroth? jetzt mit ejch isch’s doch e-n-anderlei.

      
",34,stoskopf-e-diplomat
35,comedy,Lutz,M,locksmith,crafts,lower_middle_class,"
        
Lutz:

        
Wenn ihr mäne, daß ich schunsch kenn Partie meh hätt könne mache, ze trumpeere-n-ihr ejch nit letz. Ich hätt noch d'Wahl. Erscht vor kurzem isch m’r e Wittfräu ohne King anoffreert worre. Sie isch m’r awer ze jung gewahn.

      
",35,stoskopf-e-diplomat
36,comedy,Frau Marx,F,,,,"
        
Marx:

        
(lachend)

        
Diß kann m’r vum Tant’l nit säuje, die hett, was se brücht, jeßt diß schad nix, no hett se-n-äu de Schwooweverstand, un d’Häuptsach for ejch isch, ihr mache-n-e gueti Partie. Wenn ihri paar Haardtstickle äu nemmi veel werth sin un weni Zins ingträuje, so veel i weiß hann’r weni oder gar kenn Vermeeje. Lutz Öho, do könnte-n-r awer äu getrumpeert sin. So veel, wie ejri G’schwej wurr i äu noch han, un wenn m’r recht löuje wurd, ze wurd sie's sin, wie e gueti Partie macht. Ihr han’s jo ewe selmwer muehn säuje, daß ihri paar Haardtstickle nemmi veel werth sin.

      
",36,stoskopf-e-diplomat
37,comedy,Frau Marx,F,,,,"
        
Marx:

        
Tant mieux, tant mieux! Es sell mich fräje, daß d’Babette e gueti Partie macht, no brücht se doch nit de Rescht vun ihre Däj im Spital zue- bringe, denn mir hätte se um kenne Pris meh länger gebhalte, denn sie bekummt alle Daö meh Nübbe, in d'r leschte Zitt isch se sogar mit der Hoffahrt geblöujt, m’r sin ere alli nemmi guet genue angethon. — Was i säuje will, ich will e Sprung nab in de Keller, e Glas Wien hole, for uff ejeri G’sundheit anzestoße, denn de brücht m’r, wenn m’r g’hieroth isch, schunsch bringt äne d’r Zom um for d’r Zitt. — Mache's ejch zett’r bequem, Schwöujer 
(ab)
.

      
",37,stoskopf-e-diplomat
38,comedy,Lutz,M,locksmith,crafts,lower_middle_class,"
        
Lutz :

        
(den Kopf schüttelnd)

        
Schwöujer! . . . Ich weiß nit, die G’schicht will m’r numme noch iwer halwer g'falle, 
(Babette durch die Türe links kommmend, hat den Rat ihres Schwagers befolgt und hat versucht, sich jung zu machen; sie ist à la chien gekämmt und ist sehr affektiert.)
 Lutz Was Deifels, wie hesch denn dü dich ge- mutzt? 
(für sich)
 S'isch wid d’r Metzjer g’säit hett.

      
",38,stoskopf-e-diplomat
39,comedy,Babette,F,,,,"
        
Babette :

        
(ärgerih)

        
Gemutzt?! — Ich bin im e-n- Alter, wie m’r noch ebs uff sin Üsseres leije mueß. — 
(Lutz schüttelt verwundert den Kopf.)
 Ja, brüchsch gar nit so dumm ze löuje un ze lache! — Diß isch iwwerhäupt e-n-appartigi Maneer, sini Hochzittere so ze-n-empfange, un daß de glich wäisch, wenn m’r emol g’hieroth sin, no kummt d’Reih äu an dich, dü siehsch jo allewyl üs, daß m'r d’r e Sü möcht gän uff d’r Stroß. —

      
",39,stoskopf-e-diplomat
40,comedy,Lutz,M,locksmith,crafts,lower_middle_class,"
        
Lutz:

        
Oho! — Spar din Sprich! — 
(für sich)
 Jetzt geht m’r e Licht uff wie e Fackel, kenn Wunder, daß se d’r Metzjer Ios will sin.

      
",40,stoskopf-e-diplomat
41,comedy,Babette,F,,,,"
        
Babette:

        
Vor alle Sticke muesch emol e Kamifol statt e Blüs träuje in de Woche, un e Kräuje à la mode.

      
",41,stoskopf-e-diplomat
42,comedy,Lutz,M,locksmith,crafts,lower_middle_class,"
        
Lutz:

        
Schunsch nix?

      
",42,stoskopf-e-diplomat
43,comedy,Babette,F,,,,"
        
Babette:

        
Ja, schunsch nirx! — Doch, noch ebs, wie m’r in d’Stadt kumme, schaffsch d’r e Barrick an

      
",43,stoskopf-e-diplomat
44,comedy,Lutz,M,locksmith,crafts,lower_middle_class,"
        
Lutz :

        
(verwundert)

        
E Barrick — Ich gläub !? diß Mensch isch maschücke ! — Babette 
(weinerlich)
! Maschücke !? — Jetzt hör numme-n-än Mensch denne-n-an!

      
",44,stoskopf-e-diplomat
45,comedy,Lutz,M,locksmith,crafts,lower_middle_class,"
        
Lutz:

        
Ja, un daß de glich wäisch, e so komme- deere loß i mi doch nit vun d’r! 
(für sich)
 S'isch wajer, wie d’r Metzjer g’säit hett, ich bin noch nit g’hieroth.

      
",45,stoskopf-e-diplomat
46,comedy,Babette,F,,,,"
        
Babette:

        
Dü bisch meneidi kürios! —

      
",46,stoskopf-e-diplomat
47,comedy,Lutz,M,locksmith,crafts,lower_middle_class,"
        
Lutz:

        
Was, ich bin kürios?! — Nee, dü bisch kürios, wäifch e so wie dü gitts noch meh; mit dine paar Schelli un dine paar Haardtstickle, wie nix meh träuje, kannsch di nit an de Lade Ieije.

      
",47,stoskopf-e-diplomat
48,comedy,Babette,F,,,,"
        
Babette:

        
Ja, waje was nimmsch mi denn schunsch ?! — Mit mim Vermeeje, un so jung wie ich noch üffeh, kann ich noch alle Daö äne han, erscht hitt hett m’r min Schwöujer äne anoffreert un d’rzü e junger,

      
",48,stoskopf-e-diplomat
49,comedy,Lutz,M,locksmith,crafts,lower_middle_class,"
        
Lutz:

        
Was Wunders, diner Schwöujer möcht di zuem Hüs drüffe han, er hett m’r’s selwer g'säit, du reste, wenn dü Ieewer e junger hesch, so nimm denne junge, ich könnt äu noch e jungi han, daß de’ s grad wäisch!

      
",49,stoskopf-e-diplomat
50,comedy,Babette,F,,,,"
        
Babette:

        
Doch, die wott ich sahn, wie dich wott mit dim Bluttkopf.

      
",50,stoskopf-e-diplomat
51,comedy,Lutz,M,locksmith,crafts,lower_middle_class,"
        
Lutz :

        
(im Zorn)

        
Was, Bluttkopf?! — S'schient, daß d’r der Bluttkopf doch g’falle hett?! Wer hett denn z’erscht angfröuit, ich oder dü ? Wer isch d'r Ammej fascht s' Hüs inggeloffe?

      
",51,stoskopf-e-diplomat
52,comedy,Babette,F,,,,"
        
Babette:

        
Wer? — Dü !! —

      
",52,stoskopf-e-diplomat
53,comedy,Lutz,M,locksmith,crafts,lower_middle_class,"
        
Lutz :

        
Nee, diß Toupet ! — Ich hab lang genöuj nit gewellt, kannsch d’Ammej selwer fröuje.

      
",53,stoskopf-e-diplomat
54,comedy,Babette,F,,,,"
        
Babette:

        
Dü Lejier! — Ich hab nit gewellt, wenn d’Ammej nit gewahn wär, wie hett g’säit, ich mach e chrischtlichs Werik, wenn ich dich nimm, wie de so verwahrlost erumgehsch, ze hätt i mich wajer nit dessideert! Lutz 
(im größten zorn)
 Wie die alt' Schachtel d’Sache verdräje kann! Babette 
(sinkt Halb ohmmächtig in den Lehnstuhl)
 Was? Alti Schachtel, ich wurr ohnmächtig 
(ste trocknet sich ab mit dem Taschentuch)
 Schwöujer ! Schwöujer ! Wasser! Effi! Alti Schachtel hett'r m’r g’säit! Alti Schachtel!

      
",54,stoskopf-e-diplomat
55,comedy,Lutz,M,locksmith,crafts,lower_middle_class,"
        
Lutz :

        
(für sich)

        
Ich hab’ D’Ammej gemänt, awer ’s magıt äu nix, deschto besser! — Marx 
(von links kommend)
 : Um s’Himmelswille, was isch denn do los?

      
",55,stoskopf-e-diplomat
56,comedy,Babette,F,,,,"
        
Babette :

        
(richtet sich auf)

        
Alti Schachtel hett’r m’r g'säit ! — Schmisse ne nüs denne Gascht ! — Oh, ich wurr ohnmächtig 
(sinkt wieder in den Lehnstuhl zurück)
.

      
",56,stoskopf-e-diplomat
57,comedy,Frau Marx,F,,,,"
        
Marx :

        
(zu der Türe hinausrufend)

        
Fräu ! g’schwind Essi ! 
(Zu Lutz)
: Was isch do vorgange, jetzt bring i se gläuwi wid’r nit los, was m’r diß nit isch ! — Nemme se doch, ich will die Sach' wid’r arrangeere !

      
",57,stoskopf-e-diplomat
58,comedy,Lutz,M,locksmith,crafts,lower_middle_class,"
        
Lutz :

        
(langt schnell seinen Hut und läuft zur Türe hinten)

        
Nee, nee, um s’Himmelswille nee, b’halte-n-er se numme, ich will se um kenne Pries, d’Äuje sin m’r uffgange ! 
(Babette ist unterdessen wieder zu sich gekommen und hört den Schluß der Unter- haltung)
. E so e Gifthaafe? Nee, merci veelmol ! merci!

      
",58,stoskopf-e-diplomat
59,comedy,Babette,F,,,,"
        
Babette:

        
Was!? Gifthaafe ! Ah! 
(erneuter Oh: machtsanfall)
.

      
",59,stoskopf-e-diplomat
60,comedy,Lutz,M,locksmith,crafts,lower_middle_class,"
        
Lutz :

        
(für sich)

        
Jetzt isch Zytt, daß i d' Platt butz ! 
(Zu Marx)
: Adjeh, un nix for unguet! 
(schnell ab)
.

      
",60,stoskopf-e-diplomat
61,comedy,Frau Marx,F,,,,"
        
Frau Marx:

        
(von links kommend mit Essig)

        
O dü mein! O dü mein! Was isch denn g’schehn? 
(macht Babette den Effig schnupfen, dieselbe kommt zu sich)
.

      
",61,stoskopf-e-diplomat
62,comedy,Babette,F,,,,"
        
Babette:

        
Schachtel! Bifthaafe! 
(versteckt ihr Gesicht in den Händen)
. Der impertinent Mensch! 
(Zu Marx Schwöujer)
 gelte-n-ihr verzejhe m’r, was i gemacht hab? — Ich wil’s sicher nimmi thuen!

      
",62,stoskopf-e-diplomat
63,comedy,Frau Marx,F,,,,"
        
Marx:

        
Ja m’r verzejhe-n-i, un sin froh, daß’r die alt Schwardt nit bekumme han! Ich suech ejch jetzt e junger.

      
",63,stoskopf-e-diplomat
64,comedy,Babette,F,,,,"
        
Babette:

        
Nee! Nee! D’Männer sin alli kenn Bohn werth ! — Ich bin küreert, ich will kenne meh, um kenne Pries! — Gelte-n-ihr b’halte mi wid’r ?

      
",64,stoskopf-e-diplomat
65,comedy,Frau Marx,F,,,,"
        
Frau Marx:

        
Ja gewiß, dü derfsch wid’r bie uns bliewe!

      
",65,stoskopf-e-diplomat
66,comedy,Babette,F,,,,"
        
Babette:

        
Un tröschde-n-ejch jetzt, un vergesse de mankeert Hieroth!

        
Der Vorhang fällt

      
",66,stoskopf-e-diplomat
