2022-08-20 21:32:43 - valence lexicon length: 7864
2022-08-20 21:32:43 - Number of rows: 122
2022-08-20 21:32:43 - dominance lexicon length: 7864
2022-08-20 21:32:43 - Number of rows: 122
2022-08-20 21:32:43 - arousal lexicon length: 7864
2022-08-20 21:32:43 - Number of rows: 122
2022-08-20 21:32:43 - anger lexicon length: 7864
2022-08-20 21:32:43 - Number of rows: 122
2022-08-20 21:32:44 - anticipation lexicon length: 7864
2022-08-20 21:32:44 - Number of rows: 122
2022-08-20 21:32:44 - disgust lexicon length: 7864
2022-08-20 21:32:44 - Number of rows: 122
2022-08-20 21:32:44 - fear lexicon length: 7864
2022-08-20 21:32:44 - Number of rows: 122
2022-08-20 21:32:44 - joy lexicon length: 7864
2022-08-20 21:32:44 - Number of rows: 122
2022-08-20 21:32:45 - sadness lexicon length: 7864
2022-08-20 21:32:45 - Number of rows: 122
2022-08-20 21:32:45 - surprise lexicon length: 7864
2022-08-20 21:32:45 - Number of rows: 122
2022-08-20 21:32:45 - trust lexicon length: 7864
2022-08-20 21:32:45 - Number of rows: 122
2022-08-24 17:01:48 - valence lexicon length: 7864
2022-08-24 17:01:48 - Number of rows: 122
2022-08-24 17:01:49 - dominance lexicon length: 7864
2022-08-24 17:01:49 - Number of rows: 122
2022-08-24 17:01:49 - arousal lexicon length: 7864
2022-08-24 17:01:49 - Number of rows: 122
2022-08-24 17:01:49 - anger lexicon length: 7864
2022-08-24 17:01:49 - Number of rows: 122
2022-08-24 17:01:49 - anticipation lexicon length: 7864
2022-08-24 17:01:49 - Number of rows: 122
2022-08-24 17:01:49 - disgust lexicon length: 7864
2022-08-24 17:01:49 - Number of rows: 122
2022-08-24 17:01:49 - fear lexicon length: 7864
2022-08-24 17:01:49 - Number of rows: 122
2022-08-24 17:01:50 - joy lexicon length: 7864
2022-08-24 17:01:50 - Number of rows: 122
2022-08-24 17:01:50 - sadness lexicon length: 7864
2022-08-24 17:01:50 - Number of rows: 122
2022-08-24 17:01:50 - surprise lexicon length: 7864
2022-08-24 17:01:50 - Number of rows: 122
2022-08-24 17:01:50 - trust lexicon length: 7864
2022-08-24 17:01:50 - Number of rows: 122
