2022-08-20 21:54:24 - valence lexicon length: 7864
2022-08-20 21:54:24 - Number of rows: 381
2022-08-20 21:54:25 - dominance lexicon length: 7864
2022-08-20 21:54:25 - Number of rows: 381
2022-08-20 21:54:26 - arousal lexicon length: 7864
2022-08-20 21:54:26 - Number of rows: 381
2022-08-20 21:54:27 - anger lexicon length: 7864
2022-08-20 21:54:27 - Number of rows: 381
2022-08-20 21:54:28 - anticipation lexicon length: 7864
2022-08-20 21:54:28 - Number of rows: 381
2022-08-20 21:54:29 - disgust lexicon length: 7864
2022-08-20 21:54:29 - Number of rows: 381
2022-08-20 21:54:30 - fear lexicon length: 7864
2022-08-20 21:54:30 - Number of rows: 381
2022-08-20 21:54:31 - joy lexicon length: 7864
2022-08-20 21:54:31 - Number of rows: 381
2022-08-20 21:54:32 - sadness lexicon length: 7864
2022-08-20 21:54:32 - Number of rows: 381
2022-08-20 21:54:32 - surprise lexicon length: 7864
2022-08-20 21:54:32 - Number of rows: 381
2022-08-20 21:54:33 - trust lexicon length: 7864
2022-08-20 21:54:33 - Number of rows: 381
2022-08-24 17:12:23 - valence lexicon length: 7864
2022-08-24 17:12:23 - Number of rows: 381
2022-08-24 17:12:24 - dominance lexicon length: 7864
2022-08-24 17:12:24 - Number of rows: 381
2022-08-24 17:12:25 - arousal lexicon length: 7864
2022-08-24 17:12:25 - Number of rows: 381
2022-08-24 17:12:26 - anger lexicon length: 7864
2022-08-24 17:12:26 - Number of rows: 381
2022-08-24 17:12:27 - anticipation lexicon length: 7864
2022-08-24 17:12:27 - Number of rows: 381
2022-08-24 17:12:28 - disgust lexicon length: 7864
2022-08-24 17:12:28 - Number of rows: 381
2022-08-24 17:12:29 - fear lexicon length: 7864
2022-08-24 17:12:29 - Number of rows: 381
2022-08-24 17:12:30 - joy lexicon length: 7864
2022-08-24 17:12:30 - Number of rows: 381
2022-08-24 17:12:30 - sadness lexicon length: 7864
2022-08-24 17:12:30 - Number of rows: 381
2022-08-24 17:12:31 - surprise lexicon length: 7864
2022-08-24 17:12:31 - Number of rows: 381
2022-08-24 17:12:32 - trust lexicon length: 7864
2022-08-24 17:12:32 - Number of rows: 381
